[
    "CalculationMatrix/AgencyBaseCommissions",
    "DataRaptor/R1_UpdateInsPolicyCommissions",
    "DataRaptor/getQuoteAgencyCommissionInfo",
    "DataRaptor/getSpecialCommissionInfo",
    "DataRaptor/updatePolicyCommissionsSpl"
]