{
    "%vlocity_namespace%__Author__c": "Vlocity",
    "%vlocity_namespace%__CardType__c": "",
    "%vlocity_namespace%__Datasource__c": "",
    "%vlocity_namespace%__Definition__c": "Interaction-Claim-Story.json",
    "%vlocity_namespace%__Description__c": "",
    "%vlocity_namespace%__GlobalKey__c": "Interaction Claim Story/Vlocity/1506985291520",
    "%vlocity_namespace%__IsChildCard__c": false,
    "%vlocity_namespace%__ParentID__c": "",
    "%vlocity_namespace%__SampleData__c": "",
    "%vlocity_namespace%__Styles__c": "",
    "%vlocity_namespace%__Type__c": "",
    "%vlocity_namespace%__Version__c": "",
    "Name": "Interaction Claim Story",
    "VlocityDataPackType": "SObject",
    "VlocityRecordSObjectType": "%vlocity_namespace%__VlocityCard__c",
    "VlocityRecordSourceKey": "%vlocity_namespace%__VlocityCard__c/Interaction Claim Story",
    "sourceOrgUrl": "/a7n4W0000007IicQAE"
}