{
    "%vlocity_namespace%__ApprovedBy__c": "",
    "%vlocity_namespace%__ApprovedOn__c": "",
    "%vlocity_namespace%__AttributeAssignment__c": "Community-Association-If-Any_AttributeAssignments.json",
    "%vlocity_namespace%__AttributeDefaultValues__c": {
        "1099ExcltoHOA": false,
        "1099Hire": false,
        "PEO": false,
        "WCL": false,
        "descOfOperations": "Residential Condominium Association",
        "directEmployees": false,
        "evidenceOfInsurance": false,
        "injuryOnsite": false,
        "mgmtContract": false,
        "nonProfit": false,
        "numOfUnits": "",
        "reserveStudy": false,
        "speciallActivities": false,
        "state": "AK",
        "vacancyRate": null
    },
    "%vlocity_namespace%__AttributeMetadata__c": {
        "records": [
            {
                "Code__c": "CA",
                "Name": "Community Association",
                "displaySequence": 1,
                "productAttributes": {
                    "records": [
                        {
                            "cloneable": true,
                            "code": "state",
                            "dataType": "text",
                            "disabled": false,
                            "displaySequence": 0,
                            "filterable": true,
                            "hasRules": false,
                            "hidden": false,
                            "inputType": "dropdown",
                            "isNotTranslatable": false,
                            "label": "State",
                            "multiselect": false,
                            "readonly": false,
                            "required": false,
                            "userValues": null,
                            "values": [
                                {
                                    "disabled": false,
                                    "id": "0",
                                    "label": "AK",
                                    "readonly": false,
                                    "value": "AK"
                                },
                                {
                                    "disabled": false,
                                    "id": "1",
                                    "label": "AR",
                                    "readonly": false,
                                    "value": "AR"
                                },
                                {
                                    "disabled": false,
                                    "id": "2",
                                    "label": "AL",
                                    "readonly": false,
                                    "value": "AL"
                                },
                                {
                                    "disabled": false,
                                    "id": "3",
                                    "label": "AZ",
                                    "readonly": false,
                                    "value": "AZ"
                                }
                            ]
                        },
                        {
                            "cloneable": true,
                            "code": "descOfOperations",
                            "dataType": "text",
                            "disabled": false,
                            "displaySequence": 1,
                            "filterable": true,
                            "hasRules": false,
                            "hidden": false,
                            "inputType": "dropdown",
                            "isNotTranslatable": false,
                            "label": "Description of Operations",
                            "multiselect": false,
                            "readonly": false,
                            "required": false,
                            "userValues": null,
                            "values": [
                                {
                                    "disabled": false,
                                    "id": "0",
                                    "label": "Residential Condominium Association",
                                    "readonly": false,
                                    "value": "Residential Condominium Association"
                                },
                                {
                                    "disabled": false,
                                    "id": "1",
                                    "label": "Attached PUD (Townhome Association)",
                                    "readonly": false,
                                    "value": "Attached PUD (Townhome Association)"
                                },
                                {
                                    "disabled": false,
                                    "id": "2",
                                    "label": "Detached PUD (Single Family Home Association)",
                                    "readonly": false,
                                    "value": "Detached PUD (Single Family Home Association)"
                                },
                                {
                                    "disabled": false,
                                    "id": "3",
                                    "label": "Commercial PUD",
                                    "readonly": false,
                                    "value": "Commercial PUD"
                                },
                                {
                                    "disabled": false,
                                    "id": "4",
                                    "label": "Commercial Condominium Association",
                                    "readonly": false,
                                    "value": "Commercial Condominium Association"
                                },
                                {
                                    "disabled": false,
                                    "id": "5",
                                    "label": "Mixed Use Association (Commercial and Residential)",
                                    "readonly": false,
                                    "value": "Mixed Use Association (Commercial and Residential)"
                                },
                                {
                                    "disabled": false,
                                    "id": "6",
                                    "label": "Mixed Townhomes and Single-Family Dwellings",
                                    "readonly": false,
                                    "value": "Mixed Townhomes and Single-Family Dwellings"
                                },
                                {
                                    "disabled": false,
                                    "id": "7",
                                    "label": "Cooperatives",
                                    "readonly": false,
                                    "value": "Cooperatives"
                                },
                                {
                                    "disabled": false,
                                    "id": "8",
                                    "label": "Mixed Condo and Single-Family Dwellings",
                                    "readonly": false,
                                    "value": "Mixed Condo and Single-Family Dwellings"
                                },
                                {
                                    "disabled": false,
                                    "id": "9",
                                    "label": "Other (LMA, MA, etc.)",
                                    "readonly": false,
                                    "value": "Other (LMA, MA, etc.)"
                                }
                            ]
                        },
                        {
                            "cloneable": true,
                            "code": "numOfUnits",
                            "dataType": "number",
                            "disabled": true,
                            "displaySequence": 2,
                            "filterable": true,
                            "hasRules": false,
                            "hidden": false,
                            "inputType": "number",
                            "isNotTranslatable": false,
                            "label": "Number of Units",
                            "multiselect": false,
                            "readonly": true,
                            "required": false,
                            "userValues": null,
                            "values": [
                                {
                                    "disabled": true,
                                    "readonly": true
                                }
                            ]
                        },
                        {
                            "cloneable": true,
                            "code": "vacancyRate",
                            "dataType": "percentage",
                            "disabled": true,
                            "displaySequence": 3,
                            "filterable": true,
                            "hasRules": false,
                            "hidden": false,
                            "inputType": "number",
                            "isNotTranslatable": false,
                            "label": "Vacancy Rate",
                            "multiselect": false,
                            "readonly": true,
                            "required": false,
                            "userValues": null,
                            "values": [
                                {
                                    "disabled": true,
                                    "readonly": true
                                }
                            ]
                        },
                        {
                            "cloneable": true,
                            "code": "directEmployees",
                            "dataType": "text",
                            "disabled": true,
                            "displaySequence": 4,
                            "filterable": true,
                            "hasRules": false,
                            "hidden": false,
                            "inputType": "checkbox",
                            "isNotTranslatable": false,
                            "label": "Direct Employees",
                            "multiselect": false,
                            "readonly": true,
                            "required": false,
                            "userValues": null,
                            "values": [
                                {
                                    "disabled": true,
                                    "readonly": true
                                }
                            ]
                        },
                        {
                            "cloneable": true,
                            "code": "PEO",
                            "dataType": "text",
                            "disabled": true,
                            "displaySequence": 5,
                            "filterable": true,
                            "hasRules": false,
                            "hidden": false,
                            "inputType": "checkbox",
                            "isNotTranslatable": false,
                            "label": "Professional Employer Organization",
                            "multiselect": false,
                            "readonly": true,
                            "required": false,
                            "userValues": null,
                            "values": [
                                {
                                    "disabled": true,
                                    "readonly": true
                                }
                            ]
                        },
                        {
                            "cloneable": true,
                            "code": "WCL",
                            "dataType": "text",
                            "disabled": true,
                            "displaySequence": 6,
                            "filterable": true,
                            "hasRules": false,
                            "hidden": false,
                            "inputType": "checkbox",
                            "isNotTranslatable": false,
                            "label": "Workers Comp Loss",
                            "multiselect": false,
                            "readonly": true,
                            "required": false,
                            "userValues": null,
                            "values": [
                                {
                                    "disabled": true,
                                    "readonly": true
                                }
                            ]
                        },
                        {
                            "cloneable": true,
                            "code": "injuryOnsite",
                            "dataType": "text",
                            "disabled": true,
                            "displaySequence": 7,
                            "filterable": true,
                            "hasRules": false,
                            "hidden": false,
                            "inputType": "checkbox",
                            "isNotTranslatable": false,
                            "label": "Injury Onsite",
                            "multiselect": false,
                            "readonly": true,
                            "required": false,
                            "userValues": null,
                            "values": [
                                {
                                    "disabled": true,
                                    "readonly": true
                                }
                            ]
                        },
                        {
                            "cloneable": true,
                            "code": "mgmtContract",
                            "dataType": "text",
                            "disabled": true,
                            "displaySequence": 8,
                            "filterable": true,
                            "hasRules": false,
                            "hidden": false,
                            "inputType": "checkbox",
                            "isNotTranslatable": false,
                            "label": "Management Contract",
                            "multiselect": false,
                            "readonly": true,
                            "required": false,
                            "userValues": null,
                            "values": [
                                {
                                    "disabled": true,
                                    "readonly": true
                                }
                            ]
                        },
                        {
                            "cloneable": true,
                            "code": "reserveStudy",
                            "dataType": "text",
                            "disabled": true,
                            "displaySequence": 9,
                            "filterable": true,
                            "hasRules": false,
                            "hidden": false,
                            "inputType": "checkbox",
                            "isNotTranslatable": false,
                            "label": "Reserve Study",
                            "multiselect": false,
                            "readonly": true,
                            "required": false,
                            "userValues": null,
                            "values": [
                                {
                                    "disabled": true,
                                    "readonly": true
                                }
                            ]
                        },
                        {
                            "cloneable": true,
                            "code": "1099Hire",
                            "dataType": "text",
                            "disabled": true,
                            "displaySequence": 10,
                            "filterable": true,
                            "hasRules": false,
                            "hidden": false,
                            "inputType": "checkbox",
                            "isNotTranslatable": false,
                            "label": "1099 Hire",
                            "multiselect": false,
                            "readonly": true,
                            "required": false,
                            "userValues": null,
                            "values": [
                                {
                                    "disabled": true,
                                    "readonly": true
                                }
                            ]
                        },
                        {
                            "cloneable": true,
                            "code": "evidenceOfInsurance",
                            "dataType": "text",
                            "disabled": true,
                            "displaySequence": 11,
                            "filterable": true,
                            "hasRules": false,
                            "hidden": false,
                            "inputType": "checkbox",
                            "isNotTranslatable": false,
                            "label": "Evidence of Insurance",
                            "multiselect": false,
                            "readonly": true,
                            "required": false,
                            "userValues": null,
                            "values": [
                                {
                                    "disabled": true,
                                    "readonly": true
                                }
                            ]
                        },
                        {
                            "cloneable": true,
                            "code": "speciallActivities",
                            "dataType": "text",
                            "disabled": true,
                            "displaySequence": 12,
                            "filterable": true,
                            "hasRules": false,
                            "hidden": false,
                            "inputType": "checkbox",
                            "isNotTranslatable": false,
                            "label": "Special Activities",
                            "multiselect": false,
                            "readonly": true,
                            "required": false,
                            "userValues": null,
                            "values": [
                                {
                                    "disabled": true,
                                    "readonly": true
                                }
                            ]
                        },
                        {
                            "cloneable": true,
                            "code": "1099ExcltoHOA",
                            "dataType": "text",
                            "disabled": true,
                            "displaySequence": 13,
                            "filterable": true,
                            "hasRules": false,
                            "hidden": false,
                            "inputType": "checkbox",
                            "isNotTranslatable": false,
                            "label": "1099 Exclusive to HOA",
                            "multiselect": false,
                            "readonly": true,
                            "required": false,
                            "userValues": null,
                            "values": [
                                {
                                    "disabled": true,
                                    "readonly": true
                                }
                            ]
                        },
                        {
                            "cloneable": true,
                            "code": "nonProfit",
                            "dataType": "text",
                            "disabled": true,
                            "displaySequence": 14,
                            "filterable": true,
                            "hasRules": false,
                            "hidden": false,
                            "inputType": "checkbox",
                            "isNotTranslatable": false,
                            "label": "Non Profit",
                            "multiselect": false,
                            "readonly": true,
                            "required": false,
                            "userValues": null,
                            "values": [
                                {
                                    "disabled": true,
                                    "readonly": true
                                }
                            ]
                        }
                    ],
                    "totalSize": 15
                }
            }
        ],
        "totalSize": 1
    },
    "%vlocity_namespace%__AttributeRules__c": "{}",
    "%vlocity_namespace%__Availability__c": "",
    "%vlocity_namespace%__CarrierId__c": "",
    "%vlocity_namespace%__ChangeDetectorImplementation__c": "",
    "%vlocity_namespace%__ClassId__c": "",
    "%vlocity_namespace%__CoverageCalculationFormula__c": "",
    "%vlocity_namespace%__DefaultImageId__c": "",
    "%vlocity_namespace%__EffectiveDate__c": "2020-01-01",
    "%vlocity_namespace%__EligibilityCriteriaComments__c": "",
    "%vlocity_namespace%__EligibilityCriteria__c": "",
    "%vlocity_namespace%__EndDate__c": "",
    "%vlocity_namespace%__EndOfLifeDate__c": "",
    "%vlocity_namespace%__EnrollmentStatus__c": "",
    "%vlocity_namespace%__FormularyId__c": "",
    "%vlocity_namespace%__FulfilmentStartDate__c": "2020-01-01T08:00:00.000Z",
    "%vlocity_namespace%__GlobalGroupKey__c": "f2e29b47-aec0-8981-d360-96e30bbee098",
    "%vlocity_namespace%__GlobalKey__c": "461b2668-6fc2-2d2d-f524-fcb4caffc898",
    "%vlocity_namespace%__HasCustomAttributesProcess__c": false,
    "%vlocity_namespace%__HeaderData__c": "",
    "%vlocity_namespace%__HelpText__c": "",
    "%vlocity_namespace%__InstanceKeyFormula__c": "",
    "%vlocity_namespace%__IsConfigurable__c": true,
    "%vlocity_namespace%__IsLocationDependent__c": false,
    "%vlocity_namespace%__IsNotAssetizable__c": false,
    "%vlocity_namespace%__IsOrderable__c": true,
    "%vlocity_namespace%__IsRecommended__c": false,
    "%vlocity_namespace%__LastPublishDate__c": "",
    "%vlocity_namespace%__LastSimulationInput__c": "",
    "%vlocity_namespace%__LifecycleStatus__c": "",
    "%vlocity_namespace%__LineOfBusiness__c": "Property & Casualty",
    "%vlocity_namespace%__MarketSegment__c": "",
    "%vlocity_namespace%__ObjectTypeId__c": "",
    "%vlocity_namespace%__ParentClassId__c": "",
    "%vlocity_namespace%__PricingFormula__c": "",
    "%vlocity_namespace%__PricingSource__c": "",
    "%vlocity_namespace%__ProductSpecId__c": "",
    "%vlocity_namespace%__ProductTemplateId__c": "",
    "%vlocity_namespace%__ProductTemplateProductId__c": "",
    "%vlocity_namespace%__ProviderNetworkId__c": "",
    "%vlocity_namespace%__RateBandId__c": "",
    "%vlocity_namespace%__RatingCalcProcedureName__c": "",
    "%vlocity_namespace%__RatingProcedureType__c": "",
    "%vlocity_namespace%__RecordTypeName__c": "InsuredItemSpec",
    "%vlocity_namespace%__ReplacementProductId__c": "",
    "%vlocity_namespace%__ReserveProcessingMode__c": "CoverageReserve",
    "%vlocity_namespace%__Scope__c": "Order Item",
    "%vlocity_namespace%__SellingEndDate__c": "",
    "%vlocity_namespace%__SellingStartDate__c": "2020-01-01T08:00:00.000Z",
    "%vlocity_namespace%__SpecificationSubType__c": "",
    "%vlocity_namespace%__SpecificationType__c": "",
    "%vlocity_namespace%__StandardPremium__c": "",
    "%vlocity_namespace%__Status__c": "Active",
    "%vlocity_namespace%__SubType__c": "",
    "%vlocity_namespace%__Term__c": "Annual",
    "%vlocity_namespace%__Tier__c": "",
    "%vlocity_namespace%__TimeToLive__c": "",
    "%vlocity_namespace%__TotalCoverageCalculationFormula__c": "",
    "%vlocity_namespace%__TotalInsuredFormula__c": "",
    "%vlocity_namespace%__TrackAsAgreement__c": false,
    "%vlocity_namespace%__Type__c": "Business",
    "%vlocity_namespace%__VersionEndDateTime__c": "",
    "%vlocity_namespace%__VersionLabel__c": "",
    "%vlocity_namespace%__VersionStartDateTime__c": "",
    "CanUseQuantitySchedule": false,
    "CanUseRevenueSchedule": false,
    "Description": "",
    "DisplayUrl": "",
    "ExternalDataSourceId": "",
    "ExternalId": "",
    "Family": "",
    "IsActive": true,
    "IsArchived": false,
    "Name": "Community Association If Any",
    "NumberOfQuantityInstallments": "",
    "NumberOfRevenueInstallments": "",
    "PricebookEntry": "Community-Association-If-Any_PricebookEntries.json",
    "ProductCode": "CAWCIA",
    "QuantityInstallmentPeriod": "",
    "QuantityScheduleType": "",
    "QuantityUnitOfMeasure": "",
    "RecordTypeId": {
        "DeveloperName": "InsuredItemSpec",
        "SobjectType": "Product2",
        "VlocityDataPackType": "VlocityLookupMatchingKeyObject",
        "VlocityLookupRecordSourceKey": "RecordType/Product2/InsuredItemSpec",
        "VlocityRecordSObjectType": "RecordType"
    },
    "RevenueInstallmentPeriod": "",
    "RevenueScheduleType": "",
    "StandardPricebookEntry": [
        {
            "%vlocity_namespace%__FloorPrice__c": "",
            "%vlocity_namespace%__OverageCharge__c": "",
            "%vlocity_namespace%__OverageUOM__c": "",
            "%vlocity_namespace%__RecurringPrice__c": "",
            "%vlocity_namespace%__RecurringUOM__c": "Monthly",
            "IsActive": true,
            "IsArchived": false,
            "Name": "Community Association If Any",
            "Pricebook2.Name": "Standard Price Book",
            "Pricebook2Id": {
                "Name": "Standard Price Book",
                "VlocityDataPackType": "VlocityLookupMatchingKeyObject",
                "VlocityLookupRecordSourceKey": "Pricebook2/Standard Price Book",
                "VlocityRecordSObjectType": "Pricebook2"
            },
            "Product2.%vlocity_namespace%__GlobalKey__c": "461b2668-6fc2-2d2d-f524-fcb4caffc898",
            "Product2Id": {
                "%vlocity_namespace%__GlobalKey__c": "461b2668-6fc2-2d2d-f524-fcb4caffc898",
                "VlocityDataPackType": "VlocityMatchingKeyObject",
                "VlocityMatchingRecordSourceKey": "Product2/461b2668-6fc2-2d2d-f524-fcb4caffc898",
                "VlocityRecordSObjectType": "Product2"
            },
            "ProductCode": "CAWCIA",
            "UnitPrice": 1,
            "UseStandardPrice": false,
            "VlocityDataPackType": "SObject",
            "VlocityRecordSObjectType": "PricebookEntry",
            "VlocityRecordSourceKey": "PricebookEntry/Pricebook2/Standard Price Book/Product2/461b2668-6fc2-2d2d-f524-fcb4caffc898"
        }
    ],
    "StockKeepingUnit": "",
    "VlocityDataPackType": "SObject",
    "VlocityRecordSObjectType": "Product2",
    "VlocityRecordSourceKey": "Product2/461b2668-6fc2-2d2d-f524-fcb4caffc898",
    "sourceOrgUrl": "/01t3K0000013SILQA2"
}