{
    "%vlocity_namespace%__Active__c": true,
    "%vlocity_namespace%__OmniScriptId__c": {
        "Name": "CAIS_CreateAccOptyQuote",
        "VlocityDataPackType": "VlocityMatchingKeyObject",
        "VlocityMatchingRecordSourceKey": "%vlocity_namespace%__OmniScript__c/CAIS/CreateAccOptyQuote/Procedure",
        "VlocityRecordSObjectType": "%vlocity_namespace%__OmniScript__c"
    },
    "%vlocity_namespace%__PropertySet__c": {
        "actionMessage": "",
        "additionalOutput": {
        },
        "chainOnStep": false,
        "defaultMatrixResult": {
        },
        "disOnTplt": false,
        "executionConditionalFormula": "",
        "failOnStepError": true,
        "failureConditionalFormula": "",
        "failureResponse": {
        },
        "label": "MatrixAction2",
        "matrix Input Parameters": [
            {
                "name": "InsuredDetails:CommunityAssociation:LocationAddress-Block:LocationState",
                "value": "State"
            }
        ],
        "remoteOptions": {
            "matrixName": "StateCarrierFinder"
        },
        "responseJSONNode": "StateCarrierFinder",
        "responseJSONPath": "",
        "returnOnlyAdditionalOutput": false,
        "returnOnlyFailureResponse": false,
        "sendJSONNode": "",
        "sendJSONPath": "",
        "show": null,
        "useFormulas": true
    },
    "%vlocity_namespace%__ReusableOmniScript__c": false,
    "%vlocity_namespace%__Type__c": "Matrix Action",
    "Name": "stateCarrierFinder",
    "VlocityDataPackType": "SObject",
    "VlocityRecordSObjectType": "%vlocity_namespace%__Element__c",
    "VlocityRecordSourceKey": "%vlocity_namespace%__Element__c/%vlocity_namespace%__OmniScript__c/CAIS/CreateAccOptyQuote/Procedure/stateCarrierFinder"
}