{
    "AASFirst_Name": "Arthur",
    "AASLast_Name": "Curry",
    "AASemail": "avinash.kudupudi@certadux.com",
    "AASfax": "0119962346",
    "AASmob": "8353953998",
    "AASphone": "8888334158",
    "Agency_DBA": "CAISlive",
    "Agency_NPN": "8685688",
    "Agency_Name": "Community Association Insurance Solutions LLC",
    "EOExpirationDate": "2021-10-29",
    "FEIN_SSN": "23-4451634",
    "InsurecommunityCount": 25,
    "LocAddress1": "5045 Robert J Mathews Pkwy",
    "LocAddress2": "Suite 100",
    "LocCity": "El Dorado Hills",
    "Locstate": "CA",
    "Loczip": "95762",
    "MailAddress1": "5045 Robert J Mathews Pkwy",
    "MailAddress2": "Suite 100",
    "MailCity": "El Dorado Hills",
    "Mailstate": "CA",
    "Mailzip": "95762",
    "Ownerchanged": true,
    "PCFirst_Name": "Arthur",
    "PCLast_Name": "Curry",
    "PCemail": "avinash.kudupudi@certadux.com",
    "PCfax": "0119962346",
    "PCmob": "8353953998",
    "PCphone": "8888334158",
    "StateInsuranceLicense": "NY: PC-1109134;OK: 100183946",
    "TaxIdType": "FEIN",
    "User_First_Name": "Kishan",
    "User_Last_Name": "Ramineni",
    "User_email": "kishan.ramineni@certadux.com",
    "captiveAgency": true,
    "contactFax": "3239998999",
    "contactPhone": "888-833-4158",
    "crimeBondExpirydate": "2021-12-16",
    "currentOwnerEstYear": "1999",
    "howdidYouHear": "Magazine",
    "insProductsAgencyNeeds": "Crime (Employee Dishonesty);Planned Unit Development (PUD) (Property & Liability);Umbrella",
    "irs_Type": "Limited liability Company",
    "llc_Tax_classicification": "P=Partnership",
    "otherBusinessInterest": "Stimulate growth, gaining competitive advantages",
    "ownnedByOtherBussiness": true,
    "previousMergeAcquired": "CAISLife, CAISFirst Healthcare,",
    "totalComPr": 500000,
    "totalNoOfStaff": 150,
    "totalWrittenPremium": 850000,
    "website": "https://www.caislive.com/",
    "wholesalerAggCluster": true
}