[
    {
        "%vlocity_namespace%__DomainObjectAPIName__c": "json",
        "%vlocity_namespace%__DomainObjectCreationOrder__c": 0,
        "%vlocity_namespace%__DomainObjectFieldAPIName__c": "quote",
        "%vlocity_namespace%__FilterGroup__c": 0,
        "%vlocity_namespace%__FilterOperator__c": "=",
        "%vlocity_namespace%__FilterValue__c": "Id",
        "%vlocity_namespace%__InterfaceFieldAPIName__c": "Id",
        "%vlocity_namespace%__InterfaceObjectLookupOrder__c": 1,
        "%vlocity_namespace%__InterfaceObjectName__c": "Quote",
        "%vlocity_namespace%__IsDisabled__c": false,
        "%vlocity_namespace%__IsRequiredForUpsert__c": false,
        "%vlocity_namespace%__MapId__c": "CAIS_ExtractWCPayPrintPacketProposalCustoma3F6C000002Sf1UUASItem2",
        "%vlocity_namespace%__UpsertKey__c": false,
        "Name": "CAIS_ExtractWCPayPrintPacketProposal",
        "VlocityDataPackType": "SObject",
        "VlocityRecordSObjectType": "%vlocity_namespace%__DRMapItem__c"
    },
    {
        "%vlocity_namespace%__DomainObjectAPIName__c": "Formula",
        "%vlocity_namespace%__DomainObjectCreationOrder__c": 0,
        "%vlocity_namespace%__DomainObjectFieldAPIName__c": "Formula",
        "%vlocity_namespace%__FormulaOrder__c": 1,
        "%vlocity_namespace%__FormulaResultPath__c": "quoteJSON",
        "%vlocity_namespace%__Formula__c": "DESERIALIZE(%quote:QuoteJson__c%)",
        "%vlocity_namespace%__IsDisabled__c": false,
        "%vlocity_namespace%__IsRequiredForUpsert__c": false,
        "%vlocity_namespace%__MapId__c": "CAIS_ExtractWCPayPrintPacketProposalCustoma3F6C000002Sf1UUASItem0",
        "%vlocity_namespace%__UpsertKey__c": false,
        "Name": "CAIS_ExtractWCPayPrintPacketProposal",
        "VlocityDataPackType": "SObject",
        "VlocityRecordSObjectType": "%vlocity_namespace%__DRMapItem__c"
    },
    {
        "%vlocity_namespace%__DomainObjectAPIName__c": "Formula",
        "%vlocity_namespace%__DomainObjectCreationOrder__c": 0,
        "%vlocity_namespace%__DomainObjectFieldAPIName__c": "Formula",
        "%vlocity_namespace%__FormulaOrder__c": 2,
        "%vlocity_namespace%__FormulaResultPath__c": "LiabilityLimit",
        "%vlocity_namespace%__Formula__c": "SUBSTRING(%quoteJSON:WCIfAny:LiabilityBlock:LiabilityLimit%)",
        "%vlocity_namespace%__IsDisabled__c": false,
        "%vlocity_namespace%__IsRequiredForUpsert__c": false,
        "%vlocity_namespace%__MapId__c": "CAIS_ExtractWCPayPrintPacketProposalCustoma3F6C000002Sf1UUASItem1",
        "%vlocity_namespace%__UpsertKey__c": false,
        "Name": "CAIS_ExtractWCPayPrintPacketProposal",
        "VlocityDataPackType": "SObject",
        "VlocityRecordSObjectType": "%vlocity_namespace%__DRMapItem__c"
    },
    {
        "%vlocity_namespace%__DomainObjectAPIName__c": "json",
        "%vlocity_namespace%__DomainObjectCreationOrder__c": 1,
        "%vlocity_namespace%__DomainObjectFieldAPIName__c": "AMBestRating",
        "%vlocity_namespace%__InterfaceFieldAPIName__c": "quote:Account.AM_Best_Rating__c",
        "%vlocity_namespace%__IsDisabled__c": false,
        "%vlocity_namespace%__IsRequiredForUpsert__c": false,
        "%vlocity_namespace%__MapId__c": "CAIS_ExtractWCPayPrintPacketProposalCustoma3F6C000002Sf1UUASItem4",
        "%vlocity_namespace%__UpsertKey__c": false,
        "Name": "CAIS_ExtractWCPayPrintPacketProposal",
        "VlocityDataPackType": "SObject",
        "VlocityRecordSObjectType": "%vlocity_namespace%__DRMapItem__c"
    },
    {
        "%vlocity_namespace%__DomainObjectAPIName__c": "json",
        "%vlocity_namespace%__DomainObjectCreationOrder__c": 1,
        "%vlocity_namespace%__DomainObjectFieldAPIName__c": "AgencyMailingCity",
        "%vlocity_namespace%__InterfaceFieldAPIName__c": "quote:%vlocity_namespace%__AgencyBrokerageId__r.ShippingCity",
        "%vlocity_namespace%__IsDisabled__c": false,
        "%vlocity_namespace%__IsRequiredForUpsert__c": false,
        "%vlocity_namespace%__MapId__c": "CAIS_ExtractWCPayPrintPacketProposalCustoma3F6C000002Sf1UUASItem45",
        "%vlocity_namespace%__UpsertKey__c": false,
        "Name": "CAIS_ExtractWCPayPrintPacketProposal",
        "VlocityDataPackType": "SObject",
        "VlocityRecordSObjectType": "%vlocity_namespace%__DRMapItem__c"
    },
    {
        "%vlocity_namespace%__DomainObjectAPIName__c": "json",
        "%vlocity_namespace%__DomainObjectCreationOrder__c": 1,
        "%vlocity_namespace%__DomainObjectFieldAPIName__c": "AgencyMailingCountry",
        "%vlocity_namespace%__InterfaceFieldAPIName__c": "quote:%vlocity_namespace%__AgencyBrokerageId__r.ShippingCountry",
        "%vlocity_namespace%__IsDisabled__c": false,
        "%vlocity_namespace%__IsRequiredForUpsert__c": false,
        "%vlocity_namespace%__MapId__c": "CAIS_ExtractWCPayPrintPacketProposalCustoma3F6C000002Sf1UUASItem46",
        "%vlocity_namespace%__UpsertKey__c": false,
        "Name": "CAIS_ExtractWCPayPrintPacketProposal",
        "VlocityDataPackType": "SObject",
        "VlocityRecordSObjectType": "%vlocity_namespace%__DRMapItem__c"
    },
    {
        "%vlocity_namespace%__DomainObjectAPIName__c": "json",
        "%vlocity_namespace%__DomainObjectCreationOrder__c": 1,
        "%vlocity_namespace%__DomainObjectFieldAPIName__c": "AgencyMailingStreet",
        "%vlocity_namespace%__InterfaceFieldAPIName__c": "quote:%vlocity_namespace%__AgencyBrokerageId__r.ShippingStreet",
        "%vlocity_namespace%__IsDisabled__c": false,
        "%vlocity_namespace%__IsRequiredForUpsert__c": false,
        "%vlocity_namespace%__MapId__c": "CAIS_ExtractWCPayPrintPacketProposalCustoma3F6C000002Sf1UUASItem49",
        "%vlocity_namespace%__UpsertKey__c": false,
        "Name": "CAIS_ExtractWCPayPrintPacketProposal",
        "VlocityDataPackType": "SObject",
        "VlocityRecordSObjectType": "%vlocity_namespace%__DRMapItem__c"
    },
    {
        "%vlocity_namespace%__DomainObjectAPIName__c": "json",
        "%vlocity_namespace%__DomainObjectCreationOrder__c": 1,
        "%vlocity_namespace%__DomainObjectFieldAPIName__c": "AgencyMailingSuite",
        "%vlocity_namespace%__InterfaceFieldAPIName__c": "quote:%vlocity_namespace%__AgencyBrokerageId__r.Shipping_Address2__c",
        "%vlocity_namespace%__IsDisabled__c": false,
        "%vlocity_namespace%__IsRequiredForUpsert__c": false,
        "%vlocity_namespace%__MapId__c": "CAIS_ExtractWCPayPrintPacketProposalCustoma3F6C000002Sf1UUASItem50",
        "%vlocity_namespace%__UpsertKey__c": false,
        "Name": "CAIS_ExtractWCPayPrintPacketProposal",
        "VlocityDataPackType": "SObject",
        "VlocityRecordSObjectType": "%vlocity_namespace%__DRMapItem__c"
    },
    {
        "%vlocity_namespace%__DomainObjectAPIName__c": "json",
        "%vlocity_namespace%__DomainObjectCreationOrder__c": 1,
        "%vlocity_namespace%__DomainObjectFieldAPIName__c": "AgencyMailingstate",
        "%vlocity_namespace%__InterfaceFieldAPIName__c": "quote:%vlocity_namespace%__AgencyBrokerageId__r.ShippingState",
        "%vlocity_namespace%__IsDisabled__c": false,
        "%vlocity_namespace%__IsRequiredForUpsert__c": false,
        "%vlocity_namespace%__MapId__c": "CAIS_ExtractWCPayPrintPacketProposalCustoma3F6C000002Sf1UUASItem48",
        "%vlocity_namespace%__UpsertKey__c": false,
        "Name": "CAIS_ExtractWCPayPrintPacketProposal",
        "VlocityDataPackType": "SObject",
        "VlocityRecordSObjectType": "%vlocity_namespace%__DRMapItem__c"
    },
    {
        "%vlocity_namespace%__DomainObjectAPIName__c": "json",
        "%vlocity_namespace%__DomainObjectCreationOrder__c": 1,
        "%vlocity_namespace%__DomainObjectFieldAPIName__c": "AgencyMailingzip",
        "%vlocity_namespace%__InterfaceFieldAPIName__c": "quote:%vlocity_namespace%__AgencyBrokerageId__r.ShippingPostalCode",
        "%vlocity_namespace%__IsDisabled__c": false,
        "%vlocity_namespace%__IsRequiredForUpsert__c": false,
        "%vlocity_namespace%__MapId__c": "CAIS_ExtractWCPayPrintPacketProposalCustoma3F6C000002Sf1UUASItem47",
        "%vlocity_namespace%__UpsertKey__c": false,
        "Name": "CAIS_ExtractWCPayPrintPacketProposal",
        "VlocityDataPackType": "SObject",
        "VlocityRecordSObjectType": "%vlocity_namespace%__DRMapItem__c"
    },
    {
        "%vlocity_namespace%__DomainObjectAPIName__c": "json",
        "%vlocity_namespace%__DomainObjectCreationOrder__c": 1,
        "%vlocity_namespace%__DomainObjectFieldAPIName__c": "Agency_Name",
        "%vlocity_namespace%__InterfaceFieldAPIName__c": "quote:%vlocity_namespace%__AgencyBrokerageId__r.Name",
        "%vlocity_namespace%__IsDisabled__c": false,
        "%vlocity_namespace%__IsRequiredForUpsert__c": false,
        "%vlocity_namespace%__MapId__c": "CAIS_ExtractWCPayPrintPacketProposalCustoma3F6C000002Sf1UUASItem43",
        "%vlocity_namespace%__UpsertKey__c": false,
        "Name": "CAIS_ExtractWCPayPrintPacketProposal",
        "VlocityDataPackType": "SObject",
        "VlocityRecordSObjectType": "%vlocity_namespace%__DRMapItem__c"
    },
    {
        "%vlocity_namespace%__DomainObjectAPIName__c": "json",
        "%vlocity_namespace%__DomainObjectCreationOrder__c": 1,
        "%vlocity_namespace%__DomainObjectFieldAPIName__c": "AgentEmail",
        "%vlocity_namespace%__InterfaceFieldAPIName__c": "quoteJSON:WorkerCompensation:CommunityAssociation:InsuredContactBlock:ContactEmail",
        "%vlocity_namespace%__IsDisabled__c": true,
        "%vlocity_namespace%__IsRequiredForUpsert__c": false,
        "%vlocity_namespace%__MapId__c": "CAIS_ExtractWCPayPrintPacketProposalCustoma3F6C000002Sf1UUASItem68",
        "%vlocity_namespace%__UpsertKey__c": false,
        "Name": "CAIS_ExtractWCPayPrintPacketProposal",
        "VlocityDataPackType": "SObject",
        "VlocityRecordSObjectType": "%vlocity_namespace%__DRMapItem__c"
    },
    {
        "%vlocity_namespace%__DomainObjectAPIName__c": "json",
        "%vlocity_namespace%__DomainObjectCreationOrder__c": 1,
        "%vlocity_namespace%__DomainObjectFieldAPIName__c": "AgentPhone",
        "%vlocity_namespace%__InterfaceFieldAPIName__c": "quoteJSON:WorkerCompensation:CommunityAssociation:InsuredContactBlock:ContactPhone",
        "%vlocity_namespace%__IsDisabled__c": true,
        "%vlocity_namespace%__IsRequiredForUpsert__c": false,
        "%vlocity_namespace%__MapId__c": "CAIS_ExtractWCPayPrintPacketProposalCustoma3F6C000002Sf1UUASItem71",
        "%vlocity_namespace%__UpsertKey__c": false,
        "Name": "CAIS_ExtractWCPayPrintPacketProposal",
        "VlocityDataPackType": "SObject",
        "VlocityRecordSObjectType": "%vlocity_namespace%__DRMapItem__c"
    },
    {
        "%vlocity_namespace%__DomainObjectAPIName__c": "json",
        "%vlocity_namespace%__DomainObjectCreationOrder__c": 1,
        "%vlocity_namespace%__DomainObjectFieldAPIName__c": "BillingCity",
        "%vlocity_namespace%__InterfaceFieldAPIName__c": "quote:BillingCity",
        "%vlocity_namespace%__IsDisabled__c": false,
        "%vlocity_namespace%__IsRequiredForUpsert__c": false,
        "%vlocity_namespace%__MapId__c": "CAIS_ExtractWCPayPrintPacketProposalCustoma3F6C000002Sf1UUASItem5",
        "%vlocity_namespace%__UpsertKey__c": false,
        "Name": "CAIS_ExtractWCPayPrintPacketProposal",
        "VlocityDataPackType": "SObject",
        "VlocityRecordSObjectType": "%vlocity_namespace%__DRMapItem__c"
    },
    {
        "%vlocity_namespace%__DomainObjectAPIName__c": "json",
        "%vlocity_namespace%__DomainObjectCreationOrder__c": 1,
        "%vlocity_namespace%__DomainObjectFieldAPIName__c": "BillingState",
        "%vlocity_namespace%__InterfaceFieldAPIName__c": "quote:BillingState",
        "%vlocity_namespace%__IsDisabled__c": false,
        "%vlocity_namespace%__IsRequiredForUpsert__c": false,
        "%vlocity_namespace%__MapId__c": "CAIS_ExtractWCPayPrintPacketProposalCustoma3F6C000002Sf1UUASItem7",
        "%vlocity_namespace%__UpsertKey__c": false,
        "Name": "CAIS_ExtractWCPayPrintPacketProposal",
        "VlocityDataPackType": "SObject",
        "VlocityRecordSObjectType": "%vlocity_namespace%__DRMapItem__c"
    },
    {
        "%vlocity_namespace%__DomainObjectAPIName__c": "json",
        "%vlocity_namespace%__DomainObjectCreationOrder__c": 1,
        "%vlocity_namespace%__DomainObjectFieldAPIName__c": "BillingStreet",
        "%vlocity_namespace%__InterfaceFieldAPIName__c": "quote:BillingStreet",
        "%vlocity_namespace%__IsDisabled__c": false,
        "%vlocity_namespace%__IsRequiredForUpsert__c": false,
        "%vlocity_namespace%__MapId__c": "CAIS_ExtractWCPayPrintPacketProposalCustoma3F6C000002Sf1UUASItem8",
        "%vlocity_namespace%__UpsertKey__c": false,
        "Name": "CAIS_ExtractWCPayPrintPacketProposal",
        "VlocityDataPackType": "SObject",
        "VlocityRecordSObjectType": "%vlocity_namespace%__DRMapItem__c"
    },
    {
        "%vlocity_namespace%__DomainObjectAPIName__c": "json",
        "%vlocity_namespace%__DomainObjectCreationOrder__c": 1,
        "%vlocity_namespace%__DomainObjectFieldAPIName__c": "BillingZip",
        "%vlocity_namespace%__InterfaceFieldAPIName__c": "quote:BillingPostalCode",
        "%vlocity_namespace%__IsDisabled__c": false,
        "%vlocity_namespace%__IsRequiredForUpsert__c": false,
        "%vlocity_namespace%__MapId__c": "CAIS_ExtractWCPayPrintPacketProposalCustoma3F6C000002Sf1UUASItem6",
        "%vlocity_namespace%__UpsertKey__c": false,
        "Name": "CAIS_ExtractWCPayPrintPacketProposal",
        "VlocityDataPackType": "SObject",
        "VlocityRecordSObjectType": "%vlocity_namespace%__DRMapItem__c"
    },
    {
        "%vlocity_namespace%__DomainObjectAPIName__c": "json",
        "%vlocity_namespace%__DomainObjectCreationOrder__c": 1,
        "%vlocity_namespace%__DomainObjectFieldAPIName__c": "Billing_CO",
        "%vlocity_namespace%__InterfaceFieldAPIName__c": "quote:BillingName",
        "%vlocity_namespace%__IsDisabled__c": false,
        "%vlocity_namespace%__IsRequiredForUpsert__c": false,
        "%vlocity_namespace%__MapId__c": "CAIS_ExtractWCPayPrintPacketProposalCustoma3F6C000002Sf1UUASItem10",
        "%vlocity_namespace%__UpsertKey__c": false,
        "Name": "CAIS_ExtractWCPayPrintPacketProposal",
        "VlocityDataPackType": "SObject",
        "VlocityRecordSObjectType": "%vlocity_namespace%__DRMapItem__c"
    },
    {
        "%vlocity_namespace%__DomainObjectAPIName__c": "json",
        "%vlocity_namespace%__DomainObjectCreationOrder__c": 1,
        "%vlocity_namespace%__DomainObjectFieldAPIName__c": "BilllingSuite",
        "%vlocity_namespace%__InterfaceFieldAPIName__c": "quoteJSON:WorkerCompensation:BillingSuiteFormula",
        "%vlocity_namespace%__IsDisabled__c": false,
        "%vlocity_namespace%__IsRequiredForUpsert__c": false,
        "%vlocity_namespace%__MapId__c": "CAIS_ExtractWCPayPrintPacketProposalCustoma3F6C000002Sf1UUASItem9",
        "%vlocity_namespace%__UpsertKey__c": false,
        "Name": "CAIS_ExtractWCPayPrintPacketProposal",
        "VlocityDataPackType": "SObject",
        "VlocityRecordSObjectType": "%vlocity_namespace%__DRMapItem__c"
    },
    {
        "%vlocity_namespace%__DomainObjectAPIName__c": "json",
        "%vlocity_namespace%__DomainObjectCreationOrder__c": 1,
        "%vlocity_namespace%__DomainObjectFieldAPIName__c": "Carrier",
        "%vlocity_namespace%__InterfaceFieldAPIName__c": "quote:Carrier__c",
        "%vlocity_namespace%__IsDisabled__c": false,
        "%vlocity_namespace%__IsRequiredForUpsert__c": false,
        "%vlocity_namespace%__MapId__c": "CAIS_ExtractWCPayPrintPacketProposalCustoma3F6C000002Sf1UUASItem33",
        "%vlocity_namespace%__UpsertKey__c": false,
        "Name": "CAIS_ExtractWCPayPrintPacketProposal",
        "VlocityDataPackType": "SObject",
        "VlocityRecordSObjectType": "%vlocity_namespace%__DRMapItem__c"
    },
    {
        "%vlocity_namespace%__DomainObjectAPIName__c": "json",
        "%vlocity_namespace%__DomainObjectCreationOrder__c": 1,
        "%vlocity_namespace%__DomainObjectFieldAPIName__c": "CarrierName",
        "%vlocity_namespace%__InterfaceFieldAPIName__c": "quote:Carrier__r.Name",
        "%vlocity_namespace%__IsDisabled__c": false,
        "%vlocity_namespace%__IsRequiredForUpsert__c": false,
        "%vlocity_namespace%__MapId__c": "CAIS_ExtractWCPayPrintPacketProposalCustom1905",
        "%vlocity_namespace%__UpsertKey__c": false,
        "Name": "CAIS_ExtractWCPayPrintPacketProposal",
        "VlocityDataPackType": "SObject",
        "VlocityRecordSObjectType": "%vlocity_namespace%__DRMapItem__c"
    },
    {
        "%vlocity_namespace%__DomainObjectAPIName__c": "json",
        "%vlocity_namespace%__DomainObjectCreationOrder__c": 1,
        "%vlocity_namespace%__DomainObjectFieldAPIName__c": "ClassCode",
        "%vlocity_namespace%__InterfaceFieldAPIName__c": "quote:Class_Code__c",
        "%vlocity_namespace%__IsDisabled__c": false,
        "%vlocity_namespace%__IsRequiredForUpsert__c": false,
        "%vlocity_namespace%__MapId__c": "CAIS_ExtractWCPayPrintPacketProposalCustoma3F6C000002Sf1UUASItem34",
        "%vlocity_namespace%__UpsertKey__c": false,
        "Name": "CAIS_ExtractWCPayPrintPacketProposal",
        "VlocityDataPackType": "SObject",
        "VlocityRecordSObjectType": "%vlocity_namespace%__DRMapItem__c"
    },
    {
        "%vlocity_namespace%__DomainObjectAPIName__c": "json",
        "%vlocity_namespace%__DomainObjectCreationOrder__c": 1,
        "%vlocity_namespace%__DomainObjectFieldAPIName__c": "Co_opcheck",
        "%vlocity_namespace%__InterfaceFieldAPIName__c": "quote:Account.IsAssociationCo_Op__c",
        "%vlocity_namespace%__IsDisabled__c": false,
        "%vlocity_namespace%__IsRequiredForUpsert__c": false,
        "%vlocity_namespace%__MapId__c": "CAIS_ExtractWCPayPrintPacketProposalCustoma3F6C000002Sf1UUASItem15",
        "%vlocity_namespace%__UpsertKey__c": false,
        "Name": "CAIS_ExtractWCPayPrintPacketProposal",
        "VlocityDataPackType": "SObject",
        "VlocityRecordSObjectType": "%vlocity_namespace%__DRMapItem__c"
    },
    {
        "%vlocity_namespace%__DomainObjectAPIName__c": "json",
        "%vlocity_namespace%__DomainObjectCreationOrder__c": 1,
        "%vlocity_namespace%__DomainObjectFieldAPIName__c": "ContactPhone",
        "%vlocity_namespace%__InterfaceFieldAPIName__c": "quote:%vlocity_namespace%__AgencyBrokerageId__r.Phone",
        "%vlocity_namespace%__IsDisabled__c": false,
        "%vlocity_namespace%__IsRequiredForUpsert__c": false,
        "%vlocity_namespace%__MapId__c": "CAIS_ExtractWCPayPrintPacketProposalCustoma3F6C000002Sf1UUASItem44",
        "%vlocity_namespace%__UpsertKey__c": false,
        "Name": "CAIS_ExtractWCPayPrintPacketProposal",
        "VlocityDataPackType": "SObject",
        "VlocityRecordSObjectType": "%vlocity_namespace%__DRMapItem__c"
    },
    {
        "%vlocity_namespace%__DomainObjectAPIName__c": "json",
        "%vlocity_namespace%__DomainObjectCreationOrder__c": 1,
        "%vlocity_namespace%__DomainObjectFieldAPIName__c": "DescOfOps",
        "%vlocity_namespace%__InterfaceFieldAPIName__c": "quote:Account.DescOfOpertions__c",
        "%vlocity_namespace%__IsDisabled__c": false,
        "%vlocity_namespace%__IsRequiredForUpsert__c": false,
        "%vlocity_namespace%__MapId__c": "CAIS_ExtractWCPayPrintPacketProposalCustoma3F6C000002Sf1UUASItem11",
        "%vlocity_namespace%__UpsertKey__c": false,
        "Name": "CAIS_ExtractWCPayPrintPacketProposal",
        "VlocityDataPackType": "SObject",
        "VlocityRecordSObjectType": "%vlocity_namespace%__DRMapItem__c"
    },
    {
        "%vlocity_namespace%__DomainObjectAPIName__c": "json",
        "%vlocity_namespace%__DomainObjectCreationOrder__c": 1,
        "%vlocity_namespace%__DomainObjectFieldAPIName__c": "EffDate",
        "%vlocity_namespace%__DomainObjectFieldType__c": "Date(MM/dd/yyyy)",
        "%vlocity_namespace%__InterfaceFieldAPIName__c": "quoteJSON:WCPayroll:PolicyTermBlock:EffectiveDate",
        "%vlocity_namespace%__IsDisabled__c": false,
        "%vlocity_namespace%__IsRequiredForUpsert__c": false,
        "%vlocity_namespace%__MapId__c": "CAIS_ExtractWCPayPrintPacketProposalCustoma3F6C000002Sf1UUASItem66",
        "%vlocity_namespace%__UpsertKey__c": false,
        "Name": "CAIS_ExtractWCPayPrintPacketProposal",
        "VlocityDataPackType": "SObject",
        "VlocityRecordSObjectType": "%vlocity_namespace%__DRMapItem__c"
    },
    {
        "%vlocity_namespace%__DomainObjectAPIName__c": "json",
        "%vlocity_namespace%__DomainObjectCreationOrder__c": 1,
        "%vlocity_namespace%__DomainObjectFieldAPIName__c": "EmployeeCheck",
        "%vlocity_namespace%__InterfaceFieldAPIName__c": "quote:Account.EmployeeCheck__c",
        "%vlocity_namespace%__IsDisabled__c": false,
        "%vlocity_namespace%__IsRequiredForUpsert__c": false,
        "%vlocity_namespace%__MapId__c": "CAIS_ExtractWCPayPrintPacketProposalCustoma3F6C000002Sf1UUASItem12",
        "%vlocity_namespace%__UpsertKey__c": false,
        "Name": "CAIS_ExtractWCPayPrintPacketProposal",
        "VlocityDataPackType": "SObject",
        "VlocityRecordSObjectType": "%vlocity_namespace%__DRMapItem__c"
    },
    {
        "%vlocity_namespace%__DomainObjectAPIName__c": "json",
        "%vlocity_namespace%__DomainObjectCreationOrder__c": 1,
        "%vlocity_namespace%__DomainObjectFieldAPIName__c": "ExclusiveVendors",
        "%vlocity_namespace%__InterfaceFieldAPIName__c": "quote:Account.ExclusiveVendors__c",
        "%vlocity_namespace%__IsDisabled__c": false,
        "%vlocity_namespace%__IsRequiredForUpsert__c": false,
        "%vlocity_namespace%__MapId__c": "CAIS_ExtractWCPayPrintPacketProposalCustoma3F6C000002Sf1UUASItem13",
        "%vlocity_namespace%__UpsertKey__c": false,
        "Name": "CAIS_ExtractWCPayPrintPacketProposal",
        "VlocityDataPackType": "SObject",
        "VlocityRecordSObjectType": "%vlocity_namespace%__DRMapItem__c"
    },
    {
        "%vlocity_namespace%__DomainObjectAPIName__c": "json",
        "%vlocity_namespace%__DomainObjectCreationOrder__c": 1,
        "%vlocity_namespace%__DomainObjectFieldAPIName__c": "HiredVendor",
        "%vlocity_namespace%__InterfaceFieldAPIName__c": "quote:Account.HiredVendor__c",
        "%vlocity_namespace%__IsDisabled__c": false,
        "%vlocity_namespace%__IsRequiredForUpsert__c": false,
        "%vlocity_namespace%__MapId__c": "CAIS_ExtractWCPayPrintPacketProposalCustoma3F6C000002Sf1UUASItem14",
        "%vlocity_namespace%__UpsertKey__c": false,
        "Name": "CAIS_ExtractWCPayPrintPacketProposal",
        "VlocityDataPackType": "SObject",
        "VlocityRecordSObjectType": "%vlocity_namespace%__DRMapItem__c"
    },
    {
        "%vlocity_namespace%__DomainObjectAPIName__c": "json",
        "%vlocity_namespace%__DomainObjectCreationOrder__c": 1,
        "%vlocity_namespace%__DomainObjectFieldAPIName__c": "InsuredCity",
        "%vlocity_namespace%__InterfaceFieldAPIName__c": "quote:ShippingCity",
        "%vlocity_namespace%__IsDisabled__c": false,
        "%vlocity_namespace%__IsRequiredForUpsert__c": false,
        "%vlocity_namespace%__MapId__c": "CAIS_ExtractWCPayPrintPacketProposalCustoma3F6C000002Sf1UUASItem22",
        "%vlocity_namespace%__UpsertKey__c": false,
        "Name": "CAIS_ExtractWCPayPrintPacketProposal",
        "VlocityDataPackType": "SObject",
        "VlocityRecordSObjectType": "%vlocity_namespace%__DRMapItem__c"
    },
    {
        "%vlocity_namespace%__DomainObjectAPIName__c": "json",
        "%vlocity_namespace%__DomainObjectCreationOrder__c": 1,
        "%vlocity_namespace%__DomainObjectFieldAPIName__c": "InsuredMailingStreet",
        "%vlocity_namespace%__InterfaceFieldAPIName__c": "quote:ShippingStreet",
        "%vlocity_namespace%__IsDisabled__c": false,
        "%vlocity_namespace%__IsRequiredForUpsert__c": false,
        "%vlocity_namespace%__MapId__c": "CAIS_ExtractWCPayPrintPacketProposalCustoma3F6C000002Sf1UUASItem25",
        "%vlocity_namespace%__UpsertKey__c": false,
        "Name": "CAIS_ExtractWCPayPrintPacketProposal",
        "VlocityDataPackType": "SObject",
        "VlocityRecordSObjectType": "%vlocity_namespace%__DRMapItem__c"
    },
    {
        "%vlocity_namespace%__DomainObjectAPIName__c": "json",
        "%vlocity_namespace%__DomainObjectCreationOrder__c": 1,
        "%vlocity_namespace%__DomainObjectFieldAPIName__c": "InsuredMailingSuite",
        "%vlocity_namespace%__InterfaceFieldAPIName__c": "quoteJSON:WorkerCompensation:MailingSuiteFormula",
        "%vlocity_namespace%__IsDisabled__c": false,
        "%vlocity_namespace%__IsRequiredForUpsert__c": false,
        "%vlocity_namespace%__MapId__c": "CAIS_ExtractWCPayPrintPacketProposalCustoma3F6C000002Sf1UUASItem26",
        "%vlocity_namespace%__UpsertKey__c": false,
        "Name": "CAIS_ExtractWCPayPrintPacketProposal",
        "VlocityDataPackType": "SObject",
        "VlocityRecordSObjectType": "%vlocity_namespace%__DRMapItem__c"
    },
    {
        "%vlocity_namespace%__DomainObjectAPIName__c": "json",
        "%vlocity_namespace%__DomainObjectCreationOrder__c": 1,
        "%vlocity_namespace%__DomainObjectFieldAPIName__c": "InsuredMailing_CO",
        "%vlocity_namespace%__InterfaceFieldAPIName__c": "quote:ShippingName",
        "%vlocity_namespace%__IsDisabled__c": false,
        "%vlocity_namespace%__IsRequiredForUpsert__c": false,
        "%vlocity_namespace%__MapId__c": "CAIS_ExtractWCPayPrintPacketProposalCustoma3F6C000002Sf1UUASItem17",
        "%vlocity_namespace%__UpsertKey__c": false,
        "Name": "CAIS_ExtractWCPayPrintPacketProposal",
        "VlocityDataPackType": "SObject",
        "VlocityRecordSObjectType": "%vlocity_namespace%__DRMapItem__c"
    },
    {
        "%vlocity_namespace%__DomainObjectAPIName__c": "json",
        "%vlocity_namespace%__DomainObjectCreationOrder__c": 1,
        "%vlocity_namespace%__DomainObjectFieldAPIName__c": "InsuredName",
        "%vlocity_namespace%__InterfaceFieldAPIName__c": "quote:Account.Name",
        "%vlocity_namespace%__IsDisabled__c": false,
        "%vlocity_namespace%__IsRequiredForUpsert__c": false,
        "%vlocity_namespace%__MapId__c": "CAIS_ExtractWCPayPrintPacketProposalCustoma3F6C000002Sf1UUASItem19",
        "%vlocity_namespace%__UpsertKey__c": false,
        "Name": "CAIS_ExtractWCPayPrintPacketProposal",
        "VlocityDataPackType": "SObject",
        "VlocityRecordSObjectType": "%vlocity_namespace%__DRMapItem__c"
    },
    {
        "%vlocity_namespace%__DomainObjectAPIName__c": "json",
        "%vlocity_namespace%__DomainObjectCreationOrder__c": 1,
        "%vlocity_namespace%__DomainObjectFieldAPIName__c": "InsuredPCEmail",
        "%vlocity_namespace%__InterfaceFieldAPIName__c": "quote:Account.%vlocity_namespace%__PrimaryContactId__r.Email",
        "%vlocity_namespace%__IsDisabled__c": false,
        "%vlocity_namespace%__IsRequiredForUpsert__c": false,
        "%vlocity_namespace%__MapId__c": "CAIS_ExtractWCPayPrintPacketProposalCustoma3F6C000002Sf1UUASItem28",
        "%vlocity_namespace%__UpsertKey__c": false,
        "Name": "CAIS_ExtractWCPayPrintPacketProposal",
        "VlocityDataPackType": "SObject",
        "VlocityRecordSObjectType": "%vlocity_namespace%__DRMapItem__c"
    },
    {
        "%vlocity_namespace%__DomainObjectAPIName__c": "json",
        "%vlocity_namespace%__DomainObjectCreationOrder__c": 1,
        "%vlocity_namespace%__DomainObjectFieldAPIName__c": "InsuredPCPhone",
        "%vlocity_namespace%__InterfaceFieldAPIName__c": "quote:Account.%vlocity_namespace%__PrimaryContactId__r.Phone",
        "%vlocity_namespace%__IsDisabled__c": false,
        "%vlocity_namespace%__IsRequiredForUpsert__c": false,
        "%vlocity_namespace%__MapId__c": "CAIS_ExtractWCPayPrintPacketProposalCustoma3F6C000002Sf1UUASItem30",
        "%vlocity_namespace%__UpsertKey__c": false,
        "Name": "CAIS_ExtractWCPayPrintPacketProposal",
        "VlocityDataPackType": "SObject",
        "VlocityRecordSObjectType": "%vlocity_namespace%__DRMapItem__c"
    },
    {
        "%vlocity_namespace%__DomainObjectAPIName__c": "json",
        "%vlocity_namespace%__DomainObjectCreationOrder__c": 1,
        "%vlocity_namespace%__DomainObjectFieldAPIName__c": "InsuredPCTitle",
        "%vlocity_namespace%__InterfaceFieldAPIName__c": "quote:Account.%vlocity_namespace%__PrimaryContactId__r.TitleInsured__c",
        "%vlocity_namespace%__IsDisabled__c": false,
        "%vlocity_namespace%__IsRequiredForUpsert__c": false,
        "%vlocity_namespace%__MapId__c": "CAIS_ExtractWCPayPrintPacketProposalCustoma3F6C000002Sf1UUASItem31",
        "%vlocity_namespace%__UpsertKey__c": false,
        "Name": "CAIS_ExtractWCPayPrintPacketProposal",
        "VlocityDataPackType": "SObject",
        "VlocityRecordSObjectType": "%vlocity_namespace%__DRMapItem__c"
    },
    {
        "%vlocity_namespace%__DomainObjectAPIName__c": "json",
        "%vlocity_namespace%__DomainObjectCreationOrder__c": 1,
        "%vlocity_namespace%__DomainObjectFieldAPIName__c": "InsuredPContact",
        "%vlocity_namespace%__InterfaceFieldAPIName__c": "quote:Account.%vlocity_namespace%__PrimaryContactId__r.Name",
        "%vlocity_namespace%__IsDisabled__c": false,
        "%vlocity_namespace%__IsRequiredForUpsert__c": false,
        "%vlocity_namespace%__MapId__c": "CAIS_ExtractWCPayPrintPacketProposalCustoma3F6C000002Sf1UUASItem29",
        "%vlocity_namespace%__UpsertKey__c": false,
        "Name": "CAIS_ExtractWCPayPrintPacketProposal",
        "VlocityDataPackType": "SObject",
        "VlocityRecordSObjectType": "%vlocity_namespace%__DRMapItem__c"
    },
    {
        "%vlocity_namespace%__DomainObjectAPIName__c": "json",
        "%vlocity_namespace%__DomainObjectCreationOrder__c": 1,
        "%vlocity_namespace%__DomainObjectFieldAPIName__c": "InsuredState",
        "%vlocity_namespace%__InterfaceFieldAPIName__c": "quote:ShippingState",
        "%vlocity_namespace%__IsDisabled__c": false,
        "%vlocity_namespace%__IsRequiredForUpsert__c": false,
        "%vlocity_namespace%__MapId__c": "CAIS_ExtractWCPayPrintPacketProposalCustoma3F6C000002Sf1UUASItem24",
        "%vlocity_namespace%__UpsertKey__c": false,
        "Name": "CAIS_ExtractWCPayPrintPacketProposal",
        "VlocityDataPackType": "SObject",
        "VlocityRecordSObjectType": "%vlocity_namespace%__DRMapItem__c"
    },
    {
        "%vlocity_namespace%__DomainObjectAPIName__c": "json",
        "%vlocity_namespace%__DomainObjectCreationOrder__c": 1,
        "%vlocity_namespace%__DomainObjectFieldAPIName__c": "InsuredZip",
        "%vlocity_namespace%__InterfaceFieldAPIName__c": "quote:ShippingPostalCode",
        "%vlocity_namespace%__IsDisabled__c": false,
        "%vlocity_namespace%__IsRequiredForUpsert__c": false,
        "%vlocity_namespace%__MapId__c": "CAIS_ExtractWCPayPrintPacketProposalCustoma3F6C000002Sf1UUASItem23",
        "%vlocity_namespace%__UpsertKey__c": false,
        "Name": "CAIS_ExtractWCPayPrintPacketProposal",
        "VlocityDataPackType": "SObject",
        "VlocityRecordSObjectType": "%vlocity_namespace%__DRMapItem__c"
    },
    {
        "%vlocity_namespace%__DomainObjectAPIName__c": "json",
        "%vlocity_namespace%__DomainObjectCreationOrder__c": 1,
        "%vlocity_namespace%__DomainObjectFieldAPIName__c": "Insured_FEIN",
        "%vlocity_namespace%__InterfaceFieldAPIName__c": "quote:Account.%vlocity_namespace%__TaxID__c",
        "%vlocity_namespace%__IsDisabled__c": false,
        "%vlocity_namespace%__IsRequiredForUpsert__c": false,
        "%vlocity_namespace%__MapId__c": "CAIS_ExtractWCPayPrintPacketProposalCustoma3F6C000002Sf1UUASItem32",
        "%vlocity_namespace%__UpsertKey__c": false,
        "Name": "CAIS_ExtractWCPayPrintPacketProposal",
        "VlocityDataPackType": "SObject",
        "VlocityRecordSObjectType": "%vlocity_namespace%__DRMapItem__c"
    },
    {
        "%vlocity_namespace%__DomainObjectAPIName__c": "json",
        "%vlocity_namespace%__DomainObjectCreationOrder__c": 1,
        "%vlocity_namespace%__DomainObjectFieldAPIName__c": "LiabilityLimit",
        "%vlocity_namespace%__InterfaceFieldAPIName__c": "LiabilityLimit",
        "%vlocity_namespace%__IsDisabled__c": false,
        "%vlocity_namespace%__IsRequiredForUpsert__c": false,
        "%vlocity_namespace%__MapId__c": "CAIS_ExtractWCPayPrintPacketProposalCustoma3F6C000002Sf1UUASItem3",
        "%vlocity_namespace%__UpsertKey__c": false,
        "Name": "CAIS_ExtractWCPayPrintPacketProposal",
        "VlocityDataPackType": "SObject",
        "VlocityRecordSObjectType": "%vlocity_namespace%__DRMapItem__c"
    },
    {
        "%vlocity_namespace%__DomainObjectAPIName__c": "json",
        "%vlocity_namespace%__DomainObjectCreationOrder__c": 1,
        "%vlocity_namespace%__DomainObjectFieldAPIName__c": "LineOfBusiness",
        "%vlocity_namespace%__InterfaceFieldAPIName__c": "quote:Line_of_Business__c",
        "%vlocity_namespace%__IsDisabled__c": false,
        "%vlocity_namespace%__IsRequiredForUpsert__c": false,
        "%vlocity_namespace%__MapId__c": "CAIS_ExtractWCPayPrintPacketProposalCustoma3F6C000002Sf1UUASItem38",
        "%vlocity_namespace%__UpsertKey__c": false,
        "Name": "CAIS_ExtractWCPayPrintPacketProposal",
        "VlocityDataPackType": "SObject",
        "VlocityRecordSObjectType": "%vlocity_namespace%__DRMapItem__c"
    },
    {
        "%vlocity_namespace%__DomainObjectAPIName__c": "json",
        "%vlocity_namespace%__DomainObjectCreationOrder__c": 1,
        "%vlocity_namespace%__DomainObjectFieldAPIName__c": "LocCity",
        "%vlocity_namespace%__InterfaceFieldAPIName__c": "quote:QuoteToCity",
        "%vlocity_namespace%__IsDisabled__c": false,
        "%vlocity_namespace%__IsRequiredForUpsert__c": false,
        "%vlocity_namespace%__MapId__c": "CAIS_ExtractWCPayPrintPacketProposalCustoma3F6C000002Sf1UUASItem72",
        "%vlocity_namespace%__UpsertKey__c": false,
        "Name": "CAIS_ExtractWCPayPrintPacketProposal",
        "VlocityDataPackType": "SObject",
        "VlocityRecordSObjectType": "%vlocity_namespace%__DRMapItem__c"
    },
    {
        "%vlocity_namespace%__DomainObjectAPIName__c": "json",
        "%vlocity_namespace%__DomainObjectCreationOrder__c": 1,
        "%vlocity_namespace%__DomainObjectFieldAPIName__c": "LocState",
        "%vlocity_namespace%__InterfaceFieldAPIName__c": "quote:QuoteToState",
        "%vlocity_namespace%__IsDisabled__c": false,
        "%vlocity_namespace%__IsRequiredForUpsert__c": false,
        "%vlocity_namespace%__MapId__c": "CAIS_ExtractWCPayPrintPacketProposalCustoma3F6C000002Sf1UUASItem73",
        "%vlocity_namespace%__UpsertKey__c": false,
        "Name": "CAIS_ExtractWCPayPrintPacketProposal",
        "VlocityDataPackType": "SObject",
        "VlocityRecordSObjectType": "%vlocity_namespace%__DRMapItem__c"
    },
    {
        "%vlocity_namespace%__DomainObjectAPIName__c": "json",
        "%vlocity_namespace%__DomainObjectCreationOrder__c": 1,
        "%vlocity_namespace%__DomainObjectFieldAPIName__c": "LocStreet",
        "%vlocity_namespace%__InterfaceFieldAPIName__c": "quote:QuoteToStreet",
        "%vlocity_namespace%__IsDisabled__c": false,
        "%vlocity_namespace%__IsRequiredForUpsert__c": false,
        "%vlocity_namespace%__MapId__c": "CAIS_ExtractWCPayPrintPacketProposalCustoma3F6C000002Sf1UUASItem74",
        "%vlocity_namespace%__UpsertKey__c": false,
        "Name": "CAIS_ExtractWCPayPrintPacketProposal",
        "VlocityDataPackType": "SObject",
        "VlocityRecordSObjectType": "%vlocity_namespace%__DRMapItem__c"
    },
    {
        "%vlocity_namespace%__DomainObjectAPIName__c": "json",
        "%vlocity_namespace%__DomainObjectCreationOrder__c": 1,
        "%vlocity_namespace%__DomainObjectFieldAPIName__c": "LocSuite",
        "%vlocity_namespace%__InterfaceFieldAPIName__c": "quoteJSON:WorkerCompensation:CommunityAssociation:LocationDescription",
        "%vlocity_namespace%__IsDisabled__c": false,
        "%vlocity_namespace%__IsRequiredForUpsert__c": false,
        "%vlocity_namespace%__MapId__c": "CAIS_ExtractWCPayPrintPacketProposalCustoma3F6C000002Sf1UUASItem76",
        "%vlocity_namespace%__UpsertKey__c": false,
        "Name": "CAIS_ExtractWCPayPrintPacketProposal",
        "VlocityDataPackType": "SObject",
        "VlocityRecordSObjectType": "%vlocity_namespace%__DRMapItem__c"
    },
    {
        "%vlocity_namespace%__DomainObjectAPIName__c": "json",
        "%vlocity_namespace%__DomainObjectCreationOrder__c": 1,
        "%vlocity_namespace%__DomainObjectFieldAPIName__c": "LocZip",
        "%vlocity_namespace%__InterfaceFieldAPIName__c": "quote:QuoteToPostalCode",
        "%vlocity_namespace%__IsDisabled__c": false,
        "%vlocity_namespace%__IsRequiredForUpsert__c": false,
        "%vlocity_namespace%__MapId__c": "CAIS_ExtractWCPayPrintPacketProposalCustoma3F6C000002Sf1UUASItem75",
        "%vlocity_namespace%__UpsertKey__c": false,
        "Name": "CAIS_ExtractWCPayPrintPacketProposal",
        "VlocityDataPackType": "SObject",
        "VlocityRecordSObjectType": "%vlocity_namespace%__DRMapItem__c"
    },
    {
        "%vlocity_namespace%__DomainObjectAPIName__c": "json",
        "%vlocity_namespace%__DomainObjectCreationOrder__c": 1,
        "%vlocity_namespace%__DomainObjectFieldAPIName__c": "NoOfBoardMembers",
        "%vlocity_namespace%__InterfaceFieldAPIName__c": "quote:Account.NumberOfBoardMembers__c",
        "%vlocity_namespace%__IsDisabled__c": false,
        "%vlocity_namespace%__IsRequiredForUpsert__c": false,
        "%vlocity_namespace%__MapId__c": "CAIS_ExtractWCPayPrintPacketProposalCustoma3F6C000002Sf1UUASItem20",
        "%vlocity_namespace%__UpsertKey__c": false,
        "Name": "CAIS_ExtractWCPayPrintPacketProposal",
        "VlocityDataPackType": "SObject",
        "VlocityRecordSObjectType": "%vlocity_namespace%__DRMapItem__c"
    },
    {
        "%vlocity_namespace%__DomainObjectAPIName__c": "json",
        "%vlocity_namespace%__DomainObjectCreationOrder__c": 1,
        "%vlocity_namespace%__DomainObjectFieldAPIName__c": "NoOfUnits",
        "%vlocity_namespace%__InterfaceFieldAPIName__c": "quote:Account.Number_of_units__c",
        "%vlocity_namespace%__IsDisabled__c": false,
        "%vlocity_namespace%__IsRequiredForUpsert__c": false,
        "%vlocity_namespace%__MapId__c": "CAIS_ExtractWCPayPrintPacketProposalCustoma3F6C000002Sf1UUASItem21",
        "%vlocity_namespace%__UpsertKey__c": false,
        "Name": "CAIS_ExtractWCPayPrintPacketProposal",
        "VlocityDataPackType": "SObject",
        "VlocityRecordSObjectType": "%vlocity_namespace%__DRMapItem__c"
    },
    {
        "%vlocity_namespace%__DomainObjectAPIName__c": "json",
        "%vlocity_namespace%__DomainObjectCreationOrder__c": 1,
        "%vlocity_namespace%__DomainObjectFieldAPIName__c": "NonProfit",
        "%vlocity_namespace%__InterfaceFieldAPIName__c": "quote:Account.IsAssociationNonProfit__c",
        "%vlocity_namespace%__IsDisabled__c": false,
        "%vlocity_namespace%__IsRequiredForUpsert__c": false,
        "%vlocity_namespace%__MapId__c": "CAIS_ExtractWCPayPrintPacketProposalCustoma3F6C000002Sf1UUASItem16",
        "%vlocity_namespace%__UpsertKey__c": false,
        "Name": "CAIS_ExtractWCPayPrintPacketProposal",
        "VlocityDataPackType": "SObject",
        "VlocityRecordSObjectType": "%vlocity_namespace%__DRMapItem__c"
    },
    {
        "%vlocity_namespace%__DomainObjectAPIName__c": "json",
        "%vlocity_namespace%__DomainObjectCreationOrder__c": 1,
        "%vlocity_namespace%__DomainObjectFieldAPIName__c": "OrgType",
        "%vlocity_namespace%__InterfaceFieldAPIName__c": "quoteJSON:WorkerCompensation:CommunityAssociation:OrganizationType",
        "%vlocity_namespace%__IsDisabled__c": false,
        "%vlocity_namespace%__IsRequiredForUpsert__c": false,
        "%vlocity_namespace%__MapId__c": "CAIS_ExtractWCPayPrintPacketProposalCustoma3F6C000002Sf1UUASItem77",
        "%vlocity_namespace%__UpsertKey__c": false,
        "Name": "CAIS_ExtractWCPayPrintPacketProposal",
        "VlocityDataPackType": "SObject",
        "VlocityRecordSObjectType": "%vlocity_namespace%__DRMapItem__c"
    },
    {
        "%vlocity_namespace%__DomainObjectAPIName__c": "json",
        "%vlocity_namespace%__DomainObjectCreationOrder__c": 1,
        "%vlocity_namespace%__DomainObjectFieldAPIName__c": "PMC_Name",
        "%vlocity_namespace%__InterfaceFieldAPIName__c": "quote:Account.Management_Company__r.Name",
        "%vlocity_namespace%__IsDisabled__c": false,
        "%vlocity_namespace%__IsRequiredForUpsert__c": false,
        "%vlocity_namespace%__MapId__c": "CAIS_ExtractWCPayPrintPacketProposalCustoma3F6C000002Sf1UUASItem18",
        "%vlocity_namespace%__UpsertKey__c": false,
        "Name": "CAIS_ExtractWCPayPrintPacketProposal",
        "VlocityDataPackType": "SObject",
        "VlocityRecordSObjectType": "%vlocity_namespace%__DRMapItem__c"
    },
    {
        "%vlocity_namespace%__DomainObjectAPIName__c": "json",
        "%vlocity_namespace%__DomainObjectCreationOrder__c": 1,
        "%vlocity_namespace%__DomainObjectFieldAPIName__c": "PolicyNumber",
        "%vlocity_namespace%__InterfaceFieldAPIName__c": "quote:%vlocity_namespace%_fsc__SourceInsurancePolicyId__r:CAIS_Policy_Number__c",
        "%vlocity_namespace%__IsDisabled__c": false,
        "%vlocity_namespace%__IsRequiredForUpsert__c": false,
        "%vlocity_namespace%__MapId__c": "CAIS_ExtractWCPayPrintPacketProposalCustoma3F6C000002Sf1UUASItem42",
        "%vlocity_namespace%__UpsertKey__c": false,
        "Name": "CAIS_ExtractWCPayPrintPacketProposal",
        "VlocityDataPackType": "SObject",
        "VlocityRecordSObjectType": "%vlocity_namespace%__DRMapItem__c"
    },
    {
        "%vlocity_namespace%__DomainObjectAPIName__c": "json",
        "%vlocity_namespace%__DomainObjectCreationOrder__c": 1,
        "%vlocity_namespace%__DomainObjectFieldAPIName__c": "Premium",
        "%vlocity_namespace%__InterfaceFieldAPIName__c": "quote:TotalPrice",
        "%vlocity_namespace%__IsDisabled__c": false,
        "%vlocity_namespace%__IsRequiredForUpsert__c": false,
        "%vlocity_namespace%__MapId__c": "CAIS_ExtractWCPayPrintPacketProposalCustoma3F6C000002Sf1UUASItem41",
        "%vlocity_namespace%__UpsertKey__c": false,
        "Name": "CAIS_ExtractWCPayPrintPacketProposal",
        "VlocityDataPackType": "SObject",
        "VlocityRecordSObjectType": "%vlocity_namespace%__DRMapItem__c"
    },
    {
        "%vlocity_namespace%__DomainObjectAPIName__c": "json",
        "%vlocity_namespace%__DomainObjectCreationOrder__c": 1,
        "%vlocity_namespace%__DomainObjectFieldAPIName__c": "QuoteDate",
        "%vlocity_namespace%__DomainObjectFieldType__c": "Date(MM/dd/yyyy)",
        "%vlocity_namespace%__InterfaceFieldAPIName__c": "quote:CreatedDate",
        "%vlocity_namespace%__IsDisabled__c": false,
        "%vlocity_namespace%__IsRequiredForUpsert__c": false,
        "%vlocity_namespace%__MapId__c": "CAIS_ExtractWCPayPrintPacketProposalCustoma3F6C000002Sf1UUASItem35",
        "%vlocity_namespace%__UpsertKey__c": false,
        "Name": "CAIS_ExtractWCPayPrintPacketProposal",
        "VlocityDataPackType": "SObject",
        "VlocityRecordSObjectType": "%vlocity_namespace%__DRMapItem__c"
    },
    {
        "%vlocity_namespace%__DomainObjectAPIName__c": "json",
        "%vlocity_namespace%__DomainObjectCreationOrder__c": 1,
        "%vlocity_namespace%__DomainObjectFieldAPIName__c": "QuoteNo",
        "%vlocity_namespace%__InterfaceFieldAPIName__c": "quote:QuoteNumber",
        "%vlocity_namespace%__IsDisabled__c": false,
        "%vlocity_namespace%__IsRequiredForUpsert__c": false,
        "%vlocity_namespace%__MapId__c": "CAIS_ExtractWCPayPrintPacketProposalCustoma3F6C000002Sf1UUASItem39",
        "%vlocity_namespace%__UpsertKey__c": false,
        "Name": "CAIS_ExtractWCPayPrintPacketProposal",
        "VlocityDataPackType": "SObject",
        "VlocityRecordSObjectType": "%vlocity_namespace%__DRMapItem__c"
    },
    {
        "%vlocity_namespace%__DomainObjectAPIName__c": "json",
        "%vlocity_namespace%__DomainObjectCreationOrder__c": 1,
        "%vlocity_namespace%__DomainObjectFieldAPIName__c": "TaxesFees",
        "%vlocity_namespace%__InterfaceFieldAPIName__c": "quote:Tax",
        "%vlocity_namespace%__IsDisabled__c": false,
        "%vlocity_namespace%__IsRequiredForUpsert__c": false,
        "%vlocity_namespace%__MapId__c": "CAIS_ExtractWCPayPrintPacketProposalCustoma3F6C000002Sf1UUASItem40",
        "%vlocity_namespace%__UpsertKey__c": false,
        "Name": "CAIS_ExtractWCPayPrintPacketProposal",
        "VlocityDataPackType": "SObject",
        "VlocityRecordSObjectType": "%vlocity_namespace%__DRMapItem__c"
    },
    {
        "%vlocity_namespace%__DomainObjectAPIName__c": "json",
        "%vlocity_namespace%__DomainObjectCreationOrder__c": 1,
        "%vlocity_namespace%__DomainObjectFieldAPIName__c": "TotalAmount",
        "%vlocity_namespace%__InterfaceFieldAPIName__c": "quote:GrandTotal",
        "%vlocity_namespace%__IsDisabled__c": false,
        "%vlocity_namespace%__IsRequiredForUpsert__c": false,
        "%vlocity_namespace%__MapId__c": "CAIS_ExtractWCPayPrintPacketProposalCustoma3F6C000002Sf1UUASItem36",
        "%vlocity_namespace%__UpsertKey__c": false,
        "Name": "CAIS_ExtractWCPayPrintPacketProposal",
        "VlocityDataPackType": "SObject",
        "VlocityRecordSObjectType": "%vlocity_namespace%__DRMapItem__c"
    },
    {
        "%vlocity_namespace%__DomainObjectAPIName__c": "json",
        "%vlocity_namespace%__DomainObjectCreationOrder__c": 1,
        "%vlocity_namespace%__DomainObjectFieldAPIName__c": "User_First_Name",
        "%vlocity_namespace%__InterfaceFieldAPIName__c": "quoteJSON:WorkerCompensation:CommunityAssociation:InsuredContactBlock:ContactFirstName",
        "%vlocity_namespace%__IsDisabled__c": false,
        "%vlocity_namespace%__IsRequiredForUpsert__c": false,
        "%vlocity_namespace%__MapId__c": "CAIS_ExtractWCPayPrintPacketProposalCustoma3F6C000002Sf1UUASItem69",
        "%vlocity_namespace%__UpsertKey__c": false,
        "Name": "CAIS_ExtractWCPayPrintPacketProposal",
        "VlocityDataPackType": "SObject",
        "VlocityRecordSObjectType": "%vlocity_namespace%__DRMapItem__c"
    },
    {
        "%vlocity_namespace%__DomainObjectAPIName__c": "json",
        "%vlocity_namespace%__DomainObjectCreationOrder__c": 1,
        "%vlocity_namespace%__DomainObjectFieldAPIName__c": "User_Last_Name",
        "%vlocity_namespace%__InterfaceFieldAPIName__c": "quoteJSON:WorkerCompensation:CommunityAssociation:InsuredContactBlock:ContactLastName",
        "%vlocity_namespace%__IsDisabled__c": false,
        "%vlocity_namespace%__IsRequiredForUpsert__c": false,
        "%vlocity_namespace%__MapId__c": "CAIS_ExtractWCPayPrintPacketProposalCustoma3F6C000002Sf1UUASItem70",
        "%vlocity_namespace%__UpsertKey__c": false,
        "Name": "CAIS_ExtractWCPayPrintPacketProposal",
        "VlocityDataPackType": "SObject",
        "VlocityRecordSObjectType": "%vlocity_namespace%__DRMapItem__c"
    },
    {
        "%vlocity_namespace%__DomainObjectAPIName__c": "json",
        "%vlocity_namespace%__DomainObjectCreationOrder__c": 1,
        "%vlocity_namespace%__DomainObjectFieldAPIName__c": "VacancyRate",
        "%vlocity_namespace%__InterfaceFieldAPIName__c": "quote:Account.Vacancy_Rate__c",
        "%vlocity_namespace%__IsDisabled__c": false,
        "%vlocity_namespace%__IsRequiredForUpsert__c": false,
        "%vlocity_namespace%__MapId__c": "CAIS_ExtractWCPayPrintPacketProposalCustoma3F6C000002Sf1UUASItem27",
        "%vlocity_namespace%__UpsertKey__c": false,
        "Name": "CAIS_ExtractWCPayPrintPacketProposal",
        "VlocityDataPackType": "SObject",
        "VlocityRecordSObjectType": "%vlocity_namespace%__DRMapItem__c"
    },
    {
        "%vlocity_namespace%__DomainObjectAPIName__c": "json",
        "%vlocity_namespace%__DomainObjectCreationOrder__c": 1,
        "%vlocity_namespace%__DomainObjectFieldAPIName__c": "quoteId",
        "%vlocity_namespace%__InterfaceFieldAPIName__c": "quote:Id",
        "%vlocity_namespace%__IsDisabled__c": false,
        "%vlocity_namespace%__IsRequiredForUpsert__c": false,
        "%vlocity_namespace%__MapId__c": "CAIS_ExtractWCPayPrintPacketProposalCustoma3F6C000002Sf1UUASItem37",
        "%vlocity_namespace%__UpsertKey__c": false,
        "Name": "CAIS_ExtractWCPayPrintPacketProposal",
        "VlocityDataPackType": "SObject",
        "VlocityRecordSObjectType": "%vlocity_namespace%__DRMapItem__c"
    },
    {
        "%vlocity_namespace%__DomainObjectAPIName__c": "json",
        "%vlocity_namespace%__DomainObjectCreationOrder__c": 1,
        "%vlocity_namespace%__DomainObjectFieldAPIName__c": "quoteJSON",
        "%vlocity_namespace%__InterfaceFieldAPIName__c": "quoteJSON",
        "%vlocity_namespace%__IsDisabled__c": true,
        "%vlocity_namespace%__IsRequiredForUpsert__c": false,
        "%vlocity_namespace%__MapId__c": "CAIS_ExtractWCPayPrintPacketProposalCustoma3F6C000002Sf1UUASItem51",
        "%vlocity_namespace%__UpsertKey__c": false,
        "Name": "CAIS_ExtractWCPayPrintPacketProposal",
        "VlocityDataPackType": "SObject",
        "VlocityRecordSObjectType": "%vlocity_namespace%__DRMapItem__c"
    }
]