[
    {
        "%vlocity_namespace%__DomainObjectAPIName__c": "json",
        "%vlocity_namespace%__DomainObjectCreationOrder__c": 0,
        "%vlocity_namespace%__DomainObjectFieldAPIName__c": "PrintApplicationTemplate",
        "%vlocity_namespace%__FilterGroup__c": 0,
        "%vlocity_namespace%__FilterOperator__c": "=",
        "%vlocity_namespace%__FilterValue__c": "'true'",
        "%vlocity_namespace%__InterfaceFieldAPIName__c": "%vlocity_namespace%__IsActive__c",
        "%vlocity_namespace%__InterfaceObjectLookupOrder__c": 1,
        "%vlocity_namespace%__InterfaceObjectName__c": "%vlocity_namespace%__DocumentTemplate__c",
        "%vlocity_namespace%__IsDisabled__c": false,
        "%vlocity_namespace%__IsRequiredForUpsert__c": false,
        "%vlocity_namespace%__MapId__c": "CAIS_GetTemplatesforPacketProposalsCustom8113",
        "%vlocity_namespace%__UpsertKey__c": false,
        "Name": "CAIS_GetTemplatesforPacketProposals",
        "VlocityDataPackType": "SObject",
        "VlocityRecordSObjectType": "%vlocity_namespace%__DRMapItem__c"
    },
    {
        "%vlocity_namespace%__DomainObjectAPIName__c": "json",
        "%vlocity_namespace%__DomainObjectCreationOrder__c": 0,
        "%vlocity_namespace%__DomainObjectFieldAPIName__c": "PrintApplicationTemplate",
        "%vlocity_namespace%__FilterGroup__c": 0,
        "%vlocity_namespace%__FilterOperator__c": "=",
        "%vlocity_namespace%__FilterValue__c": "'JSON Based'",
        "%vlocity_namespace%__InterfaceFieldAPIName__c": "%vlocity_namespace%__MappingType__c",
        "%vlocity_namespace%__InterfaceObjectLookupOrder__c": 1,
        "%vlocity_namespace%__InterfaceObjectName__c": "%vlocity_namespace%__DocumentTemplate__c",
        "%vlocity_namespace%__IsDisabled__c": false,
        "%vlocity_namespace%__IsRequiredForUpsert__c": false,
        "%vlocity_namespace%__MapId__c": "CAIS_GetTemplatesforPacketProposalsCustom4562",
        "%vlocity_namespace%__UpsertKey__c": false,
        "Name": "CAIS_GetTemplatesforPacketProposals",
        "VlocityDataPackType": "SObject",
        "VlocityRecordSObjectType": "%vlocity_namespace%__DRMapItem__c"
    },
    {
        "%vlocity_namespace%__DomainObjectAPIName__c": "json",
        "%vlocity_namespace%__DomainObjectCreationOrder__c": 0,
        "%vlocity_namespace%__DomainObjectFieldAPIName__c": "PrintApplicationTemplate",
        "%vlocity_namespace%__FilterGroup__c": 0,
        "%vlocity_namespace%__FilterOperator__c": "=",
        "%vlocity_namespace%__FilterValue__c": "'Microsoft Word .DOCX Template'",
        "%vlocity_namespace%__InterfaceFieldAPIName__c": "%vlocity_namespace%__TemplateContentFormat__c",
        "%vlocity_namespace%__InterfaceObjectLookupOrder__c": 1,
        "%vlocity_namespace%__InterfaceObjectName__c": "%vlocity_namespace%__DocumentTemplate__c",
        "%vlocity_namespace%__IsDisabled__c": false,
        "%vlocity_namespace%__IsRequiredForUpsert__c": false,
        "%vlocity_namespace%__MapId__c": "CAIS_GetTemplatesforPacketProposalsCustom7837",
        "%vlocity_namespace%__UpsertKey__c": false,
        "Name": "CAIS_GetTemplatesforPacketProposals",
        "VlocityDataPackType": "SObject",
        "VlocityRecordSObjectType": "%vlocity_namespace%__DRMapItem__c"
    },
    {
        "%vlocity_namespace%__DomainObjectAPIName__c": "json",
        "%vlocity_namespace%__DomainObjectCreationOrder__c": 0,
        "%vlocity_namespace%__DomainObjectFieldAPIName__c": "PrintApplicationTemplate",
        "%vlocity_namespace%__FilterGroup__c": 0,
        "%vlocity_namespace%__FilterOperator__c": "=",
        "%vlocity_namespace%__FilterValue__c": "PrintApplicationDoc",
        "%vlocity_namespace%__InterfaceFieldAPIName__c": "Name",
        "%vlocity_namespace%__InterfaceObjectLookupOrder__c": 1,
        "%vlocity_namespace%__InterfaceObjectName__c": "%vlocity_namespace%__DocumentTemplate__c",
        "%vlocity_namespace%__IsDisabled__c": false,
        "%vlocity_namespace%__IsRequiredForUpsert__c": false,
        "%vlocity_namespace%__MapId__c": "CAIS_GetTemplatesforPacketProposalsCustom5027",
        "%vlocity_namespace%__UpsertKey__c": false,
        "Name": "CAIS_GetTemplatesforPacketProposals",
        "VlocityDataPackType": "SObject",
        "VlocityRecordSObjectType": "%vlocity_namespace%__DRMapItem__c"
    },
    {
        "%vlocity_namespace%__DomainObjectAPIName__c": "json",
        "%vlocity_namespace%__DomainObjectCreationOrder__c": 0,
        "%vlocity_namespace%__DomainObjectFieldAPIName__c": "PrintPayrollApplicationTemplate",
        "%vlocity_namespace%__FilterGroup__c": 0,
        "%vlocity_namespace%__FilterOperator__c": "=",
        "%vlocity_namespace%__FilterValue__c": "'true'",
        "%vlocity_namespace%__InterfaceFieldAPIName__c": "%vlocity_namespace%__IsActive__c",
        "%vlocity_namespace%__InterfaceObjectLookupOrder__c": 2,
        "%vlocity_namespace%__InterfaceObjectName__c": "%vlocity_namespace%__DocumentTemplate__c",
        "%vlocity_namespace%__IsDisabled__c": false,
        "%vlocity_namespace%__IsRequiredForUpsert__c": false,
        "%vlocity_namespace%__MapId__c": "CAIS_GetTemplatesforPacketProposalsCustom9852",
        "%vlocity_namespace%__UpsertKey__c": false,
        "Name": "CAIS_GetTemplatesforPacketProposals",
        "VlocityDataPackType": "SObject",
        "VlocityRecordSObjectType": "%vlocity_namespace%__DRMapItem__c"
    },
    {
        "%vlocity_namespace%__DomainObjectAPIName__c": "json",
        "%vlocity_namespace%__DomainObjectCreationOrder__c": 0,
        "%vlocity_namespace%__DomainObjectFieldAPIName__c": "PrintPayrollApplicationTemplate",
        "%vlocity_namespace%__FilterGroup__c": 0,
        "%vlocity_namespace%__FilterOperator__c": "=",
        "%vlocity_namespace%__FilterValue__c": "'JSON Based'",
        "%vlocity_namespace%__InterfaceFieldAPIName__c": "%vlocity_namespace%__MappingType__c",
        "%vlocity_namespace%__InterfaceObjectLookupOrder__c": 2,
        "%vlocity_namespace%__InterfaceObjectName__c": "%vlocity_namespace%__DocumentTemplate__c",
        "%vlocity_namespace%__IsDisabled__c": false,
        "%vlocity_namespace%__IsRequiredForUpsert__c": false,
        "%vlocity_namespace%__MapId__c": "CAIS_GetTemplatesforPacketProposalsCustom9715",
        "%vlocity_namespace%__UpsertKey__c": false,
        "Name": "CAIS_GetTemplatesforPacketProposals",
        "VlocityDataPackType": "SObject",
        "VlocityRecordSObjectType": "%vlocity_namespace%__DRMapItem__c"
    },
    {
        "%vlocity_namespace%__DomainObjectAPIName__c": "json",
        "%vlocity_namespace%__DomainObjectCreationOrder__c": 0,
        "%vlocity_namespace%__DomainObjectFieldAPIName__c": "PrintPayrollApplicationTemplate",
        "%vlocity_namespace%__FilterGroup__c": 0,
        "%vlocity_namespace%__FilterOperator__c": "=",
        "%vlocity_namespace%__FilterValue__c": "'Microsoft Word .DOCX Template'",
        "%vlocity_namespace%__InterfaceFieldAPIName__c": "%vlocity_namespace%__TemplateContentFormat__c",
        "%vlocity_namespace%__InterfaceObjectLookupOrder__c": 2,
        "%vlocity_namespace%__InterfaceObjectName__c": "%vlocity_namespace%__DocumentTemplate__c",
        "%vlocity_namespace%__IsDisabled__c": false,
        "%vlocity_namespace%__IsRequiredForUpsert__c": false,
        "%vlocity_namespace%__MapId__c": "CAIS_GetTemplatesforPacketProposalsCustom2750",
        "%vlocity_namespace%__UpsertKey__c": false,
        "Name": "CAIS_GetTemplatesforPacketProposals",
        "VlocityDataPackType": "SObject",
        "VlocityRecordSObjectType": "%vlocity_namespace%__DRMapItem__c"
    },
    {
        "%vlocity_namespace%__DomainObjectAPIName__c": "json",
        "%vlocity_namespace%__DomainObjectCreationOrder__c": 0,
        "%vlocity_namespace%__DomainObjectFieldAPIName__c": "PrintPayrollApplicationTemplate",
        "%vlocity_namespace%__FilterGroup__c": 0,
        "%vlocity_namespace%__FilterOperator__c": "=",
        "%vlocity_namespace%__FilterValue__c": "PrintPayrollApplicationDoc",
        "%vlocity_namespace%__InterfaceFieldAPIName__c": "Name",
        "%vlocity_namespace%__InterfaceObjectLookupOrder__c": 2,
        "%vlocity_namespace%__InterfaceObjectName__c": "%vlocity_namespace%__DocumentTemplate__c",
        "%vlocity_namespace%__IsDisabled__c": false,
        "%vlocity_namespace%__IsRequiredForUpsert__c": false,
        "%vlocity_namespace%__MapId__c": "CAIS_GetTemplatesforPacketProposalsCustom8751",
        "%vlocity_namespace%__UpsertKey__c": false,
        "Name": "CAIS_GetTemplatesforPacketProposals",
        "VlocityDataPackType": "SObject",
        "VlocityRecordSObjectType": "%vlocity_namespace%__DRMapItem__c"
    },
    {
        "%vlocity_namespace%__DomainObjectAPIName__c": "json",
        "%vlocity_namespace%__DomainObjectCreationOrder__c": 1,
        "%vlocity_namespace%__DomainObjectFieldAPIName__c": "PrintApplicationTemplate:Id",
        "%vlocity_namespace%__InterfaceFieldAPIName__c": "PrintApplicationTemplate:Id",
        "%vlocity_namespace%__IsDisabled__c": false,
        "%vlocity_namespace%__IsRequiredForUpsert__c": false,
        "%vlocity_namespace%__MapId__c": "CAIS_GetTemplatesforPacketProposalsCustom2550",
        "%vlocity_namespace%__UpsertKey__c": false,
        "Name": "CAIS_GetTemplatesforPacketProposals",
        "VlocityDataPackType": "SObject",
        "VlocityRecordSObjectType": "%vlocity_namespace%__DRMapItem__c"
    },
    {
        "%vlocity_namespace%__DomainObjectAPIName__c": "json",
        "%vlocity_namespace%__DomainObjectCreationOrder__c": 1,
        "%vlocity_namespace%__DomainObjectFieldAPIName__c": "PrintApplicationTemplate:Name",
        "%vlocity_namespace%__InterfaceFieldAPIName__c": "PrintApplicationTemplate:Name",
        "%vlocity_namespace%__IsDisabled__c": false,
        "%vlocity_namespace%__IsRequiredForUpsert__c": false,
        "%vlocity_namespace%__MapId__c": "CAIS_GetTemplatesforPacketProposalsCustom1762",
        "%vlocity_namespace%__UpsertKey__c": false,
        "Name": "CAIS_GetTemplatesforPacketProposals",
        "VlocityDataPackType": "SObject",
        "VlocityRecordSObjectType": "%vlocity_namespace%__DRMapItem__c"
    },
    {
        "%vlocity_namespace%__DomainObjectAPIName__c": "json",
        "%vlocity_namespace%__DomainObjectCreationOrder__c": 1,
        "%vlocity_namespace%__DomainObjectFieldAPIName__c": "PrintApplicationTemplate:Type",
        "%vlocity_namespace%__InterfaceFieldAPIName__c": "PrintApplicationTemplate:%vlocity_namespace%__TemplateContentFormat__c",
        "%vlocity_namespace%__IsDisabled__c": false,
        "%vlocity_namespace%__IsRequiredForUpsert__c": false,
        "%vlocity_namespace%__MapId__c": "CAIS_GetTemplatesforPacketProposalsCustom5275",
        "%vlocity_namespace%__UpsertKey__c": false,
        "Name": "CAIS_GetTemplatesforPacketProposals",
        "VlocityDataPackType": "SObject",
        "VlocityRecordSObjectType": "%vlocity_namespace%__DRMapItem__c"
    },
    {
        "%vlocity_namespace%__DomainObjectAPIName__c": "json",
        "%vlocity_namespace%__DomainObjectCreationOrder__c": 1,
        "%vlocity_namespace%__DomainObjectFieldAPIName__c": "PrintApplicationTemplate:VersionNumber",
        "%vlocity_namespace%__InterfaceFieldAPIName__c": "PrintApplicationTemplate:%vlocity_namespace%__VersionNumber__c",
        "%vlocity_namespace%__IsDisabled__c": false,
        "%vlocity_namespace%__IsRequiredForUpsert__c": false,
        "%vlocity_namespace%__MapId__c": "CAIS_GetTemplatesforPacketProposalsCustom6440",
        "%vlocity_namespace%__UpsertKey__c": false,
        "Name": "CAIS_GetTemplatesforPacketProposals",
        "VlocityDataPackType": "SObject",
        "VlocityRecordSObjectType": "%vlocity_namespace%__DRMapItem__c"
    },
    {
        "%vlocity_namespace%__DomainObjectAPIName__c": "json",
        "%vlocity_namespace%__DomainObjectCreationOrder__c": 1,
        "%vlocity_namespace%__DomainObjectFieldAPIName__c": "PrintPayrollApplicationTemplate:Id",
        "%vlocity_namespace%__InterfaceFieldAPIName__c": "PrintPayrollApplicationTemplate:Id",
        "%vlocity_namespace%__IsDisabled__c": false,
        "%vlocity_namespace%__IsRequiredForUpsert__c": false,
        "%vlocity_namespace%__MapId__c": "CAIS_GetTemplatesforPacketProposalsCustom515",
        "%vlocity_namespace%__UpsertKey__c": false,
        "Name": "CAIS_GetTemplatesforPacketProposals",
        "VlocityDataPackType": "SObject",
        "VlocityRecordSObjectType": "%vlocity_namespace%__DRMapItem__c"
    },
    {
        "%vlocity_namespace%__DomainObjectAPIName__c": "json",
        "%vlocity_namespace%__DomainObjectCreationOrder__c": 1,
        "%vlocity_namespace%__DomainObjectFieldAPIName__c": "PrintPayrollApplicationTemplate:Name",
        "%vlocity_namespace%__InterfaceFieldAPIName__c": "PrintPayrollApplicationTemplate:Name",
        "%vlocity_namespace%__IsDisabled__c": false,
        "%vlocity_namespace%__IsRequiredForUpsert__c": false,
        "%vlocity_namespace%__MapId__c": "CAIS_GetTemplatesforPacketProposalsCustom6379",
        "%vlocity_namespace%__UpsertKey__c": false,
        "Name": "CAIS_GetTemplatesforPacketProposals",
        "VlocityDataPackType": "SObject",
        "VlocityRecordSObjectType": "%vlocity_namespace%__DRMapItem__c"
    },
    {
        "%vlocity_namespace%__DomainObjectAPIName__c": "json",
        "%vlocity_namespace%__DomainObjectCreationOrder__c": 1,
        "%vlocity_namespace%__DomainObjectFieldAPIName__c": "PrintPayrollApplicationTemplate:Type",
        "%vlocity_namespace%__InterfaceFieldAPIName__c": "PrintPayrollApplicationTemplate:%vlocity_namespace%__TemplateContentFormat__c",
        "%vlocity_namespace%__IsDisabled__c": false,
        "%vlocity_namespace%__IsRequiredForUpsert__c": false,
        "%vlocity_namespace%__MapId__c": "CAIS_GetTemplatesforPacketProposalsCustom2540",
        "%vlocity_namespace%__UpsertKey__c": false,
        "Name": "CAIS_GetTemplatesforPacketProposals",
        "VlocityDataPackType": "SObject",
        "VlocityRecordSObjectType": "%vlocity_namespace%__DRMapItem__c"
    },
    {
        "%vlocity_namespace%__DomainObjectAPIName__c": "json",
        "%vlocity_namespace%__DomainObjectCreationOrder__c": 1,
        "%vlocity_namespace%__DomainObjectFieldAPIName__c": "PrintPayrollApplicationTemplate:VersionNumber",
        "%vlocity_namespace%__InterfaceFieldAPIName__c": "PrintPayrollApplicationTemplate:%vlocity_namespace%__VersionNumber__c",
        "%vlocity_namespace%__IsDisabled__c": false,
        "%vlocity_namespace%__IsRequiredForUpsert__c": false,
        "%vlocity_namespace%__MapId__c": "CAIS_GetTemplatesforPacketProposalsCustom3596",
        "%vlocity_namespace%__UpsertKey__c": false,
        "Name": "CAIS_GetTemplatesforPacketProposals",
        "VlocityDataPackType": "SObject",
        "VlocityRecordSObjectType": "%vlocity_namespace%__DRMapItem__c"
    }
]