{
    "%vlocity_namespace%__Author__c": "Vlocity",
    "%vlocity_namespace%__CustomJavascript__c": "story-card.js",
    "%vlocity_namespace%__Definition__c": "",
    "%vlocity_namespace%__Description__c": "",
    "%vlocity_namespace%__DisplayOn__c": "",
    "%vlocity_namespace%__ExternalID__c": "story-card/3/Vlocity/1517460426862",
    "%vlocity_namespace%__HTML__c": "story-card.html",
    "%vlocity_namespace%__ParentID__c": "",
    "%vlocity_namespace%__SampleJson__c": "story-card_Sample.json",
    "%vlocity_namespace%__Sass__c": "story-card.scss",
    "%vlocity_namespace%__Type__c": "Cards",
    "%vlocity_namespace%__Version__c": 3,
    "Name": "story-card",
    "VlocityDataPackType": "SObject",
    "VlocityRecordSObjectType": "%vlocity_namespace%__VlocityUITemplate__c",
    "VlocityRecordSourceKey": "%vlocity_namespace%__VlocityUITemplate__c/story-card",
    "sourceOrgUrl": "/apex/vlocity_ins__uitemplatedesigner?id=a8C4W0000004iWJUAY"
}