[
    {
        "%vlocity_namespace%__AllowIndependentLifeCycle__c": false,
        "%vlocity_namespace%__ChildLineNumber__c": "1",
        "%vlocity_namespace%__ChildProductId__c": {
            "%vlocity_namespace%__GlobalKey__c": "00c4da02-a21c-902c-b326-13ee32ac9fac",
            "VlocityDataPackType": "VlocityLookupMatchingKeyObject",
            "VlocityLookupRecordSourceKey": "Product2/00c4da02-a21c-902c-b326-13ee32ac9fac",
            "VlocityRecordSObjectType": "Product2"
        },
        "%vlocity_namespace%__ChildRecordType__c": "CoverageSpec",
        "%vlocity_namespace%__CollapseHierarchy__c": false,
        "%vlocity_namespace%__CoverageCalculationFormula__c": "",
        "%vlocity_namespace%__DefaultSelectedCriteriaComments__c": "",
        "%vlocity_namespace%__DefaultSelectedCriteria__c": "",
        "%vlocity_namespace%__EligibilityCriteriaComments__c": "",
        "%vlocity_namespace%__EligibilityCriteria__c": "",
        "%vlocity_namespace%__GlobalKey__c": "7d47fe36-99a9-dae7-03a1-4a683408120e",
        "%vlocity_namespace%__IsOptional__c": false,
        "%vlocity_namespace%__IsOverride__c": false,
        "%vlocity_namespace%__IsRootProductChildItem__c": false,
        "%vlocity_namespace%__IsVirtualItem__c": false,
        "%vlocity_namespace%__MaxQuantity__c": 99999,
        "%vlocity_namespace%__MaximumChildItemQuantity__c": 99999,
        "%vlocity_namespace%__MinMaxDefaultQty__c": "0, 99999, 1",
        "%vlocity_namespace%__MinQuantity__c": 0,
        "%vlocity_namespace%__MinimumChildItemQuantity__c": 0,
        "%vlocity_namespace%__ParentProductChildItemId__c": "",
        "%vlocity_namespace%__ParentProductId__c": {
            "%vlocity_namespace%__GlobalKey__c": "554a2652-104d-0a83-c92a-e032a0969708",
            "VlocityDataPackType": "VlocityMatchingKeyObject",
            "VlocityMatchingRecordSourceKey": "Product2/554a2652-104d-0a83-c92a-e032a0969708",
            "VlocityRecordSObjectType": "Product2"
        },
        "%vlocity_namespace%__ParentRecordType__c": "Product",
        "%vlocity_namespace%__PricingFormula__c": "",
        "%vlocity_namespace%__PricingSource__c": "",
        "%vlocity_namespace%__Quantity__c": 1,
        "%vlocity_namespace%__RelationshipType__c": "Child",
        "%vlocity_namespace%__RequiredCriteriaComments__c": "",
        "%vlocity_namespace%__RequiredCriteria__c": "",
        "%vlocity_namespace%__SelectValidationCriteria__c": "",
        "%vlocity_namespace%__SelectValidationMessage__c": "",
        "%vlocity_namespace%__SelectionMethodImplementation__c": "",
        "%vlocity_namespace%__SeqNumber__c": 1,
        "%vlocity_namespace%__SubParentSpecId__c": "",
        "%vlocity_namespace%__TotalCoverageCalculationFormula__c": "",
        "Name": "7d47fe36-99a9-dae7-03a1-4a683408120e",
        "VlocityDataPackType": "SObject",
        "VlocityRecordSObjectType": "%vlocity_namespace%__ProductChildItem__c",
        "VlocityRecordSourceKey": "%vlocity_namespace%__ProductChildItem__c/7d47fe36-99a9-dae7-03a1-4a683408120e"
    },
    {
        "%vlocity_namespace%__AllowIndependentLifeCycle__c": false,
        "%vlocity_namespace%__ChildLineNumber__c": "1",
        "%vlocity_namespace%__ChildProductId__c": {
            "%vlocity_namespace%__GlobalKey__c": "461b2668-6fc2-2d2d-f524-fcb4caffc898",
            "VlocityDataPackType": "VlocityLookupMatchingKeyObject",
            "VlocityLookupRecordSourceKey": "Product2/461b2668-6fc2-2d2d-f524-fcb4caffc898",
            "VlocityRecordSObjectType": "Product2"
        },
        "%vlocity_namespace%__ChildRecordType__c": "InsuredItemSpec",
        "%vlocity_namespace%__CollapseHierarchy__c": false,
        "%vlocity_namespace%__CoverageCalculationFormula__c": "",
        "%vlocity_namespace%__DefaultSelectedCriteriaComments__c": "",
        "%vlocity_namespace%__DefaultSelectedCriteria__c": "",
        "%vlocity_namespace%__EligibilityCriteriaComments__c": "",
        "%vlocity_namespace%__EligibilityCriteria__c": "",
        "%vlocity_namespace%__GlobalKey__c": "b6a1fc48-01fd-3532-ca37-9b21ab9436a4",
        "%vlocity_namespace%__IsOptional__c": false,
        "%vlocity_namespace%__IsOverride__c": false,
        "%vlocity_namespace%__IsRootProductChildItem__c": false,
        "%vlocity_namespace%__IsVirtualItem__c": false,
        "%vlocity_namespace%__MaxQuantity__c": 1,
        "%vlocity_namespace%__MaximumChildItemQuantity__c": 99999,
        "%vlocity_namespace%__MinMaxDefaultQty__c": "1, 1, 1",
        "%vlocity_namespace%__MinQuantity__c": 1,
        "%vlocity_namespace%__MinimumChildItemQuantity__c": 0,
        "%vlocity_namespace%__ParentProductChildItemId__c": "",
        "%vlocity_namespace%__ParentProductId__c": {
            "%vlocity_namespace%__GlobalKey__c": "554a2652-104d-0a83-c92a-e032a0969708",
            "VlocityDataPackType": "VlocityMatchingKeyObject",
            "VlocityMatchingRecordSourceKey": "Product2/554a2652-104d-0a83-c92a-e032a0969708",
            "VlocityRecordSObjectType": "Product2"
        },
        "%vlocity_namespace%__ParentRecordType__c": "Product",
        "%vlocity_namespace%__PricingFormula__c": "",
        "%vlocity_namespace%__PricingSource__c": "",
        "%vlocity_namespace%__Quantity__c": 1,
        "%vlocity_namespace%__RelationshipType__c": "Child",
        "%vlocity_namespace%__RequiredCriteriaComments__c": "",
        "%vlocity_namespace%__RequiredCriteria__c": "",
        "%vlocity_namespace%__SelectValidationCriteria__c": "",
        "%vlocity_namespace%__SelectValidationMessage__c": "",
        "%vlocity_namespace%__SelectionMethodImplementation__c": "",
        "%vlocity_namespace%__SeqNumber__c": 1,
        "%vlocity_namespace%__SubParentSpecId__c": "",
        "%vlocity_namespace%__TotalCoverageCalculationFormula__c": "",
        "Name": "b6a1fc48-01fd-3532-ca37-9b21ab9436a4",
        "VlocityDataPackType": "SObject",
        "VlocityRecordSObjectType": "%vlocity_namespace%__ProductChildItem__c",
        "VlocityRecordSourceKey": "%vlocity_namespace%__ProductChildItem__c/b6a1fc48-01fd-3532-ca37-9b21ab9436a4"
    }
]