{
    "%vlocity_namespace%__Active__c": false,
    "%vlocity_namespace%__OmniScriptId__c": {
        "Name": "Workers Compensation Quote",
        "VlocityDataPackType": "VlocityMatchingKeyObject",
        "VlocityMatchingRecordSourceKey": "%vlocity_namespace%__OmniScript__c/quote/workersCompensation/English",
        "VlocityRecordSObjectType": "%vlocity_namespace%__OmniScript__c"
    },
    "%vlocity_namespace%__ParentElementId__c": {
        "%vlocity_namespace%__OmniScriptId__c": {
            "Name": "Workers Compensation Quote",
            "VlocityDataPackType": "VlocityMatchingKeyObject",
            "VlocityMatchingRecordSourceKey": "%vlocity_namespace%__OmniScript__c/quote/workersCompensation/English",
            "VlocityRecordSObjectType": "%vlocity_namespace%__OmniScript__c"
        },
        "Name": "CommunityAssociation",
        "VlocityDataPackType": "VlocityMatchingKeyObject",
        "VlocityMatchingRecordSourceKey": "%vlocity_namespace%__Element__c/%vlocity_namespace%__OmniScript__c/quote/workersCompensation/English/CommunityAssociation",
        "VlocityRecordSObjectType": "%vlocity_namespace%__Element__c"
    },
    "%vlocity_namespace%__ParentElementName__c": "CommunityAssociation",
    "%vlocity_namespace%__ParentElementType__c": "Block",
    "%vlocity_namespace%__PropertySet__c": {
        "HTMLTemplateId": "",
        "controlWidth": 12,
        "dataType": null,
        "dateFormat": "MM-dd-yyyy",
        "disOnTplt": false,
        "expression": "%LocationAddress%",
        "hide": false,
        "hideGroupSep": false,
        "inputWidth": 12,
        "label": "Mailing Address",
        "mask": null,
        "show": {
            "group": {
                "operator": "AND",
                "rules": [
                    {
                        "condition": "=",
                        "data": "No",
                        "field": "ContractCheck"
                    },
                    {
                        "condition": "=",
                        "data": "Yes",
                        "field": "MailingAddressCheck"
                    }
                ]
            }
        },
        "showInputWidth": false
    },
    "%vlocity_namespace%__ReusableOmniScript__c": false,
    "%vlocity_namespace%__Type__c": "Formula",
    "Name": "LocationAsMailingAddress",
    "VlocityDataPackType": "SObject",
    "VlocityRecordSObjectType": "%vlocity_namespace%__Element__c",
    "VlocityRecordSourceKey": "%vlocity_namespace%__Element__c/%vlocity_namespace%__OmniScript__c/quote/workersCompensation/English/LocationAsMailingAddress"
}