{
    "%vlocity_namespace%__Active__c": true,
    "%vlocity_namespace%__OmniScriptId__c": {
        "Name": "Workers Compensation Quote",
        "VlocityDataPackType": "VlocityMatchingKeyObject",
        "VlocityMatchingRecordSourceKey": "%vlocity_namespace%__OmniScript__c/quote/workersCompensation/English",
        "VlocityRecordSObjectType": "%vlocity_namespace%__OmniScript__c"
    },
    "%vlocity_namespace%__ParentElementId__c": {
        "%vlocity_namespace%__OmniScriptId__c": {
            "Name": "Workers Compensation Quote",
            "VlocityDataPackType": "VlocityMatchingKeyObject",
            "VlocityMatchingRecordSourceKey": "%vlocity_namespace%__OmniScript__c/quote/workersCompensation/English",
            "VlocityRecordSObjectType": "%vlocity_namespace%__OmniScript__c"
        },
        "Name": "WorkerCompensation",
        "VlocityDataPackType": "VlocityMatchingKeyObject",
        "VlocityMatchingRecordSourceKey": "%vlocity_namespace%__Element__c/%vlocity_namespace%__OmniScript__c/quote/workersCompensation/English/WorkerCompensation",
        "VlocityRecordSObjectType": "%vlocity_namespace%__Element__c"
    },
    "%vlocity_namespace%__ParentElementName__c": "WorkerCompensation",
    "%vlocity_namespace%__ParentElementType__c": "Step",
    "%vlocity_namespace%__PropertySet__c": {
        "HTMLTemplateId": "",
        "controlWidth": 12,
        "dataType": null,
        "dateFormat": "MM-dd-yyyy",
        "disOnTplt": false,
        "expression": "IF(%CommunityAssociation:IsInsBillingSameAsMgmtBilling% == 'Yes',\n           IF(%CommunityAssociation:UpdatePMCBillingAddressCheck%,\n                %CommunityAssociation:UpdatePMCBillingAddress-Block:PMCBillingStreet%,\n                %CommunityAssociation:PMCBillingAddress-Block:BStreet_TA%  \n            ),\n            IF(%CommunityAssociation:BillingAddressCheck% == true,\n                %CommunityAssociation:LocationAddress-Block:LocationStreet%,\n                %CommunityAssociation:BillingAddress-Block:BillingStreet%\n            )\n)",
        "hide": true,
        "hideGroupSep": false,
        "inputWidth": 12,
        "label": "BillingStreetFormula",
        "mask": null,
        "show": null,
        "showInputWidth": false
    },
    "%vlocity_namespace%__ReusableOmniScript__c": false,
    "%vlocity_namespace%__Type__c": "Formula",
    "Name": "BillingStreetFormula",
    "VlocityDataPackType": "SObject",
    "VlocityRecordSObjectType": "%vlocity_namespace%__Element__c",
    "VlocityRecordSourceKey": "%vlocity_namespace%__Element__c/%vlocity_namespace%__OmniScript__c/quote/workersCompensation/English/BillingStreetFormula"
}