{
    "%vlocity_namespace%__AdditionalInformation__c": "V3-1293 Adding Policy Location Description",
    "%vlocity_namespace%__DisableMetadataCache__c": false,
    "%vlocity_namespace%__ElementTypeToHTMLTemplateList__c": "{\"ElementTypeToHTMLTemplateList\":[]}",
    "%vlocity_namespace%__Element__c": [
        "quote_workersCompensation_English_Element_DemoSetUser.json",
        "quote_workersCompensation_English_Element_getCurrentUserDetails.json",
        "quote_workersCompensation_English_Element_FEINStep.json",
        "quote_workersCompensation_English_Element_editIcon1.json",
        "quote_workersCompensation_English_Element_HaveFEIN.json",
        "quote_workersCompensation_English_Element_EnteredFEIN.json",
        "quote_workersCompensation_English_Element_Insured.json",
        "quote_workersCompensation_English_Element_getAgencyAccountInfo.json",
        "quote_workersCompensation_English_Element_InsuredFEIN.json",
        "quote_workersCompensation_English_Element_InsuredAccountId.json",
        "quote_workersCompensation_English_Element_NoFEINBasedAccount.json",
        "quote_workersCompensation_English_Element_formattedFEIN.json",
        "quote_workersCompensation_English_Element_DR_ExtractInsuredByFEIN.json",
        "quote_workersCompensation_English_Element_DRExtractInsuredDetailsById.json",
        "quote_workersCompensation_English_Element_WorkerCompensation.json",
        "quote_workersCompensation_English_Element_editIcon.json",
        "quote_workersCompensation_English_Element_CommunityAssociation.json",
        "quote_workersCompensation_English_Element_FormulaInsuredName.json",
        "quote_workersCompensation_English_Element_NewInsuredName.json",
        "quote_workersCompensation_English_Element_UpdateInsuredName.json",
        "quote_workersCompensation_English_Element_existingAccountId.json",
        "quote_workersCompensation_English_Element_FinalInsured.json",
        "quote_workersCompensation_English_Element_LineBreak.json",
        "quote_workersCompensation_English_Element_FinalFEIN.json",
        "quote_workersCompensation_English_Element_OrganizationType.json",
        "quote_workersCompensation_English_Element_DescriptionOfOperation.json",
        "quote_workersCompensation_English_Element_LineBreak4.json",
        "quote_workersCompensation_English_Element_OtherDescription.json",
        "quote_workersCompensation_English_Element_NonProfitCheck.json",
        "quote_workersCompensation_English_Element_NumberofUnits.json",
        "quote_workersCompensation_English_Element_VacancyRate.json",
        "quote_workersCompensation_English_Element_LocationAddress.json",
        "quote_workersCompensation_English_Element_LocationStreet.json",
        "quote_workersCompensation_English_Element_LocationCity.json",
        "quote_workersCompensation_English_Element_LocationState.json",
        "quote_workersCompensation_English_Element_LocationZip.json",
        "quote_workersCompensation_English_Element_LocationSuite.json",
        "quote_workersCompensation_English_Element_LocationDescription.json",
        "quote_workersCompensation_English_Element_Co_opCheck.json",
        "quote_workersCompensation_English_Element_ContractCheck.json",
        "quote_workersCompensation_English_Element_PMCAccount.json",
        "quote_workersCompensation_English_Element_getPMCAccountInfo.json",
        "quote_workersCompensation_English_Element_PMCAccountId.json",
        "quote_workersCompensation_English_Element_PropMgmtContactBlock.json",
        "quote_workersCompensation_English_Element_PropMgmtFName.json",
        "quote_workersCompensation_English_Element_PropMgmtLName.json",
        "quote_workersCompensation_English_Element_LocationAsMailingAddress.json",
        "quote_workersCompensation_English_Element_UpdatePMCMailingAddress.json",
        "quote_workersCompensation_English_Element_PMCMailingStreet.json",
        "quote_workersCompensation_English_Element_PMCMailingCity.json",
        "quote_workersCompensation_English_Element_PMCMailingState.json",
        "quote_workersCompensation_English_Element_PMCMailingZip.json",
        "quote_workersCompensation_English_Element_PMCMailingSuite.json",
        "quote_workersCompensation_English_Element_PMCMailingAddress.json",
        "quote_workersCompensation_English_Element_getMailingAddress.json",
        "quote_workersCompensation_English_Element_MStreet_TA.json",
        "quote_workersCompensation_English_Element_MState_TA.json",
        "quote_workersCompensation_English_Element_MCity_TA.json",
        "quote_workersCompensation_English_Element_MPostalCode_TA.json",
        "quote_workersCompensation_English_Element_MAddress2_TA.json",
        "quote_workersCompensation_English_Element_UpdatePMCMailingAddressCheck.json",
        "quote_workersCompensation_English_Element_LineBreak7.json",
        "quote_workersCompensation_English_Element_UpdatePMCBillingAddress.json",
        "quote_workersCompensation_English_Element_PMCBillingStreet.json",
        "quote_workersCompensation_English_Element_PMCBillingCity.json",
        "quote_workersCompensation_English_Element_PMCBillingState.json",
        "quote_workersCompensation_English_Element_PMCBillingZip.json",
        "quote_workersCompensation_English_Element_PMCBillingSuite.json",
        "quote_workersCompensation_English_Element_PMCBillingAddress.json",
        "quote_workersCompensation_English_Element_getBillingAddress.json",
        "quote_workersCompensation_English_Element_BStreet_TA.json",
        "quote_workersCompensation_English_Element_BCity_TA.json",
        "quote_workersCompensation_English_Element_BState_TA.json",
        "quote_workersCompensation_English_Element_BPostalCode_TA.json",
        "quote_workersCompensation_English_Element_BAddress2_TA.json",
        "quote_workersCompensation_English_Element_UpdatePMCBillingAddressCheck.json",
        "quote_workersCompensation_English_Element_LineBreak1.json",
        "quote_workersCompensation_English_Element_IsInsMailingSameAsMgmtMailing.json",
        "quote_workersCompensation_English_Element_MailingAddressCheck.json",
        "quote_workersCompensation_English_Element_MailingAddress.json",
        "quote_workersCompensation_English_Element_MailingStreet.json",
        "quote_workersCompensation_English_Element_MailingCity.json",
        "quote_workersCompensation_English_Element_MailingState.json",
        "quote_workersCompensation_English_Element_MailingZip.json",
        "quote_workersCompensation_English_Element_MailingSuite.json",
        "quote_workersCompensation_English_Element_LineBreak9.json",
        "quote_workersCompensation_English_Element_MailingCareOf.json",
        "quote_workersCompensation_English_Element_IsInsBillingSameAsMgmtBilling.json",
        "quote_workersCompensation_English_Element_BillingAddressCheck.json",
        "quote_workersCompensation_English_Element_BillingAddress.json",
        "quote_workersCompensation_English_Element_BillingStreet.json",
        "quote_workersCompensation_English_Element_BillingCity.json",
        "quote_workersCompensation_English_Element_BillingState.json",
        "quote_workersCompensation_English_Element_BillingZip.json",
        "quote_workersCompensation_English_Element_BillingSuite.json",
        "quote_workersCompensation_English_Element_LineBreak8.json",
        "quote_workersCompensation_English_Element_BillingCareOf.json",
        "quote_workersCompensation_English_Element_LocationAsBilling.json",
        "quote_workersCompensation_English_Element_InsuredContactBlock.json",
        "quote_workersCompensation_English_Element_ContactFirstName.json",
        "quote_workersCompensation_English_Element_ContactLastName.json",
        "quote_workersCompensation_English_Element_ContactTitle.json",
        "quote_workersCompensation_English_Element_ContactEmail.json",
        "quote_workersCompensation_English_Element_ContactPhone.json",
        "quote_workersCompensation_English_Element_AdditionalAssociationInformation.json",
        "quote_workersCompensation_English_Element_HiringVendor.json",
        "quote_workersCompensation_English_Element_ExclusiveVendorCheck.json",
        "quote_workersCompensation_English_Element_DirectEmployeeCheck.json",
        "quote_workersCompensation_English_Element_NumOfBoardMembers.json",
        "quote_workersCompensation_English_Element_newPMCAccount.json",
        "quote_workersCompensation_English_Element_UIAN.json",
        "quote_workersCompensation_English_Element_MailingStreetFormula.json",
        "quote_workersCompensation_English_Element_MailingStateFormula.json",
        "quote_workersCompensation_English_Element_MailingCityFormula.json",
        "quote_workersCompensation_English_Element_MailingPostalCodeFormula.json",
        "quote_workersCompensation_English_Element_MailingSuiteFormula.json",
        "quote_workersCompensation_English_Element_BillingStreetFormula.json",
        "quote_workersCompensation_English_Element_BillingStateFormula.json",
        "quote_workersCompensation_English_Element_BillingCityFormula.json",
        "quote_workersCompensation_English_Element_BillingPostalCodeFormula.json",
        "quote_workersCompensation_English_Element_BillingSuiteFormula.json",
        "quote_workersCompensation_English_Element_createAccOptyQuote.json",
        "quote_workersCompensation_English_Element_SetLocationstateANDFinalAccount.json",
        "quote_workersCompensation_English_Element_insuredAccountUpdate.json",
        "quote_workersCompensation_English_Element_createCaseForUpdatedInsuredDetails.json",
        "quote_workersCompensation_English_Element_CreateCaseForUpdatedInsuredNameOnly.json",
        "quote_workersCompensation_English_Element_CreateCaseForNewPMCAccount.json",
        "quote_workersCompensation_English_Element_QuoteWCIfAny1.json",
        "quote_workersCompensation_English_Element_WCPayroll1.json",
        "quote_workersCompensation_English_Element_Monopolistic.json",
        "quote_workersCompensation_English_Element_DeclineMessage.json",
        "quote_workersCompensation_English_Element_NavigateActionHome.json"
    ],
    "%vlocity_namespace%__IsLwcEnabled__c": true,
    "%vlocity_namespace%__IsProcedure__c": false,
    "%vlocity_namespace%__IsReusable__c": false,
    "%vlocity_namespace%__IsTest__c": false,
    "%vlocity_namespace%__Language__c": "English",
    "%vlocity_namespace%__LastPreviewPage__c": "Newport",
    "%vlocity_namespace%__PropertySet__c": "quote_workersCompensation_English_PropertySet.json",
    "%vlocity_namespace%__SubType__c": "workersCompensation",
    "%vlocity_namespace%__Type__c": "quote",
    "Name": "Workers Compensation Quote",
    "VlocityDataPackType": "SObject",
    "VlocityRecordSObjectType": "%vlocity_namespace%__OmniScript__c",
    "VlocityRecordSourceKey": "%vlocity_namespace%__OmniScript__c/quote/workersCompensation/English",
    "sourceOrgUrl": "/apex/vlocity_ins__omniscriptdesigner?id=a5C3K0000009KmwUAE"
}