{
    "%vlocity_namespace%__Author__c": "Vlocity",
    "%vlocity_namespace%__CSS__c": "",
    "%vlocity_namespace%__CustomJavascript__c": "",
    "%vlocity_namespace%__Definition__c": "",
    "%vlocity_namespace%__Description__c": "",
    "%vlocity_namespace%__DisplayOn__c": "All",
    "%vlocity_namespace%__ExternalID__c": "community-content/1.0/Vlocity/1452117265205",
    "%vlocity_namespace%__HTML__c": "community-content.html",
    "%vlocity_namespace%__ParentID__c": "",
    "%vlocity_namespace%__SampleJson__c": "",
    "%vlocity_namespace%__Sass__c": "",
    "%vlocity_namespace%__Type__c": "community",
    "%vlocity_namespace%__Version__c": 1,
    "Name": "community-content",
    "VlocityDataPackType": "SObject",
    "VlocityRecordSObjectType": "%vlocity_namespace%__VlocityUITemplate__c",
    "VlocityRecordSourceKey": "%vlocity_namespace%__VlocityUITemplate__c/community-content",
    "sourceOrgUrl": "/apex/vlocity_ins__uitemplatedesigner?id=a8C4W0000004iVZUAY"
}