{
    "%vlocity_namespace%__Author__c": "Mgalive_CAIS,LLC",
    "%vlocity_namespace%__Datasource__c": "",
    "%vlocity_namespace%__Definition__c": "cais-agentProfile-AdminContact.json",
    "%vlocity_namespace%__Description__c": "",
    "%vlocity_namespace%__GlobalKey__c": "cais-agentProfile-AdminContact/1/Mgalive_CAIS,LLC/1599840339798",
    "%vlocity_namespace%__ParentID__c": "",
    "%vlocity_namespace%__RequiredPermission__c": "",
    "%vlocity_namespace%__Type__c": "Layout",
    "%vlocity_namespace%__Version__c": 1,
    "Name": "cais-agentProfile-AdminContact",
    "VlocityDataPackType": "SObject",
    "VlocityRecordSObjectType": "%vlocity_namespace%__VlocityUILayout__c",
    "VlocityRecordSourceKey": "%vlocity_namespace%__VlocityUILayout__c/cais-agentProfile-AdminContact",
    "sourceOrgUrl": "/apex/vlocity_ins__carddesignernew?id=?id=a8B3K0000000C1NUAU"
}