{
    "ContextId": null,
    "timeStamp": null,
    "userId": null,
    "userName": null,
    "userProfile": null,
    "userTimeZone": null,
    "vlcPersistentComponent": {
    },
    "vlcTimeTracking": {
        "CreateQuote": null,
        "ListMergeQuotingProducts": null,
        "ResponseAction": null,
        "TransformForQuoteCreation": null,
        "TransformToStoreQuoteJson": null
    }
}