{
    "WorkerCompensation": {
        "AdditionalAssociationInformation": {
            "DirectEmployeeCheck": "Yes",
            "ExclusiveVendorCheck": "Yes",
            "HiringVendor": "Yes"
        },
        "CommunityAssociation": {
            "BillingAddress-Block": {
                "BillingAddress": "1211 West 12th Street, Coffeyville, KS, USA",
                "BillingCity": "Coffeyville",
                "BillingPostalCode": "67337",
                "BillingState": "KS",
                "BillingStreet": "1211 West 12th Street"
            },
            "BillingAddressCheck": false,
            "BillingCareOf": "1212",
            "BillingSuite": null,
            "Co_opCheck": null,
            "ContractCheck": "No",
            "DescriptionOfOperation": "Apartment Buildings",
            "FinalFEIN": null,
            "FinalInsured": null,
            "FormulaInsuredName": null,
            "InsuredContactBlock": {
                "ContactEmail": "neha@hi.com",
                "ContactFirstName": "neha",
                "ContactLastName": "g",
                "ContactPhone": "2932938293",
                "ContactTitle": "ms"
            },
            "LocationAddress-Block": {
                "LocationAddress": "12121"
            },
            "LocationAsBilling": null,
            "LocationAsMailingAddress": null,
            "LocationSuite": "1212",
            "MailingAddress-Block": {
                "MailingAddress": "1211 West 12th Street, Coffeyville, KS, USA",
                "MailingCity": "Coffeyville",
                "MailingPostalCode": "67337",
                "MailingState": "KS",
                "MailingStreet": "1211 West 12th Street"
            },
            "MailingAddressCheck": false,
            "MailingCareOf": "1121",
            "MailingSuite": null,
            "NewInsuredName": "atlantis",
            "NonProfitCheck": "Yes",
            "NumberofUnits": "2",
            "OrganizationType": "Association",
            "OtherDescription": null,
            "PMCAccount-Block": null,
            "PMCBillingAddress-Block": null,
            "PMCMailingAddress-Block": null,
            "UpdateInsuredName": null,
            "UpdatePMCBillingAddress-Block": null,
            "UpdatePMCBillingAddressCheck": null,
            "UpdatePMCMailingAddress-Block": null,
            "UpdatePMCMailingAddressCheck": null,
            "VacancyRate": "23",
            "existingAccountId": null
        },
        "DescriptionofOperations": {
            "DescriptionofOperationOptions": "Attached PUD (Townhome Association)"
        },
        "GeneralQuestions": {
            "CompensationLossCheck": "Yes",
            "CompensationLossExplanation": "wewe",
            "InjuryOnSite": "Yes",
            "InjuryOnSiteExplanation": "wewe",
            "InsuranceEvidence": "Yes",
            "PEOCheck": "Yes",
            "PEOName": "wewe",
            "ReservationStudy": "Yes",
            "SpecialActivities": "Yes",
            "SpecialActivitiesExplanation": "wewe",
            "TypeofPEOPolicy": "Master Policy"
        },
        "LiabilityBlock": {
            "LiabilityLimit": null
        },
        "PolicyTerm": {
            "Messaging2": true,
            "PartialTerm": false,
            "UpdateExpirationDate": false,
            "wciaEffectiveDate": "10-14-2020",
            "wciaExpirationDate": "2021-10-13T18:30:00.000Z",
            "wciaExpirationDateMod": null
        },
        "Quote": {
            "EffectiveDate": "2020-10-13",
            "ExpirationDate": "2020-10-13",
            "QuoteDate": "2020-10-14",
            "QuoteNumber": "33434"
        },
        "UIAN": "",
        "newPMCAccount": false
    },
    "timeStamp": "2020-10-14T18:15:04.176Z",
    "userCurrencyCode": "USD",
    "userId": "0056s000000J6KGAA0",
    "userName": "himadeep.guduru@certadux.com.v3dev",
    "userProfile": "System Administrator",
    "userTimeZone": "-420"
}