{
    "%vlocity_namespace%__Active__c": true,
    "%vlocity_namespace%__OmniScriptId__c": {
        "Name": "Crime Create Quote Extended",
        "VlocityDataPackType": "VlocityMatchingKeyObject",
        "VlocityMatchingRecordSourceKey": "%vlocity_namespace%__OmniScript__c/Crime/CreateQuote/Procedure",
        "VlocityRecordSObjectType": "%vlocity_namespace%__OmniScript__c"
    },
    "%vlocity_namespace%__PropertySet__c": {
        "actionMessage": "",
        "additionalChainableResponse": {
        },
        "additionalInput": {
            "userInputs": "%SetUserInputs:CrimeAOnlyUserInputs%"
        },
        "additionalOutput": {
        },
        "chainOnStep": false,
        "disOnTplt": false,
        "executionConditionalFormula": "%PolicyCoverage:RequestedCoverages:Liability% > 1000000 AND %Crime:CommunityAssociation:LocationAddress-Block:LocationState% <> \"CA\"",
        "failOnStepError": true,
        "failureConditionalFormula": "",
        "failureResponse": {
        },
        "label": "RemoteAction2",
        "remoteClass": "InsProductService",
        "remoteMethod": "getRatedProducts",
        "remoteOptions": {
            "effectiveDate": "%PolicyCoverage:PolicyTermBlock:EffectiveDate% 10:00:00",
            "excludeInsuredItem": true,
            "filters": "ProductCode:CETO, ProductCode:XSC"
        },
        "responseJSONNode": "QuotingProductsCrimeAOnly",
        "responseJSONPath": "",
        "returnOnlyAdditionalOutput": false,
        "returnOnlyFailureResponse": false,
        "sendJSONNode": "",
        "sendJSONPath": "",
        "sendOnlyAdditionalInput": true,
        "show": null,
        "useFormulas": true
    },
    "%vlocity_namespace%__ReusableOmniScript__c": false,
    "%vlocity_namespace%__Type__c": "Remote Action",
    "Name": "getRatedProductCrimeAOnlyWithExcess",
    "VlocityDataPackType": "SObject",
    "VlocityRecordSObjectType": "%vlocity_namespace%__Element__c",
    "VlocityRecordSourceKey": "%vlocity_namespace%__Element__c/%vlocity_namespace%__OmniScript__c/Crime/CreateQuote/Procedure/getRatedProductCrimeAOnlyWithExcess"
}