{
    "AccountId": "0016C00000SL1yNQAT",
    "Confirmation": {
    },
    "Crime": {
        "BillingCityFormula": "San Francisco",
        "BillingPostalCodeFormula": "94102",
        "BillingStateFormula": "CA",
        "BillingStreetFormula": "123 O'Farrell Street",
        "BillingSuiteFormula": null,
        "CommunityAssociation": {
            "AssocHaveEmployees": "No",
            "BillingAddress-Block": {
                "BillingAddress": "123 O'Farrell Street  San Francisco CA 94102",
                "BillingCity": "San Francisco",
                "BillingState": "CA",
                "BillingStreet": "123 O'Farrell Street",
                "BillingZip": "94102"
            },
            "BillingAddressCheck": false,
            "BillingCareOf": null,
            "BillingSuite": null,
            "Co_opCheck": null,
            "ContractCheck": "No",
            "DescriptionOfOperation": "Single Family Home Association/HOA (Detached PUD)",
            "FinalFEIN": "23-4451678",
            "FinalInsured": "Atlantis Home Association",
            "FormulaInsuredName": "Atlantis Home Association",
            "InsuredContactBlock": {
                "ContactEmail": "jsmith@atlantis.com",
                "ContactFirstName": "Jimmy",
                "ContactLastName": "Smith",
                "ContactPhone": "3243243243",
                "ContactTitle": null
            },
            "IsInsBillingSameAsMgmtBilling": null,
            "IsInsMailingSameAsMgmtMailing": null,
            "LocationAddress-Block": {
                "LocationAddress": "50 Fremont Street, San Francisco, CA, USA",
                "LocationCity": "San Francisco",
                "LocationState": "GA",
                "LocationStreet": "50 Fremont Street",
                "LocationZip": "94105"
            },
            "LocationAsBilling": null,
            "LocationAsMailingAddress": null,
            "LocationSuite": null,
            "MailingAddress-Block": {
                "MailingAddress": "233 Ellis Street  San Francisco CA 94102",
                "MailingCity": "San Francisco",
                "MailingState": "CA",
                "MailingStreet": "233 Ellis Street",
                "MailingZip": "94102"
            },
            "MailingAddressCheck": false,
            "MailingCareOf": null,
            "MailingSuite": null,
            "NewInsuredName": null,
            "NonProfitCheck": "Yes",
            "NumOfBoardMembers": "2",
            "NumberofUnits": "230",
            "OrganizationType": "Association",
            "OtherDescription": null,
            "PMCAccount-Block": null,
            "PMCBillingAddress-Block": null,
            "PMCBillingSuite": null,
            "PMCMailingAddress-Block": null,
            "PMCMailingSuite": null,
            "UpdateInsuredName": false,
            "UpdatePMCBillingAddress-Block": null,
            "UpdatePMCBillingAddressCheck": null,
            "UpdatePMCMailingAddress-Block": null,
            "UpdatePMCMailingAddressCheck": null,
            "VacancyRate": "5",
            "existingAccountId": "0016C00000SL1yNQAT"
        },
        "MailingCityFormula": "San Francisco",
        "MailingPostalCodeFormula": "94102",
        "MailingStateFormula": "CA",
        "MailingStreetFormula": "233 Ellis Street",
        "MailingSuiteFormula": null,
        "UIAN": "",
        "newPMCAccount": false
    },
    "FEINStep": {
        "EnteredFEIN": "234451678",
        "HaveFEIN": "Yes",
        "Insured-Block": null,
        "formattedFEIN": "23-4451678"
    },
    "GeneralQuestions": {
        "AverageMoneyHeldInOperatingAccounts": null,
        "BankAccountsReconciledBySomeoneNotAuthorized": "Yes",
        "Block1": null,
        "Block2": null,
        "Block3": null,
        "Block4": null,
        "Block5": null,
        "CompanyOrEmployeesHaveAuthorizationToHandleFunds": "No",
        "Explanation": null,
        "HowOftenBankAccountsReconciled": "Monthly",
        "IntegrityOfPINPasswordsMaintained": "Yes",
        "IsAnnualFinancialAuditPerformedByCPA": "Yes",
        "IsCountersignatureRequired": "Yes",
        "IsMaximumDollarAuthorityGTLiability": null,
        "IsSumOfReserveAndAvgMoneyHeldLTLiability": "No",
        "IsThereAuditDiscrepanciesInPast3years": "No",
        "KnownOrSuspectedLossesInThePast3Years": "No",
        "ManagementRequiredToCarryACrimepolicy": "Yes",
        "MoneyHeldInReserveAccounts": null,
        "NumofEmployees": "0",
        "SumOfReserveAndAvgMoneyHeld": 0,
        "SupplyOfUnusedChecksSecured": "Yes",
        "WCRuleStatus": "Referral",
        "WhoCollectsTheAssociationFee": "Management Co.",
        "agentLocation": "San Francisco, CA"
    },
    "Name": "Atlantis Home Association",
    "PolicyCoverage": {
        "PolicyTermBlock": {
            "CalculatedExpirationDate": "2021-11-28T05:00:00.000Z",
            "EffectiveDate": "2020-11-28",
            "ExpirationDate": null,
            "ExpirationDateDefault": "2021-11-28T05:00:00.000Z",
            "IsPartialTerm": false,
            "MessagingExpirationDate": null
        },
        "RequestedCoverages": {
            "Deductible": "2500",
            "Liability": 975000
        }
    },
    "UWQueueId": "00G6C000001uYzPUAU",
    "accountId": "0016C00000SL1yNQAT",
    "currentUserAccountId": "0016C00000S470uQAB",
    "currentUserContactId": "0036C00000TViQfQAL",
    "finalAccountId": "0016C00000SL1yNQAT",
    "groupId": "00G6C000001uYzNUAU",
    "omnidesignerChannelId": "omni-designer-channel-id-1605659153737",
    "opportunityId": "0066C000007JWzZQAW",
    "timeStamp": "2020-11-18T00:25:56.902Z",
    "userCurrencyCode": "USD",
    "userId": "0056C000002DrGeQAK",
    "userName": "kishan.ramineni@gerentllc.com.caisdev",
    "userProfile": "System Administrator",
    "userTimeZone": "-300",
    "wcLocationState": "CA"
}