{
    "%vlocity_namespace%__CalculationMatrixId__c": {
        "Name": "StateClassCodes",
        "VlocityDataPackType": "VlocityMatchingKeyObject",
        "VlocityMatchingRecordSourceKey": "%vlocity_namespace%__CalculationMatrix__c/StateClassCodes",
        "VlocityRecordSObjectType": "%vlocity_namespace%__CalculationMatrix__c"
    },
    "%vlocity_namespace%__CalculationMatrixId__r.Name": "StateClassCodes",
    "%vlocity_namespace%__CalculationMatrixRow__c": "StateClassCodes_Version_Rows.json",
    "%vlocity_namespace%__CurrentStatus__c": "Active",
    "%vlocity_namespace%__EndDateTime__c": "",
    "%vlocity_namespace%__GlobalKey__c": "StateClassCodesV2",
    "%vlocity_namespace%__GroupKeyValue__c": "",
    "%vlocity_namespace%__MatrixRecordType__c": "Standard",
    "%vlocity_namespace%__MatrixUseLongOutput__c": false,
    "%vlocity_namespace%__Priority__c": 2,
    "%vlocity_namespace%__StartDateTime__c": "2020-01-01T08:00:00.000Z",
    "%vlocity_namespace%__SubGroupKeyValue__c": "",
    "%vlocity_namespace%__UseLongOutput__c": false,
    "%vlocity_namespace%__VersionNumber__c": 2,
    "Name": "StateClassCodesV2",
    "VlocityDataPackType": "SObject",
    "VlocityRecordSObjectType": "%vlocity_namespace%__CalculationMatrixVersion__c",
    "VlocityRecordSourceKey": "%vlocity_namespace%__CalculationMatrixVersion__c/2/%vlocity_namespace%__CalculationMatrix__c/StateClassCodes"
}