{
    "%vlocity_namespace%__CalculationMatrixVersion__c": "StateClassCodes_Version.json",
    "%vlocity_namespace%__Description__c": "",
    "%vlocity_namespace%__GlobalKey__c": "StateClassCodes",
    "%vlocity_namespace%__GroupKey__c": "",
    "%vlocity_namespace%__SubGroupKey__c": "",
    "%vlocity_namespace%__VersionsWithLongOutputCount__c": 0,
    "%vlocity_namespace%__WildcardColumn__c": "",
    "%vlocity_namespace%__WildcardValue__c": "",
    "Name": "StateClassCodes",
    "RecordTypeId": {
        "DeveloperName": "Standard",
        "SobjectType": "%vlocity_namespace%__CalculationMatrix__c",
        "VlocityDataPackType": "VlocityLookupMatchingKeyObject",
        "VlocityLookupRecordSourceKey": "RecordType/%vlocity_namespace%__CalculationMatrix__c/Standard",
        "VlocityRecordSObjectType": "RecordType"
    },
    "VlocityDataPackType": "SObject",
    "VlocityRecordSObjectType": "%vlocity_namespace%__CalculationMatrix__c",
    "VlocityRecordSourceKey": "%vlocity_namespace%__CalculationMatrix__c/StateClassCodes",
    "sourceOrgUrl": "/a2M3K00000013tCUAQ"
}