{
    "%vlocity_namespace%__AdditionalInformation__c": "Sprint 11 Updates",
    "%vlocity_namespace%__DisableMetadataCache__c": false,
    "%vlocity_namespace%__ElementTypeToHTMLTemplateList__c": "{\"ElementTypeToHTMLTemplateList\":[]}",
    "%vlocity_namespace%__Element__c": [
        "quote_D_O_English_Element_DemoSetUser.json",
        "quote_D_O_English_Element_getCurrentUserDetails.json",
        "quote_D_O_English_Element_FEINStep.json",
        "quote_D_O_English_Element_editIcon1.json",
        "quote_D_O_English_Element_HaveFEIN.json",
        "quote_D_O_English_Element_EnteredFEIN.json",
        "quote_D_O_English_Element_Insured.json",
        "quote_D_O_English_Element_getAgencyAccountInfo.json",
        "quote_D_O_English_Element_InsuredFEIN.json",
        "quote_D_O_English_Element_InsuredAccountId.json",
        "quote_D_O_English_Element_NoFEINBasedAccount.json",
        "quote_D_O_English_Element_formattedFEIN.json",
        "quote_D_O_English_Element_ExtractInsuredByFEIN.json",
        "quote_D_O_English_Element_ExtractInsuredDetailsById.json",
        "quote_D_O_English_Element_InsuredDetails.json",
        "quote_D_O_English_Element_editIcon.json",
        "quote_D_O_English_Element_CommunityAssociation.json",
        "quote_D_O_English_Element_FormulaInsuredName.json",
        "quote_D_O_English_Element_NewInsuredName.json",
        "quote_D_O_English_Element_UpdateInsuredName.json",
        "quote_D_O_English_Element_existingAccountId.json",
        "quote_D_O_English_Element_FinalInsured.json",
        "quote_D_O_English_Element_LineBreak.json",
        "quote_D_O_English_Element_FinalFEIN.json",
        "quote_D_O_English_Element_OrganizationType.json",
        "quote_D_O_English_Element_DescriptionOfOperation.json",
        "quote_D_O_English_Element_LineBreak4.json",
        "quote_D_O_English_Element_OtherDescription.json",
        "quote_D_O_English_Element_NonProfitCheck.json",
        "quote_D_O_English_Element_NumberofUnits.json",
        "quote_D_O_English_Element_VacancyRate.json",
        "quote_D_O_English_Element_LocationAddress.json",
        "quote_D_O_English_Element_LocationStreet.json",
        "quote_D_O_English_Element_LocationCity.json",
        "quote_D_O_English_Element_LocationState.json",
        "quote_D_O_English_Element_LocationZip.json",
        "quote_D_O_English_Element_LocationSuite.json",
        "quote_D_O_English_Element_Co_opCheck.json",
        "quote_D_O_English_Element_LocationDescription.json",
        "quote_D_O_English_Element_ContractCheck.json",
        "quote_D_O_English_Element_PMCAccount.json",
        "quote_D_O_English_Element_getPMCAccountInfo.json",
        "quote_D_O_English_Element_PMCAccountId.json",
        "quote_D_O_English_Element_PropMgmtContactBlock.json",
        "quote_D_O_English_Element_PropMgmtFName.json",
        "quote_D_O_English_Element_PropMgmtLName.json",
        "quote_D_O_English_Element_LocationAsMailingAddress.json",
        "quote_D_O_English_Element_UpdatePMCMailingAddress.json",
        "quote_D_O_English_Element_PMCMailingStreet.json",
        "quote_D_O_English_Element_PMCMailingCity.json",
        "quote_D_O_English_Element_PMCMailingState.json",
        "quote_D_O_English_Element_PMCMailingZip.json",
        "quote_D_O_English_Element_PMCMailingSuite.json",
        "quote_D_O_English_Element_PMCMailingAddress.json",
        "quote_D_O_English_Element_getMailingAddress.json",
        "quote_D_O_English_Element_MStreet_TA.json",
        "quote_D_O_English_Element_MState_TA.json",
        "quote_D_O_English_Element_MCity_TA.json",
        "quote_D_O_English_Element_MPostalCode_TA.json",
        "quote_D_O_English_Element_MAddress2_TA.json",
        "quote_D_O_English_Element_UpdatePMCMailingAddressCheck.json",
        "quote_D_O_English_Element_LineBreak7.json",
        "quote_D_O_English_Element_UpdatePMCBillingAddress.json",
        "quote_D_O_English_Element_PMCBillingStreet.json",
        "quote_D_O_English_Element_PMCBillingCity.json",
        "quote_D_O_English_Element_PMCBillingState.json",
        "quote_D_O_English_Element_PMCBillingZip.json",
        "quote_D_O_English_Element_PMCBillingSuite.json",
        "quote_D_O_English_Element_PMCBillingAddress.json",
        "quote_D_O_English_Element_getBillingAddress.json",
        "quote_D_O_English_Element_BStreet_TA.json",
        "quote_D_O_English_Element_BCity_TA.json",
        "quote_D_O_English_Element_BState_TA.json",
        "quote_D_O_English_Element_BPostalCode_TA.json",
        "quote_D_O_English_Element_BAddress2_TA.json",
        "quote_D_O_English_Element_UpdatePMCBillingAddressCheck.json",
        "quote_D_O_English_Element_LineBreak1.json",
        "quote_D_O_English_Element_IsInsMailingSameAsMgmtMailing.json",
        "quote_D_O_English_Element_MailingAddressCheck.json",
        "quote_D_O_English_Element_MailingAddress.json",
        "quote_D_O_English_Element_MailingStreet.json",
        "quote_D_O_English_Element_MailingCity.json",
        "quote_D_O_English_Element_MailingState.json",
        "quote_D_O_English_Element_MailingZip.json",
        "quote_D_O_English_Element_MailingSuite.json",
        "quote_D_O_English_Element_LineBreak9.json",
        "quote_D_O_English_Element_MailingCareOf.json",
        "quote_D_O_English_Element_IsInsBillingSameAsMgmtBilling.json",
        "quote_D_O_English_Element_BillingAddressCheck.json",
        "quote_D_O_English_Element_BillingAddress.json",
        "quote_D_O_English_Element_BillingStreet.json",
        "quote_D_O_English_Element_BillingCity.json",
        "quote_D_O_English_Element_BillingState.json",
        "quote_D_O_English_Element_BillingZip.json",
        "quote_D_O_English_Element_BillingSuite.json",
        "quote_D_O_English_Element_LineBreak8.json",
        "quote_D_O_English_Element_BillingCareOf.json",
        "quote_D_O_English_Element_LocationAsBilling.json",
        "quote_D_O_English_Element_InsuredContactBlock.json",
        "quote_D_O_English_Element_ContactFirstName.json",
        "quote_D_O_English_Element_ContactLastName.json",
        "quote_D_O_English_Element_ContactTitle.json",
        "quote_D_O_English_Element_ContactEmail.json",
        "quote_D_O_English_Element_ContactPhone.json",
        "quote_D_O_English_Element_AdditionalAssociationInformation.json",
        "quote_D_O_English_Element_HiringVendor.json",
        "quote_D_O_English_Element_ExclusiveVendorCheck.json",
        "quote_D_O_English_Element_DirectEmployeeCheck.json",
        "quote_D_O_English_Element_NumOfBoardMembers.json",
        "quote_D_O_English_Element_LineBreak10.json",
        "quote_D_O_English_Element_Carrier.json",
        "quote_D_O_English_Element_newPMCAccount.json",
        "quote_D_O_English_Element_UIAN.json",
        "quote_D_O_English_Element_MailingStreetFormula.json",
        "quote_D_O_English_Element_MailingStateFormula.json",
        "quote_D_O_English_Element_MailingCityFormula.json",
        "quote_D_O_English_Element_MailingPostalCodeFormula.json",
        "quote_D_O_English_Element_MailingSuiteFormula.json",
        "quote_D_O_English_Element_BillingStreetFormula.json",
        "quote_D_O_English_Element_BillingStateFormula.json",
        "quote_D_O_English_Element_BillingCityFormula.json",
        "quote_D_O_English_Element_BillingPostalCodeFormula.json",
        "quote_D_O_English_Element_BillingSuiteFormula.json",
        "quote_D_O_English_Element_createAccOpportunity.json",
        "quote_D_O_English_Element_SetLocationstateANDFinalAccount.json",
        "quote_D_O_English_Element_insuredAccountUpdate.json",
        "quote_D_O_English_Element_createCaseForUpdatedInsuredDetails.json",
        "quote_D_O_English_Element_CreateCaseForUpdatedInsuredNameOnly.json",
        "quote_D_O_English_Element_CreateCaseForNewPMCAccount.json",
        "quote_D_O_English_Element_FinalCarrier.json",
        "quote_D_O_English_Element_PolicyTerms.json",
        "quote_D_O_English_Element_editI.json",
        "quote_D_O_English_Element_PolicyTerm.json",
        "quote_D_O_English_Element_EffectiveDate.json",
        "quote_D_O_English_Element_ExpirationDate.json",
        "quote_D_O_English_Element_ExpirationDateMod.json",
        "quote_D_O_English_Element_PartialTerm.json",
        "quote_D_O_English_Element_Messaging4.json",
        "quote_D_O_English_Element_FinalExpirationDate.json",
        "quote_D_O_English_Element_LiabilityBlock.json",
        "quote_D_O_English_Element_LiabilityLimit.json",
        "quote_D_O_English_Element_GeneralQuestionsStep.json",
        "quote_D_O_English_Element_editBlock.json",
        "quote_D_O_English_Element_GeneralQuestions.json",
        "quote_D_O_English_Element_TotalUnits.json",
        "quote_D_O_English_Element_ErrorOnTotalUnitsChubb.json",
        "quote_D_O_English_Element_NumberOfUnitsCurrentlyBuilt.json",
        "quote_D_O_English_Element_PercentageOfUnitsBuilt.json",
        "quote_D_O_English_Element_PercentageUnitsSold.json",
        "quote_D_O_English_Element_ErrorOnPercentageOfUnitsSold.json",
        "quote_D_O_English_Element_HeaderEmpCount.json",
        "quote_D_O_English_Element_FullTimeEmpCount.json",
        "quote_D_O_English_Element_PartTimeEmpCount.json",
        "quote_D_O_English_Element_FullTimeEmpCount0.json",
        "quote_D_O_English_Element_PartTimeEmpCount0.json",
        "quote_D_O_English_Element_TotalNumberOfEmployees.json",
        "quote_D_O_English_Element_CommercialOrRetailOccupancy.json",
        "quote_D_O_English_Element_PercentageOfCommercialUnits.json",
        "quote_D_O_English_Element_ErroronCommercialUnits.json",
        "quote_D_O_English_Element_SqFtOfLargestEstablishment.json",
        "quote_D_O_English_Element_BarOrRestaurant.json",
        "quote_D_O_English_Element_AvgUnitValue.json",
        "quote_D_O_English_Element_DU01.json",
        "quote_D_O_English_Element_DU01_01.json",
        "quote_D_O_English_Element_RU01.json",
        "quote_D_O_English_Element_RU01_01.json",
        "quote_D_O_English_Element_RU02.json",
        "quote_D_O_English_Element_HeaderAssociationInfo.json",
        "quote_D_O_English_Element_RU03.json",
        "quote_D_O_English_Element_DU02.json",
        "quote_D_O_English_Element_DU03.json",
        "quote_D_O_English_Element_RU04.json",
        "quote_D_O_English_Element_RU05.json",
        "quote_D_O_English_Element_hasMarina.json",
        "quote_D_O_English_Element_hasFuelingOperation.json",
        "quote_D_O_English_Element_hasEquestrian.json",
        "quote_D_O_English_Element_hasSkiing.json",
        "quote_D_O_English_Element_OtherOption.json",
        "quote_D_O_English_Element_OtherExplanation.json",
        "quote_D_O_English_Element_OptionsDrivingToNone.json",
        "quote_D_O_English_Element_AmenitiesLimitedToMembers.json",
        "quote_D_O_English_Element_hasAnyLegalIssues.json",
        "quote_D_O_English_Element_DU04.json",
        "quote_D_O_English_Element_DU04Message.json",
        "quote_D_O_English_Element_DU04File.json",
        "quote_D_O_English_Element_RU06.json",
        "quote_D_O_English_Element_RU06_01.json",
        "quote_D_O_English_Element_PercentOfUnitsOwnedByOnePerson.json",
        "quote_D_O_English_Element_RU07.json",
        "quote_D_O_English_Element_PercentDelinquent.json",
        "quote_D_O_English_Element_Message14to20Q.json",
        "quote_D_O_English_Element_RU08.json",
        "quote_D_O_English_Element_RU08Explanation.json",
        "quote_D_O_English_Element_RU09.json",
        "quote_D_O_English_Element_RU10.json",
        "quote_D_O_English_Element_AnyRenovations.json",
        "quote_D_O_English_Element_RU11.json",
        "quote_D_O_English_Element_RU12.json",
        "quote_D_O_English_Element_RU12Message.json",
        "quote_D_O_English_Element_DateofClaim.json",
        "quote_D_O_English_Element_DataClaimwasClosed.json",
        "quote_D_O_English_Element_Defensecost.json",
        "quote_D_O_English_Element_Paidloss.json",
        "quote_D_O_English_Element_Reserveamount.json",
        "quote_D_O_English_Element_claimantName.json",
        "quote_D_O_English_Element_Circumstancesofclaim.json",
        "quote_D_O_English_Element_RU13.json",
        "quote_D_O_English_Element_RU13Message.json",
        "quote_D_O_English_Element_RU13DateofClaim.json",
        "quote_D_O_English_Element_RU13DateClaimwasClosed.json",
        "quote_D_O_English_Element_RU13Defensecost.json",
        "quote_D_O_English_Element_RU13Paidloss.json",
        "quote_D_O_English_Element_RU13Reserveamount.json",
        "quote_D_O_English_Element_RU13claimantName.json",
        "quote_D_O_English_Element_RU13Circumstancesofclaim.json",
        "quote_D_O_English_Element_RU13PreventFurtherClaims.json",
        "quote_D_O_English_Element_RU14.json",
        "quote_D_O_English_Element_HeaderIfMasterAssociation.json",
        "quote_D_O_English_Element_Commonareas.json",
        "quote_D_O_English_Element_SubAssociations.json",
        "quote_D_O_English_Element_hasDocuments.json",
        "quote_D_O_English_Element_File.json",
        "quote_D_O_English_Element_IsAccepted.json",
        "quote_D_O_English_Element_IsDeclined.json",
        "quote_D_O_English_Element_IsReferred.json",
        "quote_D_O_English_Element_RuleStatus.json",
        "quote_D_O_English_Element_CreateQuote.json",
        "quote_D_O_English_Element_GetQuoteDocument.json",
        "quote_D_O_English_Element_SETGeneralQuestionsHere.json",
        "quote_D_O_English_Element_SetMailFields.json",
        "quote_D_O_English_Element_RuleProcessingService.json",
        "quote_D_O_English_Element_Confirmation.json",
        "quote_D_O_English_Element_referralTextBlock.json",
        "quote_D_O_English_Element_declinedTextBlock.json",
        "quote_D_O_English_Element_NavigateActionQuote.json"
    ],
    "%vlocity_namespace%__IsLwcEnabled__c": true,
    "%vlocity_namespace%__IsProcedure__c": false,
    "%vlocity_namespace%__IsReusable__c": false,
    "%vlocity_namespace%__IsTest__c": false,
    "%vlocity_namespace%__Language__c": "English",
    "%vlocity_namespace%__LastPreviewPage__c": "Newport",
    "%vlocity_namespace%__PropertySet__c": "quote_D_O_English_PropertySet.json",
    "%vlocity_namespace%__SubType__c": "D_O",
    "%vlocity_namespace%__Type__c": "quote",
    "Name": "D&O Quote",
    "VlocityDataPackType": "SObject",
    "VlocityRecordSObjectType": "%vlocity_namespace%__OmniScript__c",
    "VlocityRecordSourceKey": "%vlocity_namespace%__OmniScript__c/quote/D_O/English",
    "sourceOrgUrl": "/apex/vlocity_ins__omniscriptdesigner?id=a5C3K0000009KrDUAU"
}