{
    "%vlocity_namespace%__Active__c": true,
    "%vlocity_namespace%__OmniScriptId__c": {
        "Name": "D&O Quote",
        "VlocityDataPackType": "VlocityMatchingKeyObject",
        "VlocityMatchingRecordSourceKey": "%vlocity_namespace%__OmniScript__c/quote/D_O/English",
        "VlocityRecordSObjectType": "%vlocity_namespace%__OmniScript__c"
    },
    "%vlocity_namespace%__ParentElementId__c": {
        "%vlocity_namespace%__OmniScriptId__c": {
            "Name": "D&O Quote",
            "VlocityDataPackType": "VlocityMatchingKeyObject",
            "VlocityMatchingRecordSourceKey": "%vlocity_namespace%__OmniScript__c/quote/D_O/English",
            "VlocityRecordSObjectType": "%vlocity_namespace%__OmniScript__c"
        },
        "Name": "GeneralQuestions",
        "VlocityDataPackType": "VlocityMatchingKeyObject",
        "VlocityMatchingRecordSourceKey": "%vlocity_namespace%__Element__c/%vlocity_namespace%__OmniScript__c/quote/D_O/English/GeneralQuestions",
        "VlocityRecordSObjectType": "%vlocity_namespace%__Element__c"
    },
    "%vlocity_namespace%__ParentElementName__c": "GeneralQuestions",
    "%vlocity_namespace%__ParentElementType__c": "Block",
    "%vlocity_namespace%__PropertySet__c": {
        "HTMLTemplateId": "",
        "controlWidth": 8,
        "disOnTplt": false,
        "hideLabel": true,
        "label": null,
        "messages": [
            {
                "active": true,
                "text": "Percentage Of Units Sold should be  <=100%",
                "type": "Warning",
                "value": true
            },
            {
                "active": false,
                "text": "",
                "type": "Warning",
                "value": false
            }
        ],
        "show": null,
        "validateExpression": {
            "group": {
                "operator": "OR",
                "rules": [
                    {
                        "condition": ">",
                        "data": "100",
                        "field": "PercentageUnitsSold"
                    }
                ]
            }
        }
    },
    "%vlocity_namespace%__ReusableOmniScript__c": false,
    "%vlocity_namespace%__Type__c": "Validation",
    "Name": "ErrorOnPercentageOfUnitsSold",
    "VlocityDataPackType": "SObject",
    "VlocityRecordSObjectType": "%vlocity_namespace%__Element__c",
    "VlocityRecordSourceKey": "%vlocity_namespace%__Element__c/%vlocity_namespace%__OmniScript__c/quote/D_O/English/ErrorOnPercentageOfUnitsSold"
}