{
    "%vlocity_namespace%__Active__c": true,
    "%vlocity_namespace%__OmniScriptId__c": {
        "Name": "D&O Quote",
        "VlocityDataPackType": "VlocityMatchingKeyObject",
        "VlocityMatchingRecordSourceKey": "%vlocity_namespace%__OmniScript__c/quote/D_O/English",
        "VlocityRecordSObjectType": "%vlocity_namespace%__OmniScript__c"
    },
    "%vlocity_namespace%__ParentElementId__c": {
        "%vlocity_namespace%__OmniScriptId__c": {
            "Name": "D&O Quote",
            "VlocityDataPackType": "VlocityMatchingKeyObject",
            "VlocityMatchingRecordSourceKey": "%vlocity_namespace%__OmniScript__c/quote/D_O/English",
            "VlocityRecordSObjectType": "%vlocity_namespace%__OmniScript__c"
        },
        "Name": "CommunityAssociation",
        "VlocityDataPackType": "VlocityMatchingKeyObject",
        "VlocityMatchingRecordSourceKey": "%vlocity_namespace%__Element__c/%vlocity_namespace%__OmniScript__c/quote/D_O/English/CommunityAssociation",
        "VlocityRecordSObjectType": "%vlocity_namespace%__Element__c"
    },
    "%vlocity_namespace%__ParentElementName__c": "CommunityAssociation",
    "%vlocity_namespace%__ParentElementType__c": "Block",
    "%vlocity_namespace%__PropertySet__c": {
        "HTMLTemplateId": "",
        "accessibleInFutureSteps": true,
        "callFrequency": 300,
        "conditionType": "Hide if False",
        "controlWidth": 9,
        "dataJsonPath": "",
        "dataProcessorFunction": "",
        "debounceValue": 0,
        "disOnTplt": false,
        "disableDataFilter": false,
        "editMode": false,
        "enableGoogleMapsAutocomplete": true,
        "enableLookup": false,
        "googleAddressCountry": "all",
        "googleMapsAPIKey": "AIzaSyDLTjP6OUiLb2mxceL5L1qU0Re-K9IgX68",
        "googleTransformation": {
            "administrative_area_level_1": "LocationState",
            "administrative_area_level_2": "",
            "country": "",
            "locality": "LocationCity",
            "postal_code": "LocationZip",
            "street": "LocationStreet"
        },
        "help": false,
        "helpText": "",
        "hideEditButton": true,
        "hideMap": false,
        "inputWidth": 12,
        "label": "Location Address",
        "maxLength": 255,
        "minLength": 0,
        "newItemLabel": "New",
        "readOnly": false,
        "required": true,
        "show": null,
        "showInputWidth": false,
        "typeAheadKey": "",
        "useDataJson": false
    },
    "%vlocity_namespace%__ReusableOmniScript__c": false,
    "%vlocity_namespace%__Type__c": "Type Ahead Block",
    "Name": "LocationAddress",
    "VlocityDataPackType": "SObject",
    "VlocityRecordSObjectType": "%vlocity_namespace%__Element__c",
    "VlocityRecordSourceKey": "%vlocity_namespace%__Element__c/%vlocity_namespace%__OmniScript__c/quote/D_O/English/LocationAddress"
}