[
    {
        "%vlocity_namespace%__DomainObjectAPIName__c": "json",
        "%vlocity_namespace%__DomainObjectCreationOrder__c": 0,
        "%vlocity_namespace%__DomainObjectFieldAPIName__c": "account",
        "%vlocity_namespace%__FilterGroup__c": 0,
        "%vlocity_namespace%__FilterOperator__c": "=",
        "%vlocity_namespace%__FilterValue__c": "InsuredFEIN",
        "%vlocity_namespace%__InterfaceFieldAPIName__c": "%vlocity_namespace%__TaxID__c",
        "%vlocity_namespace%__InterfaceObjectLookupOrder__c": 1,
        "%vlocity_namespace%__InterfaceObjectName__c": "Account",
        "%vlocity_namespace%__IsDisabled__c": false,
        "%vlocity_namespace%__IsRequiredForUpsert__c": false,
        "%vlocity_namespace%__MapId__c": "CAIS_GetInsuredInfoByFEIN6398526229609596",
        "%vlocity_namespace%__UpsertKey__c": false,
        "Name": "CAIS_GetInsuredInfoByFEIN",
        "VlocityDataPackType": "SObject",
        "VlocityRecordSObjectType": "%vlocity_namespace%__DRMapItem__c"
    },
    {
        "%vlocity_namespace%__DomainObjectAPIName__c": "json",
        "%vlocity_namespace%__DomainObjectCreationOrder__c": 1,
        "%vlocity_namespace%__DomainObjectFieldAPIName__c": "AccountId",
        "%vlocity_namespace%__InterfaceFieldAPIName__c": "account:Id",
        "%vlocity_namespace%__IsDisabled__c": false,
        "%vlocity_namespace%__IsRequiredForUpsert__c": false,
        "%vlocity_namespace%__MapId__c": "CAIS_GetInsuredInfoByFEIN8472757599962228",
        "%vlocity_namespace%__UpsertKey__c": false,
        "Name": "CAIS_GetInsuredInfoByFEIN",
        "VlocityDataPackType": "SObject",
        "VlocityRecordSObjectType": "%vlocity_namespace%__DRMapItem__c"
    },
    {
        "%vlocity_namespace%__DomainObjectAPIName__c": "json",
        "%vlocity_namespace%__DomainObjectCreationOrder__c": 1,
        "%vlocity_namespace%__DomainObjectFieldAPIName__c": "ContactId",
        "%vlocity_namespace%__InterfaceFieldAPIName__c": "account:%vlocity_namespace%__PrimaryContactId__c",
        "%vlocity_namespace%__IsDisabled__c": false,
        "%vlocity_namespace%__IsRequiredForUpsert__c": false,
        "%vlocity_namespace%__MapId__c": "CAIS_GetInsuredInfoByFEIN7774479391271387",
        "%vlocity_namespace%__UpsertKey__c": false,
        "Name": "CAIS_GetInsuredInfoByFEIN",
        "VlocityDataPackType": "SObject",
        "VlocityRecordSObjectType": "%vlocity_namespace%__DRMapItem__c"
    },
    {
        "%vlocity_namespace%__DefaultValue__c": "\"",
        "%vlocity_namespace%__DomainObjectAPIName__c": "json",
        "%vlocity_namespace%__DomainObjectCreationOrder__c": 1,
        "%vlocity_namespace%__DomainObjectFieldAPIName__c": "Insured",
        "%vlocity_namespace%__InterfaceFieldAPIName__c": "account:Name",
        "%vlocity_namespace%__IsDisabled__c": false,
        "%vlocity_namespace%__IsRequiredForUpsert__c": false,
        "%vlocity_namespace%__MapId__c": "CAIS_GetInsuredInfoByFEIN45149149787007414",
        "%vlocity_namespace%__UpsertKey__c": false,
        "Name": "CAIS_GetInsuredInfoByFEIN",
        "VlocityDataPackType": "SObject",
        "VlocityRecordSObjectType": "%vlocity_namespace%__DRMapItem__c"
    },
    {
        "%vlocity_namespace%__DomainObjectAPIName__c": "json",
        "%vlocity_namespace%__DomainObjectCreationOrder__c": 1,
        "%vlocity_namespace%__DomainObjectFieldAPIName__c": "InsuredDetails:AdditionalAssociationInformation:DirectEmployeeCheck",
        "%vlocity_namespace%__InterfaceFieldAPIName__c": "account:EmployeeCheck__c",
        "%vlocity_namespace%__IsDisabled__c": false,
        "%vlocity_namespace%__IsRequiredForUpsert__c": false,
        "%vlocity_namespace%__MapId__c": "CAIS_GetInsuredInfoByFEINCustom8906",
        "%vlocity_namespace%__UpsertKey__c": false,
        "Name": "CAIS_GetInsuredInfoByFEIN",
        "VlocityDataPackType": "SObject",
        "VlocityRecordSObjectType": "%vlocity_namespace%__DRMapItem__c"
    },
    {
        "%vlocity_namespace%__DomainObjectAPIName__c": "json",
        "%vlocity_namespace%__DomainObjectCreationOrder__c": 1,
        "%vlocity_namespace%__DomainObjectFieldAPIName__c": "InsuredDetails:AdditionalAssociationInformation:NumOfBoardMembers",
        "%vlocity_namespace%__DomainObjectFieldType__c": "String",
        "%vlocity_namespace%__InterfaceFieldAPIName__c": "account:NumberOfBoardMembers__c",
        "%vlocity_namespace%__IsDisabled__c": false,
        "%vlocity_namespace%__IsRequiredForUpsert__c": false,
        "%vlocity_namespace%__MapId__c": "CAIS_GetInsuredInfoByFEINCustom1434",
        "%vlocity_namespace%__UpsertKey__c": false,
        "Name": "CAIS_GetInsuredInfoByFEIN",
        "VlocityDataPackType": "SObject",
        "VlocityRecordSObjectType": "%vlocity_namespace%__DRMapItem__c"
    },
    {
        "%vlocity_namespace%__DefaultValue__c": "\"\"",
        "%vlocity_namespace%__DomainObjectAPIName__c": "json",
        "%vlocity_namespace%__DomainObjectCreationOrder__c": 1,
        "%vlocity_namespace%__DomainObjectFieldAPIName__c": "InsuredDetails:CommunityAssociation:BillingAddress-Block:BillingAddress",
        "%vlocity_namespace%__InterfaceFieldAPIName__c": "account:Calculated_Billing_Address__c",
        "%vlocity_namespace%__IsDisabled__c": true,
        "%vlocity_namespace%__IsRequiredForUpsert__c": false,
        "%vlocity_namespace%__MapId__c": "CAIS_GetInsuredInfoByFEIN5107629019650599",
        "%vlocity_namespace%__UpsertKey__c": false,
        "Name": "CAIS_GetInsuredInfoByFEIN",
        "VlocityDataPackType": "SObject",
        "VlocityRecordSObjectType": "%vlocity_namespace%__DRMapItem__c"
    },
    {
        "%vlocity_namespace%__DefaultValue__c": "\"\"",
        "%vlocity_namespace%__DomainObjectAPIName__c": "json",
        "%vlocity_namespace%__DomainObjectCreationOrder__c": 1,
        "%vlocity_namespace%__DomainObjectFieldAPIName__c": "InsuredDetails:CommunityAssociation:BillingAddress-Block:BillingCity",
        "%vlocity_namespace%__InterfaceFieldAPIName__c": "account:BillingCity",
        "%vlocity_namespace%__IsDisabled__c": true,
        "%vlocity_namespace%__IsRequiredForUpsert__c": false,
        "%vlocity_namespace%__MapId__c": "CAIS_GetInsuredInfoByFEIN41578556522609644",
        "%vlocity_namespace%__UpsertKey__c": false,
        "Name": "CAIS_GetInsuredInfoByFEIN",
        "VlocityDataPackType": "SObject",
        "VlocityRecordSObjectType": "%vlocity_namespace%__DRMapItem__c"
    },
    {
        "%vlocity_namespace%__DefaultValue__c": "\"\"",
        "%vlocity_namespace%__DomainObjectAPIName__c": "json",
        "%vlocity_namespace%__DomainObjectCreationOrder__c": 1,
        "%vlocity_namespace%__DomainObjectFieldAPIName__c": "InsuredDetails:CommunityAssociation:BillingAddress-Block:BillingState",
        "%vlocity_namespace%__InterfaceFieldAPIName__c": "account:BillingState",
        "%vlocity_namespace%__IsDisabled__c": true,
        "%vlocity_namespace%__IsRequiredForUpsert__c": false,
        "%vlocity_namespace%__MapId__c": "CAIS_GetInsuredInfoByFEIN2224709914755436",
        "%vlocity_namespace%__UpsertKey__c": false,
        "Name": "CAIS_GetInsuredInfoByFEIN",
        "VlocityDataPackType": "SObject",
        "VlocityRecordSObjectType": "%vlocity_namespace%__DRMapItem__c"
    },
    {
        "%vlocity_namespace%__DefaultValue__c": "\"\"",
        "%vlocity_namespace%__DomainObjectAPIName__c": "json",
        "%vlocity_namespace%__DomainObjectCreationOrder__c": 1,
        "%vlocity_namespace%__DomainObjectFieldAPIName__c": "InsuredDetails:CommunityAssociation:BillingAddress-Block:BillingStreet",
        "%vlocity_namespace%__InterfaceFieldAPIName__c": "account:BillingStreet",
        "%vlocity_namespace%__IsDisabled__c": true,
        "%vlocity_namespace%__IsRequiredForUpsert__c": false,
        "%vlocity_namespace%__MapId__c": "CAIS_GetInsuredInfoByFEIN20780964899107057",
        "%vlocity_namespace%__UpsertKey__c": false,
        "Name": "CAIS_GetInsuredInfoByFEIN",
        "VlocityDataPackType": "SObject",
        "VlocityRecordSObjectType": "%vlocity_namespace%__DRMapItem__c"
    },
    {
        "%vlocity_namespace%__DefaultValue__c": "\"\"",
        "%vlocity_namespace%__DomainObjectAPIName__c": "json",
        "%vlocity_namespace%__DomainObjectCreationOrder__c": 1,
        "%vlocity_namespace%__DomainObjectFieldAPIName__c": "InsuredDetails:CommunityAssociation:BillingAddress-Block:BillingZip",
        "%vlocity_namespace%__InterfaceFieldAPIName__c": "account:BillingPostalCode",
        "%vlocity_namespace%__IsDisabled__c": true,
        "%vlocity_namespace%__IsRequiredForUpsert__c": false,
        "%vlocity_namespace%__MapId__c": "CAIS_GetInsuredInfoByFEIN6361432221939107",
        "%vlocity_namespace%__UpsertKey__c": false,
        "Name": "CAIS_GetInsuredInfoByFEIN",
        "VlocityDataPackType": "SObject",
        "VlocityRecordSObjectType": "%vlocity_namespace%__DRMapItem__c"
    },
    {
        "%vlocity_namespace%__DefaultValue__c": "\"\"",
        "%vlocity_namespace%__DomainObjectAPIName__c": "json",
        "%vlocity_namespace%__DomainObjectCreationOrder__c": 1,
        "%vlocity_namespace%__DomainObjectFieldAPIName__c": "InsuredDetails:CommunityAssociation:BillingCareOf",
        "%vlocity_namespace%__InterfaceFieldAPIName__c": "account:Billing_CO__c",
        "%vlocity_namespace%__IsDisabled__c": true,
        "%vlocity_namespace%__IsRequiredForUpsert__c": false,
        "%vlocity_namespace%__MapId__c": "CAIS_GetInsuredInfoByFEIN15124982038793267",
        "%vlocity_namespace%__UpsertKey__c": false,
        "Name": "CAIS_GetInsuredInfoByFEIN",
        "VlocityDataPackType": "SObject",
        "VlocityRecordSObjectType": "%vlocity_namespace%__DRMapItem__c"
    },
    {
        "%vlocity_namespace%__DefaultValue__c": "\"\"",
        "%vlocity_namespace%__DomainObjectAPIName__c": "json",
        "%vlocity_namespace%__DomainObjectCreationOrder__c": 1,
        "%vlocity_namespace%__DomainObjectFieldAPIName__c": "InsuredDetails:CommunityAssociation:BillingSuite",
        "%vlocity_namespace%__InterfaceFieldAPIName__c": "account:Billing_Address2__c",
        "%vlocity_namespace%__IsDisabled__c": true,
        "%vlocity_namespace%__IsRequiredForUpsert__c": false,
        "%vlocity_namespace%__MapId__c": "CAIS_GetInsuredInfoByFEIN4043071764762267",
        "%vlocity_namespace%__UpsertKey__c": false,
        "Name": "CAIS_GetInsuredInfoByFEIN",
        "VlocityDataPackType": "SObject",
        "VlocityRecordSObjectType": "%vlocity_namespace%__DRMapItem__c"
    },
    {
        "%vlocity_namespace%__DefaultValue__c": "\"\"",
        "%vlocity_namespace%__DomainObjectAPIName__c": "json",
        "%vlocity_namespace%__DomainObjectCreationOrder__c": 1,
        "%vlocity_namespace%__DomainObjectFieldAPIName__c": "InsuredDetails:CommunityAssociation:Co_opCheck",
        "%vlocity_namespace%__InterfaceFieldAPIName__c": "account:IsAssociationCo_Op__c",
        "%vlocity_namespace%__IsDisabled__c": false,
        "%vlocity_namespace%__IsRequiredForUpsert__c": false,
        "%vlocity_namespace%__MapId__c": "CAIS_GetInsuredInfoByFEIN06477471829261217",
        "%vlocity_namespace%__UpsertKey__c": false,
        "Name": "CAIS_GetInsuredInfoByFEIN",
        "VlocityDataPackType": "SObject",
        "VlocityRecordSObjectType": "%vlocity_namespace%__DRMapItem__c"
    },
    {
        "%vlocity_namespace%__DefaultValue__c": "\"\"",
        "%vlocity_namespace%__DomainObjectAPIName__c": "json",
        "%vlocity_namespace%__DomainObjectCreationOrder__c": 1,
        "%vlocity_namespace%__DomainObjectFieldAPIName__c": "InsuredDetails:CommunityAssociation:ContractCheck",
        "%vlocity_namespace%__InterfaceFieldAPIName__c": "account:AssocUnderMgmtContract__c",
        "%vlocity_namespace%__IsDisabled__c": false,
        "%vlocity_namespace%__IsRequiredForUpsert__c": false,
        "%vlocity_namespace%__MapId__c": "CAIS_GetInsuredInfoByFEIN843146716261866",
        "%vlocity_namespace%__UpsertKey__c": false,
        "Name": "CAIS_GetInsuredInfoByFEIN",
        "VlocityDataPackType": "SObject",
        "VlocityRecordSObjectType": "%vlocity_namespace%__DRMapItem__c"
    },
    {
        "%vlocity_namespace%__DefaultValue__c": "\"\"",
        "%vlocity_namespace%__DomainObjectAPIName__c": "json",
        "%vlocity_namespace%__DomainObjectCreationOrder__c": 1,
        "%vlocity_namespace%__DomainObjectFieldAPIName__c": "InsuredDetails:CommunityAssociation:DescriptionOfOperation",
        "%vlocity_namespace%__InterfaceFieldAPIName__c": "account:DescOfOpertions__c",
        "%vlocity_namespace%__IsDisabled__c": false,
        "%vlocity_namespace%__IsRequiredForUpsert__c": false,
        "%vlocity_namespace%__MapId__c": "CAIS_GetInsuredInfoByFEIN4380496377533174",
        "%vlocity_namespace%__UpsertKey__c": false,
        "Name": "CAIS_GetInsuredInfoByFEIN",
        "VlocityDataPackType": "SObject",
        "VlocityRecordSObjectType": "%vlocity_namespace%__DRMapItem__c"
    },
    {
        "%vlocity_namespace%__DefaultValue__c": "\"\"",
        "%vlocity_namespace%__DomainObjectAPIName__c": "json",
        "%vlocity_namespace%__DomainObjectCreationOrder__c": 1,
        "%vlocity_namespace%__DomainObjectFieldAPIName__c": "InsuredDetails:CommunityAssociation:InsuredContactBlock:ContactEmail",
        "%vlocity_namespace%__InterfaceFieldAPIName__c": "account:%vlocity_namespace%__PrimaryContactId__r.Email",
        "%vlocity_namespace%__IsDisabled__c": false,
        "%vlocity_namespace%__IsRequiredForUpsert__c": false,
        "%vlocity_namespace%__MapId__c": "CAIS_GetInsuredInfoByFEIN9196387375340354",
        "%vlocity_namespace%__UpsertKey__c": false,
        "Name": "CAIS_GetInsuredInfoByFEIN",
        "VlocityDataPackType": "SObject",
        "VlocityRecordSObjectType": "%vlocity_namespace%__DRMapItem__c"
    },
    {
        "%vlocity_namespace%__DefaultValue__c": "\"\"",
        "%vlocity_namespace%__DomainObjectAPIName__c": "json",
        "%vlocity_namespace%__DomainObjectCreationOrder__c": 1,
        "%vlocity_namespace%__DomainObjectFieldAPIName__c": "InsuredDetails:CommunityAssociation:InsuredContactBlock:ContactFirstName",
        "%vlocity_namespace%__InterfaceFieldAPIName__c": "account:%vlocity_namespace%__PrimaryContactId__r.FirstName",
        "%vlocity_namespace%__IsDisabled__c": false,
        "%vlocity_namespace%__IsRequiredForUpsert__c": false,
        "%vlocity_namespace%__MapId__c": "CAIS_GetInsuredInfoByFEIN4956573632240766",
        "%vlocity_namespace%__UpsertKey__c": false,
        "Name": "CAIS_GetInsuredInfoByFEIN",
        "VlocityDataPackType": "SObject",
        "VlocityRecordSObjectType": "%vlocity_namespace%__DRMapItem__c"
    },
    {
        "%vlocity_namespace%__DefaultValue__c": "\"\"",
        "%vlocity_namespace%__DomainObjectAPIName__c": "json",
        "%vlocity_namespace%__DomainObjectCreationOrder__c": 1,
        "%vlocity_namespace%__DomainObjectFieldAPIName__c": "InsuredDetails:CommunityAssociation:InsuredContactBlock:ContactLastName",
        "%vlocity_namespace%__InterfaceFieldAPIName__c": "account:%vlocity_namespace%__PrimaryContactId__r.LastName",
        "%vlocity_namespace%__IsDisabled__c": false,
        "%vlocity_namespace%__IsRequiredForUpsert__c": false,
        "%vlocity_namespace%__MapId__c": "CAIS_GetInsuredInfoByFEIN9445057382208477",
        "%vlocity_namespace%__UpsertKey__c": false,
        "Name": "CAIS_GetInsuredInfoByFEIN",
        "VlocityDataPackType": "SObject",
        "VlocityRecordSObjectType": "%vlocity_namespace%__DRMapItem__c"
    },
    {
        "%vlocity_namespace%__DefaultValue__c": "\"\"",
        "%vlocity_namespace%__DomainObjectAPIName__c": "json",
        "%vlocity_namespace%__DomainObjectCreationOrder__c": 1,
        "%vlocity_namespace%__DomainObjectFieldAPIName__c": "InsuredDetails:CommunityAssociation:InsuredContactBlock:ContactPhone",
        "%vlocity_namespace%__InterfaceFieldAPIName__c": "account:%vlocity_namespace%__PrimaryContactId__r.Phone",
        "%vlocity_namespace%__IsDisabled__c": false,
        "%vlocity_namespace%__IsRequiredForUpsert__c": false,
        "%vlocity_namespace%__MapId__c": "CAIS_GetInsuredInfoByFEIN8262670471708409",
        "%vlocity_namespace%__UpsertKey__c": false,
        "Name": "CAIS_GetInsuredInfoByFEIN",
        "VlocityDataPackType": "SObject",
        "VlocityRecordSObjectType": "%vlocity_namespace%__DRMapItem__c"
    },
    {
        "%vlocity_namespace%__DefaultValue__c": "\"\"",
        "%vlocity_namespace%__DomainObjectAPIName__c": "json",
        "%vlocity_namespace%__DomainObjectCreationOrder__c": 1,
        "%vlocity_namespace%__DomainObjectFieldAPIName__c": "InsuredDetails:CommunityAssociation:InsuredContactBlock:ContactTitle",
        "%vlocity_namespace%__InterfaceFieldAPIName__c": "account:%vlocity_namespace%__PrimaryContactId__r.TitleInsured__c",
        "%vlocity_namespace%__IsDisabled__c": false,
        "%vlocity_namespace%__IsRequiredForUpsert__c": false,
        "%vlocity_namespace%__MapId__c": "CAIS_GetInsuredInfoByFEIN07812609816959815",
        "%vlocity_namespace%__UpsertKey__c": false,
        "Name": "CAIS_GetInsuredInfoByFEIN",
        "VlocityDataPackType": "SObject",
        "VlocityRecordSObjectType": "%vlocity_namespace%__DRMapItem__c"
    },
    {
        "%vlocity_namespace%__DefaultValue__c": "\"\"",
        "%vlocity_namespace%__DomainObjectAPIName__c": "json",
        "%vlocity_namespace%__DomainObjectCreationOrder__c": 1,
        "%vlocity_namespace%__DomainObjectFieldAPIName__c": "InsuredDetails:CommunityAssociation:LocationAddress-Block:LocationAddress",
        "%vlocity_namespace%__InterfaceFieldAPIName__c": "account:Calculated_Location_Address__c",
        "%vlocity_namespace%__IsDisabled__c": false,
        "%vlocity_namespace%__IsRequiredForUpsert__c": false,
        "%vlocity_namespace%__MapId__c": "CAIS_GetInsuredInfoByFEIN3632985323063629",
        "%vlocity_namespace%__UpsertKey__c": false,
        "Name": "CAIS_GetInsuredInfoByFEIN",
        "VlocityDataPackType": "SObject",
        "VlocityRecordSObjectType": "%vlocity_namespace%__DRMapItem__c"
    },
    {
        "%vlocity_namespace%__DefaultValue__c": "\"\"",
        "%vlocity_namespace%__DomainObjectAPIName__c": "json",
        "%vlocity_namespace%__DomainObjectCreationOrder__c": 1,
        "%vlocity_namespace%__DomainObjectFieldAPIName__c": "InsuredDetails:CommunityAssociation:LocationAddress-Block:LocationCity",
        "%vlocity_namespace%__InterfaceFieldAPIName__c": "account:Location_City__c",
        "%vlocity_namespace%__IsDisabled__c": false,
        "%vlocity_namespace%__IsRequiredForUpsert__c": false,
        "%vlocity_namespace%__MapId__c": "CAIS_GetInsuredInfoByFEIN5734302089121417",
        "%vlocity_namespace%__UpsertKey__c": false,
        "Name": "CAIS_GetInsuredInfoByFEIN",
        "VlocityDataPackType": "SObject",
        "VlocityRecordSObjectType": "%vlocity_namespace%__DRMapItem__c"
    },
    {
        "%vlocity_namespace%__DefaultValue__c": "\"\"",
        "%vlocity_namespace%__DomainObjectAPIName__c": "json",
        "%vlocity_namespace%__DomainObjectCreationOrder__c": 1,
        "%vlocity_namespace%__DomainObjectFieldAPIName__c": "InsuredDetails:CommunityAssociation:LocationAddress-Block:LocationState",
        "%vlocity_namespace%__InterfaceFieldAPIName__c": "account:Location_State__c",
        "%vlocity_namespace%__IsDisabled__c": false,
        "%vlocity_namespace%__IsRequiredForUpsert__c": false,
        "%vlocity_namespace%__MapId__c": "CAIS_GetInsuredInfoByFEIN10461188648589625",
        "%vlocity_namespace%__UpsertKey__c": false,
        "Name": "CAIS_GetInsuredInfoByFEIN",
        "VlocityDataPackType": "SObject",
        "VlocityRecordSObjectType": "%vlocity_namespace%__DRMapItem__c"
    },
    {
        "%vlocity_namespace%__DefaultValue__c": "\"\"",
        "%vlocity_namespace%__DomainObjectAPIName__c": "json",
        "%vlocity_namespace%__DomainObjectCreationOrder__c": 1,
        "%vlocity_namespace%__DomainObjectFieldAPIName__c": "InsuredDetails:CommunityAssociation:LocationAddress-Block:LocationStreet",
        "%vlocity_namespace%__InterfaceFieldAPIName__c": "account:Location_Street__c",
        "%vlocity_namespace%__IsDisabled__c": false,
        "%vlocity_namespace%__IsRequiredForUpsert__c": false,
        "%vlocity_namespace%__MapId__c": "CAIS_GetInsuredInfoByFEIN6715160775414974",
        "%vlocity_namespace%__UpsertKey__c": false,
        "Name": "CAIS_GetInsuredInfoByFEIN",
        "VlocityDataPackType": "SObject",
        "VlocityRecordSObjectType": "%vlocity_namespace%__DRMapItem__c"
    },
    {
        "%vlocity_namespace%__DefaultValue__c": "\"\"",
        "%vlocity_namespace%__DomainObjectAPIName__c": "json",
        "%vlocity_namespace%__DomainObjectCreationOrder__c": 1,
        "%vlocity_namespace%__DomainObjectFieldAPIName__c": "InsuredDetails:CommunityAssociation:LocationAddress-Block:LocationZip",
        "%vlocity_namespace%__InterfaceFieldAPIName__c": "account:Location_Zipcode__c",
        "%vlocity_namespace%__IsDisabled__c": false,
        "%vlocity_namespace%__IsRequiredForUpsert__c": false,
        "%vlocity_namespace%__MapId__c": "CAIS_GetInsuredInfoByFEIN08195276829998122",
        "%vlocity_namespace%__UpsertKey__c": false,
        "Name": "CAIS_GetInsuredInfoByFEIN",
        "VlocityDataPackType": "SObject",
        "VlocityRecordSObjectType": "%vlocity_namespace%__DRMapItem__c"
    },
    {
        "%vlocity_namespace%__DefaultValue__c": "\"\"",
        "%vlocity_namespace%__DomainObjectAPIName__c": "json",
        "%vlocity_namespace%__DomainObjectCreationOrder__c": 1,
        "%vlocity_namespace%__DomainObjectFieldAPIName__c": "InsuredDetails:CommunityAssociation:LocationDescription",
        "%vlocity_namespace%__InterfaceFieldAPIName__c": "account:Location_Address2__c",
        "%vlocity_namespace%__IsDisabled__c": true,
        "%vlocity_namespace%__IsRequiredForUpsert__c": false,
        "%vlocity_namespace%__MapId__c": "CAIS_GetInsuredInfoByFEIN5765211278075346",
        "%vlocity_namespace%__UpsertKey__c": false,
        "Name": "CAIS_GetInsuredInfoByFEIN",
        "VlocityDataPackType": "SObject",
        "VlocityRecordSObjectType": "%vlocity_namespace%__DRMapItem__c"
    },
    {
        "%vlocity_namespace%__DefaultValue__c": "\"\"",
        "%vlocity_namespace%__DomainObjectAPIName__c": "json",
        "%vlocity_namespace%__DomainObjectCreationOrder__c": 1,
        "%vlocity_namespace%__DomainObjectFieldAPIName__c": "InsuredDetails:CommunityAssociation:MailingAddress-Block:MailingAddress",
        "%vlocity_namespace%__InterfaceFieldAPIName__c": "account:Calculated_Mailing_Address__c",
        "%vlocity_namespace%__IsDisabled__c": true,
        "%vlocity_namespace%__IsRequiredForUpsert__c": false,
        "%vlocity_namespace%__MapId__c": "CAIS_GetInsuredInfoByFEIN6218747203006032",
        "%vlocity_namespace%__UpsertKey__c": false,
        "Name": "CAIS_GetInsuredInfoByFEIN",
        "VlocityDataPackType": "SObject",
        "VlocityRecordSObjectType": "%vlocity_namespace%__DRMapItem__c"
    },
    {
        "%vlocity_namespace%__DefaultValue__c": "\"\"",
        "%vlocity_namespace%__DomainObjectAPIName__c": "json",
        "%vlocity_namespace%__DomainObjectCreationOrder__c": 1,
        "%vlocity_namespace%__DomainObjectFieldAPIName__c": "InsuredDetails:CommunityAssociation:MailingAddress-Block:MailingCity",
        "%vlocity_namespace%__InterfaceFieldAPIName__c": "account:ShippingCity",
        "%vlocity_namespace%__IsDisabled__c": true,
        "%vlocity_namespace%__IsRequiredForUpsert__c": false,
        "%vlocity_namespace%__MapId__c": "CAIS_GetInsuredInfoByFEIN7667453832443412",
        "%vlocity_namespace%__UpsertKey__c": false,
        "Name": "CAIS_GetInsuredInfoByFEIN",
        "VlocityDataPackType": "SObject",
        "VlocityRecordSObjectType": "%vlocity_namespace%__DRMapItem__c"
    },
    {
        "%vlocity_namespace%__DefaultValue__c": "\"\"",
        "%vlocity_namespace%__DomainObjectAPIName__c": "json",
        "%vlocity_namespace%__DomainObjectCreationOrder__c": 1,
        "%vlocity_namespace%__DomainObjectFieldAPIName__c": "InsuredDetails:CommunityAssociation:MailingAddress-Block:MailingState",
        "%vlocity_namespace%__InterfaceFieldAPIName__c": "account:ShippingState",
        "%vlocity_namespace%__IsDisabled__c": true,
        "%vlocity_namespace%__IsRequiredForUpsert__c": false,
        "%vlocity_namespace%__MapId__c": "CAIS_GetInsuredInfoByFEIN5325414900152465",
        "%vlocity_namespace%__UpsertKey__c": false,
        "Name": "CAIS_GetInsuredInfoByFEIN",
        "VlocityDataPackType": "SObject",
        "VlocityRecordSObjectType": "%vlocity_namespace%__DRMapItem__c"
    },
    {
        "%vlocity_namespace%__DefaultValue__c": "\"\"",
        "%vlocity_namespace%__DomainObjectAPIName__c": "json",
        "%vlocity_namespace%__DomainObjectCreationOrder__c": 1,
        "%vlocity_namespace%__DomainObjectFieldAPIName__c": "InsuredDetails:CommunityAssociation:MailingAddress-Block:MailingStreet",
        "%vlocity_namespace%__InterfaceFieldAPIName__c": "account:ShippingStreet",
        "%vlocity_namespace%__IsDisabled__c": true,
        "%vlocity_namespace%__IsRequiredForUpsert__c": false,
        "%vlocity_namespace%__MapId__c": "CAIS_GetInsuredInfoByFEIN05883574810084102",
        "%vlocity_namespace%__UpsertKey__c": false,
        "Name": "CAIS_GetInsuredInfoByFEIN",
        "VlocityDataPackType": "SObject",
        "VlocityRecordSObjectType": "%vlocity_namespace%__DRMapItem__c"
    },
    {
        "%vlocity_namespace%__DefaultValue__c": "\"\"",
        "%vlocity_namespace%__DomainObjectAPIName__c": "json",
        "%vlocity_namespace%__DomainObjectCreationOrder__c": 1,
        "%vlocity_namespace%__DomainObjectFieldAPIName__c": "InsuredDetails:CommunityAssociation:MailingAddress-Block:MailingZip",
        "%vlocity_namespace%__InterfaceFieldAPIName__c": "account:ShippingPostalCode",
        "%vlocity_namespace%__IsDisabled__c": true,
        "%vlocity_namespace%__IsRequiredForUpsert__c": false,
        "%vlocity_namespace%__MapId__c": "CAIS_GetInsuredInfoByFEIN5065551050061678",
        "%vlocity_namespace%__UpsertKey__c": false,
        "Name": "CAIS_GetInsuredInfoByFEIN",
        "VlocityDataPackType": "SObject",
        "VlocityRecordSObjectType": "%vlocity_namespace%__DRMapItem__c"
    },
    {
        "%vlocity_namespace%__DefaultValue__c": "\"\"",
        "%vlocity_namespace%__DomainObjectAPIName__c": "json",
        "%vlocity_namespace%__DomainObjectCreationOrder__c": 1,
        "%vlocity_namespace%__DomainObjectFieldAPIName__c": "InsuredDetails:CommunityAssociation:MailingCareOf",
        "%vlocity_namespace%__InterfaceFieldAPIName__c": "account:Mailing_CO__c",
        "%vlocity_namespace%__IsDisabled__c": true,
        "%vlocity_namespace%__IsRequiredForUpsert__c": false,
        "%vlocity_namespace%__MapId__c": "CAIS_GetInsuredInfoByFEIN5319834012242304",
        "%vlocity_namespace%__UpsertKey__c": false,
        "Name": "CAIS_GetInsuredInfoByFEIN",
        "VlocityDataPackType": "SObject",
        "VlocityRecordSObjectType": "%vlocity_namespace%__DRMapItem__c"
    },
    {
        "%vlocity_namespace%__DefaultValue__c": "\"\"",
        "%vlocity_namespace%__DomainObjectAPIName__c": "json",
        "%vlocity_namespace%__DomainObjectCreationOrder__c": 1,
        "%vlocity_namespace%__DomainObjectFieldAPIName__c": "InsuredDetails:CommunityAssociation:MailingSuite",
        "%vlocity_namespace%__InterfaceFieldAPIName__c": "account:Shipping_Address2__c",
        "%vlocity_namespace%__IsDisabled__c": true,
        "%vlocity_namespace%__IsRequiredForUpsert__c": false,
        "%vlocity_namespace%__MapId__c": "CAIS_GetInsuredInfoByFEIN21076389527231743",
        "%vlocity_namespace%__UpsertKey__c": false,
        "Name": "CAIS_GetInsuredInfoByFEIN",
        "VlocityDataPackType": "SObject",
        "VlocityRecordSObjectType": "%vlocity_namespace%__DRMapItem__c"
    },
    {
        "%vlocity_namespace%__DefaultValue__c": "\"\"",
        "%vlocity_namespace%__DomainObjectAPIName__c": "json",
        "%vlocity_namespace%__DomainObjectCreationOrder__c": 1,
        "%vlocity_namespace%__DomainObjectFieldAPIName__c": "InsuredDetails:CommunityAssociation:NonProfitCheck",
        "%vlocity_namespace%__InterfaceFieldAPIName__c": "account:IsAssociationNonProfit__c",
        "%vlocity_namespace%__IsDisabled__c": false,
        "%vlocity_namespace%__IsRequiredForUpsert__c": false,
        "%vlocity_namespace%__MapId__c": "CAIS_GetInsuredInfoByFEIN24100613116926284",
        "%vlocity_namespace%__UpsertKey__c": false,
        "Name": "CAIS_GetInsuredInfoByFEIN",
        "VlocityDataPackType": "SObject",
        "VlocityRecordSObjectType": "%vlocity_namespace%__DRMapItem__c"
    },
    {
        "%vlocity_namespace%__DefaultValue__c": "\"\"",
        "%vlocity_namespace%__DomainObjectAPIName__c": "json",
        "%vlocity_namespace%__DomainObjectCreationOrder__c": 1,
        "%vlocity_namespace%__DomainObjectFieldAPIName__c": "InsuredDetails:CommunityAssociation:NumberofUnits",
        "%vlocity_namespace%__DomainObjectFieldType__c": "String",
        "%vlocity_namespace%__InterfaceFieldAPIName__c": "account:Number_of_units__c",
        "%vlocity_namespace%__IsDisabled__c": false,
        "%vlocity_namespace%__IsRequiredForUpsert__c": false,
        "%vlocity_namespace%__MapId__c": "CAIS_GetInsuredInfoByFEIN7570806113134714",
        "%vlocity_namespace%__UpsertKey__c": false,
        "Name": "CAIS_GetInsuredInfoByFEIN",
        "VlocityDataPackType": "SObject",
        "VlocityRecordSObjectType": "%vlocity_namespace%__DRMapItem__c"
    },
    {
        "%vlocity_namespace%__DefaultValue__c": "\"\"",
        "%vlocity_namespace%__DomainObjectAPIName__c": "json",
        "%vlocity_namespace%__DomainObjectCreationOrder__c": 1,
        "%vlocity_namespace%__DomainObjectFieldAPIName__c": "InsuredDetails:CommunityAssociation:OrganizationType",
        "%vlocity_namespace%__InterfaceFieldAPIName__c": "account:Organization_Type__c",
        "%vlocity_namespace%__IsDisabled__c": false,
        "%vlocity_namespace%__IsRequiredForUpsert__c": false,
        "%vlocity_namespace%__MapId__c": "CAIS_GetInsuredInfoByFEIN4420685486107061",
        "%vlocity_namespace%__UpsertKey__c": false,
        "Name": "CAIS_GetInsuredInfoByFEIN",
        "VlocityDataPackType": "SObject",
        "VlocityRecordSObjectType": "%vlocity_namespace%__DRMapItem__c"
    },
    {
        "%vlocity_namespace%__DomainObjectAPIName__c": "json",
        "%vlocity_namespace%__DomainObjectCreationOrder__c": 1,
        "%vlocity_namespace%__DomainObjectFieldAPIName__c": "InsuredDetails:CommunityAssociation:PMCAccount-Block:PMCAccount",
        "%vlocity_namespace%__InterfaceFieldAPIName__c": "account:Management_Company__r.Name",
        "%vlocity_namespace%__IsDisabled__c": false,
        "%vlocity_namespace%__IsRequiredForUpsert__c": false,
        "%vlocity_namespace%__MapId__c": "CAIS_GetInsuredInfoByFEINCustom2017",
        "%vlocity_namespace%__UpsertKey__c": false,
        "Name": "CAIS_GetInsuredInfoByFEIN",
        "VlocityDataPackType": "SObject",
        "VlocityRecordSObjectType": "%vlocity_namespace%__DRMapItem__c"
    },
    {
        "%vlocity_namespace%__DomainObjectAPIName__c": "json",
        "%vlocity_namespace%__DomainObjectCreationOrder__c": 1,
        "%vlocity_namespace%__DomainObjectFieldAPIName__c": "InsuredDetails:CommunityAssociation:PMCAccount-Block:PMCAccountId",
        "%vlocity_namespace%__InterfaceFieldAPIName__c": "account:Management_Company__c",
        "%vlocity_namespace%__IsDisabled__c": false,
        "%vlocity_namespace%__IsRequiredForUpsert__c": false,
        "%vlocity_namespace%__MapId__c": "CAIS_GetInsuredInfoByFEINCustom5858",
        "%vlocity_namespace%__UpsertKey__c": false,
        "Name": "CAIS_GetInsuredInfoByFEIN",
        "VlocityDataPackType": "SObject",
        "VlocityRecordSObjectType": "%vlocity_namespace%__DRMapItem__c"
    },
    {
        "%vlocity_namespace%__DefaultValue__c": "\"\"",
        "%vlocity_namespace%__DomainObjectAPIName__c": "json",
        "%vlocity_namespace%__DomainObjectCreationOrder__c": 1,
        "%vlocity_namespace%__DomainObjectFieldAPIName__c": "InsuredDetails:CommunityAssociation:VacancyRate",
        "%vlocity_namespace%__DomainObjectFieldType__c": "String",
        "%vlocity_namespace%__InterfaceFieldAPIName__c": "account:Vacancy_Rate__c",
        "%vlocity_namespace%__IsDisabled__c": false,
        "%vlocity_namespace%__IsRequiredForUpsert__c": false,
        "%vlocity_namespace%__MapId__c": "CAIS_GetInsuredInfoByFEIN9472701290998595",
        "%vlocity_namespace%__UpsertKey__c": false,
        "Name": "CAIS_GetInsuredInfoByFEIN",
        "VlocityDataPackType": "SObject",
        "VlocityRecordSObjectType": "%vlocity_namespace%__DRMapItem__c"
    },
    {
        "%vlocity_namespace%__DefaultValue__c": "\"\"",
        "%vlocity_namespace%__DomainObjectAPIName__c": "json",
        "%vlocity_namespace%__DomainObjectCreationOrder__c": 1,
        "%vlocity_namespace%__DomainObjectFieldAPIName__c": "Name",
        "%vlocity_namespace%__InterfaceFieldAPIName__c": "account:Name",
        "%vlocity_namespace%__IsDisabled__c": false,
        "%vlocity_namespace%__IsRequiredForUpsert__c": false,
        "%vlocity_namespace%__MapId__c": "CAIS_GetInsuredInfoByFEIN7940645625591698",
        "%vlocity_namespace%__UpsertKey__c": false,
        "Name": "CAIS_GetInsuredInfoByFEIN",
        "VlocityDataPackType": "SObject",
        "VlocityRecordSObjectType": "%vlocity_namespace%__DRMapItem__c"
    }
]