[
    {
        "%vlocity_namespace%__CalculationMatrixId__c": {
            "Name": "FL Crime Taxes",
            "VlocityDataPackType": "VlocityLookupMatchingKeyObject",
            "VlocityLookupRecordSourceKey": "%vlocity_namespace%__CalculationMatrix__c/FL Crime Taxes",
            "VlocityRecordSObjectType": "%vlocity_namespace%__CalculationMatrix__c"
        },
        "%vlocity_namespace%__CalculationProcedureId__c": {
            "Name": "FL Crime Tax Rates",
            "VlocityDataPackType": "VlocityMatchingKeyObject",
            "VlocityMatchingRecordSourceKey": "%vlocity_namespace%__CalculationProcedure__c/FL Crime Tax Rates",
            "VlocityRecordSObjectType": "%vlocity_namespace%__CalculationProcedure__c"
        },
        "%vlocity_namespace%__CalculationProcedureVersionId__c": {
            "%vlocity_namespace%__CalculationProcedureId__r.Name": "FL Crime Tax Rates",
            "%vlocity_namespace%__VersionNumber__c": 1,
            "VlocityDataPackType": "VlocityMatchingKeyObject",
            "VlocityMatchingRecordSourceKey": "%vlocity_namespace%__CalculationProcedureVersion__c/1/%vlocity_namespace%__CalculationProcedure__c/FL Crime Tax Rates",
            "VlocityRecordSObjectType": "%vlocity_namespace%__CalculationProcedureVersion__c"
        },
        "%vlocity_namespace%__ConditionalInputDisplayData__c": [
        ],
        "%vlocity_namespace%__Function__c": "Matrix Lookup",
        "%vlocity_namespace%__Input__c": [
            {
                "columnKey": "4b6004",
                "dataType": "Text",
                "label": null,
                "listValues": null,
                "name": "State"
            },
            {
                "columnKey": "b4fbc0",
                "dataType": "Text",
                "label": null,
                "listValues": null,
                "name": "CoverageCode"
            },
            {
                "columnKey": "e08723",
                "dataType": "Number",
                "label": null,
                "listValues": null,
                "name": "CoverageLimit"
            },
            {
                "columnKey": "35343a",
                "dataType": "Number",
                "label": null,
                "listValues": null,
                "name": "Deductible"
            }
        ],
        "%vlocity_namespace%__IsConditionalStep__c": false,
        "%vlocity_namespace%__IsIncludedInResult__c": true,
        "%vlocity_namespace%__MatrixRecordType__c": "Standard",
        "%vlocity_namespace%__OutputJSON__c": [
            {
                "columnKey": "752cd2",
                "dataType": "Currency",
                "label": null,
                "listValues": null,
                "name": "TaxRate"
            }
        ],
        "%vlocity_namespace%__OutputMappingJSON__c": "{\"TaxRate\":\"FLCrimeTaxes__TaxRate\"}",
        "%vlocity_namespace%__Sequence__c": 1,
        "VlocityDataPackType": "SObject",
        "VlocityRecordSObjectType": "%vlocity_namespace%__CalculationProcedureStep__c"
    }
]