{
    "%vlocity_namespace%__Active__c": true,
    "%vlocity_namespace%__OmniScriptId__c": {
        "Name": "Quote Crime",
        "VlocityDataPackType": "VlocityMatchingKeyObject",
        "VlocityMatchingRecordSourceKey": "%vlocity_namespace%__OmniScript__c/quote/Crime/English",
        "VlocityRecordSObjectType": "%vlocity_namespace%__OmniScript__c"
    },
    "%vlocity_namespace%__ParentElementId__c": {
        "%vlocity_namespace%__OmniScriptId__c": {
            "Name": "Quote Crime",
            "VlocityDataPackType": "VlocityMatchingKeyObject",
            "VlocityMatchingRecordSourceKey": "%vlocity_namespace%__OmniScript__c/quote/Crime/English",
            "VlocityRecordSObjectType": "%vlocity_namespace%__OmniScript__c"
        },
        "Name": "Confirmation",
        "VlocityDataPackType": "VlocityMatchingKeyObject",
        "VlocityMatchingRecordSourceKey": "%vlocity_namespace%__Element__c/%vlocity_namespace%__OmniScript__c/quote/Crime/English/Confirmation",
        "VlocityRecordSObjectType": "%vlocity_namespace%__Element__c"
    },
    "%vlocity_namespace%__ParentElementName__c": "Confirmation",
    "%vlocity_namespace%__ParentElementType__c": "Step",
    "%vlocity_namespace%__PropertySet__c": {
        "HTMLTemplateId": "",
        "controlWidth": 12,
        "dataJSON": true,
        "disOnTplt": false,
        "documentNames": [
            "CACAAIBEA1d082e80e4704a9283ae5e94826b386c"
        ],
        "label": null,
        "sanitize": false,
        "show": {
            "group": {
                "operator": "AND",
                "rules": [
                    {
                        "condition": "=",
                        "data": "Declined",
                        "field": "WCRuleStatus"
                    }
                ]
            }
        },
        "text": "<p style=\"text-align: center;\"><img style=\"display: block; margin-left: auto; margin-right: auto;\" src=\"../servlet/servlet.ImageServer?id=0153K00000057e9QAA&amp;&amp;docName=CACAAIBEA1d082e80e4704a9283ae5e94826b386c&amp;&amp;oid=00D3K0000008lFtUAI\" alt=\"\" width=\"57\" height=\"55\" /><strong><span style=\"color: #003366; font-weight: 400; font-size: 35px;\">Crime</span></strong></p>\n<p style=\"text-align: center;\"><span style=\"color: #003366; font-size: 20px; font-weight: 400;\">%Crime:CommunityAssociation:FinalInsured%</span></p>\n<p style=\"text-align: center;\">&nbsp;</p>\n<p><span style=\"color: #003366; font-weight: 400; font-size: 20px;\"> This risk does not qualify for our Crime program due to the following response(s): </span></p>\n<p>&nbsp;</p>\n<p>%Results:Description%</p>\n<p>&nbsp;</p>\n<p><span style=\"color: #003366; font-weight: 400; font-size: 20px;\">We've sent you an email for your records.</span></p>",
        "textKey": ""
    },
    "%vlocity_namespace%__ReusableOmniScript__c": false,
    "%vlocity_namespace%__Type__c": "Text Block",
    "Name": "declinedTextBlock",
    "VlocityDataPackType": "SObject",
    "VlocityRecordSObjectType": "%vlocity_namespace%__Element__c",
    "VlocityRecordSourceKey": "%vlocity_namespace%__Element__c/%vlocity_namespace%__OmniScript__c/quote/Crime/English/declinedTextBlock"
}