{
    "%vlocity_namespace%__Active__c": true,
    "%vlocity_namespace%__OmniScriptId__c": {
        "Name": "Quote Crime",
        "VlocityDataPackType": "VlocityMatchingKeyObject",
        "VlocityMatchingRecordSourceKey": "%vlocity_namespace%__OmniScript__c/quote/Crime/English",
        "VlocityRecordSObjectType": "%vlocity_namespace%__OmniScript__c"
    },
    "%vlocity_namespace%__PropertySet__c": {
        "HTMLTemplateId": "",
        "controlWidth": 12,
        "disOnTplt": false,
        "elementValueMap": {
            "mailDeclinedFooter": "Please contact us at (888) 833-4158 with additional questions.",
            "mailDeclinedHeader": "This risk does not qualify for our Crime program due to the following response(s):",
            "mailRecordLinkRequired": "Yes",
            "mailReferralFooter": "Please contact us at (888) 833-4158 with additional questions.",
            "mailReferralHeader": "This quote has been referred to an underwriter and is being reviewed for the following response(s):",
            "mailSubject": "='Crime' + ', Quote - ' + IF(%Quote:quoteNumber% <> ' ',%Quote:quoteNumber%,'') + IF(%Quote:quoteNumber2% <> NULL,', '+%Quote:quoteNumber2%,'') + ' for ' + %Name% + ' has been ' + IF(%WCRuleStatus% = 'Referral','Referred',%WCRuleStatus%)"
        },
        "label": null,
        "message": {
        },
        "pubsub": false,
        "show": null,
        "showPersistentComponent": [
            false,
            false
        ],
        "ssm": false,
        "wpm": false
    },
    "%vlocity_namespace%__ReusableOmniScript__c": false,
    "%vlocity_namespace%__Type__c": "Set Values",
    "Name": "SetMailFields",
    "VlocityDataPackType": "SObject",
    "VlocityRecordSObjectType": "%vlocity_namespace%__Element__c",
    "VlocityRecordSourceKey": "%vlocity_namespace%__Element__c/%vlocity_namespace%__OmniScript__c/quote/Crime/English/SetMailFields"
}