{
    "%vlocity_namespace%__Active__c": true,
    "%vlocity_namespace%__OmniScriptId__c": {
        "Name": "Quote Crime",
        "VlocityDataPackType": "VlocityMatchingKeyObject",
        "VlocityMatchingRecordSourceKey": "%vlocity_namespace%__OmniScript__c/quote/Crime/English",
        "VlocityRecordSObjectType": "%vlocity_namespace%__OmniScript__c"
    },
    "%vlocity_namespace%__ParentElementId__c": {
        "%vlocity_namespace%__OmniScriptId__c": {
            "Name": "Quote Crime",
            "VlocityDataPackType": "VlocityMatchingKeyObject",
            "VlocityMatchingRecordSourceKey": "%vlocity_namespace%__OmniScript__c/quote/Crime/English",
            "VlocityRecordSObjectType": "%vlocity_namespace%__OmniScript__c"
        },
        "Name": "GeneralQuestions",
        "VlocityDataPackType": "VlocityMatchingKeyObject",
        "VlocityMatchingRecordSourceKey": "%vlocity_namespace%__Element__c/%vlocity_namespace%__OmniScript__c/quote/Crime/English/GeneralQuestions",
        "VlocityRecordSObjectType": "%vlocity_namespace%__Element__c"
    },
    "%vlocity_namespace%__ParentElementName__c": "GeneralQuestions",
    "%vlocity_namespace%__ParentElementType__c": "Step",
    "%vlocity_namespace%__PropertySet__c": {
        "HTMLTemplateId": "",
        "controlWidth": 0,
        "dataType": null,
        "dateFormat": "MM-dd-yyyy",
        "disOnTplt": false,
        "expression": "IF(%GeneralQuestions:Block1:SumOfReserveAndAvgMoneyHeld% < %PolicyCoverage:RequestedCoverages:Liability%, \"Yes\", \"No\")",
        "hide": true,
        "hideGroupSep": false,
        "inputWidth": 12,
        "label": null,
        "mask": null,
        "show": {
            "group": {
                "operator": "AND",
                "rules": [
                    {
                        "condition": "=",
                        "data": "Referral",
                        "field": "WCRuleStatus"
                    }
                ]
            }
        },
        "showInputWidth": false
    },
    "%vlocity_namespace%__ReusableOmniScript__c": false,
    "%vlocity_namespace%__Type__c": "Formula",
    "Name": "IsSumOfReserveAndAvgMoneyHeldLTLiability",
    "VlocityDataPackType": "SObject",
    "VlocityRecordSObjectType": "%vlocity_namespace%__Element__c",
    "VlocityRecordSourceKey": "%vlocity_namespace%__Element__c/%vlocity_namespace%__OmniScript__c/quote/Crime/English/IsSumOfReserveAndAvgMoneyHeldLTLiability"
}