{
    "%vlocity_namespace%__Active__c": true,
    "%vlocity_namespace%__OmniScriptId__c": {
        "Name": "Quote Crime",
        "VlocityDataPackType": "VlocityMatchingKeyObject",
        "VlocityMatchingRecordSourceKey": "%vlocity_namespace%__OmniScript__c/quote/Crime/English",
        "VlocityRecordSObjectType": "%vlocity_namespace%__OmniScript__c"
    },
    "%vlocity_namespace%__PropertySet__c": {
        "HTMLTemplateId": "",
        "controlWidth": 12,
        "disOnTplt": false,
        "iconName": "",
        "iconPosition": "left",
        "iconVariant": "",
        "label": null,
        "loginAction": "login",
        "message": {
        },
        "objectAction": "home",
        "pubsub": false,
        "recordAction": "view",
        "replace": false,
        "show": null,
        "ssm": false,
        "targetFilter": "Recent",
        "targetId": "%finalAccountId%",
        "targetLWCLayout": "lightning",
        "targetName": "Account",
        "targetType": "Record",
        "validationRequired": "none",
        "variant": "brand",
        "wpm": false
    },
    "%vlocity_namespace%__ReusableOmniScript__c": false,
    "%vlocity_namespace%__Type__c": "Navigate Action",
    "Name": "NavigateToInsuredAccount",
    "VlocityDataPackType": "SObject",
    "VlocityRecordSObjectType": "%vlocity_namespace%__Element__c",
    "VlocityRecordSourceKey": "%vlocity_namespace%__Element__c/%vlocity_namespace%__OmniScript__c/quote/Crime/English/NavigateToInsuredAccount"
}