{
    "%vlocity_namespace%__Active__c": true,
    "%vlocity_namespace%__OmniScriptId__c": {
        "Name": "Quote Crime",
        "VlocityDataPackType": "VlocityMatchingKeyObject",
        "VlocityMatchingRecordSourceKey": "%vlocity_namespace%__OmniScript__c/quote/Crime/English",
        "VlocityRecordSObjectType": "%vlocity_namespace%__OmniScript__c"
    },
    "%vlocity_namespace%__ParentElementId__c": {
        "%vlocity_namespace%__OmniScriptId__c": {
            "Name": "Quote Crime",
            "VlocityDataPackType": "VlocityMatchingKeyObject",
            "VlocityMatchingRecordSourceKey": "%vlocity_namespace%__OmniScript__c/quote/Crime/English",
            "VlocityRecordSObjectType": "%vlocity_namespace%__OmniScript__c"
        },
        "Name": "RequestedCoverages",
        "VlocityDataPackType": "VlocityMatchingKeyObject",
        "VlocityMatchingRecordSourceKey": "%vlocity_namespace%__Element__c/%vlocity_namespace%__OmniScript__c/quote/Crime/English/RequestedCoverages",
        "VlocityRecordSObjectType": "%vlocity_namespace%__Element__c"
    },
    "%vlocity_namespace%__ParentElementName__c": "RequestedCoverages",
    "%vlocity_namespace%__ParentElementType__c": "Block",
    "%vlocity_namespace%__PropertySet__c": {
        "HTMLTemplateId": "",
        "accessibleInFutureSteps": true,
        "conditionType": "Hide if False",
        "controlWidth": 4,
        "controllingField": {
            "element": "",
            "source": "",
            "type": ""
        },
        "defaultValue": null,
        "disOnTplt": false,
        "help": false,
        "helpText": "",
        "hide": false,
        "inputWidth": 12,
        "label": "Limit Desired",
        "lwcComponentOverride": "customLWCselectblock",
        "optionSource": {
            "source": "",
            "type": ""
        },
        "options": [
            {
                "name": 10000,
                "value": "$10,000"
            },
            {
                "name": 25000,
                "value": "$25,000"
            },
            {
                "name": 50000,
                "value": "$50,000"
            },
            {
                "name": 75000,
                "value": "$75,000"
            },
            {
                "name": 100000,
                "value": "$100,000"
            },
            {
                "name": 125000,
                "value": "$125,000"
            },
            {
                "name": 150000,
                "value": "$150,000"
            },
            {
                "name": 175000,
                "value": "$175,000"
            },
            {
                "name": 200000,
                "value": "$200,000"
            },
            {
                "name": 225000,
                "value": "$225,000"
            },
            {
                "name": 250000,
                "value": "$250,000"
            },
            {
                "name": 275000,
                "value": "$275,000"
            },
            {
                "name": 300000,
                "value": "$300,000"
            },
            {
                "name": 325000,
                "value": "$325,000"
            },
            {
                "name": 400000,
                "value": "$400,000"
            },
            {
                "name": 425000,
                "value": "$425,000"
            },
            {
                "name": 475000,
                "value": "$475,000"
            },
            {
                "name": 500000,
                "value": "$500,000"
            },
            {
                "name": 575000,
                "value": "$575,000"
            },
            {
                "name": 600000,
                "value": "$600,000"
            },
            {
                "name": 625000,
                "value": "$625,000"
            },
            {
                "name": 650000,
                "value": "$650,000"
            },
            {
                "name": 675000,
                "value": "$675,000"
            },
            {
                "name": 700000,
                "value": "$700,000"
            },
            {
                "name": 725000,
                "value": "$725,000"
            },
            {
                "name": 750000,
                "value": "$750,000"
            },
            {
                "name": 775000,
                "value": "$775,000"
            },
            {
                "name": 800000,
                "value": "$800,000"
            },
            {
                "name": 825000,
                "value": "$825,000"
            },
            {
                "name": 850000,
                "value": "$850,000"
            },
            {
                "name": 875000,
                "value": "$875,000"
            },
            {
                "name": 900000,
                "value": "$900,000"
            },
            {
                "name": 925000,
                "value": "$925,000"
            },
            {
                "name": 950000,
                "value": "$950,000"
            },
            {
                "name": 975000,
                "value": "$975,000"
            },
            {
                "name": 1000000,
                "value": "$1,000,000"
            },
            {
                "name": 1100000,
                "value": "$1,100,000"
            },
            {
                "name": 1200000,
                "value": "$1,200,000"
            },
            {
                "name": 1300000,
                "value": "$1,300,000"
            },
            {
                "name": 1400000,
                "value": "$1,400,000"
            },
            {
                "name": 1500000,
                "value": "$1,500,000"
            },
            {
                "name": 1600000,
                "value": "$1,600,000"
            },
            {
                "name": 1700000,
                "value": "$1,700,000"
            },
            {
                "name": 1800000,
                "value": "$1,800,000"
            },
            {
                "name": 1900000,
                "value": "$1,900,000"
            },
            {
                "name": 2000000,
                "value": "$2,000,000"
            },
            {
                "name": 2250000,
                "value": "$2,250,000"
            },
            {
                "name": 2250000,
                "value": "$2,500,000"
            },
            {
                "name": 2750000,
                "value": "$2,750,000"
            },
            {
                "name": 3000000,
                "value": "$3,000,000"
            },
            {
                "name": 3250000,
                "value": "$3,250,000"
            },
            {
                "name": 3500000,
                "value": "$3,500,000"
            },
            {
                "name": 3750000,
                "value": "$3,750,000"
            },
            {
                "name": 4000000,
                "value": "$4,000,000"
            },
            {
                "name": 4500000,
                "value": "$4,500,000"
            },
            {
                "name": 5000000,
                "value": "$5,000,000"
            }
        ],
        "readOnly": false,
        "repeat": false,
        "repeatClone": false,
        "repeatLimit": null,
        "required": true,
        "show": null,
        "showInputWidth": false
    },
    "%vlocity_namespace%__ReusableOmniScript__c": false,
    "%vlocity_namespace%__Type__c": "Select",
    "Name": "Liability",
    "VlocityDataPackType": "SObject",
    "VlocityRecordSObjectType": "%vlocity_namespace%__Element__c",
    "VlocityRecordSourceKey": "%vlocity_namespace%__Element__c/%vlocity_namespace%__OmniScript__c/quote/Crime/English/Liability"
}