{
    "%vlocity_namespace%__Active__c": false,
    "%vlocity_namespace%__OmniScriptId__c": {
        "Name": "D&O Update Application",
        "VlocityDataPackType": "VlocityMatchingKeyObject",
        "VlocityMatchingRecordSourceKey": "%vlocity_namespace%__OmniScript__c/D_O/UpdateApplication/English",
        "VlocityRecordSObjectType": "%vlocity_namespace%__OmniScript__c"
    },
    "%vlocity_namespace%__ParentElementId__c": {
        "%vlocity_namespace%__OmniScriptId__c": {
            "Name": "D&O Update Application",
            "VlocityDataPackType": "VlocityMatchingKeyObject",
            "VlocityMatchingRecordSourceKey": "%vlocity_namespace%__OmniScript__c/D_O/UpdateApplication/English",
            "VlocityRecordSObjectType": "%vlocity_namespace%__OmniScript__c"
        },
        "Name": "GeneralQuestions",
        "VlocityDataPackType": "VlocityMatchingKeyObject",
        "VlocityMatchingRecordSourceKey": "%vlocity_namespace%__Element__c/%vlocity_namespace%__OmniScript__c/D_O/UpdateApplication/English/GeneralQuestions",
        "VlocityRecordSObjectType": "%vlocity_namespace%__Element__c"
    },
    "%vlocity_namespace%__ParentElementName__c": "GeneralQuestions",
    "%vlocity_namespace%__ParentElementType__c": "Block",
    "%vlocity_namespace%__PropertySet__c": {
        "HTMLTemplateId": "",
        "controlWidth": 12,
        "disOnTplt": false,
        "hideLabel": true,
        "label": null,
        "messages": [
            {
                "active": true,
                "text": "Value should be  >0 and <=500",
                "type": "Warning",
                "value": true
            },
            {
                "active": false,
                "text": "",
                "type": "Requirement",
                "value": false
            }
        ],
        "show": {
            "group": {
                "operator": "OR",
                "rules": [
                    {
                        "condition": ">",
                        "data": "500",
                        "field": "TotalUnits"
                    },
                    {
                        "condition": "<",
                        "data": "0",
                        "field": "TotalUnits"
                    },
                    {
                        "condition": "=",
                        "data": "Chubb",
                        "field": "FinalCarrier"
                    }
                ]
            }
        },
        "validateExpression": {
            "group": {
                "operator": "AND",
                "rules": [
                    {
                        "condition": ">",
                        "data": "0",
                        "field": "TotalUnits"
                    },
                    {
                        "condition": "<=",
                        "data": "500",
                        "field": "TotalUnits"
                    }
                ]
            }
        }
    },
    "%vlocity_namespace%__ReusableOmniScript__c": false,
    "%vlocity_namespace%__Type__c": "Validation",
    "Name": "ErrorOnTotalUnitsChubb",
    "VlocityDataPackType": "SObject",
    "VlocityRecordSObjectType": "%vlocity_namespace%__Element__c",
    "VlocityRecordSourceKey": "%vlocity_namespace%__Element__c/%vlocity_namespace%__OmniScript__c/D_O/UpdateApplication/English/ErrorOnTotalUnitsChubb"
}