{
    "%vlocity_namespace%__Active__c": true,
    "%vlocity_namespace%__OmniScriptId__c": {
        "Name": "D&O Update Application",
        "VlocityDataPackType": "VlocityMatchingKeyObject",
        "VlocityMatchingRecordSourceKey": "%vlocity_namespace%__OmniScript__c/D_O/UpdateApplication/English",
        "VlocityRecordSObjectType": "%vlocity_namespace%__OmniScript__c"
    },
    "%vlocity_namespace%__ParentElementId__c": {
        "%vlocity_namespace%__OmniScriptId__c": {
            "Name": "D&O Update Application",
            "VlocityDataPackType": "VlocityMatchingKeyObject",
            "VlocityMatchingRecordSourceKey": "%vlocity_namespace%__OmniScript__c/D_O/UpdateApplication/English",
            "VlocityRecordSObjectType": "%vlocity_namespace%__OmniScript__c"
        },
        "Name": "CommunityAssociation",
        "VlocityDataPackType": "VlocityMatchingKeyObject",
        "VlocityMatchingRecordSourceKey": "%vlocity_namespace%__Element__c/%vlocity_namespace%__OmniScript__c/D_O/UpdateApplication/English/CommunityAssociation",
        "VlocityRecordSObjectType": "%vlocity_namespace%__Element__c"
    },
    "%vlocity_namespace%__ParentElementName__c": "CommunityAssociation",
    "%vlocity_namespace%__ParentElementType__c": "Block",
    "%vlocity_namespace%__PropertySet__c": {
        "HTMLTemplateId": "",
        "accessibleInFutureSteps": false,
        "conditionType": "Hide if False",
        "controlWidth": 3,
        "debounceValue": 0,
        "defaultValue": null,
        "disOnTplt": false,
        "help": false,
        "helpText": "",
        "hide": false,
        "inputWidth": 12,
        "label": "Billing Suite #",
        "mask": "",
        "maxLength": 10,
        "minLength": 0,
        "pattern": "",
        "placeholder": "",
        "ptrnErrText": "",
        "readOnly": false,
        "repeat": false,
        "repeatClone": false,
        "repeatLimit": null,
        "required": false,
        "show": {
            "group": {
                "operator": "AND",
                "rules": [
                    {
                        "group": {
                            "operator": "OR",
                            "rules": [
                                {
                                    "condition": "=",
                                    "data": "No",
                                    "field": "ContractCheck"
                                },
                                {
                                    "condition": "=",
                                    "data": "No",
                                    "field": "IsInsBillingSameAsMgmtBilling"
                                }
                            ]
                        }
                    },
                    {
                        "group": {
                            "operator": "OR",
                            "rules": [
                                {
                                    "condition": "=",
                                    "data": null,
                                    "field": "BillingAddressCheck"
                                },
                                {
                                    "condition": "=",
                                    "data": "false",
                                    "field": "BillingAddressCheck"
                                }
                            ]
                        }
                    }
                ]
            }
        },
        "showInputWidth": false
    },
    "%vlocity_namespace%__ReusableOmniScript__c": false,
    "%vlocity_namespace%__Type__c": "Text",
    "Name": "BillingSuite",
    "VlocityDataPackType": "SObject",
    "VlocityRecordSObjectType": "%vlocity_namespace%__Element__c",
    "VlocityRecordSourceKey": "%vlocity_namespace%__Element__c/%vlocity_namespace%__OmniScript__c/D_O/UpdateApplication/English/BillingSuite"
}