{
    "%vlocity_namespace%__Active__c": true,
    "%vlocity_namespace%__OmniScriptId__c": {
        "Name": "D&O Update Application",
        "VlocityDataPackType": "VlocityMatchingKeyObject",
        "VlocityMatchingRecordSourceKey": "%vlocity_namespace%__OmniScript__c/D_O/UpdateApplication/English",
        "VlocityRecordSObjectType": "%vlocity_namespace%__OmniScript__c"
    },
    "%vlocity_namespace%__ParentElementId__c": {
        "%vlocity_namespace%__OmniScriptId__c": {
            "Name": "D&O Update Application",
            "VlocityDataPackType": "VlocityMatchingKeyObject",
            "VlocityMatchingRecordSourceKey": "%vlocity_namespace%__OmniScript__c/D_O/UpdateApplication/English",
            "VlocityRecordSObjectType": "%vlocity_namespace%__OmniScript__c"
        },
        "Name": "GeneralQuestionsStep",
        "VlocityDataPackType": "VlocityMatchingKeyObject",
        "VlocityMatchingRecordSourceKey": "%vlocity_namespace%__Element__c/%vlocity_namespace%__OmniScript__c/D_O/UpdateApplication/English/GeneralQuestionsStep",
        "VlocityRecordSObjectType": "%vlocity_namespace%__Element__c"
    },
    "%vlocity_namespace%__ParentElementName__c": "GeneralQuestionsStep",
    "%vlocity_namespace%__ParentElementType__c": "Step",
    "%vlocity_namespace%__PropertySet__c": {
        "HTMLTemplateId": "",
        "controlWidth": 12,
        "dataType": null,
        "dateFormat": "MM-dd-yyyy",
        "disOnTplt": false,
        "expression": "IF( \n    AND(\n        %FinalCarrier% = 'Chubb',\n            OR(\n                %TotalUnits% > 500,\n                %TotalNumberOfEmployees% > 10,\n                %PercentageOfCommercialUnits% > 35,\n                %SqFtOfLargestEstablishment% > 10000,\n                %AvgUnitValue% > 1000000 ,\n                %DU01_01% = 'No',\n                %DU03% = 'Yes',\n                %DU04% = 'Yes'\n            )\n    ),'Declined', \n    IF(\n        OR(\n            AND\n            (\n                %FinalCarrier% = 'Chubb',  \n                OR\n                (\n                        %RU01_01% > 49 ,\n                        %RU02% = 'Yes',\n                        %DU02% = 'No',\n                        AND(%TotalUnits% >= 3, %TotalUnits% <= 10, %PercentOfUnitsOwnedByOnePerson% > 30),\n                        AND(%TotalUnits% >= 11, %TotalUnits% <= 49, %PercentOfUnitsOwnedByOnePerson% > 20),\n                        AND(%TotalUnits% > 49, %PercentOfUnitsOwnedByOnePerson% > 10),\n                        %PercentDelinquent% > 10,\n                        %RU08% = 'Yes',\n                        %RU09% = 'Yes',\n                        %RU10% = 'Yes',\n                        %AnyRenovations% = 'Yes',\n                        %RU12% = 'Yes',\n                        %RU13% = 'Yes',\n                        %RU14% = 'Yes'\n                )\n            ),\n\n            AND\n            (\n                %FinalCarrier% = 'JGS', \n                OR(\n                    %TotalUnits% > 3000, \n                    %TotalNumberOfEmployees% <= 50,\n                    %DU03% = 'Yes',\n                    %RU04% = 'Yes',\n                    %RU05% = 'Yes',\n                    %hasFuelingOperation% = 'Yes',\n                    %OtherOption% = 'Yes',\n                    %AmenitiesLimitedToMembers% = 'No',\n                    %hasAnyLegalIssues% = 'Yes',\n                    %DU04% = 'Yes',\n                    %PercentDelinquent% > 20,\n                    %RU11% = 'Yes',\n                    %RU12% = 'Yes',\n                    %RU13% = 'Yes',\n                    %Commonareas% = 'Yes',\n                    %SubAssociations% = 'Yes'\n                )\n            )\n\n\n            \n        ), 'Referral', \n        IF(\n            OR\n            (\n                AND(\n                %FinalCarrier% = 'Chubb', \n                    OR\n                    (\n                        %TotalUnits% <= 500, \n                        %PercentageOfUnitsBuilt% >= 70,\n                        %TotalNumberOfEmployees% <= 10,\n                        %PercentageOfCommercialUnits% <= 35,\n                        %SqFtOfLargestEstablishment% <= 10000,\n                        %AvgUnitValue% <= 1000000,\n                        %DU01_01% = 'Yes',\n                        %RU01_01% <= 49,\n                        %RU02% = 'No',\n                        %DU02% = 'Yes',\n                        %DU03% = 'No',\n                        %RU04% != NULL,\n                        %RU05% != NULL,\n                        %hasFuelingOperation% != NULL,\n                        %OtherOption% != NULL,\n                        %AmenitiesLimitedToMembers% != NULL,\n                        %hasAnyLegalIssues% != NULL,\n                        %DU04% = 'No',\n                        %PercentDelinquent% <= 10,\n                        %RU08% = 'No',\n                        %RU09% = 'No',\n                        %RU10% = 'No',\n                        %AnyRenovations% = 'No',\n                        %RU11% != NULL,\n                        %RU14% = 'No',\n                        %Commonareas% != NULL,\n                        %SubAssociations% != NULL\n                    ) \n                ),\n                AND\n                (\n                %FinalCarrier% = 'JGS', \n                    OR\n                    (\n                        %TotalUnits% <= 3000, \n                        %PercentageOfUnitsBuilt% != NULL,\n                        %TotalNumberOfEmployees% <= 50, \n                        %PercentageOfCommercialUnits% != NULL, \n                        %SqFtOfLargestEstablishment% != NULL, \n                        %AvgUnitValue% != NULL,\n                        %DU01_01% != NULL,\n                        %RU01_01% != NULL,\n                        %RU02% != NULL,\n                        %DU02% = 'Yes',\n                        %DU03% = 'No',\n                        %RU04% = 'No',\n                        %RU05% = 'No',\n                        %hasFuelingOperation% = 'No',\n                        %OtherOption% = 'No',\n                        %AmenitiesLimitedToMembers% = 'Yes',\n                        %hasAnyLegalIssues% = 'No',\n                        %DU04% = 'No',\n                        %PercentOfUnitsOwnedByOnePerson% != NULL,\n                        %RU08% != NULL,\n                        %RU09% != NULL,\n                        %RU10% != NULL,\n                        %AnyRenovations% != NULL,\n                        %RU11% = 'No',\n                        %RU14% != NULL,\n                        %Commonareas% = 'No',\n                        %SubAssociations% = 'No'\n                    )\n                ), \n                %CommercialOrRetailOccupancy% = 'No', \n                %BarOrRestaurant% != NULL,\n                %DU01% = 'No', \n                %RU01% = 'No',\n                %RU03% = 'No',\n                %RU06% = 'No',\n                %hasMarina% = 'No',\n                %hasEquestrian% != NULL ,\n                %hasSkiing% != NULL,\n                %OptionsDrivingToNone% != NULL,\n                %RU12% = 'No',\n                %RU13% = 'No'\n            ),'Accepted',NULL\n        )\n    )\n)",
        "hide": false,
        "hideGroupSep": false,
        "inputWidth": 12,
        "label": "RuleStatus",
        "mask": null,
        "show": null,
        "showInputWidth": false
    },
    "%vlocity_namespace%__ReusableOmniScript__c": false,
    "%vlocity_namespace%__Type__c": "Formula",
    "Name": "RuleStatus",
    "VlocityDataPackType": "SObject",
    "VlocityRecordSObjectType": "%vlocity_namespace%__Element__c",
    "VlocityRecordSourceKey": "%vlocity_namespace%__Element__c/%vlocity_namespace%__OmniScript__c/D_O/UpdateApplication/English/RuleStatus"
}