{
    "AcordForm130": null,
    "ConfirmationWCIA": null,
    "ConfirmationWCPay": null,
    "FEINStep": {
        "EnteredFEIN": "213142444",
        "HaveFEIN": "Yes",
        "Insured-Block": null,
        "formattedFEIN": "21-3142444"
    },
    "GeneralQuestionsStep": null,
    "Monopolistic": null,
    "Name": "",
    "SupplementalCommercialStep": null,
    "SupplementalResidentialStep": null,
    "UWQueueId": "00G6s000000Nn2qEAC",
    "WCIfAny": null,
    "WCPayroll": null,
    "WorkerCompensation": {
        "AdditionalAssociationInformation": {
            "DirectEmployeeCheck": "No",
            "ExclusiveVendorCheck": null,
            "HiringVendor": "No"
        },
        "BillingCityFormula": "Grand Rapids",
        "BillingPostalCodeFormula": "Grand Rapids",
        "BillingStateFormula": "MI",
        "BillingStreetFormula": "1300 Michigan Street Northeast",
        "BillingSuiteFormula": "Suite# 200",
        "CommunityAssociation": {
            "BillingAddress-Block": null,
            "BillingAddressCheck": null,
            "BillingCareOf": null,
            "BillingSuite": null,
            "Co_opCheck": null,
            "ContractCheck": "Yes",
            "DescriptionOfOperation": "Apartment Buildings",
            "FinalFEIN": "21-3142444",
            "FinalInsured": "Insured Test23",
            "FormulaInsuredName": null,
            "InsuredContactBlock": {
                "ContactEmail": "sample@gmail.com",
                "ContactFirstName": "Sample",
                "ContactLastName": "Contact 23",
                "ContactPhone": "1331331667",
                "ContactTitle": null
            },
            "IsInsBillingSameAsMgmtBilling": null,
            "IsInsMailingSameAsMgmtMailing": null,
            "LocationAddress-Block": {
                "LocationAddress": "1200 East Street, Emporia, KS, USA",
                "LocationCity": "Emporia",
                "LocationState": "KS",
                "LocationStreet": "1200 East Street",
                "LocationZip": "66801"
            },
            "LocationSuite": null,
            "MailingAddress-Block": null,
            "MailingAddressCheck": null,
            "MailingCareOf": null,
            "MailingSuite": null,
            "NewInsuredName": "Insured Test23",
            "NonProfitCheck": "Yes",
            "NumberofUnits": "45",
            "OrganizationType": "Association",
            "OtherDescription": null,
            "PMCAccount-Block": {
                "AkaPMCName": "Stark Industries",
                "Name": "PMC Priv. Ltd",
                "PMCAccount": "PMC Priv. Ltd",
                "PMCAccountId": "0016s00000499XwAAI"
            },
            "PMCBillingAddress-Block": {
                "BAddress2_TA": "Suite# 200",
                "BCity_TA": "Grand Rapids",
                "BPostalCode_TA": "48002",
                "BState_TA": "MI",
                "BStreet_TA": "1300 Michigan Street Northeast",
                "FullAddress": "1300 Michigan Street Northeast Suite# 200 Grand Rapids MI 48002",
                "PMCBillingAddress": "1300 Michigan Street Northeast Suite# 200 Grand Rapids MI 48002"
            },
            "PMCBillingSuite": null,
            "PMCMailingAddress-Block": {
                "FullAddress": "1200 East West Highway Suite# 100 Silver Spring MD 20606",
                "MAddress2_TA": "Suite# 100",
                "MCity_TA": "Silver Spring",
                "MPostalCode_TA": "20606",
                "MState_TA": "MD",
                "MStreet_TA": "1200 East West Highway",
                "PMCMailingAddress": "1200 East West Highway Suite# 100 Silver Spring MD 20606"
            },
            "PMCMailingSuite": null,
            "UpdateInsuredName": null,
            "UpdatePMCBillingAddress-Block": null,
            "UpdatePMCBillingAddressCheck": false,
            "UpdatePMCMailingAddress-Block": null,
            "UpdatePMCMailingAddressCheck": false,
            "VacancyRate": "5",
            "existingAccountId": null
        },
        "MailingCityFormula": "Silver Spring",
        "MailingPostalCodeFormula": "20606",
        "MailingStateFormula": "MD",
        "MailingStreetFormula": "1200 East West Highway",
        "MailingSuiteFormula": "Suite# 100",
        "UIAN": "",
        "newPMCAccount": false
    },
    "currentUserAccountId": "0016s000003mLwrAAE",
    "currentUserContactId": "0036s0000034u4LAAQ",
    "groupId": "00G6s000000NUUCEA4",
    "prodCode": "WCPay",
    "timeStamp": "2020-11-08T22:22:04.179Z",
    "userCurrencyCode": "USD",
    "userId": "0056s000000JKZU",
    "userName": "ramya.vadlamannati@certadux.com.v3dev",
    "userProfile": "System Administrator",
    "userTimeZone": "-480"
}