{
    "%vlocity_namespace%__Active__c": true,
    "%vlocity_namespace%__OmniScriptId__c": {
        "Name": "QuoteCrimeUpdateApplication",
        "VlocityDataPackType": "VlocityMatchingKeyObject",
        "VlocityMatchingRecordSourceKey": "%vlocity_namespace%__OmniScript__c/Crime/UpdateApplication/English",
        "VlocityRecordSObjectType": "%vlocity_namespace%__OmniScript__c"
    },
    "%vlocity_namespace%__ParentElementId__c": {
        "%vlocity_namespace%__OmniScriptId__c": {
            "Name": "QuoteCrimeUpdateApplication",
            "VlocityDataPackType": "VlocityMatchingKeyObject",
            "VlocityMatchingRecordSourceKey": "%vlocity_namespace%__OmniScript__c/Crime/UpdateApplication/English",
            "VlocityRecordSObjectType": "%vlocity_namespace%__OmniScript__c"
        },
        "Name": "SelectProductEC",
        "VlocityDataPackType": "VlocityMatchingKeyObject",
        "VlocityMatchingRecordSourceKey": "%vlocity_namespace%__Element__c/%vlocity_namespace%__OmniScript__c/Crime/UpdateApplication/English/SelectProductEC",
        "VlocityRecordSObjectType": "%vlocity_namespace%__Element__c"
    },
    "%vlocity_namespace%__ParentElementName__c": "SelectProductEC",
    "%vlocity_namespace%__ParentElementType__c": "Step",
    "%vlocity_namespace%__PropertySet__c": {
        "bStandalone": false,
        "conditionType": "Hide if False",
        "controlWidth": 12,
        "customAttributes": [
            {
                "name": "clear-state-on-change",
                "source": "[\"ConfigureProduct\"]"
            }
        ],
        "disOnTplt": false,
        "hide": false,
        "initAction": {
            "className": "InsProductService",
            "inputMap": {
                "userInputs": {
                    "ECLCOV.coverageCode": "%SelectedProductCode%",
                    "ECLCOV.liabilityLimit": "%Liability%"
                }
            },
            "methodName": "getRatedProducts",
            "optionsMap": {
                "filters": "Family:Excess Crime",
                "includeRawCalculationResult": true
            }
        },
        "label": "Select Base Policy Option",
        "lwcName": "%vlocity_namespace%__insOsProductSelection",
        "show": null
    },
    "%vlocity_namespace%__ReusableOmniScript__c": false,
    "%vlocity_namespace%__Type__c": "Custom Lightning Web Component",
    "Name": "ECSelection",
    "VlocityDataPackType": "SObject",
    "VlocityRecordSObjectType": "%vlocity_namespace%__Element__c",
    "VlocityRecordSourceKey": "%vlocity_namespace%__Element__c/%vlocity_namespace%__OmniScript__c/Crime/UpdateApplication/English/ECSelection"
}