{
    "%vlocity_namespace%__Active__c": false,
    "%vlocity_namespace%__OmniScriptId__c": {
        "Name": "QuoteCrimeUpdateApplication",
        "VlocityDataPackType": "VlocityMatchingKeyObject",
        "VlocityMatchingRecordSourceKey": "%vlocity_namespace%__OmniScript__c/Crime/UpdateApplication/English",
        "VlocityRecordSObjectType": "%vlocity_namespace%__OmniScript__c"
    },
    "%vlocity_namespace%__PropertySet__c": {
        "HTMLTemplateId": "",
        "controlWidth": 12,
        "disOnTplt": false,
        "enableActionMessage": false,
        "enableDefaultAbort": false,
        "errorMessage": {
            "custom": [
            ],
            "default": null
        },
        "extraPayload": {
        },
        "failureAbortLabel": "Abort",
        "failureAbortMessage": "Are you sure?",
        "failureGoBackLabel": "Go Back",
        "failureNextLabel": "Continue",
        "inProgressMessage": "In Progress",
        "label": null,
        "message": {
        },
        "postMessage": "Done",
        "postTransformBundle": "",
        "preTransformBundle": "",
        "pubsub": false,
        "redirectNextLabel": "Next",
        "redirectNextWidth": 3,
        "redirectPageName": "",
        "redirectPreviousLabel": "Previous",
        "redirectPreviousWidth": 3,
        "redirectTemplateUrl": "vlcAcknowledge.html",
        "remoteClass": "WC_RuleProcessingService",
        "remoteMethod": "validateRules",
        "remoteOptions": {
            "AdditionalChecksBalancesInPlace": "%GeneralQuestions:AdditionalChecksBalancesInPlace%",
            "AverageMoneyHeldInOperatingAccounts": "%GeneralQuestions:AverageMoneyHeldInOperatingAccounts%",
            "BankAccountsReconciledBySomeoneNotAuthorized": "%GeneralQuestions:BankAccountsReconciledBySomeoneNotAuthorized%",
            "Case1_1OwnerId": "%UWQueueId%",
            "Case1_1Subject": "%WorkerCompensation:InsuredDetails:Insured-Block:Name%",
            "CompanyOrEmployeesHaveAuthorizationToHandleFunds": "%GeneralQuestions:CompanyOrEmployeesHaveAuthorizationToHandleFunds%",
            "HowOftenBankAccountsReconciled": "%GeneralQuestions:HowOftenBankAccountsReconciled%",
            "IntegrityOfPINPasswordsMaintained": "%GeneralQuestions:IntegrityOfPINPasswordsMaintained%",
            "IsAnnualFinancialAuditPerformedByCPA": "%GeneralQuestions:IsAnnualFinancialAuditPerformedByCPA%",
            "IsCountersignatureRequired": "%GeneralQuestions:IsCountersignatureRequireds%",
            "IsMaximumDollarAuthorityGTLiabilityText": "%GeneralQuestions:IsMaximumDollarAuthorityGTLiabilityText%",
            "KnownOrSuspectedLossesInThePast3Years": "%GeneralQuestions:KnownOrSuspectedLossesInThePast3Years%",
            "LimitForCountersignature": "%GeneralQuestions:LimitForCountersignatures%",
            "LimitForCountersignatureText": "%GeneralQuestions:LimitForCountersignatureText%",
            "ManagementRequiredToCarryACrimepolicy": "%GeneralQuestions:ManagementRequiredToCarryACrimepolicy%",
            "MoneyHeldInReserveAccounts": "%GeneralQuestions:MoneyHeldInReserveAccounts%",
            "Status": "%GeneralQuestions:WCRuleStatus%",
            "SupplyOfUnusedChecksSecured": "%GeneralQuestions:SupplyOfUnusedChecksSecured%",
            "WhatOtherChecksAndBalancesAreInPlace": "%GeneralQuestions:WhatOtherChecksAndBalancesAreInPlace%",
            "WhoCollectsTheAssociationFee": "%GeneralQuestions:WhoCollectsTheAssociationFee%",
            "postTransformBundle": "",
            "preTransformBundle": "",
            "prodCode": "%prodCode%",
            "quoteId": "%quoteId%"
        },
        "remoteTimeout": 110000,
        "responseJSONNode": "",
        "responseJSONPath": "",
        "sendJSONNode": "",
        "sendJSONPath": "",
        "show": {
            "group": {
                "operator": "AND",
                "rules": [
                    {
                        "condition": "<>",
                        "data": "SUCCESS",
                        "field": "WCRuleStatus"
                    }
                ]
            }
        },
        "showPersistentComponent": [
            false,
            false
        ],
        "ssm": false,
        "svgIcon": "",
        "svgSprite": "",
        "validationRequired": null,
        "wpm": false
    },
    "%vlocity_namespace%__ReusableOmniScript__c": false,
    "%vlocity_namespace%__Type__c": "Remote Action",
    "Name": "newreferralDeclineAction",
    "VlocityDataPackType": "SObject",
    "VlocityRecordSObjectType": "%vlocity_namespace%__Element__c",
    "VlocityRecordSourceKey": "%vlocity_namespace%__Element__c/%vlocity_namespace%__OmniScript__c/Crime/UpdateApplication/English/newreferralDeclineAction"
}