{
    "%vlocity_namespace%__Active__c": true,
    "%vlocity_namespace%__OmniScriptId__c": {
        "Name": "QuoteCrimeUpdateApplication",
        "VlocityDataPackType": "VlocityMatchingKeyObject",
        "VlocityMatchingRecordSourceKey": "%vlocity_namespace%__OmniScript__c/Crime/UpdateApplication/English",
        "VlocityRecordSObjectType": "%vlocity_namespace%__OmniScript__c"
    },
    "%vlocity_namespace%__ParentElementId__c": {
        "%vlocity_namespace%__OmniScriptId__c": {
            "Name": "QuoteCrimeUpdateApplication",
            "VlocityDataPackType": "VlocityMatchingKeyObject",
            "VlocityMatchingRecordSourceKey": "%vlocity_namespace%__OmniScript__c/Crime/UpdateApplication/English",
            "VlocityRecordSObjectType": "%vlocity_namespace%__OmniScript__c"
        },
        "Name": "CommunityAssociation",
        "VlocityDataPackType": "VlocityMatchingKeyObject",
        "VlocityMatchingRecordSourceKey": "%vlocity_namespace%__Element__c/%vlocity_namespace%__OmniScript__c/Crime/UpdateApplication/English/CommunityAssociation",
        "VlocityRecordSObjectType": "%vlocity_namespace%__Element__c"
    },
    "%vlocity_namespace%__ParentElementName__c": "CommunityAssociation",
    "%vlocity_namespace%__ParentElementType__c": "Block",
    "%vlocity_namespace%__PropertySet__c": {
        "HTMLTemplateId": "",
        "accessibleInFutureSteps": false,
        "callFrequency": 300,
        "conditionType": "Hide if False",
        "controlWidth": 8,
        "dataJsonPath": "",
        "dataProcessorFunction": "",
        "debounceValue": 0,
        "disOnTplt": false,
        "disableDataFilter": false,
        "editMode": true,
        "enableGoogleMapsAutocomplete": false,
        "enableLookup": true,
        "googleAddressCountry": "all",
        "googleMapsAPIKey": "",
        "googleTransformation": {
            "administrative_area_level_1": "",
            "administrative_area_level_2": "",
            "country": "",
            "locality": "",
            "postal_code": "",
            "street": ""
        },
        "help": false,
        "helpText": "",
        "hideEditButton": true,
        "hideMap": true,
        "inputWidth": 12,
        "label": "Management Company Billing Address",
        "maxLength": 255,
        "minLength": 0,
        "newItemLabel": "New",
        "readOnly": false,
        "required": true,
        "show": {
            "group": {
                "operator": "AND",
                "rules": [
                    {
                        "condition": "=",
                        "data": "Yes",
                        "field": "ContractCheck"
                    },
                    {
                        "condition": "<>",
                        "data": "true",
                        "field": "UpdatePMCBillingAddressCheck"
                    },
                    {
                        "group": {
                            "operator": "AND",
                            "rules": [
                                {
                                    "condition": "<>",
                                    "data": null,
                                    "field": "PMCAccountId"
                                }
                            ]
                        }
                    }
                ]
            }
        },
        "showInputWidth": false,
        "typeAheadKey": "FullAddress",
        "useDataJson": false
    },
    "%vlocity_namespace%__ReusableOmniScript__c": false,
    "%vlocity_namespace%__Type__c": "Type Ahead Block",
    "Name": "PMCBillingAddress",
    "VlocityDataPackType": "SObject",
    "VlocityRecordSObjectType": "%vlocity_namespace%__Element__c",
    "VlocityRecordSourceKey": "%vlocity_namespace%__Element__c/%vlocity_namespace%__OmniScript__c/Crime/UpdateApplication/English/PMCBillingAddress"
}