{
    "%vlocity_namespace%__AdditionalInformation__c": "V3-996",
    "%vlocity_namespace%__DisableMetadataCache__c": false,
    "%vlocity_namespace%__ElementTypeToHTMLTemplateList__c": "{\"ElementTypeToHTMLTemplateList\":[]}",
    "%vlocity_namespace%__Element__c": [
        "Crime_UpdateApplication_English_Element_DemoSetUser.json",
        "Crime_UpdateApplication_English_Element_GetQuoteData.json",
        "Crime_UpdateApplication_English_Element_SetLiability.json",
        "Crime_UpdateApplication_English_Element_getCurrentUserDetails.json",
        "Crime_UpdateApplication_English_Element_Crime.json",
        "Crime_UpdateApplication_English_Element_editIcon.json",
        "Crime_UpdateApplication_English_Element_CommunityAssociation.json",
        "Crime_UpdateApplication_English_Element_existingAccountId.json",
        "Crime_UpdateApplication_English_Element_FormulaInsuredName.json",
        "Crime_UpdateApplication_English_Element_NewInsuredName.json",
        "Crime_UpdateApplication_English_Element_UpdateInsuredName.json",
        "Crime_UpdateApplication_English_Element_FinalInsured.json",
        "Crime_UpdateApplication_English_Element_LineBreak3.json",
        "Crime_UpdateApplication_English_Element_FinalFEIN.json",
        "Crime_UpdateApplication_English_Element_OrganizationType.json",
        "Crime_UpdateApplication_English_Element_LocationAddress.json",
        "Crime_UpdateApplication_English_Element_LocationStreet.json",
        "Crime_UpdateApplication_English_Element_LocationCity.json",
        "Crime_UpdateApplication_English_Element_LocationState.json",
        "Crime_UpdateApplication_English_Element_LocationZip.json",
        "Crime_UpdateApplication_English_Element_LocationSuite.json",
        "Crime_UpdateApplication_English_Element_LocationDescription.json",
        "Crime_UpdateApplication_English_Element_DescriptionOfOperation.json",
        "Crime_UpdateApplication_English_Element_LineBreak4.json",
        "Crime_UpdateApplication_English_Element_OtherDescription.json",
        "Crime_UpdateApplication_English_Element_NonProfitCheck.json",
        "Crime_UpdateApplication_English_Element_NumberofUnits.json",
        "Crime_UpdateApplication_English_Element_VacancyRate.json",
        "Crime_UpdateApplication_English_Element_Co_opCheck.json",
        "Crime_UpdateApplication_English_Element_ContractCheck.json",
        "Crime_UpdateApplication_English_Element_PMCAccount.json",
        "Crime_UpdateApplication_English_Element_getPMCAccountInfo.json",
        "Crime_UpdateApplication_English_Element_PMCAccountId.json",
        "Crime_UpdateApplication_English_Element_UpdatePMCMailingAddress.json",
        "Crime_UpdateApplication_English_Element_PMCMailingStreet.json",
        "Crime_UpdateApplication_English_Element_PMCMailingCity.json",
        "Crime_UpdateApplication_English_Element_PMCMailingState.json",
        "Crime_UpdateApplication_English_Element_PMCMailingZip.json",
        "Crime_UpdateApplication_English_Element_PMCMailingSuite.json",
        "Crime_UpdateApplication_English_Element_PMCMailingAddress.json",
        "Crime_UpdateApplication_English_Element_getMailingAddress.json",
        "Crime_UpdateApplication_English_Element_MStreet_TA.json",
        "Crime_UpdateApplication_English_Element_MState_TA.json",
        "Crime_UpdateApplication_English_Element_MCity_TA.json",
        "Crime_UpdateApplication_English_Element_MPostalCode_TA.json",
        "Crime_UpdateApplication_English_Element_MAddress2_TA.json",
        "Crime_UpdateApplication_English_Element_UpdatePMCMailingAddressCheck.json",
        "Crime_UpdateApplication_English_Element_LineBreak7.json",
        "Crime_UpdateApplication_English_Element_UpdatePMCBillingAddress.json",
        "Crime_UpdateApplication_English_Element_PMCBillingStreet.json",
        "Crime_UpdateApplication_English_Element_PMCBillingCity.json",
        "Crime_UpdateApplication_English_Element_PMCBillingState.json",
        "Crime_UpdateApplication_English_Element_PMCBillingZip.json",
        "Crime_UpdateApplication_English_Element_PMCBillingSuite.json",
        "Crime_UpdateApplication_English_Element_PMCBillingAddress.json",
        "Crime_UpdateApplication_English_Element_getBillingAddress.json",
        "Crime_UpdateApplication_English_Element_BStreet_TA.json",
        "Crime_UpdateApplication_English_Element_BCity_TA.json",
        "Crime_UpdateApplication_English_Element_BState_TA.json",
        "Crime_UpdateApplication_English_Element_BPostalCode_TA.json",
        "Crime_UpdateApplication_English_Element_BAddress2_TA.json",
        "Crime_UpdateApplication_English_Element_UpdatePMCBillingAddressCheck.json",
        "Crime_UpdateApplication_English_Element_LineBreak8.json",
        "Crime_UpdateApplication_English_Element_IsInsMailingSameAsMgmtMailing.json",
        "Crime_UpdateApplication_English_Element_MailingAddressCheck.json",
        "Crime_UpdateApplication_English_Element_MailingAddress.json",
        "Crime_UpdateApplication_English_Element_MailingStreet.json",
        "Crime_UpdateApplication_English_Element_MailingCity.json",
        "Crime_UpdateApplication_English_Element_MailingState.json",
        "Crime_UpdateApplication_English_Element_MailingZip.json",
        "Crime_UpdateApplication_English_Element_MailingSuite.json",
        "Crime_UpdateApplication_English_Element_LineBreak5.json",
        "Crime_UpdateApplication_English_Element_MailingCareOf.json",
        "Crime_UpdateApplication_English_Element_IsInsBillingSameAsMgmtBilling.json",
        "Crime_UpdateApplication_English_Element_BillingAddressCheck.json",
        "Crime_UpdateApplication_English_Element_BillingAddress.json",
        "Crime_UpdateApplication_English_Element_BillingStreet.json",
        "Crime_UpdateApplication_English_Element_BillingCity.json",
        "Crime_UpdateApplication_English_Element_BillingState.json",
        "Crime_UpdateApplication_English_Element_BillingZip.json",
        "Crime_UpdateApplication_English_Element_BillingSuite.json",
        "Crime_UpdateApplication_English_Element_LocationAsBilling.json",
        "Crime_UpdateApplication_English_Element_LocationAsMailingAddress.json",
        "Crime_UpdateApplication_English_Element_LineBreak6.json",
        "Crime_UpdateApplication_English_Element_BillingCareOf.json",
        "Crime_UpdateApplication_English_Element_InsuredContactBlock.json",
        "Crime_UpdateApplication_English_Element_ContactFirstName.json",
        "Crime_UpdateApplication_English_Element_ContactLastName.json",
        "Crime_UpdateApplication_English_Element_ContactTitle.json",
        "Crime_UpdateApplication_English_Element_ContactEmail.json",
        "Crime_UpdateApplication_English_Element_ContactPhone.json",
        "Crime_UpdateApplication_English_Element_newPMCAccount.json",
        "Crime_UpdateApplication_English_Element_UIAN.json",
        "Crime_UpdateApplication_English_Element_MailingStreetFormula.json",
        "Crime_UpdateApplication_English_Element_MailingStateFormula.json",
        "Crime_UpdateApplication_English_Element_MailingCityFormula.json",
        "Crime_UpdateApplication_English_Element_MailingPostalCodeFormula.json",
        "Crime_UpdateApplication_English_Element_BillingStreetFormula.json",
        "Crime_UpdateApplication_English_Element_BillingStateFormula.json",
        "Crime_UpdateApplication_English_Element_BillingCityFormula.json",
        "Crime_UpdateApplication_English_Element_BillingPostalCodeFormula.json",
        "Crime_UpdateApplication_English_Element_BillingSuiteFormula.json",
        "Crime_UpdateApplication_English_Element_MailingSuiteFormula.json",
        "Crime_UpdateApplication_English_Element_SetLocationstateANDFinalAccount.json",
        "Crime_UpdateApplication_English_Element_createCaseForUpdatedInsuredDetails.json",
        "Crime_UpdateApplication_English_Element_CreateCaseForUpdatedInsuredNameOnly.json",
        "Crime_UpdateApplication_English_Element_CreateCase.json",
        "Crime_UpdateApplication_English_Element_PolicyCoverage.json",
        "Crime_UpdateApplication_English_Element_RequestedCoverages.json",
        "Crime_UpdateApplication_English_Element_Liability.json",
        "Crime_UpdateApplication_English_Element_Deductible.json",
        "Crime_UpdateApplication_English_Element_PolicyTermBlock.json",
        "Crime_UpdateApplication_English_Element_EffectiveDate.json",
        "Crime_UpdateApplication_English_Element_ExpirationDateDefault.json",
        "Crime_UpdateApplication_English_Element_ExpirationDate.json",
        "Crime_UpdateApplication_English_Element_IsPartialTerm.json",
        "Crime_UpdateApplication_English_Element_MessagingExpirationDate.json",
        "Crime_UpdateApplication_English_Element_CalculatedExpirationDate.json",
        "Crime_UpdateApplication_English_Element_SelectProduct.json",
        "Crime_UpdateApplication_English_Element_ProductSelection.json",
        "Crime_UpdateApplication_English_Element_SelectedProductCode.json",
        "Crime_UpdateApplication_English_Element_SelectedProductTax.json",
        "Crime_UpdateApplication_English_Element_SelectProductEC.json",
        "Crime_UpdateApplication_English_Element_ECSelection.json",
        "Crime_UpdateApplication_English_Element_GeneralQuestions.json",
        "Crime_UpdateApplication_English_Element_setDeclinedSts.json",
        "Crime_UpdateApplication_English_Element_setReferralSts.json",
        "Crime_UpdateApplication_English_Element_setApplicationSts.json",
        "Crime_UpdateApplication_English_Element_TextBlock1.json",
        "Crime_UpdateApplication_English_Element_KnownOrSuspectedLossesInThePast3Years.json",
        "Crime_UpdateApplication_English_Element_Block5.json",
        "Crime_UpdateApplication_English_Element_UploadFile.json",
        "Crime_UpdateApplication_English_Element_CompanyOrEmployeesHaveAuthorizationToHandleFunds.json",
        "Crime_UpdateApplication_English_Element_Block1.json",
        "Crime_UpdateApplication_English_Element_MaximumDollarAuthority.json",
        "Crime_UpdateApplication_English_Element_WhoCollectsTheAssociationFee.json",
        "Crime_UpdateApplication_English_Element_Explanation.json",
        "Crime_UpdateApplication_English_Element_ManagementRequiredToCarryACrimepolicy.json",
        "Crime_UpdateApplication_English_Element_MoneyHeldInReserveAccounts.json",
        "Crime_UpdateApplication_English_Element_AverageMoneyHeldInOperatingAccounts.json",
        "Crime_UpdateApplication_English_Element_SumOfReserveAndAvgMoneyHeld.json",
        "Crime_UpdateApplication_English_Element_IsCountersignatureRequired.json",
        "Crime_UpdateApplication_English_Element_Block2.json",
        "Crime_UpdateApplication_English_Element_LimitForCountersignature.json",
        "Crime_UpdateApplication_English_Element_HowOftenBankAccountsReconciled.json",
        "Crime_UpdateApplication_English_Element_BankAccountsReconciledBySomeoneNotAuthorized.json",
        "Crime_UpdateApplication_English_Element_Block3.json",
        "Crime_UpdateApplication_English_Element_AdditionalChecksBalancesInPlace.json",
        "Crime_UpdateApplication_English_Element_WhatOtherChecksAndBalancesAreInPlace.json",
        "Crime_UpdateApplication_English_Element_SupplyOfUnusedChecksSecured.json",
        "Crime_UpdateApplication_English_Element_IntegrityOfPINPasswordsMaintained.json",
        "Crime_UpdateApplication_English_Element_IsAnnualFinancialAuditPerformedByCPA.json",
        "Crime_UpdateApplication_English_Element_Block4.json",
        "Crime_UpdateApplication_English_Element_ProvideDescriptionAndScopeOfReview.json",
        "Crime_UpdateApplication_English_Element_IsThereAuditDiscrepanciesInPast3years.json",
        "Crime_UpdateApplication_English_Element_WCRuleStatus.json",
        "Crime_UpdateApplication_English_Element_IsMaximumDollarAuthorityGTLiability.json",
        "Crime_UpdateApplication_English_Element_setMaxDollarAuthorityGTLiabilityText.json",
        "Crime_UpdateApplication_English_Element_IsSumOfReserveAndAvgMoneyHeldLTLiability.json",
        "Crime_UpdateApplication_English_Element_IsLimitForCountersignatureGTLiability.json",
        "Crime_UpdateApplication_English_Element_setSumOfReserveAndAvgMoneyHeldText.json",
        "Crime_UpdateApplication_English_Element_LimitForCountersignatureText.json",
        "Crime_UpdateApplication_English_Element_agentLocation.json",
        "Crime_UpdateApplication_English_Element_CreateQuote.json",
        "Crime_UpdateApplication_English_Element_setMasterValues.json",
        "Crime_UpdateApplication_English_Element_SetMailFields.json",
        "Crime_UpdateApplication_English_Element_ruleProcessingService.json",
        "Crime_UpdateApplication_English_Element_newreferralDeclineAction.json",
        "Crime_UpdateApplication_English_Element_Confirmation.json",
        "Crime_UpdateApplication_English_Element_referralTextBlock.json",
        "Crime_UpdateApplication_English_Element_declinedTextBlock.json",
        "Crime_UpdateApplication_English_Element_NavigateToQuote.json",
        "Crime_UpdateApplication_English_Element_NavigateToHomeAction.json"
    ],
    "%vlocity_namespace%__IsLwcEnabled__c": true,
    "%vlocity_namespace%__IsProcedure__c": false,
    "%vlocity_namespace%__IsReusable__c": false,
    "%vlocity_namespace%__IsTest__c": false,
    "%vlocity_namespace%__Language__c": "English",
    "%vlocity_namespace%__LastPreviewPage__c": "Newport",
    "%vlocity_namespace%__PropertySet__c": "Crime_UpdateApplication_English_PropertySet.json",
    "%vlocity_namespace%__SubType__c": "UpdateApplication",
    "%vlocity_namespace%__Type__c": "Crime",
    "Name": "QuoteCrimeUpdateApplication",
    "VlocityDataPackType": "SObject",
    "VlocityRecordSObjectType": "%vlocity_namespace%__OmniScript__c",
    "VlocityRecordSourceKey": "%vlocity_namespace%__OmniScript__c/Crime/UpdateApplication/English",
    "sourceOrgUrl": "/apex/vlocity_ins__omniscriptdesigner?id=a5C3K0000009KloUAE"
}