{
    "%vlocity_namespace%__Active__c": true,
    "%vlocity_namespace%__OmniScriptId__c": {
        "Name": "QuoteCrimeUpdateApplication",
        "VlocityDataPackType": "VlocityMatchingKeyObject",
        "VlocityMatchingRecordSourceKey": "%vlocity_namespace%__OmniScript__c/Crime/UpdateApplication/English",
        "VlocityRecordSObjectType": "%vlocity_namespace%__OmniScript__c"
    },
    "%vlocity_namespace%__ParentElementId__c": {
        "%vlocity_namespace%__OmniScriptId__c": {
            "Name": "QuoteCrimeUpdateApplication",
            "VlocityDataPackType": "VlocityMatchingKeyObject",
            "VlocityMatchingRecordSourceKey": "%vlocity_namespace%__OmniScript__c/Crime/UpdateApplication/English",
            "VlocityRecordSObjectType": "%vlocity_namespace%__OmniScript__c"
        },
        "Name": "GeneralQuestions",
        "VlocityDataPackType": "VlocityMatchingKeyObject",
        "VlocityMatchingRecordSourceKey": "%vlocity_namespace%__Element__c/%vlocity_namespace%__OmniScript__c/Crime/UpdateApplication/English/GeneralQuestions",
        "VlocityRecordSObjectType": "%vlocity_namespace%__Element__c"
    },
    "%vlocity_namespace%__ParentElementName__c": "GeneralQuestions",
    "%vlocity_namespace%__ParentElementType__c": "Step",
    "%vlocity_namespace%__PropertySet__c": {
        "HTMLTemplateId": "",
        "controlWidth": 0,
        "disOnTplt": false,
        "elementValueMap": {
            "SumOfReserveAndAvgMoneyHeldText": "Yes"
        },
        "label": null,
        "message": {
        },
        "pubsub": false,
        "show": {
            "group": {
                "operator": "AND",
                "rules": [
                    {
                        "condition": "=",
                        "data": "Referral",
                        "field": "WCRuleStatus"
                    },
                    {
                        "condition": "=",
                        "data": "Yes",
                        "field": "IsSumOfReserveAndAvgMoneyHeldLTLiability"
                    }
                ]
            }
        },
        "showPersistentComponent": [
            false,
            false
        ],
        "ssm": false,
        "wpm": false
    },
    "%vlocity_namespace%__ReusableOmniScript__c": false,
    "%vlocity_namespace%__Type__c": "Set Values",
    "Name": "setSumOfReserveAndAvgMoneyHeldText",
    "VlocityDataPackType": "SObject",
    "VlocityRecordSObjectType": "%vlocity_namespace%__Element__c",
    "VlocityRecordSourceKey": "%vlocity_namespace%__Element__c/%vlocity_namespace%__OmniScript__c/Crime/UpdateApplication/English/setSumOfReserveAndAvgMoneyHeldText"
}