{
    "AccountId": "0016C00000SL1yNQAT",
    "AcordForm130": {
        "ADACompliantWorkplace": null,
        "AdditionalLocations": "No",
        "AdditionalLocationsBlock": null,
        "AnyOtherAssociations": null,
        "AthleticTeamsSponsored": "Yes",
        "CalculatedFullTimeEmployees": 0,
        "DWCompEditBlock": null,
        "DWExplain": null,
        "DiscontinuedOperations": "Yes",
        "DisputedWorkComp": "No",
        "EmployeeAgeGroup": null,
        "EmployeeHealthPlans": "No",
        "EmployeesUnder16Over60Age": null,
        "EmployeesWorkAtHome": "No",
        "EstimatedAnnualRevenuesFL": null,
        "GroupTransportation": "No",
        "HandicapEmployees": null,
        "HaveAdditionalDocuments": "No",
        "HomeDutiesPerformed": null,
        "LIOtherAssociation": null,
        "LITypeofBusiness": null,
        "LaborInterchange": "No",
        "LeaseEmployeeExplain": null,
        "LeaseEmployees": "No",
        "NonRenewalReason": null,
        "OftenTravelStates": null,
        "OtherInsurance": "No",
        "OtherInsuranceEditBlock": null,
        "OtherTypeofBusiness": "No",
        "OwnsAirWaterCraft": "Yes",
        "PaymentPlanOption": "Annual",
        "PercentageSubcontracted": null,
        "PhysicalsRequired": "No",
        "PriorCoverageDeclined": "No",
        "ProvidingTransportation": null,
        "SeasonalEmployees": "No",
        "SubcontractorsUsed": "No",
        "SubletWithoutCOI": "No",
        "TaxLiens": "No",
        "TransportationFrequency": null,
        "TravelOutofState": "No",
        "USLHCoverage": null,
        "VolunteerLabor": "No",
        "WCPayRuleStatus": "wtf",
        "WhatTransportation": null,
        "WhatTypeofBusiness": null,
        "WhoIsDoingWork": null,
        "WhoTransported": null,
        "WorkBargesVessels": "No",
        "WorkPerformedWhere": null,
        "WorkUnderground": "Yes",
        "WrittenSafetyProgram": "No",
        "YearsInBusiness": 5,
        "agentLocation": "Kansas City, KS",
        "notes": null
    },
    "ConfirmationWCIA": null,
    "ConfirmationWCPay": {
    },
    "ContactId": "0036C00000V8XcPQAV",
    "FEINStep": {
        "EnteredFEIN": "234451678",
        "HaveFEIN": "Yes",
        "Insured-Block": null,
        "formattedFEIN": "23-4451678"
    },
    "GeneralQuestionsStep": null,
    "Monopolistic": null,
    "Name": "Atlantis Home Association",
    "ReferralText": "Yes",
    "SupplementalCommercialStep": null,
    "SupplementalResidentialStep": {
        "AssocSpecialActivityDesc": null,
        "EmpHealthInsurance": null,
        "EmpOnCall": null,
        "EmpOtherCompensation": null,
        "EmpOtherCompensationDesc": null,
        "EmpTimeClock": null,
        "ExplanationPolicyHistory": "wewe",
        "InsuranceNumber": null,
        "MessagingCARequiredPolicyHistory": true,
        "MessagingPolicyHistory": null,
        "NoOfEmployees": 4,
        "PolicyHistoryCount": 0,
        "RequireInsuranceProof": null,
        "SalariedEmp": null,
        "TotalEarnedPremiumAmount": 0,
        "TotalPayrollAmount": 0,
        "TotalsforAmountIncurred": 0,
        "TotalsforClaims": 0
    },
    "UWQueueId": "00G6C000001uYzPUAU",
    "WCIfAny": null,
    "WCPayroll": {
        "DescOperationType": "Residential",
        "LiabilityBlock": {
            "LiabilityLimit": "1M/1M/1M"
        },
        "PolicyTermBlock": {
            "EffectiveDate": "2020-09-30",
            "ExpirationDate": null,
            "ExpirationDateDefault": "2021-09-29T18:30:00.000Z",
            "IsPartialTerm": false
        }
    },
    "WorkerCompensation": {
        "AdditionalAssociationInformation": {
            "DirectEmployeeCheck": "Yes",
            "ExclusiveVendorCheck": "Yes",
            "HiringVendor": "Yes"
        },
        "BillingCityFormula": "Kansas City",
        "BillingPostalCodeFormula": "66106",
        "BillingStateFormula": "KS",
        "BillingStreetFormula": "South 55th Street",
        "BillingSuiteFormula": null,
        "CommunityAssociation": {
            "BillingAddress-Block": {
                "BillingAddress": "South 55th Street, Kansas City, KS, USA",
                "BillingCity": "Kansas City",
                "BillingState": "KS",
                "BillingStreet": "South 55th Street",
                "BillingZip": "66106"
            },
            "BillingAddressCheck": false,
            "BillingSuite": null,
            "Co_opCheck": null,
            "ContractCheck": "No",
            "DescriptionOfOperation": "Landscape Maintenance Association",
            "FinalFEIN": "23-4451678",
            "FinalInsured": "Atlantis Home Association",
            "FormulaInsuredName": "Atlantis Home Association",
            "InsuredContactBlock": {
                "ContactEmail": "mclark@gerentllc.com",
                "ContactFirstName": "clark",
                "ContactLastName": "Micheal",
                "ContactPhone": "2398298989",
                "ContactTitle": "President"
            },
            "IsInsBillingSameAsMgmtBilling": null,
            "IsInsMailingSameAsMgmtMailing": null,
            "LocationAddress-Block": {
                "LocationAddress": "50 Fremont st San Francisco CA 94105",
                "LocationCity": "San Francisco",
                "LocationState": "CA",
                "LocationStreet": "50 Fremont st",
                "LocationZip": "94105"
            },
            "LocationSuite": null,
            "MailingAddress-Block": {
                "MailingAddress": "South 55th Street, Kansas City, KS, USA",
                "MailingCity": "Kansas City",
                "MailingState": "KS",
                "MailingStreet": "South 55th Street",
                "MailingZip": "66106"
            },
            "MailingAddressCheck": false,
            "MailingSuite": null,
            "NewInsuredName": null,
            "NonProfitCheck": "Yes",
            "NumberofUnits": "230",
            "OrganizationType": "Association",
            "OtherDescription": null,
            "PMCAccount-Block": null,
            "PMCBillingAddress-Block": null,
            "PMCBillingSuite": null,
            "PMCMailingAddress-Block": null,
            "PMCMailingSuite": null,
            "PropMgmtContactBlock": null,
            "UpdateInsuredName": false,
            "UpdatePMCBillingAddress-Block": null,
            "UpdatePMCBillingAddressCheck": null,
            "UpdatePMCMailingAddress-Block": null,
            "UpdatePMCMailingAddressCheck": null,
            "VacancyRate": "5",
            "existingAccountId": "0016C00000SL1yNQAT"
        },
        "MailingCityFormula": "Kansas City",
        "MailingPostalCodeFormula": "66106",
        "MailingStateFormula": "KS",
        "MailingStreetFormula": "South 55th Street",
        "MailingSuiteFormula": null,
        "UIAN": "",
        "newPMCAccount": false
    },
    "currentUserAccountId": "0016C00000S470uQAB",
    "currentUserContactId": "0036C00000V8MHDQA3",
    "finalAccountId": "0016C00000SL1yNQAT",
    "groupId": "00G6C000001uYzNUAU",
    "mailDeclinedFooterWCPay": "",
    "mailDeclinedHeaderWCPay": "This risk does not qualify for our Workers' Compensation program due to the following response(s):",
    "mailRecordLinkRequiredWCPay": "Yes",
    "mailReferralFooterWCPay": "",
    "mailReferralHeaderWCPay": "This quote has been referred to an underwriter and is being reviewed for the following response(s):",
    "mailSubjectWCPay": "Workers' Compensation Payroll, Quote -  null for Atlantis Home Association has been Referral",
    "newAccountId": "0016C00000SL1yNQAT",
    "omnidesignerChannelId": "omni-designer-channel-id-1607534037783",
    "opportunityId": "0066C000006nsTmQAI",
    "prodCode": "WCPay",
    "productCode": "WCPay",
    "result": {
        "error": "Upsert failed. First exception on row 0; first error: INVALID_OR_NULL_FOR_RESTRICTED_PICKLIST, bad value for restricted picklist field: Referred: [Sub_Status__c]",
        "errorCode": "INVOKE-500"
    },
    "success": false,
    "timeStamp": "2020-12-09T17:14:00.100Z",
    "userCurrencyCode": "USD",
    "userId": "0056C000002Nlj5QAC",
    "userName": "chenna.sakhamuri@gerentllc.com.cais.dev",
    "userProfile": "System Administrator",
    "userTimeZone": "-480",
    "wcLocationState": "CA"
}