{
    "%vlocity_namespace%__Active__c": true,
    "%vlocity_namespace%__OmniScriptId__c": {
        "Name": "Quote WC If Any",
        "VlocityDataPackType": "VlocityMatchingKeyObject",
        "VlocityMatchingRecordSourceKey": "%vlocity_namespace%__OmniScript__c/WC/IfAny/English",
        "VlocityRecordSObjectType": "%vlocity_namespace%__OmniScript__c"
    },
    "%vlocity_namespace%__ParentElementId__c": {
        "%vlocity_namespace%__OmniScriptId__c": {
            "Name": "Quote WC If Any",
            "VlocityDataPackType": "VlocityMatchingKeyObject",
            "VlocityMatchingRecordSourceKey": "%vlocity_namespace%__OmniScript__c/WC/IfAny/English",
            "VlocityRecordSObjectType": "%vlocity_namespace%__OmniScript__c"
        },
        "Name": "GeneralQuestionsStep",
        "VlocityDataPackType": "VlocityMatchingKeyObject",
        "VlocityMatchingRecordSourceKey": "%vlocity_namespace%__Element__c/%vlocity_namespace%__OmniScript__c/WC/IfAny/English/GeneralQuestionsStep",
        "VlocityRecordSObjectType": "%vlocity_namespace%__Element__c"
    },
    "%vlocity_namespace%__ParentElementName__c": "GeneralQuestionsStep",
    "%vlocity_namespace%__ParentElementType__c": "Step",
    "%vlocity_namespace%__PropertySet__c": {
        "HTMLTemplateId": "",
        "controlWidth": 12,
        "dataType": null,
        "dateFormat": "MM-dd-yyyy",
        "disOnTplt": false,
        "expression": "IF( %InsuranceEvidence% == \"No\" || %InsuranceEvidence% == \"No\" || \n      OR(%WorkerCompensation:CommunityAssociation:DescriptionOfOperation% == \"Apartment Buildings\" , \n             %WorkerCompensation:CommunityAssociation:DescriptionOfOperation% == \"Beach/Lake\",  \n             %WorkerCompensation:CommunityAssociation:DescriptionOfOperation% == \"Dock Association\", \n             %WorkerCompensation:CommunityAssociation:DescriptionOfOperation% == \"Timeshare/Hotel\") || %NonProfitChec% == \"No\"  || \n             AND(%PhysicalStateFormula% == \"NY\",  %Co_opCheck% == \"No\")  || \n             %InsuranceEvidence% == \"No\" , \n        \"Declined\" , \n        IF(%CompensationLossCheck% == \"Yes\" || \n            %InjuryOnSite% == \"Yes\" || \n            %SpecialActivities% == \"Yes\" || \n            %wcLocationState% == \"ME\" || \n            %wcLocationState% == \"HI\" || \n            %WorkerCompensation:CommunityAssociation:DescriptionOfOperation% == \"Office/Industrial Park (Commercial PUD)\" || \n            %WorkerCompensation:CommunityAssociation:DescriptionOfOperation% == \"Commercial Condominium Association\" || \n            %WorkerCompensation:CommunityAssociation:DescriptionOfOperation% == \"Mixed Use Association (Commercial and Residential)\" || \n            %WorkerCompensation:CommunityAssociation:DescriptionOfOperation% == \"Cooperative\" || \n     %WorkerCompensation:CommunityAssociation:DescriptionOfOperation% == \"Landscape Maintenance Association\" ||\n %WorkerCompensation:CommunityAssociation:DescriptionOfOperation% == \"Master Associations\" || %WorkerCompensation:CommunityAssociation:DescriptionOfOperation% == \"Mobile Home Park\" || %WorkerCompensation:CommunityAssociation:DescriptionOfOperation% == \"Retail Association\" ||\n            %WorkerCompensation:CommunityAssociation:DescriptionOfOperation% == \"Other\" ||\n             %existingQuote% != \"N/A\" || %activePolicy% != \"N/A\" || %inactivePolicy% != \"N/A\" ||\n            AND(%PEOCheck% == \"Yes\", %TypeofPEOPolicy% == \"Multiple Coordinated Policy\") || \n            AND(%WorkerCompensation:InsuredDetails:AdditionalAssociationInformation:HiringVendor% == \"Yes\", %WorkerCompensation:InsuredDetails:AdditionalAssociationInformation:ExclusiveVendorCheck% == \"Yes\"), \n                \"Referral\" , \"Application\"\n        )\n)",
        "hide": true,
        "hideGroupSep": false,
        "inputWidth": 12,
        "label": null,
        "mask": null,
        "show": null,
        "showInputWidth": false
    },
    "%vlocity_namespace%__ReusableOmniScript__c": true,
    "%vlocity_namespace%__Type__c": "Formula",
    "Name": "WCRuleStatusIfAny",
    "VlocityDataPackType": "SObject",
    "VlocityRecordSObjectType": "%vlocity_namespace%__Element__c",
    "VlocityRecordSourceKey": "%vlocity_namespace%__Element__c/%vlocity_namespace%__OmniScript__c/WC/IfAny/English/WCRuleStatusIfAny"
}