{
    "%vlocity_namespace%__DetailFields__c": "",
    "%vlocity_namespace%__EditFields__c": "",
    "%vlocity_namespace%__EnableNewAction__c": false,
    "%vlocity_namespace%__HasOwner__c": true,
    "%vlocity_namespace%__IndicatorImage__c": "Status:StatusImage__c",
    "%vlocity_namespace%__InvokeClassName__c": "",
    "%vlocity_namespace%__InvokeMethodName__c": "",
    "%vlocity_namespace%__JunctionLookupField__c": "ClaimId__c",
    "%vlocity_namespace%__JunctionObjectFilter__c": "",
    "%vlocity_namespace%__JunctionObject__c": "%vlocity_namespace%__InsuranceClaimPartyRelationship__c",
    "%vlocity_namespace%__NavigationFieldName__c": "",
    "%vlocity_namespace%__NewActionName__c": "",
    "%vlocity_namespace%__OngoingFilters__c": "",
    "%vlocity_namespace%__ParentObjectField__c": "AccountId",
    "%vlocity_namespace%__ParentObjectNameFieldPath__c": "",
    "%vlocity_namespace%__ParentObjectName__c": "Contact",
    "%vlocity_namespace%__QuickAction__c": false,
    "%vlocity_namespace%__ReferenceObjectId__c": "",
    "%vlocity_namespace%__ReferenceObjectName__c": "",
    "%vlocity_namespace%__SortFieldIsDate__c": true,
    "%vlocity_namespace%__StoryObjectFilter__c": "",
    "%vlocity_namespace%__StoryObjectIsNotSObject__c": false,
    "%vlocity_namespace%__StoryObjectLookupField__c": "PartyId__r.AccountId__c",
    "%vlocity_namespace%__StoryObjectName__c": "%vlocity_namespace%__InsuranceClaim__c",
    "%vlocity_namespace%__StoryObjectReferenceId__c": "",
    "%vlocity_namespace%__StoryObjectSortField__c": "LossDate__c",
    "%vlocity_namespace%__SummaryFields__c": "Title:LossCause__c,Title_Highlight:LossType__c,Subtitle:Name",
    "Name": "Contact_Claim2",
    "VlocityDataPackType": "SObject",
    "VlocityRecordSObjectType": "%vlocity_namespace%__StoryObjectConfiguration__c",
    "VlocityRecordSourceKey": "%vlocity_namespace%__StoryObjectConfiguration__c/Contact_Claim2",
    "sourceOrgUrl": "/a7F4W00000090nGUAQ"
}