[
    {
        "%vlocity_namespace%__DomainObjectAPIName__c": "Formula",
        "%vlocity_namespace%__DomainObjectCreationOrder__c": 0,
        "%vlocity_namespace%__DomainObjectFieldAPIName__c": "Formula",
        "%vlocity_namespace%__FormulaOrder__c": 1,
        "%vlocity_namespace%__FormulaResultPath__c": "description",
        "%vlocity_namespace%__Formula__c": "CONCAT('New Insured Name: ',%Crime:CommunityAssociation:NewInsuredName%, ',' , 'Old Insured Name: ' ,%Crime:CommunityAssociation:FormulaInsuredName%)",
        "%vlocity_namespace%__IsDisabled__c": false,
        "%vlocity_namespace%__IsRequiredForUpsert__c": false,
        "%vlocity_namespace%__MapId__c": "QC_CreateCase_ForUpdatedInsuredNameCustoma206s0000004qzTAAQItem0",
        "%vlocity_namespace%__UpsertKey__c": false,
        "Name": "QC_CreateCase_ForUpdatedInsuredName",
        "VlocityDataPackType": "SObject",
        "VlocityRecordSObjectType": "%vlocity_namespace%__DRMapItem__c"
    },
    {
        "%vlocity_namespace%__DomainObjectAPIName__c": "Case",
        "%vlocity_namespace%__DomainObjectCreationOrder__c": 1,
        "%vlocity_namespace%__DomainObjectFieldAPIName__c": "AccountId",
        "%vlocity_namespace%__InterfaceFieldAPIName__c": "currentUserAccountId",
        "%vlocity_namespace%__IsDisabled__c": false,
        "%vlocity_namespace%__IsRequiredForUpsert__c": false,
        "%vlocity_namespace%__MapId__c": "QC_CreateCase_ForUpdatedInsuredNameCustoma206s0000004qzTAAQItem5",
        "%vlocity_namespace%__UpsertKey__c": false,
        "Name": "QC_CreateCase_ForUpdatedInsuredName",
        "VlocityDataPackType": "SObject",
        "VlocityRecordSObjectType": "%vlocity_namespace%__DRMapItem__c"
    },
    {
        "%vlocity_namespace%__DomainObjectAPIName__c": "Case",
        "%vlocity_namespace%__DomainObjectCreationOrder__c": 1,
        "%vlocity_namespace%__DomainObjectFieldAPIName__c": "ContactId",
        "%vlocity_namespace%__InterfaceFieldAPIName__c": "currentUserContactId",
        "%vlocity_namespace%__IsDisabled__c": false,
        "%vlocity_namespace%__IsRequiredForUpsert__c": false,
        "%vlocity_namespace%__MapId__c": "QC_CreateCase_ForUpdatedInsuredNameCustoma206s0000004qzTAAQItem6",
        "%vlocity_namespace%__UpsertKey__c": false,
        "Name": "QC_CreateCase_ForUpdatedInsuredName",
        "VlocityDataPackType": "SObject",
        "VlocityRecordSObjectType": "%vlocity_namespace%__DRMapItem__c"
    },
    {
        "%vlocity_namespace%__DomainObjectAPIName__c": "Case",
        "%vlocity_namespace%__DomainObjectCreationOrder__c": 1,
        "%vlocity_namespace%__DomainObjectFieldAPIName__c": "Description",
        "%vlocity_namespace%__InterfaceFieldAPIName__c": "description",
        "%vlocity_namespace%__IsDisabled__c": false,
        "%vlocity_namespace%__IsRequiredForUpsert__c": false,
        "%vlocity_namespace%__MapId__c": "QC_CreateCase_ForUpdatedInsuredNameCustoma206s0000004qzTAAQItem7",
        "%vlocity_namespace%__UpsertKey__c": false,
        "Name": "QC_CreateCase_ForUpdatedInsuredName",
        "VlocityDataPackType": "SObject",
        "VlocityRecordSObjectType": "%vlocity_namespace%__DRMapItem__c"
    },
    {
        "%vlocity_namespace%__ConfigurationValue__c": "FAKEMAPPING",
        "%vlocity_namespace%__DomainObjectAPIName__c": "Case",
        "%vlocity_namespace%__DomainObjectCreationOrder__c": 1,
        "%vlocity_namespace%__DomainObjectFieldAPIName__c": "Id",
        "%vlocity_namespace%__FilterOperator__c": "=",
        "%vlocity_namespace%__IsDisabled__c": true,
        "%vlocity_namespace%__IsRequiredForUpsert__c": false,
        "%vlocity_namespace%__MapId__c": "QC_CreateCase_ForUpdatedInsuredNameCustoma206s0000004qzTAAQItem1",
        "%vlocity_namespace%__UpsertKey__c": false,
        "Name": "QC_CreateCase_ForUpdatedInsuredName",
        "VlocityDataPackType": "SObject",
        "VlocityRecordSObjectType": "%vlocity_namespace%__DRMapItem__c"
    },
    {
        "%vlocity_namespace%__DefaultValue__c": "Web",
        "%vlocity_namespace%__DomainObjectAPIName__c": "Case",
        "%vlocity_namespace%__DomainObjectCreationOrder__c": 1,
        "%vlocity_namespace%__DomainObjectFieldAPIName__c": "Origin",
        "%vlocity_namespace%__DomainObjectFieldType__c": "String",
        "%vlocity_namespace%__IsDisabled__c": false,
        "%vlocity_namespace%__IsRequiredForUpsert__c": false,
        "%vlocity_namespace%__MapId__c": "QC_CreateCase_ForUpdatedInsuredNameCustoma206s0000004qzTAAQItem2",
        "%vlocity_namespace%__UpsertKey__c": false,
        "Name": "QC_CreateCase_ForUpdatedInsuredName",
        "VlocityDataPackType": "SObject",
        "VlocityRecordSObjectType": "%vlocity_namespace%__DRMapItem__c"
    },
    {
        "%vlocity_namespace%__DomainObjectAPIName__c": "Case",
        "%vlocity_namespace%__DomainObjectCreationOrder__c": 1,
        "%vlocity_namespace%__DomainObjectFieldAPIName__c": "OwnerId",
        "%vlocity_namespace%__InterfaceFieldAPIName__c": "UWQueueId",
        "%vlocity_namespace%__IsDisabled__c": false,
        "%vlocity_namespace%__IsRequiredForUpsert__c": false,
        "%vlocity_namespace%__MapId__c": "QC_CreateCase_ForUpdatedInsuredNameCustoma206s0000004qzTAAQItem8",
        "%vlocity_namespace%__UpsertKey__c": false,
        "Name": "QC_CreateCase_ForUpdatedInsuredName",
        "VlocityDataPackType": "SObject",
        "VlocityRecordSObjectType": "%vlocity_namespace%__DRMapItem__c"
    },
    {
        "%vlocity_namespace%__DefaultValue__c": "Open",
        "%vlocity_namespace%__DomainObjectAPIName__c": "Case",
        "%vlocity_namespace%__DomainObjectCreationOrder__c": 1,
        "%vlocity_namespace%__DomainObjectFieldAPIName__c": "Status",
        "%vlocity_namespace%__DomainObjectFieldType__c": "String",
        "%vlocity_namespace%__IsDisabled__c": false,
        "%vlocity_namespace%__IsRequiredForUpsert__c": false,
        "%vlocity_namespace%__MapId__c": "QC_CreateCase_ForUpdatedInsuredNameCustoma206s0000004qzTAAQItem3",
        "%vlocity_namespace%__UpsertKey__c": false,
        "Name": "QC_CreateCase_ForUpdatedInsuredName",
        "VlocityDataPackType": "SObject",
        "VlocityRecordSObjectType": "%vlocity_namespace%__DRMapItem__c"
    },
    {
        "%vlocity_namespace%__DefaultValue__c": "Insured Name Discrepancy",
        "%vlocity_namespace%__DomainObjectAPIName__c": "Case",
        "%vlocity_namespace%__DomainObjectCreationOrder__c": 1,
        "%vlocity_namespace%__DomainObjectFieldAPIName__c": "Subject",
        "%vlocity_namespace%__DomainObjectFieldType__c": "String",
        "%vlocity_namespace%__IsDisabled__c": false,
        "%vlocity_namespace%__IsRequiredForUpsert__c": false,
        "%vlocity_namespace%__MapId__c": "QC_CreateCase_ForUpdatedInsuredNameCustoma206s0000004qzTAAQItem4",
        "%vlocity_namespace%__UpsertKey__c": false,
        "Name": "QC_CreateCase_ForUpdatedInsuredName",
        "VlocityDataPackType": "SObject",
        "VlocityRecordSObjectType": "%vlocity_namespace%__DRMapItem__c"
    }
]