{
    "dataSource": {
        "contextVariables": [
            {
                "id": 1,
                "name": "recordId",
                "val": "0013K00000ZalAjQAJ"
            }
        ],
        "orderBy": {
            "isReverse": false,
            "name": ""
        },
        "type": "DataRaptor",
        "value": {
            "bundle": "ReadQuoteFlexCard",
            "inputMap": {
                "Id": "{recordId}"
            },
            "resultVar": ""
        }
    },
    "enableLwc": true,
    "globalCSS": true,
    "isFlex": true,
    "isRepeatable": false,
    "lwc": {
        "DeveloperName": "cfInsuredQuotes_1_Mgalive_CAISLLC",
        "Id": "0Rb6C0000000DcISAU",
        "MasterLabel": "cfInsuredQuotes_1_Mgalive_CAISLLC",
        "NamespacePrefix": "c"
    },
    "states": [
        {
            "actions": [
            ],
            "childCards": [
            ],
            "components": {
                "layer-0": {
                    "children": [
                        {
                            "class": "nds-col ",
                            "element": "outputField",
                            "elementLabel": "Text-1",
                            "name": "Text",
                            "property": {
                                "card": "{card}",
                                "mergeField": "%3Cdiv%3EQuotes%3C/div%3E",
                                "record": "{record}"
                            },
                            "size": {
                                "default": "12",
                                "isResponsive": false
                            },
                            "stateIndex": 0,
                            "styleObject": {
                                "background": {
                                    "color": "",
                                    "image": "",
                                    "position": "",
                                    "repeat": "",
                                    "size": ""
                                },
                                "border": {
                                    "color": "",
                                    "radius": "",
                                    "style": "",
                                    "type": "",
                                    "width": ""
                                },
                                "class": "cardHeader",
                                "container": {
                                    "class": ""
                                },
                                "customClass": "cardHeader",
                                "elementStyleProperties": {
                                },
                                "inlineStyle": "",
                                "margin": [
                                ],
                                "padding": [
                                ],
                                "size": {
                                    "default": "12",
                                    "isResponsive": false
                                },
                                "sizeClass": "nds-size_12-of-12 ",
                                "style": "             ",
                                "text": {
                                    "align": "",
                                    "color": ""
                                }
                            },
                            "type": "text"
                        },
                        {
                            "children": [
                            ],
                            "class": "nds-col ",
                            "element": "block",
                            "elementLabel": "Block-2",
                            "name": "Block",
                            "property": {
                                "card": "{card}",
                                "collapsedByDefault": false,
                                "collapsible": false,
                                "label": "Block",
                                "record": "{record}"
                            },
                            "size": {
                                "default": "12",
                                "isResponsive": false
                            },
                            "stateIndex": 0,
                            "styleObject": {
                                "class": "nds-p-around_x-small",
                                "padding": [
                                    {
                                        "size": "x-small",
                                        "type": "around"
                                    }
                                ],
                                "sizeClass": "nds-size_12-of-12"
                            },
                            "type": "block"
                        },
                        {
                            "class": "nds-col ",
                            "element": "dataTable",
                            "elementLabel": "Quote",
                            "name": "Datatable",
                            "property": {
                                "cellLevelEdit": false,
                                "columns": [
                                    {
                                        "editable": "false",
                                        "fieldName": "Name",
                                        "label": "Quote ID",
                                        "searchable": false,
                                        "sortable": true,
                                        "type": "text",
                                        "userSelectable": "true",
                                        "visible": "true"
                                    },
                                    {
                                        "editable": "false",
                                        "fieldName": "Type",
                                        "label": "TYPE",
                                        "searchable": false,
                                        "sortable": true,
                                        "type": "text",
                                        "userSelectable": "true",
                                        "visible": "true"
                                    },
                                    {
                                        "editable": "false",
                                        "fieldName": "Status",
                                        "label": "STATUS",
                                        "searchable": false,
                                        "sortable": true,
                                        "type": "text",
                                        "userSelectable": "true",
                                        "visible": "true"
                                    },
                                    {
                                        "editable": "false",
                                        "fieldName": "EffectiveDate",
                                        "label": "EFFECTIVE DATE",
                                        "searchable": false,
                                        "sortable": true,
                                        "type": "text",
                                        "userSelectable": "true",
                                        "visible": "true"
                                    },
                                    {
                                        "editable": "false",
                                        "fieldName": "ExpirationDate",
                                        "label": "EXPIRATION DATE",
                                        "searchable": false,
                                        "sortable": true,
                                        "type": "text",
                                        "userSelectable": "true",
                                        "visible": "true"
                                    },
                                    {
                                        "editable": "false",
                                        "fieldName": "TotalAmount",
                                        "label": "TOTAL AMOUNT",
                                        "searchable": false,
                                        "sortable": true,
                                        "type": "text",
                                        "userSelectable": "true",
                                        "visible": "true"
                                    }
                                ],
                                "groupOrder": "asc",
                                "issearchavailable": true,
                                "issortavailable": true,
                                "pagelimit": "10",
                                "pagesize": "20",
                                "records": "{records}"
                            },
                            "size": {
                                "default": "12",
                                "isResponsive": false
                            },
                            "stateIndex": 0,
                            "styleObject": {
                                "sizeClass": "nds-size_12-of-12"
                            },
                            "type": "element",
                            "userUpdatedElementLabel": true
                        }
                    ]
                }
            },
            "conditions": {
                "group": [
                ],
                "id": "state-condition-object",
                "isParent": true
            },
            "definedActions": {
                "actions": [
                ]
            },
            "fields": [
            ],
            "isSmartAction": false,
            "name": "Active",
            "omniscripts": [
            ],
            "smartAction": {
            },
            "styleObject": {
                "background": {
                    "color": "#fff",
                    "image": "",
                    "position": "",
                    "repeat": "",
                    "size": ""
                },
                "border": {
                    "color": "",
                    "radius": "",
                    "style": "",
                    "type": "",
                    "width": ""
                },
                "class": "nds-card cais-table-container nds-p-around_large nds-m-bottom_x-small ",
                "container": {
                    "class": "nds-card cais-table-container"
                },
                "elementStyleProperties": {
                },
                "inlineStyle": "",
                "margin": [
                    {
                        "label": "bottom:x-small",
                        "size": "x-small",
                        "type": "bottom"
                    }
                ],
                "padding": [
                    {
                        "label": "around:large",
                        "size": "large",
                        "type": "around"
                    }
                ],
                "size": {
                    "default": "12",
                    "isResponsive": false
                },
                "sizeClass": "nds-size_12-of-12 ",
                "style": "background-color:#fff;             ",
                "text": {
                    "align": "",
                    "color": ""
                }
            }
        }
    ],
    "theme": "nds",
    "title": "InsuredQuotes"
}