{
    "%vlocity_namespace%__ApprovedBy__c": "",
    "%vlocity_namespace%__ApprovedOn__c": "",
    "%vlocity_namespace%__AttributeAssignment__c": "Liability-Coverage-D-O_AttributeAssignments.json",
    "%vlocity_namespace%__AttributeDefaultValues__c": {
        "liabilityLimit": "500000"
    },
    "%vlocity_namespace%__AttributeMetadata__c": {
        "records": [
            {
                "Code__c": "coverageAttrib",
                "Name": "Coverage Attributes",
                "displaySequence": 10,
                "productAttributes": {
                    "records": [
                        {
                            "cloneable": true,
                            "code": "liabilityLimit",
                            "dataType": "text",
                            "disabled": false,
                            "displaySequence": 0,
                            "filterable": true,
                            "hasRules": true,
                            "hidden": false,
                            "inputType": "dropdown",
                            "isNotTranslatable": false,
                            "label": "Liability Limit",
                            "multiselect": false,
                            "readonly": false,
                            "required": false,
                            "userValues": null,
                            "values": [
                                {
                                    "disabled": false,
                                    "id": "0",
                                    "label": "$500,000",
                                    "readonly": false,
                                    "value": "500000"
                                },
                                {
                                    "disabled": false,
                                    "id": "1",
                                    "label": "$1,000,000",
                                    "readonly": false,
                                    "value": "1000000"
                                },
                                {
                                    "disabled": false,
                                    "id": "2",
                                    "label": "$2,000,000",
                                    "readonly": false,
                                    "value": "2000000"
                                },
                                {
                                    "disabled": false,
                                    "id": "3",
                                    "label": "$3,000,000",
                                    "readonly": false,
                                    "value": "3000000"
                                },
                                {
                                    "disabled": false,
                                    "id": "4",
                                    "label": "$4,000,000",
                                    "readonly": false,
                                    "value": "4000000"
                                },
                                {
                                    "disabled": false,
                                    "id": "22",
                                    "label": "$5,000,000",
                                    "readonly": false,
                                    "value": "5000000"
                                }
                            ]
                        }
                    ],
                    "totalSize": 1
                }
            }
        ],
        "totalSize": 1
    },
    "%vlocity_namespace%__AttributeRules__c": "{}",
    "%vlocity_namespace%__Availability__c": "AK;AL;AR;AZ;CA;CO;CT;DE;FL;GA;HI;IA;ID;IL;IN;KS;KY;LA;MA;MD;ME;MI;MN;MO;MS;MT;NC;ND;NE;NH;NJ;NM;NV;NY;OH;OK;OR;PA;RI;SC;SD;TN;TX;UT;VA;VT;WA;WI;WV;WY",
    "%vlocity_namespace%__CarrierId__c": "",
    "%vlocity_namespace%__ChangeDetectorImplementation__c": "",
    "%vlocity_namespace%__ClassId__c": "",
    "%vlocity_namespace%__CoverageCalculationFormula__c": "",
    "%vlocity_namespace%__DefaultImageId__c": "",
    "%vlocity_namespace%__EffectiveDate__c": "2020-01-01",
    "%vlocity_namespace%__EligibilityCriteriaComments__c": "",
    "%vlocity_namespace%__EligibilityCriteria__c": "",
    "%vlocity_namespace%__EndDate__c": "",
    "%vlocity_namespace%__EndOfLifeDate__c": "",
    "%vlocity_namespace%__EnrollmentStatus__c": "",
    "%vlocity_namespace%__FormularyId__c": "",
    "%vlocity_namespace%__FulfilmentStartDate__c": "2020-01-01T08:00:00.000Z",
    "%vlocity_namespace%__GlobalGroupKey__c": "398134ae-6837-d485-4b81-d1ed4108d85d",
    "%vlocity_namespace%__GlobalKey__c": "9e12ddc3-13a2-587b-7669-39310c978dfb",
    "%vlocity_namespace%__HasCustomAttributesProcess__c": false,
    "%vlocity_namespace%__HeaderData__c": "",
    "%vlocity_namespace%__HelpText__c": "",
    "%vlocity_namespace%__InstanceKeyFormula__c": "",
    "%vlocity_namespace%__IsConfigurable__c": true,
    "%vlocity_namespace%__IsLocationDependent__c": false,
    "%vlocity_namespace%__IsNotAssetizable__c": false,
    "%vlocity_namespace%__IsOrderable__c": true,
    "%vlocity_namespace%__IsRecommended__c": false,
    "%vlocity_namespace%__LastPublishDate__c": "",
    "%vlocity_namespace%__LastSimulationInput__c": "",
    "%vlocity_namespace%__LifecycleStatus__c": "",
    "%vlocity_namespace%__LineOfBusiness__c": "Property & Casualty",
    "%vlocity_namespace%__MarketSegment__c": "Community Association",
    "%vlocity_namespace%__ObjectTypeId__c": "",
    "%vlocity_namespace%__ParentClassId__c": "",
    "%vlocity_namespace%__PricingFormula__c": "",
    "%vlocity_namespace%__PricingSource__c": "",
    "%vlocity_namespace%__ProductSpecId__c": "",
    "%vlocity_namespace%__ProductTemplateId__c": "",
    "%vlocity_namespace%__ProductTemplateProductId__c": "",
    "%vlocity_namespace%__ProviderNetworkId__c": "",
    "%vlocity_namespace%__RateBandId__c": "",
    "%vlocity_namespace%__RatingCalcProcedureName__c": "",
    "%vlocity_namespace%__RatingProcedureType__c": "",
    "%vlocity_namespace%__RecordTypeName__c": "CoverageSpec",
    "%vlocity_namespace%__ReplacementProductId__c": "",
    "%vlocity_namespace%__ReserveProcessingMode__c": "CoverageReserve",
    "%vlocity_namespace%__Scope__c": "Order Item",
    "%vlocity_namespace%__SellingEndDate__c": "",
    "%vlocity_namespace%__SellingStartDate__c": "2020-01-01T08:00:00.000Z",
    "%vlocity_namespace%__SpecificationSubType__c": "",
    "%vlocity_namespace%__SpecificationType__c": "",
    "%vlocity_namespace%__StandardPremium__c": "",
    "%vlocity_namespace%__Status__c": "",
    "%vlocity_namespace%__SubType__c": "",
    "%vlocity_namespace%__Term__c": "Annual",
    "%vlocity_namespace%__Tier__c": "",
    "%vlocity_namespace%__TimeToLive__c": "",
    "%vlocity_namespace%__TotalCoverageCalculationFormula__c": "",
    "%vlocity_namespace%__TotalInsuredFormula__c": "",
    "%vlocity_namespace%__TrackAsAgreement__c": false,
    "%vlocity_namespace%__Type__c": "",
    "%vlocity_namespace%__VersionEndDateTime__c": "",
    "%vlocity_namespace%__VersionLabel__c": "",
    "%vlocity_namespace%__VersionStartDateTime__c": "",
    "CanUseQuantitySchedule": false,
    "CanUseRevenueSchedule": false,
    "Description": "",
    "DisplayUrl": "",
    "ExternalDataSourceId": "",
    "ExternalId": "",
    "Family": "",
    "IsActive": true,
    "IsArchived": false,
    "Name": "Liability Coverage D&O",
    "NumberOfQuantityInstallments": "",
    "NumberOfRevenueInstallments": "",
    "PricebookEntry": "Liability-Coverage-D-O_PricebookEntries.json",
    "ProductCode": "DOLCOV",
    "QuantityInstallmentPeriod": "",
    "QuantityScheduleType": "",
    "QuantityUnitOfMeasure": "",
    "RecordTypeId": {
        "DeveloperName": "CoverageSpec",
        "SobjectType": "Product2",
        "VlocityDataPackType": "VlocityLookupMatchingKeyObject",
        "VlocityLookupRecordSourceKey": "RecordType/Product2/CoverageSpec",
        "VlocityRecordSObjectType": "RecordType"
    },
    "RevenueInstallmentPeriod": "",
    "RevenueScheduleType": "",
    "StandardPricebookEntry": [
        {
            "%vlocity_namespace%__FloorPrice__c": "",
            "%vlocity_namespace%__OverageCharge__c": "",
            "%vlocity_namespace%__OverageUOM__c": "",
            "%vlocity_namespace%__RecurringPrice__c": "",
            "%vlocity_namespace%__RecurringUOM__c": "Monthly",
            "IsActive": true,
            "IsArchived": false,
            "Name": "Liability Coverage D&O",
            "Pricebook2.Name": "Standard Price Book",
            "Pricebook2Id": {
                "Name": "Standard Price Book",
                "VlocityDataPackType": "VlocityLookupMatchingKeyObject",
                "VlocityLookupRecordSourceKey": "Pricebook2/Standard Price Book",
                "VlocityRecordSObjectType": "Pricebook2"
            },
            "Product2.%vlocity_namespace%__GlobalKey__c": "9e12ddc3-13a2-587b-7669-39310c978dfb",
            "Product2Id": {
                "%vlocity_namespace%__GlobalKey__c": "9e12ddc3-13a2-587b-7669-39310c978dfb",
                "VlocityDataPackType": "VlocityMatchingKeyObject",
                "VlocityMatchingRecordSourceKey": "Product2/9e12ddc3-13a2-587b-7669-39310c978dfb",
                "VlocityRecordSObjectType": "Product2"
            },
            "ProductCode": "DOLCOV",
            "UnitPrice": 1,
            "UseStandardPrice": false,
            "VlocityDataPackType": "SObject",
            "VlocityRecordSObjectType": "PricebookEntry",
            "VlocityRecordSourceKey": "PricebookEntry/Pricebook2/Standard Price Book/Product2/9e12ddc3-13a2-587b-7669-39310c978dfb"
        }
    ],
    "StockKeepingUnit": "",
    "VlocityDataPackType": "SObject",
    "VlocityRecordSObjectType": "Product2",
    "VlocityRecordSourceKey": "Product2/9e12ddc3-13a2-587b-7669-39310c978dfb",
    "sourceOrgUrl": "/01t3K0000013SIXQA2"
}