{
    "%vlocity_namespace%__AdditionalInformation__c": "Generate Crime Application for Agent to print. Uses LWC for generation.",
    "%vlocity_namespace%__DisableMetadataCache__c": false,
    "%vlocity_namespace%__ElementTypeToHTMLTemplateList__c": "{\"ElementTypeToHTMLTemplateList\":[]}",
    "%vlocity_namespace%__Element__c": [
        "Crime_PrintApplication_English_Element_GetDocumentTemplates.json",
        "Crime_PrintApplication_English_Element_SetContext.json",
        "Crime_PrintApplication_English_Element_Generate-Document.json",
        "Crime_PrintApplication_English_Element_GenerateDocumentWord.json",
        "Crime_PrintApplication_English_Element_EmailWordDocument.json",
        "Crime_PrintApplication_English_Element_EmailPDFDocument.json",
        "Crime_PrintApplication_English_Element_NavigateToHome.json"
    ],
    "%vlocity_namespace%__IsLwcEnabled__c": true,
    "%vlocity_namespace%__IsProcedure__c": false,
    "%vlocity_namespace%__IsReusable__c": false,
    "%vlocity_namespace%__IsTest__c": false,
    "%vlocity_namespace%__Language__c": "English",
    "%vlocity_namespace%__LastPreviewPage__c": "Lightning",
    "%vlocity_namespace%__PropertySet__c": "Crime_PrintApplication_English_PropertySet.json",
    "%vlocity_namespace%__SubType__c": "PrintApplication",
    "%vlocity_namespace%__Type__c": "Crime",
    "Name": "Crime - Print Application",
    "VlocityDataPackType": "SObject",
    "VlocityRecordSObjectType": "%vlocity_namespace%__OmniScript__c",
    "VlocityRecordSourceKey": "%vlocity_namespace%__OmniScript__c/Crime/PrintApplication/English",
    "sourceOrgUrl": "/apex/vlocity_ins__omniscriptdesigner?id=a5C3K0000009KkvUAE"
}