{
    "%vlocity_namespace%__Author__c": "Vlocity",
    "%vlocity_namespace%__CustomJavascript__c": "",
    "%vlocity_namespace%__Definition__c": "",
    "%vlocity_namespace%__Description__c": "",
    "%vlocity_namespace%__DisplayOn__c": "",
    "%vlocity_namespace%__ExternalID__c": "ins-enrollment-home-container/1/Vlocity/1520271043018",
    "%vlocity_namespace%__HTML__c": "ins-enrollment-home-container.html",
    "%vlocity_namespace%__ParentID__c": "",
    "%vlocity_namespace%__SampleJson__c": "",
    "%vlocity_namespace%__Sass__c": "ins-enrollment-home-container.scss",
    "%vlocity_namespace%__Type__c": "containers",
    "%vlocity_namespace%__Version__c": 1,
    "Name": "ins-enrollment-home-container",
    "VlocityDataPackType": "SObject",
    "VlocityRecordSObjectType": "%vlocity_namespace%__VlocityUITemplate__c",
    "VlocityRecordSourceKey": "%vlocity_namespace%__VlocityUITemplate__c/ins-enrollment-home-container",
    "sourceOrgUrl": "/apex/vlocity_ins__uitemplatedesigner?id=a8C4W0000004iTuUAI"
}