{
    "%vlocity_namespace%__Author__c": "Vlocity",
    "%vlocity_namespace%__CustomJavascript__c": "",
    "%vlocity_namespace%__Definition__c": "",
    "%vlocity_namespace%__Description__c": "flyout-grid-noActions-slds\n\nDisplays cards in a simple 3 column grid.",
    "%vlocity_namespace%__DisplayOn__c": "All",
    "%vlocity_namespace%__ExternalID__c": "flyout-grid-noActions-slds/1/Vlocity/1468580158911",
    "%vlocity_namespace%__HTML__c": "flyout-grid-noActions-slds.html",
    "%vlocity_namespace%__ParentID__c": "",
    "%vlocity_namespace%__SampleJson__c": "",
    "%vlocity_namespace%__Sass__c": "flyout-grid-noActions-slds.scss",
    "%vlocity_namespace%__Type__c": "Flyout",
    "%vlocity_namespace%__Version__c": 1,
    "Name": "flyout-grid-noActions-slds",
    "VlocityDataPackType": "SObject",
    "VlocityRecordSObjectType": "%vlocity_namespace%__VlocityUITemplate__c",
    "VlocityRecordSourceKey": "%vlocity_namespace%__VlocityUITemplate__c/flyout-grid-noActions-slds",
    "sourceOrgUrl": "/apex/vlocity_ins__uitemplatedesigner?id=a8C4W0000004iVyUAI"
}