{
    "%vlocity_namespace%__IsDefault__c": false,
    "Description": "",
    "IsActive": true,
    "IsArchived": false,
    "IsStandard": false,
    "Name": "Standard",
    "VlocityDataPackType": "SObject",
    "VlocityRecordSObjectType": "Pricebook2",
    "VlocityRecordSourceKey": "Pricebook2/Standard",
    "sourceOrgUrl": "/01s4W000006EvpeQAC"
}