{
    "%vlocity_namespace%__ApplicableObject__c": "",
    "%vlocity_namespace%__CalculationProcedureId__c": {
        "Name": "CrimePremiumTaxCalculation",
        "VlocityDataPackType": "VlocityMatchingKeyObject",
        "VlocityMatchingRecordSourceKey": "%vlocity_namespace%__CalculationProcedure__c/CrimePremiumTaxCalculation",
        "VlocityRecordSObjectType": "%vlocity_namespace%__CalculationProcedure__c"
    },
    "%vlocity_namespace%__CalculationProcedureId__r.Name": "CrimePremiumTaxCalculation",
    "%vlocity_namespace%__CalculationProcedureStep__c": "CrimePremiumTaxCalculation_Version_Steps.json",
    "%vlocity_namespace%__CalculationProcedureVariable__c": "CrimePremiumTaxCalculation_Version_Variables.json",
    "%vlocity_namespace%__Constants__c": [
        {
            "alias": "0",
            "dataType": "Number",
            "isEditable": false,
            "name": "0",
            "precision": "",
            "userDefined": true,
            "value": "0",
            "valuePlaceHolder": "Enter a Value"
        }
    ],
    "%vlocity_namespace%__CurrentStatus__c": "Active",
    "%vlocity_namespace%__EnableLooping__c": false,
    "%vlocity_namespace%__EndDateTime__c": "",
    "%vlocity_namespace%__GlobalKey__c": "CrimePremiumTaxCalculation V1",
    "%vlocity_namespace%__InputBundleId__c": "",
    "%vlocity_namespace%__LastSimulationInput__c": "{\"Deductible\":\"500\",\"CoverageLimit\":\"10000\",\"State\":\"FL\",\"CoverageCode\":\"ETOA\"}",
    "%vlocity_namespace%__LoopingSpecification__c": "",
    "%vlocity_namespace%__OutputBundleId__c": "",
    "%vlocity_namespace%__PostProcessorClass__c": "",
    "%vlocity_namespace%__PreProcessorClass__c": "",
    "%vlocity_namespace%__Priority__c": 1,
    "%vlocity_namespace%__StartDateTime__c": "2020-02-01T08:00:00.000Z",
    "%vlocity_namespace%__Variables__c": "",
    "%vlocity_namespace%__VersionNumber__c": 1,
    "Name": "CrimePremiumTaxCalculation V1",
    "VlocityDataPackType": "SObject",
    "VlocityRecordSObjectType": "%vlocity_namespace%__CalculationProcedureVersion__c",
    "VlocityRecordSourceKey": "%vlocity_namespace%__CalculationProcedureVersion__c/1/%vlocity_namespace%__CalculationProcedure__c/CrimePremiumTaxCalculation"
}