[
    {
        "%vlocity_namespace%__CalculationMatrixId__c": {
            "Name": "CrimeRatesTaxes",
            "VlocityDataPackType": "VlocityLookupMatchingKeyObject",
            "VlocityLookupRecordSourceKey": "%vlocity_namespace%__CalculationMatrix__c/CrimeRatesTaxes",
            "VlocityRecordSObjectType": "%vlocity_namespace%__CalculationMatrix__c"
        },
        "%vlocity_namespace%__CalculationProcedureId__c": {
            "Name": "CrimePremiumTaxCalculation",
            "VlocityDataPackType": "VlocityMatchingKeyObject",
            "VlocityMatchingRecordSourceKey": "%vlocity_namespace%__CalculationProcedure__c/CrimePremiumTaxCalculation",
            "VlocityRecordSObjectType": "%vlocity_namespace%__CalculationProcedure__c"
        },
        "%vlocity_namespace%__CalculationProcedureVersionId__c": {
            "%vlocity_namespace%__CalculationProcedureId__r.Name": "CrimePremiumTaxCalculation",
            "%vlocity_namespace%__VersionNumber__c": 1,
            "VlocityDataPackType": "VlocityMatchingKeyObject",
            "VlocityMatchingRecordSourceKey": "%vlocity_namespace%__CalculationProcedureVersion__c/1/%vlocity_namespace%__CalculationProcedure__c/CrimePremiumTaxCalculation",
            "VlocityRecordSObjectType": "%vlocity_namespace%__CalculationProcedureVersion__c"
        },
        "%vlocity_namespace%__ConditionalInputDisplayData__c": [
        ],
        "%vlocity_namespace%__Function__c": "Matrix Lookup",
        "%vlocity_namespace%__Input__c": [
            {
                "columnKey": "9c7d97",
                "dataType": "Text",
                "label": null,
                "listValues": null,
                "name": "State"
            },
            {
                "columnKey": "d2fb85",
                "dataType": "Text",
                "label": null,
                "listValues": null,
                "name": "CoverageCode"
            },
            {
                "columnKey": "fe8352",
                "dataType": "Number",
                "label": null,
                "listValues": null,
                "name": "CoverageLimit"
            },
            {
                "columnKey": "a6d756",
                "dataType": "Number",
                "label": null,
                "listValues": null,
                "name": "Deductible"
            }
        ],
        "%vlocity_namespace%__IsConditionalStep__c": false,
        "%vlocity_namespace%__IsIncludedInResult__c": true,
        "%vlocity_namespace%__MatrixRecordType__c": "Standard",
        "%vlocity_namespace%__OutputJSON__c": [
            {
                "columnKey": "e91c60",
                "dataType": "Number",
                "label": null,
                "listValues": null,
                "name": "BaseRate"
            },
            {
                "columnKey": "15b5ea",
                "dataType": "Number",
                "label": null,
                "listValues": null,
                "name": "TaxRate"
            }
        ],
        "%vlocity_namespace%__OutputMappingJSON__c": "{\"BaseRate\":\"CrimeRatesTaxes__BaseRate\",\"TaxRate\":\"CrimeRatesTaxes__TaxRate\"}",
        "%vlocity_namespace%__Sequence__c": 1,
        "VlocityDataPackType": "SObject",
        "VlocityRecordSObjectType": "%vlocity_namespace%__CalculationProcedureStep__c"
    }
]