{
    "ContextId": "0Q06s0000000GPzCAM",
    "Id": "0Q06s0000000GPzCAM",
    "QuoteDetails": {
        "QuoteEffectiveDate": "2020-09-30",
        "QuoteExpirationDate": "2020-12-29",
        "QuoteName": "-WCPay-2020-09-30",
        "QuoteNumber": "00415293",
        "QuoteStatus": "Application"
    },
    "groupId": "00G6s000000Nn2qEAC",
    "timeStamp": "2020-10-16T15:49:12.139Z",
    "userCurrencyCode": "USD",
    "userId": "0056s000000J6KBAA0",
    "userName": "ramya.vadlamannati@certadux.com.v3dev",
    "userProfile": "System Administrator",
    "userTimeZone": "-420"
}