{
    "ContextId": null,
    "timeStamp": null,
    "userId": null,
    "userName": null,
    "userProfile": null,
    "userTimeZone": null,
    "vlcPersistentComponent": {
    },
    "vlcTimeTracking": {
        "GetClassCodeMatrixAction": null,
        "GetSICNAICSCodeMatrixAction": null,
        "ResponseActionWCPay": null,
        "TransformForWCPayQuoteCreation": null,
        "TransformToStoreQuoteJson": null,
        "createWCPayQuote": null,
        "getQuoteNumber": null,
        "getWCPayProduct": null
    }
}