{
    "%vlocity_namespace%__Author__c": "Vlocity",
    "%vlocity_namespace%__CustomJavascript__c": "left-profile-slds.js",
    "%vlocity_namespace%__Definition__c": "",
    "%vlocity_namespace%__Description__c": "left-profile-slds\n\nLightning Design System based left profile card. Designed for use in console-sidebar-slds",
    "%vlocity_namespace%__DisplayOn__c": "All",
    "%vlocity_namespace%__ExternalID__c": "left-profile-slds/1/Vlocity/1468505559352",
    "%vlocity_namespace%__HTML__c": "left-profile-slds.html",
    "%vlocity_namespace%__ParentID__c": "",
    "%vlocity_namespace%__SampleJson__c": "left-profile-slds_Sample.json",
    "%vlocity_namespace%__Sass__c": "left-profile-slds.scss",
    "%vlocity_namespace%__Type__c": "console",
    "%vlocity_namespace%__Version__c": 1,
    "Name": "left-profile-slds",
    "VlocityDataPackType": "SObject",
    "VlocityRecordSObjectType": "%vlocity_namespace%__VlocityUITemplate__c",
    "VlocityRecordSourceKey": "%vlocity_namespace%__VlocityUITemplate__c/left-profile-slds",
    "sourceOrgUrl": "/apex/vlocity_ins__uitemplatedesigner?id=a8C4W0000004iW7UAI"
}