{
    "%vlocity_namespace%__Author__c": "Mgalive",
    "%vlocity_namespace%__CardType__c": "",
    "%vlocity_namespace%__Datasource__c": "",
    "%vlocity_namespace%__Definition__c": "cais-coverage-quote-lwc.json",
    "%vlocity_namespace%__Description__c": "",
    "%vlocity_namespace%__GlobalKey__c": "cais-coverage-quote-lwc/Mgalive/1/1605114761277",
    "%vlocity_namespace%__IsChildCard__c": false,
    "%vlocity_namespace%__ParentID__c": "np-coverage-quote-lwc/VEX Personal Lines/1/1579517030559",
    "%vlocity_namespace%__SampleData__c": "",
    "%vlocity_namespace%__Styles__c": "",
    "%vlocity_namespace%__Type__c": "",
    "%vlocity_namespace%__Version__c": 1,
    "Name": "cais-coverage-quote-lwc",
    "VlocityDataPackType": "SObject",
    "VlocityRecordSObjectType": "%vlocity_namespace%__VlocityCard__c",
    "VlocityRecordSourceKey": "%vlocity_namespace%__VlocityCard__c/cais-coverage-quote-lwc",
    "sourceOrgUrl": "/a7n3K0000004UEgQAM"
}