{
    "GlobalKey__c": "cais-coverage-quote-lwc/Mgalive/1/1605114761277",
    "dataSource": {
        "type": null
    },
    "enableLwc": true,
    "filter": {
    },
    "sessionVars": [
        {
            "name": "RecordType",
            "val": "CoverageSpec"
        }
    ],
    "states": [
        {
            "blankStateCheck": false,
            "collapse": false,
            "conditions": {
                "group": [
                    {
                        "field": "$scope.data.status",
                        "operator": "===",
                        "type": "system",
                        "value": "'active'"
                    }
                ]
            },
            "definedActions": {
                "actions": [
                ]
            },
            "fields": [
            ],
            "isSmartAction": false,
            "lwc": {
                "DeveloperName": "caisCoveragesAndAttributes",
                "Id": "0Rb6s00000007h2CAA",
                "MasterLabel": "caisCoveragesAndAttributes",
                "name": "caisCoveragesAndAttributes"
            },
            "name": "Coverage-Quote",
            "placeholderExpand": true,
            "sObjectType": null,
            "smartAction": {
            },
            "templateUrl": "np-table-list-policy-items-plus-nds"
        }
    ],
    "title": "Quote"
}