{
    "%vlocity_namespace%__Active__c": true,
    "%vlocity_namespace%__OmniScriptId__c": {
        "Name": "WC Payroll",
        "VlocityDataPackType": "VlocityMatchingKeyObject",
        "VlocityMatchingRecordSourceKey": "%vlocity_namespace%__OmniScript__c/WC/Payroll/English",
        "VlocityRecordSObjectType": "%vlocity_namespace%__OmniScript__c"
    },
    "%vlocity_namespace%__ParentElementId__c": {
        "%vlocity_namespace%__OmniScriptId__c": {
            "Name": "WC Payroll",
            "VlocityDataPackType": "VlocityMatchingKeyObject",
            "VlocityMatchingRecordSourceKey": "%vlocity_namespace%__OmniScript__c/WC/Payroll/English",
            "VlocityRecordSObjectType": "%vlocity_namespace%__OmniScript__c"
        },
        "Name": "AcordForm130",
        "VlocityDataPackType": "VlocityMatchingKeyObject",
        "VlocityMatchingRecordSourceKey": "%vlocity_namespace%__Element__c/%vlocity_namespace%__OmniScript__c/WC/Payroll/English/AcordForm130",
        "VlocityRecordSObjectType": "%vlocity_namespace%__Element__c"
    },
    "%vlocity_namespace%__ParentElementName__c": "AcordForm130",
    "%vlocity_namespace%__ParentElementType__c": "Step",
    "%vlocity_namespace%__PropertySet__c": {
        "HTMLTemplateId": "",
        "controlWidth": 4,
        "disOnTplt": false,
        "elementValueMap": {
            "AdditionalLocations": "No",
            "AthleticTeamsSponsored": "No",
            "DiscontinuedOperations": "No",
            "DisputedWorkComp": "No",
            "EmployeeAgeGroup": "Under 16",
            "EmployeeHealthPlans": "No",
            "EmployeesUnder16Over60Age": "Yes",
            "EmployeesWorkAtHome": "No",
            "GroupTransportation": "No",
            "HandicapEmployees": "No",
            "HaveAdditionalDocuments": "No",
            "LaborInterchange": "No",
            "LeaseEmployees": "No",
            "OtherInsurance": "No",
            "OtherTypeofBusiness": "No",
            "OwnsAirWaterCraft": "Yes",
            "PhysicalsRequired": "No",
            "PriorCoverageDeclined": "No",
            "SeasonalEmployees": "No",
            "SubcontractorsUsed": "No",
            "SubletWithoutCOI": "No",
            "TaxLiens": "No",
            "TravelOutofState": "No",
            "USLHCoverage": "No",
            "VolunteerLabor": "No",
            "WorkBargesVessels": "No",
            "WorkUnderground": "Yes",
            "WrittenSafetyProgram": "No",
            "YearsInBusiness": 5
        },
        "label": "Demo Fill Decline 1",
        "message": {
        },
        "pubsub": false,
        "show": null,
        "showPersistentComponent": [
            false,
            false
        ],
        "ssm": false,
        "wpm": false
    },
    "%vlocity_namespace%__ReusableOmniScript__c": true,
    "%vlocity_namespace%__Type__c": "Set Values",
    "Name": "SetValues1",
    "VlocityDataPackType": "SObject",
    "VlocityRecordSObjectType": "%vlocity_namespace%__Element__c",
    "VlocityRecordSourceKey": "%vlocity_namespace%__Element__c/%vlocity_namespace%__OmniScript__c/WC/Payroll/English/SetValues1"
}