{
    "%vlocity_namespace%__Active__c": true,
    "%vlocity_namespace%__OmniScriptId__c": {
        "Name": "WC Payroll",
        "VlocityDataPackType": "VlocityMatchingKeyObject",
        "VlocityMatchingRecordSourceKey": "%vlocity_namespace%__OmniScript__c/WC/Payroll/English",
        "VlocityRecordSObjectType": "%vlocity_namespace%__OmniScript__c"
    },
    "%vlocity_namespace%__PropertySet__c": {
        "HTMLTemplateId": "",
        "controlWidth": 12,
        "disOnTplt": false,
        "enableActionMessage": false,
        "enableDefaultAbort": false,
        "errorMessage": {
            "custom": [
            ],
            "default": null
        },
        "extraPayload": {
        },
        "failureAbortLabel": "Abort",
        "failureAbortMessage": "Are you sure?",
        "failureGoBackLabel": "Go Back",
        "failureNextLabel": "Continue",
        "inProgressMessage": "In Progress",
        "label": "RuleProcessingServiceWCPay",
        "message": {
        },
        "postMessage": "Done",
        "postTransformBundle": "",
        "preTransformBundle": "",
        "pubsub": false,
        "redirectNextLabel": "Next",
        "redirectNextWidth": 3,
        "redirectPageName": "",
        "redirectPreviousLabel": "Previous",
        "redirectPreviousWidth": 3,
        "redirectTemplateUrl": "vlcAcknowledge.html",
        "remoteClass": "WC_RuleProcessingService",
        "remoteMethod": "validateRules",
        "remoteOptions": {
            "ADACompliantWorkplace": "%AcordForm130:ADACompliantWorkplace%",
            "ActivePolicy": "%activePolicy%",
            "AthleticTeamsSponsored": "%AcordForm130:AthleticTeamsSponsored%",
            "CalculatedFullTimeEmployees": "%AcordForm130:CalculatedFullTimeEmployees%",
            "Case1_1Agent_Location__c": "%agentLocation%",
            "Case1_1Origin": "Web",
            "Case1_1OwnerId": "%UWQueueId%",
            "Case1_1Subject": "Request for %Name%, Workers' Compensation quote %quoteNumber% - %AcordForm130:WCPayRuleStatus%",
            "Case1_1Type": "Workers Compensation Payroll",
            "DescriptionOfOperation": "%WorkerCompensation:CommunityAssociation:DescriptionOfOperation%",
            "DiscontinuedOperations": "%AcordForm130:DiscontinuedOperations%",
            "EmployeeAgeGroup": "%AcordForm130:EmployeeAgeGroup%",
            "EmployeeHealthPlans": "%AcordForm130:EmployeeHealthPlans%",
            "ExistingFEIN": "%AcordForm130:ExistingFEIN%",
            "FEIN": "%FEINNumber%",
            "FEINStatus": "%feinStatus%",
            "InactivePolicy": "%inactivePolicy%",
            "OwnsAirWaterCraft": "%AcordForm130:OwnsAirWaterCraft%",
            "ReferralText": "%ReferralText%",
            "Status": "%AcordForm130:WCPayRuleStatus%",
            "SubletWithoutCOI": "%AcordForm130:SubletWithoutCOI%",
            "TaxLiens": "%AcordForm130:TaxLiens%",
            "USLHCoverage": "%AcordForm130:USLHCoverage%",
            "ValidQuote": "%existingQuote%",
            "WorkUnderground": "%AcordForm130:WorkUnderground%",
            "mailDeclinedFooter": "%mailDeclinedFooterWCPay%",
            "mailDeclinedHeader": "%mailDeclinedHeaderWCPay%",
            "mailRecordLinkRequired": "%mailRecordLinkRequiredWCPay%",
            "mailReferralFooter": "%mailReferralFooterWCPay%",
            "mailReferralHeader": "%mailReferralHeaderWCPay%",
            "mailSubject": "%mailSubjectWCPay%",
            "postTransformBundle": "",
            "preTransformBundle": "",
            "prodCode": "%prodCode%",
            "quoteId": "%quoteId%"
        },
        "remoteTimeout": 30000,
        "responseJSONNode": "",
        "responseJSONPath": "",
        "sendJSONNode": "",
        "sendJSONPath": "",
        "show": null,
        "showPersistentComponent": [
            false,
            false
        ],
        "ssm": false,
        "svgIcon": "",
        "svgSprite": "",
        "validationRequired": "Step",
        "wpm": false
    },
    "%vlocity_namespace%__ReusableOmniScript__c": true,
    "%vlocity_namespace%__Type__c": "Remote Action",
    "Name": "RuleProcessingServiceWCPay",
    "VlocityDataPackType": "SObject",
    "VlocityRecordSObjectType": "%vlocity_namespace%__Element__c",
    "VlocityRecordSourceKey": "%vlocity_namespace%__Element__c/%vlocity_namespace%__OmniScript__c/WC/Payroll/English/RuleProcessingServiceWCPay"
}