{
    "%vlocity_namespace%__Active__c": true,
    "%vlocity_namespace%__OmniScriptId__c": {
        "Name": "WC Payroll",
        "VlocityDataPackType": "VlocityMatchingKeyObject",
        "VlocityMatchingRecordSourceKey": "%vlocity_namespace%__OmniScript__c/WC/Payroll/English",
        "VlocityRecordSObjectType": "%vlocity_namespace%__OmniScript__c"
    },
    "%vlocity_namespace%__ParentElementId__c": {
        "%vlocity_namespace%__OmniScriptId__c": {
            "Name": "WC Payroll",
            "VlocityDataPackType": "VlocityMatchingKeyObject",
            "VlocityMatchingRecordSourceKey": "%vlocity_namespace%__OmniScript__c/WC/Payroll/English",
            "VlocityRecordSObjectType": "%vlocity_namespace%__OmniScript__c"
        },
        "Name": "AcordForm130",
        "VlocityDataPackType": "VlocityMatchingKeyObject",
        "VlocityMatchingRecordSourceKey": "%vlocity_namespace%__Element__c/%vlocity_namespace%__OmniScript__c/WC/Payroll/English/AcordForm130",
        "VlocityRecordSObjectType": "%vlocity_namespace%__Element__c"
    },
    "%vlocity_namespace%__ParentElementName__c": "AcordForm130",
    "%vlocity_namespace%__ParentElementType__c": "Step",
    "%vlocity_namespace%__PropertySet__c": {
        "HTMLTemplateId": "",
        "accessibleInFutureSteps": false,
        "allowDelete": true,
        "allowEdit": true,
        "allowNew": true,
        "conditionType": "Hide if False",
        "controlWidth": 11,
        "deleteLabel": "Delete",
        "disOnTplt": false,
        "editLabel": "Edit",
        "elementName": "",
        "hide": false,
        "label": "Additional Locations",
        "lwcComponentOverride": "customLWCeditblock",
        "maxDisplay": 3,
        "mode": "Table",
        "newLabel": "Add additional rows",
        "selectCheckBox": "",
        "selectMode": "Multi",
        "selectSobject": "",
        "show": {
            "group": {
                "operator": "AND",
                "rules": [
                    {
                        "condition": "=",
                        "data": "Yes",
                        "field": "AdditionalLocations"
                    }
                ]
            }
        },
        "sobjectMapping": [
        ],
        "sumElement": "",
        "svgIcon": "user",
        "svgSprite": "utility",
        "valueSvgMap": [
        ]
    },
    "%vlocity_namespace%__ReusableOmniScript__c": true,
    "%vlocity_namespace%__Type__c": "Edit Block",
    "Name": "AdditionalLocationsBlock",
    "VlocityDataPackType": "SObject",
    "VlocityRecordSObjectType": "%vlocity_namespace%__Element__c",
    "VlocityRecordSourceKey": "%vlocity_namespace%__Element__c/%vlocity_namespace%__OmniScript__c/WC/Payroll/English/AdditionalLocationsBlock"
}