{
    "%vlocity_namespace%__Author__c": "Vlocity",
    "%vlocity_namespace%__CustomJavascript__c": "",
    "%vlocity_namespace%__Definition__c": "",
    "%vlocity_namespace%__Description__c": "card-highlight-totals\n\nLightning Design System based summary card. On mobile this renders as a carousel.",
    "%vlocity_namespace%__DisplayOn__c": "All",
    "%vlocity_namespace%__ExternalID__c": "card-highlight-totals/2/Vlocity/1547012400573",
    "%vlocity_namespace%__HTML__c": "card-highlight-totals.html",
    "%vlocity_namespace%__ParentID__c": "card-active-slds/1.0/Vlocity/1467910361798",
    "%vlocity_namespace%__SampleJson__c": "card-highlight-totals_Sample.json",
    "%vlocity_namespace%__Sass__c": "card-highlight-totals.scss",
    "%vlocity_namespace%__Type__c": "Cards",
    "%vlocity_namespace%__Version__c": 2,
    "Name": "card-highlight-totals",
    "VlocityDataPackType": "SObject",
    "VlocityRecordSObjectType": "%vlocity_namespace%__VlocityUITemplate__c",
    "VlocityRecordSourceKey": "%vlocity_namespace%__VlocityUITemplate__c/card-highlight-totals",
    "sourceOrgUrl": "/apex/vlocity_ins__uitemplatedesigner?id=a8C4W0000004iVPUAY"
}