{
    "%vlocity_namespace%__ApplicableItemTypes__c": "",
    "%vlocity_namespace%__ApplicableTypes__c": "",
    "%vlocity_namespace%__ContractTypes__c": "",
    "%vlocity_namespace%__CustomClassName__c": "",
    "%vlocity_namespace%__DataExtractDRBundleName__c": "",
    "%vlocity_namespace%__DisplayUnmappedTokens__c": false,
    "%vlocity_namespace%__DocumentFontStyle__c": "'Times New Roman', times, serif",
    "%vlocity_namespace%__DocumentGenerationMechanism__c": "Default",
    "%vlocity_namespace%__DocumentToken__c": "WC-If-Any-Proposal-Cover-Letter_DocumentTokens.json",
    "%vlocity_namespace%__ExternalID__c": "If-Any Proposal Cover Letter/2/Mgalive_CAIS,LLC/1602644081243",
    "%vlocity_namespace%__ExtractEmbeddedTemplateTokens__c": false,
    "%vlocity_namespace%__HasBatchableSections__c": false,
    "%vlocity_namespace%__IsPublished__c": false,
    "%vlocity_namespace%__IsSignatureRequired__c": false,
    "%vlocity_namespace%__LastSectionKey__c": "",
    "%vlocity_namespace%__LocaleCode__c": "en_US",
    "%vlocity_namespace%__MappingMethodType__c": "DataRaptor",
    "%vlocity_namespace%__MappingType__c": "JSON Based",
    "%vlocity_namespace%__PdfGenerationMechanism__c": "Default",
    "%vlocity_namespace%__PublishedTemplateId__c": "",
    "%vlocity_namespace%__SectionHeadersDisplayStyle__c": "{\"headingLevels\":[{\"title\":\"Section Heading 1\",\"styles\":{\"font-weight\":\"bold\",\"font-family\":\"'Times New Roman', times, serif\",\"font-size\":\"18pt\",\"text-align\":\"left\",\"color\":\"#000000\",\"padding-left\":\"0px\"}},{\"title\":\"Section Heading 2\",\"styles\":{\"font-weight\":\"bold\",\"font-family\":\"'Times New Roman', times, serif\",\"font-size\":\"14pt\",\"text-align\":\"left\",\"color\":\"#000000\",\"padding-left\":\"0px\"}},{\"title\":\"Section Heading 3\",\"styles\":{\"font-weight\":\"bold\",\"font-family\":\"'Times New Roman', times, serif\",\"font-size\":\"12pt\",\"text-align\":\"left\",\"color\":\"#000000\",\"padding-left\":\"0px\"}}]}",
    "%vlocity_namespace%__SectionHeadersFontStyle__c": "{\"level1\":\"style=\\\"font-weight: bold; font-family: 'Times New Roman', times, serif; font-size: 18pt; text-align: left; color: #000000; padding-left: 0px; width: 100%; display: inline-block;\\\"\",\"level1padding\":\"padding-left: 0px;\",\"level2\":\"style=\\\"font-weight: bold; font-family: 'Times New Roman', times, serif; font-size: 14pt; text-align: left; color: #000000; padding-left: 0px; width: 100%; display: inline-block;\\\"\",\"level2padding\":\"padding-left: 0px;\",\"level3\":\"style=\\\"font-weight: bold; font-family: 'Times New Roman', times, serif; font-size: 12pt; text-align: left; color: #000000; padding-left: 0px; width: 100%; display: inline-block;\\\"\",\"level3padding\":\"padding-left: 0px;\"}",
    "%vlocity_namespace%__TemplateContentDocumentId__c": "0693K000000yiuIQAQ",
    "%vlocity_namespace%__TemplateContentFormat__c": "Microsoft Word .DOCX Template",
    "%vlocity_namespace%__TemplateContentVersionId__c": "0683K000000yig8QAA",
    "%vlocity_namespace%__TokenDRBundleName__c": "ProposalIfAnyCoverLetterTransform",
    "%vlocity_namespace%__TokenData__c": "",
    "%vlocity_namespace%__TrackContractRedlines__c": true,
    "%vlocity_namespace%__Type__c": "Select Template Type",
    "%vlocity_namespace%__UsageType__c": "",
    "%vlocity_namespace%__VersionNumber__c": 1,
    "%vlocity_namespace%__WMLRelationshipMetadata__c": "{\"DocxGenTemplate\":\"<?xml version=\\\"1.0\\\" encoding=\\\"UTF-8\\\" standalone=\\\"yes\\\"?>\\n <Relationships xmlns=\\\"http://schemas.openxmlformats.org/package/2006/relationships\\\"> <Relationship Id=\\\"rId3\\\" Type=\\\"http://schemas.openxmlformats.org/officeDocument/2006/relationships/settings\\\" Target=\\\"settings.xml\\\"/> <Relationship Id=\\\"rId4\\\" Type=\\\"http://schemas.openxmlformats.org/officeDocument/2006/relationships/webSettings\\\" Target=\\\"webSettings.xml\\\"/> <Relationship Id=\\\"rId5\\\" Type=\\\"http://schemas.openxmlformats.org/officeDocument/2006/relationships/footnotes\\\" Target=\\\"footnotes.xml\\\"/> <Relationship Id=\\\"rId6\\\" Type=\\\"http://schemas.openxmlformats.org/officeDocument/2006/relationships/endnotes\\\" Target=\\\"endnotes.xml\\\"/> <Relationship Id=\\\"rId7\\\" Type=\\\"http://schemas.openxmlformats.org/officeDocument/2006/relationships/header\\\" Target=\\\"header1.xml\\\"/> <Relationship Id=\\\"rId8\\\" Type=\\\"http://schemas.openxmlformats.org/officeDocument/2006/relationships/footer\\\" Target=\\\"footer1.xml\\\"/> <Relationship Id=\\\"rId9\\\" Type=\\\"http://schemas.openxmlformats.org/officeDocument/2006/relationships/fontTable\\\" Target=\\\"fontTable.xml\\\"/> <Relationship Id=\\\"rId10\\\" Type=\\\"http://schemas.openxmlformats.org/officeDocument/2006/relationships/theme\\\" Target=\\\"theme/theme1.xml\\\"/> <Relationship Id=\\\"rId1\\\" Type=\\\"http://schemas.openxmlformats.org/officeDocument/2006/relationships/numbering\\\" Target=\\\"numbering.xml\\\"/> <Relationship Id=\\\"rId2\\\" Type=\\\"http://schemas.openxmlformats.org/officeDocument/2006/relationships/styles\\\" Target=\\\"styles.xml\\\"/> </Relationships>\"}",
    "%vlocity_namespace%__WordDocumentTemplate__c": "",
    "Name": "WC If Any Proposal Cover Letter",
    "VlocityDataPackType": "SObject",
    "VlocityRecordSObjectType": "%vlocity_namespace%__DocumentTemplate__c",
    "VlocityRecordSourceKey": "%vlocity_namespace%__DocumentTemplate__c/WC If Any Proposal Cover Letter",
    "sourceOrgUrl": "/a3W3K0000008b2kUAA"
}