{
    "%vlocity_namespace%__Author__c": "CAISLive",
    "%vlocity_namespace%__CardType__c": "flex",
    "%vlocity_namespace%__Datasource__c": {
        "contextVariables": [
            {
                "id": 1,
                "name": "recordId",
                "val": "0Q03K000000AtcsSAC"
            }
        ],
        "orderBy": {
            "isReverse": false,
            "name": ""
        },
        "type": "DataRaptor",
        "value": {
            "bundle": "caisReadContactFromQuote",
            "inputMap": {
                "Id": "{recordId}"
            },
            "resultVar": ""
        }
    },
    "%vlocity_namespace%__Definition__c": "caisContactOnQuote.json",
    "%vlocity_namespace%__Description__c": "",
    "%vlocity_namespace%__GlobalKey__c": "caisContactOnQuote/CAISLive/1/1609742017216",
    "%vlocity_namespace%__IsChildCard__c": false,
    "%vlocity_namespace%__ParentID__c": "",
    "%vlocity_namespace%__SampleData__c": "[{\"Email\":\"himadeep.guduru@certadux.com\",\"Phone\":\"3094039309\",\"Type\":\"Producer\",\"Title\":\"Treasurer\",\"LastName\":\"Curry 2\",\"FirstName\":\"Arthur 2\"}]",
    "%vlocity_namespace%__Styles__c": "{\"customStyles\":\".obj-num-field{\\r\\n    line-height: 1.25;\\r\\n    color: #706e6b;\\r\\n    text-transform: uppercase;\\r\\n    letter-spacing: .0625rem !important;\\r\\n}\\r\\n.fieldLabel{\\r\\n    display: inline-block;\\r\\n    font-size: 14px;\\r\\n}\\r\\n.fieldValue{\\r\\n    display: inline-block;\\r\\n    overflow-wrap: break-word;\\r\\n    max-width: 17rem;\\r\\n    color: rgb(22, 50, 92);\\r\\n    font-size: 14px;\\r\\n    font-weight: 600;\\r\\n}\\r\\n%vlocity_namespace%-output-field div {\\r\\n    display: inline-block;\\r\\n    vertical-align: text-top;\\r\\n}\\r\\n%vlocity_namespace%-output-field div:first-child{\\r\\n    min-width: 8rem;\\r\\n}\\r\\n.cardHeader{\\r\\n    font-size: x-large;\\r\\n}\\r\\n.cardHeader lightning-formatted-rich-text span div::after{\\r\\n    content: \\\"\\\";\\r\\n    background: rgb(159, 166, 23);\\r\\n    position: absolute;\\r\\n    top: 4.5rem;\\r\\n    left: 1.5rem;\\r\\n    width: 3.125rem;\\r\\n    height: .1875rem;\\r\\n}\"}",
    "%vlocity_namespace%__Type__c": "",
    "%vlocity_namespace%__Version__c": 1,
    "Name": "caisContactOnQuote",
    "VlocityDataPackType": "SObject",
    "VlocityRecordSObjectType": "%vlocity_namespace%__VlocityCard__c",
    "VlocityRecordSourceKey": "%vlocity_namespace%__VlocityCard__c/caisContactOnQuote",
    "sourceOrgUrl": "/a7n3K0000004g9SQAQ"
}