{
    "dataSource": {
        "contextVariables": [
            {
                "id": 2,
                "name": "recordId",
                "val": "0YT3K000000Mff1WAC"
            }
        ],
        "orderBy": {
            "isReverse": false,
            "name": ""
        },
        "type": "DataRaptor",
        "value": {
            "bundle": "caisFetchDocuments",
            "inputMap": {
                "LinkId": "{recordId}"
            },
            "resultVar": ""
        }
    },
    "enableLwc": true,
    "globalCSS": true,
    "isFlex": true,
    "lwc": {
        "DeveloperName": "cfCaisPolicyDocumentRepeater_1_CAIS",
        "Id": "0Rb3K0000008bUYSAY",
        "MasterLabel": "cfCaisPolicyDocumentRepeater_1_CAIS",
        "NamespacePrefix": "c"
    },
    "states": [
        {
            "actions": [
            ],
            "childCards": [
            ],
            "components": {
                "layer-0": {
                    "children": [
                        {
                            "class": "nds-col ",
                            "element": "flexIcon",
                            "elementLabel": "Icon-3",
                            "name": "Icon",
                            "property": {
                                "extraclass": "slds-icon_container slds-icon-standard-document green-icon",
                                "iconName": "standard:document",
                                "iconType": "Salesforce SVG",
                                "imgsrc": "",
                                "record": "{record}",
                                "size": "large",
                                "variant": "inverse"
                            },
                            "size": {
                                "default": "1",
                                "isResponsive": false
                            },
                            "stateIndex": 0,
                            "styleObject": {
                                "size": {
                                    "default": "1",
                                    "isResponsive": false
                                },
                                "sizeClass": "nds-size_1-of-12 "
                            },
                            "type": "element"
                        },
                        {
                            "class": "nds-col ",
                            "element": "outputField",
                            "elementLabel": "Text-4",
                            "name": "Text",
                            "property": {
                                "card": "{card}",
                                "mergeField": "%3Cdiv%3E%3Cstrong%3E%3Cspan%20style=%22font-size:%2012pt;%22%3E%7BTitle%7D%3Cbr%20/%3E%3C/span%3E%3C/strong%3E%3Cspan%20style=%22font-size:%2012pt;%22%3E%7BUploadDate%7D%3C/span%3E%3Cstrong%3E%3Cspan%20style=%22font-size:%2012pt;%22%3E%3Cbr%20/%3E%3C/span%3E%3C/strong%3E%3C/div%3E",
                                "record": "{record}"
                            },
                            "size": {
                                "default": "11",
                                "isResponsive": false
                            },
                            "stateIndex": 0,
                            "styleObject": {
                                "background": {
                                    "color": "",
                                    "image": "",
                                    "position": "",
                                    "repeat": "",
                                    "size": ""
                                },
                                "border": {
                                    "color": "",
                                    "radius": "",
                                    "style": "",
                                    "type": "",
                                    "width": ""
                                },
                                "class": "",
                                "container": {
                                    "class": ""
                                },
                                "elementStyleProperties": {
                                },
                                "inlineStyle": "",
                                "margin": [
                                ],
                                "padding": [
                                ],
                                "size": {
                                    "default": "11",
                                    "isResponsive": false
                                },
                                "sizeClass": "nds-size_11-of-12 ",
                                "style": "             ",
                                "text": {
                                    "align": "",
                                    "color": ""
                                }
                            },
                            "type": "text"
                        }
                    ]
                }
            },
            "conditions": {
                "group": [
                ],
                "id": "state-condition-object",
                "isParent": true
            },
            "definedActions": {
                "actions": [
                ]
            },
            "fields": [
            ],
            "isSmartAction": false,
            "name": "Active",
            "omniscripts": [
            ],
            "smartAction": {
            },
            "styleObject": {
                "background": {
                    "color": "#fff",
                    "image": "",
                    "position": "",
                    "repeat": "",
                    "size": ""
                },
                "border": {
                    "color": "#fff",
                    "radius": "",
                    "style": "",
                    "type": "",
                    "width": ""
                },
                "class": "nds-m-bottom_x-small ",
                "container": {
                    "class": ""
                },
                "elementStyleProperties": {
                },
                "inlineStyle": "",
                "margin": [
                    {
                        "label": "bottom:x-small",
                        "size": "x-small",
                        "type": "bottom"
                    }
                ],
                "padding": [
                ],
                "size": {
                    "default": "12",
                    "isResponsive": false
                },
                "sizeClass": "nds-size_12-of-12 ",
                "style": "background-color:#fff;     border-color:#fff;        ",
                "text": {
                    "align": "",
                    "color": ""
                }
            }
        }
    ],
    "theme": "nds",
    "title": "caisPolicyDocumentRepeater"
}