{
    "%vlocity_namespace%__CustomJavaScript__c": "CAIS_D-O_Pricing_SampleInput.json",
    "%vlocity_namespace%__DisableMetadataCache__c": false,
    "%vlocity_namespace%__ElementTypeToHTMLTemplateList__c": "{\"ElementTypeToHTMLTemplateList\":[]}",
    "%vlocity_namespace%__Element__c": [
        "CAIS_D-O_Pricing_Element_getRatedProduct.json",
        "CAIS_D-O_Pricing_Element_TransformToStoreQuoteJson.json",
        "CAIS_D-O_Pricing_Element_TransformForQuoteCreation.json",
        "CAIS_D-O_Pricing_Element_createOrUpdateQuote.json",
        "CAIS_D-O_Pricing_Element_getQuoteNum.json",
        "CAIS_D-O_Pricing_Element_ResponseAction1.json"
    ],
    "%vlocity_namespace%__IsLwcEnabled__c": false,
    "%vlocity_namespace%__IsProcedure__c": true,
    "%vlocity_namespace%__IsReusable__c": false,
    "%vlocity_namespace%__IsTest__c": false,
    "%vlocity_namespace%__Language__c": "Procedure",
    "%vlocity_namespace%__ProcedureKey__c": "CAIS_D&O_Pricing",
    "%vlocity_namespace%__PropertySet__c": "CAIS_D-O_Pricing_PropertySet.json",
    "%vlocity_namespace%__SubType__c": "Pricing",
    "%vlocity_namespace%__Type__c": "CAIS_D&O",
    "Name": "D&O Pricing",
    "VlocityDataPackType": "SObject",
    "VlocityRecordSObjectType": "%vlocity_namespace%__OmniScript__c",
    "VlocityRecordSourceKey": "%vlocity_namespace%__OmniScript__c/CAIS_D&O/Pricing/Procedure",
    "sourceOrgUrl": "/apex/vlocity_ins__integrationproceduredesigner?id=a5C3K0000009KefUAE"
}