{
    "AccountId": "0016s000003nZRSAA2",
    "AcordForm130": null,
    "Confirmation": null,
    "ContactId": "0036s00000363whAAA",
    "FEINNumber": "",
    "FEINStep": {
        "EnteredFEIN": "234451678",
        "HaveFEIN": "Yes",
        "Insured-Block": null,
        "formattedFEIN": "23-4451678"
    },
    "GeneralQuestionsStep": {
    },
    "Monopolistic": null,
    "Name": "Atlantis Home Association",
    "ReferralMessagingStep": null,
    "SupplementalCommercialStep": null,
    "SupplementalResidentialStep": null,
    "UWQueueId": "00G6s000000Nn2qEAC",
    "WCIfAny": {
        "LiabilityBlock": {
            "LiabilityLimit": "1M/1M/1M"
        },
        "PolicyTerm": {
            "Messaging2": true,
            "PartialTerm": false,
            "UpdateExpirationDate": false,
            "wciaEffectiveDate": "10-13-2020",
            "wciaExpirationDate": "2021-10-13T07:00:00.000Z",
            "wciaExpirationDateMod": null
        }
    },
    "WCPayroll": null,
    "WorkerCompensation": {
        "AdditionalAssociationInformation": {
            "DirectEmployeeCheck": "No",
            "ExclusiveVendorCheck": null,
            "HiringVendor": "No"
        },
        "BillingCityFormula": "San Francisco",
        "BillingPostalCodeFormula": "94105",
        "BillingStateFormula": "California",
        "BillingStreetFormula": "123 West Bay Street",
        "CommunityAssociation": {
            "BillingAddress-Block": {
                "BillingAddress": "123 West Bay Street Suite #300 San Francisco California 94105",
                "BillingCity": "San Francisco",
                "BillingState": "California",
                "BillingStreet": "123 West Bay Street",
                "BillingZip": "94105"
            },
            "BillingAddressCheck": false,
            "BillingCareOf": "John Craig/Treasurer",
            "BillingSuite": "Suite #300",
            "Co_opCheck": null,
            "ContractCheck": "No",
            "DescriptionOfOperation": "Residential Condominium Association",
            "FinalFEIN": "23-4451678",
            "FinalInsured": "Atlantis Home Association",
            "FormulaInsuredName": null,
            "InsuredContactBlock": {
                "ContactEmail": "himadeep.guduru@certadux.com",
                "ContactFirstName": "James",
                "ContactLastName": "Smith",
                "ContactPhone": "1112223334",
                "ContactTitle": "Manager"
            },
            "LocationAddress-Block": {
                "LocationAddress": "306 Wellington St Suite #900 Marlborough MA 01752",
                "LocationCity": "Marlborough",
                "LocationState": "MA",
                "LocationStreet": "306 Wellington St",
                "LocationZip": "01752"
            },
            "LocationAsBilling": null,
            "LocationAsMailingAddress": null,
            "LocationSuite": "Suite #900",
            "MailingAddress-Block": {
                "MailingAddress": "306 Wellington St300 suite Suite #564 Marlborough MA 01752",
                "MailingCity": "Marlborough",
                "MailingState": "MA",
                "MailingStreet": "306 Wellington St300 suite",
                "MailingZip": "01752"
            },
            "MailingAddressCheck": false,
            "MailingCareOf": "Bill John/Mailing Co-ordinator",
            "MailingSuite": "Suite #564",
            "NewInsuredName": null,
            "NonProfitCheck": "Yes",
            "NumberofUnits": "230",
            "OrganizationType": "Association",
            "OtherDescription": null,
            "PMCAccount-Block": null,
            "PMCBillingAddress-Block": null,
            "PMCMailingAddress-Block": null,
            "UpdateInsuredName": false,
            "UpdatePMCBillingAddress-Block": null,
            "UpdatePMCBillingAddressCheck": null,
            "UpdatePMCMailingAddress-Block": null,
            "UpdatePMCMailingAddressCheck": null,
            "VacancyRate": "5",
            "existingAccountId": "0016s000003nZRSAA2"
        },
        "MailingCityFormula": "Marlborough",
        "MailingPostalCodeFormula": "01752",
        "MailingStateFormula": "MA",
        "MailingStreetFormula": "306 Wellington St300 suite",
        "UIAN": "",
        "newPMCAccount": false
    },
    "activeAssetId": "N/A",
    "activePolicy": "N/A",
    "currentUserAccountId": "0016s000003mLwrAAE",
    "currentUserContactId": "0036s0000034u4LAAQ",
    "existingQuote": "N/A",
    "finalAccountId": "0016s000003nZRSAA2",
    "groupId": "00G6s000000NUUCEA4",
    "inactiveAssetId": "N/A",
    "inactivePolicy": "N/A",
    "matchingQuoteId": "N/A",
    "newAccountId": "",
    "omnidesignerChannelId": "omni-designer-channel-id-1602619779255",
    "opportunityId": "0066s000002txe7AAA",
    "prodCode": "WCIA",
    "productCode": "WCIA",
    "timeStamp": "2020-10-13T21:29:43.409Z",
    "userCurrencyCode": "USD",
    "userId": "0056s000000JKZU",
    "userName": "avinash.kudupudi@certadux.com.v3dev",
    "userProfile": "System Administrator",
    "userTimeZone": "-420",
    "wcLocationState": "MA"
}