{
    "%vlocity_namespace%__Author__c": "CAIS",
    "%vlocity_namespace%__CardType__c": "flex",
    "%vlocity_namespace%__Datasource__c": {
        "contextVariables": [
            {
                "id": 2,
                "name": "recordId",
                "val": "0YT3K000000Mff1WAC"
            }
        ],
        "orderBy": {
            "isReverse": false,
            "name": ""
        },
        "type": "DataRaptor",
        "value": {
            "bundle": "caisPolicyDetails",
            "inputMap": {
                "Id": "{recordId}"
            },
            "resultVar": ""
        }
    },
    "%vlocity_namespace%__Definition__c": "caisPolicyTransactions.json",
    "%vlocity_namespace%__Description__c": "",
    "%vlocity_namespace%__GlobalKey__c": "caisPolicyTransactions/CAIS/1/1607435414416",
    "%vlocity_namespace%__IsChildCard__c": false,
    "%vlocity_namespace%__ParentID__c": "caisPolicyHeader/CAIS/1/1606954117087",
    "%vlocity_namespace%__SampleData__c": "[{\"MailingAddress\":[\"South Heritage Drive\",\" Greenfield   \"],\"LocationAddress\":[\"South Heritage Drive\",\" Greenfield   \"],\"BillingAddress\":[\"South Heritage Drive\",\" Greenfield   \"],\"AccountName\":\"Atlantis Home Association\",\"EffectiveDate\":\"12/01/2020\",\"Premium\":\"$1,200.00\",\"Tax\":\"$0.00\",\"Status\":\"Initial\",\"PolicyNumber\":\"PO-X4567A-G-1605816353000\",\"TotalAmount\":\"$1,200.00\",\"ExpirationDate\":\"12/24/2025\"}]",
    "%vlocity_namespace%__Styles__c": "{\"customStyles\":\".obj-num-field{\\r\\n    line-height: 1.25;\\r\\n    color: #706e6b;\\r\\n    text-transform: uppercase;\\r\\n    letter-spacing: .0625rem !important;\\r\\n}\\r\\n.fieldLabel{\\r\\n    display: inline-block;\\r\\n    font-size: 14px;\\r\\n}\\r\\n.fieldValue{\\r\\n    display: inline-block;\\r\\n    overflow-wrap: break-word;\\r\\n    max-width: 17rem;\\r\\n    color: rgb(22, 50, 92);\\r\\n    font-size: 14px;\\r\\n    font-weight: 600;\\r\\n}\\r\\n%vlocity_namespace%-output-field div {\\r\\n    display: inline-block;\\r\\n    vertical-align: text-top;\\r\\n}\\r\\n%vlocity_namespace%-output-field div:first-child{\\r\\n    min-width: 8rem;\\r\\n}\\r\\n.cardHeader{\\r\\n    font-size: x-large;\\r\\n}\\r\\n.cardHeader lightning-formatted-rich-text span div::after{\\r\\n    content: \\\"\\\";\\r\\n    background: rgb(159, 166, 23);\\r\\n    position: absolute;\\r\\n    top: 4.5rem;\\r\\n    left: 1.5rem;\\r\\n    width: 3.125rem;\\r\\n    height: .1875rem;\\r\\n}\"}",
    "%vlocity_namespace%__Type__c": "",
    "%vlocity_namespace%__Version__c": 1,
    "Name": "caisPolicyTransactions",
    "VlocityDataPackType": "SObject",
    "VlocityRecordSObjectType": "%vlocity_namespace%__VlocityCard__c",
    "VlocityRecordSourceKey": "%vlocity_namespace%__VlocityCard__c/caisPolicyTransactions",
    "sourceOrgUrl": "/a7n3K0000004aTiQAI"
}