{
    "%vlocity_namespace%__Active__c": true,
    "%vlocity_namespace%__OmniScriptId__c": {
        "Name": "D&O CreateRateQuote",
        "VlocityDataPackType": "VlocityMatchingKeyObject",
        "VlocityMatchingRecordSourceKey": "%vlocity_namespace%__OmniScript__c/D&O/CreateRateQuote/Procedure",
        "VlocityRecordSObjectType": "%vlocity_namespace%__OmniScript__c"
    },
    "%vlocity_namespace%__PropertySet__c": {
        "actionMessage": "",
        "additionalInput": {
        },
        "additionalOutput": {
        },
        "chainOnStep": false,
        "disOnTplt": false,
        "executionConditionalFormula": "",
        "failOnStepError": true,
        "failureConditionalFormula": "",
        "failureResponse": {
        },
        "label": "HTTPAction2",
        "namedCredential": "",
        "postActionLogging": "",
        "preActionLogging": "%endpoint%",
        "responseJSONNode": "",
        "responseJSONPath": "",
        "restMethod": "POST",
        "restOptions": {
            "clientCertificateName": "",
            "headers": {
                "AppId": "dd305acc-772b-4cfa-a5d1-2d63360c7d94",
                "Authorization": "%SetValues1:token%",
                "Content-Type": "application/xml",
                "SOAPAction": "get"
            },
            "isCompressed": false,
            "params": {
            },
            "sendBody": true,
            "timeout": 0,
            "xmlEscapeResponse": false
        },
        "restPath": "https://nauat.chubbdigital.com/api/v1/quotes",
        "retryCount": 0,
        "returnOnlyAdditionalOutput": false,
        "returnOnlyFailureResponse": false,
        "sendJSONNode": "",
        "sendJSONPath": "buildXML:finalXML",
        "sendOnlyAdditionalInput": false,
        "show": null,
        "type": "Integration",
        "useFormulas": true
    },
    "%vlocity_namespace%__ReusableOmniScript__c": false,
    "%vlocity_namespace%__Type__c": "Rest Action",
    "Name": "createRateQuote",
    "VlocityDataPackType": "SObject",
    "VlocityRecordSObjectType": "%vlocity_namespace%__Element__c",
    "VlocityRecordSourceKey": "%vlocity_namespace%__Element__c/%vlocity_namespace%__OmniScript__c/D&O/CreateRateQuote/Procedure/createRateQuote"
}