{
    "WCIfAny": {
        "GeneralQuestions": {
            "CompensationLossExplanation": null,
            "InjuryOnSiteExplanation": null,
            "PEOName": null,
            "SpecialActivitiesExplanation": null,
            "TypeofPEOPolicy": null
        },
        "PolicyTerm": {
            "PartialTerm": false,
            "UpdateExpirationDate": false,
            "wciaEffectiveDate": "09-25-2020",
            "wciaExpirationDate": "2021-09-24T18:30:00.000Z",
            "wciaExpirationDateMod": null
        },
        "Value": "2333"
    },
    "prodCode": "WCIA",
    "timeStamp": "2020-09-24T22:03:44.137Z",
    "userCurrencyCode": "USD",
    "userId": "0056s000000J6KBAA0",
    "userName": "ramya.vadlamannati@certadux.com.v3dev",
    "userProfile": "System Administrator",
    "userTimeZone": "-420"
}