{
    "%vlocity_namespace%__Author__c": "Vlocity",
    "%vlocity_namespace%__CardType__c": "",
    "%vlocity_namespace%__Datasource__c": {
        "type": "Query",
        "value": {
            "query": "SELECT AccountId, Account.Name, TotalPrice, Pricebook2Id FROM Quote WHERE Id = '{{params.id}}' OR Id = '{{attrs.paramsId}}'"
        }
    },
    "%vlocity_namespace%__Definition__c": "ins-large-group-quote-groups-card.json",
    "%vlocity_namespace%__Description__c": "",
    "%vlocity_namespace%__GlobalKey__c": "ins-large-group-quote-groups-card/Vlocity/1/1541025301165",
    "%vlocity_namespace%__IsChildCard__c": false,
    "%vlocity_namespace%__ParentID__c": "",
    "%vlocity_namespace%__SampleData__c": "",
    "%vlocity_namespace%__Styles__c": "",
    "%vlocity_namespace%__Type__c": "",
    "%vlocity_namespace%__Version__c": 1,
    "Name": "ins-large-group-quote-groups-card",
    "VlocityDataPackType": "SObject",
    "VlocityRecordSObjectType": "%vlocity_namespace%__VlocityCard__c",
    "VlocityRecordSourceKey": "%vlocity_namespace%__VlocityCard__c/ins-large-group-quote-groups-card",
    "sourceOrgUrl": "/a7n4W0000007IjMQAU"
}