[
    {
        "%vlocity_namespace%__IsExclude__c": false,
        "%vlocity_namespace%__OverriddenAttributeAssignmentCategoryId__c": {
            "%vlocity_namespace%__Code__c": "coverageAttrib",
            "VlocityDataPackType": "VlocityLookupMatchingKeyObject",
            "VlocityLookupRecordSourceKey": "%vlocity_namespace%__AttributeCategory__c/coverageAttrib",
            "VlocityRecordSObjectType": "%vlocity_namespace%__AttributeCategory__c"
        },
        "%vlocity_namespace%__OverriddenAttributeAssignmentId__c": {
            "%vlocity_namespace%__AttributeId__r.%vlocity_namespace%__Code__c": "coverageCode",
            "%vlocity_namespace%__IsOverride__c": false,
            "%vlocity_namespace%__ObjectId__c": {
                "%vlocity_namespace%__GlobalKey__c": "744de4f4-d8db-2e21-12bc-dd8db3cf2f0f",
                "VlocityDataPackType": "VlocityLookupMatchingKeyObject",
                "VlocityLookupRecordSourceKey": "Product2/744de4f4-d8db-2e21-12bc-dd8db3cf2f0f",
                "VlocityRecordSObjectType": "Product2"
            },
            "VlocityDataPackType": "VlocityLookupMatchingKeyObject",
            "VlocityLookupRecordSourceKey": "%vlocity_namespace%__AttributeAssignment__c/2370a6ae-974a-690b-1a11-0c6d2377a308",
            "VlocityRecordSObjectType": "%vlocity_namespace%__AttributeAssignment__c"
        },
        "%vlocity_namespace%__OverriddenProductChildItemId__c": {
            "%vlocity_namespace%__GlobalKey__c": "cb1862c5-dca2-2316-6efb-e84e89c6557d",
            "VlocityDataPackType": "VlocityMatchingKeyObject",
            "VlocityMatchingRecordSourceKey": "%vlocity_namespace%__ProductChildItem__c/cb1862c5-dca2-2316-6efb-e84e89c6557d",
            "VlocityRecordSObjectType": "%vlocity_namespace%__ProductChildItem__c"
        },
        "%vlocity_namespace%__OverrideType__c": "Attribute",
        "%vlocity_namespace%__OverridingAttributeAssignmentCategoryId__c": {
            "%vlocity_namespace%__Code__c": "coverageAttrib",
            "VlocityDataPackType": "VlocityLookupMatchingKeyObject",
            "VlocityLookupRecordSourceKey": "%vlocity_namespace%__AttributeCategory__c/coverageAttrib",
            "VlocityRecordSObjectType": "%vlocity_namespace%__AttributeCategory__c"
        },
        "%vlocity_namespace%__OverridingAttributeAssignmentId__c": {
            "%vlocity_namespace%__AttributeId__r.%vlocity_namespace%__Code__c": "coverageCode",
            "%vlocity_namespace%__IsOverride__c": false,
            "%vlocity_namespace%__ObjectId__c": {
                "%vlocity_namespace%__GlobalKey__c": "cb1862c5-dca2-2316-6efb-e84e89c6557d",
                "VlocityDataPackType": "VlocityMatchingKeyObject",
                "VlocityMatchingRecordSourceKey": "%vlocity_namespace%__ProductChildItem__c/cb1862c5-dca2-2316-6efb-e84e89c6557d",
                "VlocityRecordSObjectType": "%vlocity_namespace%__ProductChildItem__c"
            },
            "VlocityDataPackType": "VlocityMatchingKeyObject",
            "VlocityMatchingRecordSourceKey": "%vlocity_namespace%__AttributeAssignment__c/a6fb6cc7-36bf-7241-04a2-35141e1359a9",
            "VlocityRecordSObjectType": "%vlocity_namespace%__AttributeAssignment__c"
        },
        "%vlocity_namespace%__OverridingProductChildItemId__c": {
            "%vlocity_namespace%__GlobalKey__c": "cb1862c5-dca2-2316-6efb-e84e89c6557d",
            "VlocityDataPackType": "VlocityMatchingKeyObject",
            "VlocityMatchingRecordSourceKey": "%vlocity_namespace%__ProductChildItem__c/cb1862c5-dca2-2316-6efb-e84e89c6557d",
            "VlocityRecordSObjectType": "%vlocity_namespace%__ProductChildItem__c"
        },
        "%vlocity_namespace%__ProductId__c": {
            "%vlocity_namespace%__GlobalKey__c": "3433d7ed-c3de-cfb6-15d0-301035dcdd48",
            "VlocityDataPackType": "VlocityMatchingKeyObject",
            "VlocityMatchingRecordSourceKey": "Product2/3433d7ed-c3de-cfb6-15d0-301035dcdd48",
            "VlocityRecordSObjectType": "Product2"
        },
        "Name": "OverrideDefinition",
        "VlocityDataPackType": "SObject",
        "VlocityRecordSObjectType": "%vlocity_namespace%__OverrideDefinition__c"
    },
    {
        "%vlocity_namespace%__IsExclude__c": false,
        "%vlocity_namespace%__OverriddenAttributeAssignmentCategoryId__c": {
            "%vlocity_namespace%__Code__c": "coverageAttrib",
            "VlocityDataPackType": "VlocityLookupMatchingKeyObject",
            "VlocityLookupRecordSourceKey": "%vlocity_namespace%__AttributeCategory__c/coverageAttrib",
            "VlocityRecordSObjectType": "%vlocity_namespace%__AttributeCategory__c"
        },
        "%vlocity_namespace%__OverriddenAttributeAssignmentId__c": {
            "%vlocity_namespace%__AttributeId__r.%vlocity_namespace%__Code__c": "coverageLimit",
            "%vlocity_namespace%__IsOverride__c": false,
            "%vlocity_namespace%__ObjectId__c": {
                "%vlocity_namespace%__GlobalKey__c": "744de4f4-d8db-2e21-12bc-dd8db3cf2f0f",
                "VlocityDataPackType": "VlocityLookupMatchingKeyObject",
                "VlocityLookupRecordSourceKey": "Product2/744de4f4-d8db-2e21-12bc-dd8db3cf2f0f",
                "VlocityRecordSObjectType": "Product2"
            },
            "VlocityDataPackType": "VlocityLookupMatchingKeyObject",
            "VlocityLookupRecordSourceKey": "%vlocity_namespace%__AttributeAssignment__c/a4011c99-d441-0e2c-0a98-6eecd0743878",
            "VlocityRecordSObjectType": "%vlocity_namespace%__AttributeAssignment__c"
        },
        "%vlocity_namespace%__OverriddenProductChildItemId__c": {
            "%vlocity_namespace%__GlobalKey__c": "cb1862c5-dca2-2316-6efb-e84e89c6557d",
            "VlocityDataPackType": "VlocityMatchingKeyObject",
            "VlocityMatchingRecordSourceKey": "%vlocity_namespace%__ProductChildItem__c/cb1862c5-dca2-2316-6efb-e84e89c6557d",
            "VlocityRecordSObjectType": "%vlocity_namespace%__ProductChildItem__c"
        },
        "%vlocity_namespace%__OverrideType__c": "Attribute",
        "%vlocity_namespace%__OverridingAttributeAssignmentCategoryId__c": {
            "%vlocity_namespace%__Code__c": "coverageAttrib",
            "VlocityDataPackType": "VlocityLookupMatchingKeyObject",
            "VlocityLookupRecordSourceKey": "%vlocity_namespace%__AttributeCategory__c/coverageAttrib",
            "VlocityRecordSObjectType": "%vlocity_namespace%__AttributeCategory__c"
        },
        "%vlocity_namespace%__OverridingAttributeAssignmentId__c": {
            "%vlocity_namespace%__AttributeId__r.%vlocity_namespace%__Code__c": "coverageLimit",
            "%vlocity_namespace%__IsOverride__c": false,
            "%vlocity_namespace%__ObjectId__c": {
                "%vlocity_namespace%__GlobalKey__c": "cb1862c5-dca2-2316-6efb-e84e89c6557d",
                "VlocityDataPackType": "VlocityMatchingKeyObject",
                "VlocityMatchingRecordSourceKey": "%vlocity_namespace%__ProductChildItem__c/cb1862c5-dca2-2316-6efb-e84e89c6557d",
                "VlocityRecordSObjectType": "%vlocity_namespace%__ProductChildItem__c"
            },
            "VlocityDataPackType": "VlocityMatchingKeyObject",
            "VlocityMatchingRecordSourceKey": "%vlocity_namespace%__AttributeAssignment__c/493af82a-b094-ffff-0312-0fae6ded6205",
            "VlocityRecordSObjectType": "%vlocity_namespace%__AttributeAssignment__c"
        },
        "%vlocity_namespace%__OverridingProductChildItemId__c": {
            "%vlocity_namespace%__GlobalKey__c": "cb1862c5-dca2-2316-6efb-e84e89c6557d",
            "VlocityDataPackType": "VlocityMatchingKeyObject",
            "VlocityMatchingRecordSourceKey": "%vlocity_namespace%__ProductChildItem__c/cb1862c5-dca2-2316-6efb-e84e89c6557d",
            "VlocityRecordSObjectType": "%vlocity_namespace%__ProductChildItem__c"
        },
        "%vlocity_namespace%__ProductId__c": {
            "%vlocity_namespace%__GlobalKey__c": "3433d7ed-c3de-cfb6-15d0-301035dcdd48",
            "VlocityDataPackType": "VlocityMatchingKeyObject",
            "VlocityMatchingRecordSourceKey": "Product2/3433d7ed-c3de-cfb6-15d0-301035dcdd48",
            "VlocityRecordSObjectType": "Product2"
        },
        "Name": "OverrideDefinition",
        "VlocityDataPackType": "SObject",
        "VlocityRecordSObjectType": "%vlocity_namespace%__OverrideDefinition__c"
    },
    {
        "%vlocity_namespace%__IsExclude__c": false,
        "%vlocity_namespace%__OverriddenAttributeAssignmentCategoryId__c": {
            "%vlocity_namespace%__Code__c": "coverageAttrib",
            "VlocityDataPackType": "VlocityLookupMatchingKeyObject",
            "VlocityLookupRecordSourceKey": "%vlocity_namespace%__AttributeCategory__c/coverageAttrib",
            "VlocityRecordSObjectType": "%vlocity_namespace%__AttributeCategory__c"
        },
        "%vlocity_namespace%__OverriddenAttributeAssignmentId__c": {
            "%vlocity_namespace%__AttributeId__r.%vlocity_namespace%__Code__c": "deductible",
            "%vlocity_namespace%__IsOverride__c": false,
            "%vlocity_namespace%__ObjectId__c": {
                "%vlocity_namespace%__GlobalKey__c": "744de4f4-d8db-2e21-12bc-dd8db3cf2f0f",
                "VlocityDataPackType": "VlocityLookupMatchingKeyObject",
                "VlocityLookupRecordSourceKey": "Product2/744de4f4-d8db-2e21-12bc-dd8db3cf2f0f",
                "VlocityRecordSObjectType": "Product2"
            },
            "VlocityDataPackType": "VlocityLookupMatchingKeyObject",
            "VlocityLookupRecordSourceKey": "%vlocity_namespace%__AttributeAssignment__c/ebe7fb1b-788b-f94f-e6c5-3ec08b69751f",
            "VlocityRecordSObjectType": "%vlocity_namespace%__AttributeAssignment__c"
        },
        "%vlocity_namespace%__OverriddenProductChildItemId__c": {
            "%vlocity_namespace%__GlobalKey__c": "cb1862c5-dca2-2316-6efb-e84e89c6557d",
            "VlocityDataPackType": "VlocityMatchingKeyObject",
            "VlocityMatchingRecordSourceKey": "%vlocity_namespace%__ProductChildItem__c/cb1862c5-dca2-2316-6efb-e84e89c6557d",
            "VlocityRecordSObjectType": "%vlocity_namespace%__ProductChildItem__c"
        },
        "%vlocity_namespace%__OverrideType__c": "Attribute",
        "%vlocity_namespace%__OverridingAttributeAssignmentCategoryId__c": {
            "%vlocity_namespace%__Code__c": "coverageAttrib",
            "VlocityDataPackType": "VlocityLookupMatchingKeyObject",
            "VlocityLookupRecordSourceKey": "%vlocity_namespace%__AttributeCategory__c/coverageAttrib",
            "VlocityRecordSObjectType": "%vlocity_namespace%__AttributeCategory__c"
        },
        "%vlocity_namespace%__OverridingAttributeAssignmentId__c": {
            "%vlocity_namespace%__AttributeId__r.%vlocity_namespace%__Code__c": "deductible",
            "%vlocity_namespace%__IsOverride__c": false,
            "%vlocity_namespace%__ObjectId__c": {
                "%vlocity_namespace%__GlobalKey__c": "cb1862c5-dca2-2316-6efb-e84e89c6557d",
                "VlocityDataPackType": "VlocityMatchingKeyObject",
                "VlocityMatchingRecordSourceKey": "%vlocity_namespace%__ProductChildItem__c/cb1862c5-dca2-2316-6efb-e84e89c6557d",
                "VlocityRecordSObjectType": "%vlocity_namespace%__ProductChildItem__c"
            },
            "VlocityDataPackType": "VlocityMatchingKeyObject",
            "VlocityMatchingRecordSourceKey": "%vlocity_namespace%__AttributeAssignment__c/04bbf5be-d0b5-aa6a-84cc-28fb7a63aa0a",
            "VlocityRecordSObjectType": "%vlocity_namespace%__AttributeAssignment__c"
        },
        "%vlocity_namespace%__OverridingProductChildItemId__c": {
            "%vlocity_namespace%__GlobalKey__c": "cb1862c5-dca2-2316-6efb-e84e89c6557d",
            "VlocityDataPackType": "VlocityMatchingKeyObject",
            "VlocityMatchingRecordSourceKey": "%vlocity_namespace%__ProductChildItem__c/cb1862c5-dca2-2316-6efb-e84e89c6557d",
            "VlocityRecordSObjectType": "%vlocity_namespace%__ProductChildItem__c"
        },
        "%vlocity_namespace%__ProductId__c": {
            "%vlocity_namespace%__GlobalKey__c": "3433d7ed-c3de-cfb6-15d0-301035dcdd48",
            "VlocityDataPackType": "VlocityMatchingKeyObject",
            "VlocityMatchingRecordSourceKey": "Product2/3433d7ed-c3de-cfb6-15d0-301035dcdd48",
            "VlocityRecordSObjectType": "Product2"
        },
        "Name": "OverrideDefinition",
        "VlocityDataPackType": "SObject",
        "VlocityRecordSObjectType": "%vlocity_namespace%__OverrideDefinition__c"
    }
]