[
    {
        "%vlocity_namespace%__AttributeDefaultValues__c": {
            "coverageCode": "ETOA",
            "coverageLimit": 10000,
            "deductible": 500
        },
        "%vlocity_namespace%__AttributeMetadataChanges__c": "",
        "%vlocity_namespace%__AttributeMetadata__c": {
            "records": [
                {
                    "Code__c": "coverageAttrib",
                    "Name": "Coverage Attributes",
                    "displaySequence": 10,
                    "productAttributes": {
                        "records": [
                            {
                                "cloneable": true,
                                "code": "coverageLimit",
                                "dataType": "currency",
                                "disabled": false,
                                "displaySequence": 0,
                                "filterable": true,
                                "hasRules": true,
                                "hidden": false,
                                "inputType": "dropdown",
                                "isNotTranslatable": false,
                                "label": "Coverage Limit",
                                "multiselect": false,
                                "readonly": false,
                                "required": false,
                                "userValues": null,
                                "values": [
                                    {
                                        "disabled": false,
                                        "id": "0",
                                        "label": "$10,000",
                                        "readonly": false,
                                        "value": 10000
                                    },
                                    {
                                        "disabled": false,
                                        "id": "1",
                                        "label": "$25,000",
                                        "readonly": false,
                                        "value": 25000
                                    },
                                    {
                                        "disabled": false,
                                        "id": "2",
                                        "label": "$50,000",
                                        "readonly": false,
                                        "value": 50000
                                    },
                                    {
                                        "disabled": false,
                                        "id": "3",
                                        "label": "$75,000",
                                        "readonly": false,
                                        "value": 75000
                                    },
                                    {
                                        "disabled": false,
                                        "id": "4",
                                        "label": "$100,000",
                                        "readonly": false,
                                        "value": 100000
                                    },
                                    {
                                        "disabled": false,
                                        "id": "5",
                                        "label": "$125,000",
                                        "readonly": false,
                                        "value": 125000
                                    },
                                    {
                                        "disabled": false,
                                        "id": "6",
                                        "label": "$150,000",
                                        "readonly": false,
                                        "value": 150000
                                    },
                                    {
                                        "disabled": false,
                                        "id": "7",
                                        "label": "$175,000",
                                        "readonly": false,
                                        "value": 175000
                                    },
                                    {
                                        "disabled": false,
                                        "id": "8",
                                        "label": "$200,000",
                                        "readonly": false,
                                        "value": 200000
                                    },
                                    {
                                        "disabled": false,
                                        "id": "9",
                                        "label": "$225,000",
                                        "readonly": false,
                                        "value": 225000
                                    },
                                    {
                                        "disabled": false,
                                        "id": "10",
                                        "label": "$250,000",
                                        "readonly": false,
                                        "value": 250000
                                    },
                                    {
                                        "disabled": false,
                                        "id": "11",
                                        "label": "$275,000",
                                        "readonly": false,
                                        "value": 275000
                                    },
                                    {
                                        "disabled": false,
                                        "id": "12",
                                        "label": "$300,000",
                                        "readonly": false,
                                        "value": 300000
                                    },
                                    {
                                        "disabled": false,
                                        "id": "13",
                                        "label": "$325,000",
                                        "readonly": false,
                                        "value": 325000
                                    },
                                    {
                                        "disabled": false,
                                        "id": "14",
                                        "label": "$350,000",
                                        "readonly": false,
                                        "value": 350000
                                    },
                                    {
                                        "disabled": false,
                                        "id": "15",
                                        "label": "$375,000",
                                        "readonly": false,
                                        "value": 375000
                                    },
                                    {
                                        "disabled": false,
                                        "id": "16",
                                        "label": "$400,000",
                                        "readonly": false,
                                        "value": 400000
                                    },
                                    {
                                        "disabled": false,
                                        "id": "17",
                                        "label": "$500,000",
                                        "readonly": false,
                                        "value": 500000
                                    },
                                    {
                                        "disabled": false,
                                        "id": "18",
                                        "label": "$525,000",
                                        "readonly": false,
                                        "value": 525000
                                    },
                                    {
                                        "disabled": false,
                                        "id": "19",
                                        "label": "$550,000",
                                        "readonly": false,
                                        "value": 550000
                                    },
                                    {
                                        "disabled": false,
                                        "id": "20",
                                        "label": "$575,000",
                                        "readonly": false,
                                        "value": 575000
                                    },
                                    {
                                        "disabled": false,
                                        "id": "21",
                                        "label": "$600,000",
                                        "readonly": false,
                                        "value": 600000
                                    },
                                    {
                                        "disabled": false,
                                        "id": "22",
                                        "label": "$625,000",
                                        "readonly": false,
                                        "value": 625000
                                    },
                                    {
                                        "disabled": false,
                                        "id": "23",
                                        "label": "$650,000",
                                        "readonly": false,
                                        "value": 650000
                                    },
                                    {
                                        "disabled": false,
                                        "id": "24",
                                        "label": "$675,000",
                                        "readonly": false,
                                        "value": 675000
                                    },
                                    {
                                        "disabled": false,
                                        "id": "25",
                                        "label": "$700,000",
                                        "readonly": false,
                                        "value": 700000
                                    },
                                    {
                                        "disabled": false,
                                        "id": "26",
                                        "label": "$725,000",
                                        "readonly": false,
                                        "value": 725000
                                    },
                                    {
                                        "disabled": false,
                                        "id": "27",
                                        "label": "$750,000",
                                        "readonly": false,
                                        "value": 750000
                                    },
                                    {
                                        "disabled": false,
                                        "id": "28",
                                        "label": "$775,000",
                                        "readonly": false,
                                        "value": 775000
                                    },
                                    {
                                        "disabled": false,
                                        "id": "29",
                                        "label": "$800,000",
                                        "readonly": false,
                                        "value": 800000
                                    },
                                    {
                                        "disabled": false,
                                        "id": "30",
                                        "label": "$825,000",
                                        "readonly": false,
                                        "value": 825000
                                    },
                                    {
                                        "disabled": false,
                                        "id": "31",
                                        "label": "$850,000",
                                        "readonly": false,
                                        "value": 850000
                                    },
                                    {
                                        "disabled": false,
                                        "id": "32",
                                        "label": "$875,000",
                                        "readonly": false,
                                        "value": 875000
                                    },
                                    {
                                        "disabled": false,
                                        "id": "33",
                                        "label": "$900,000",
                                        "readonly": false,
                                        "value": 900000
                                    },
                                    {
                                        "disabled": false,
                                        "id": "34",
                                        "label": "$925,000",
                                        "readonly": false,
                                        "value": 925000
                                    },
                                    {
                                        "disabled": false,
                                        "id": "35",
                                        "label": "$950,000",
                                        "readonly": false,
                                        "value": 950000
                                    },
                                    {
                                        "disabled": false,
                                        "id": "36",
                                        "label": "$1,000,000",
                                        "readonly": false,
                                        "value": 1000000
                                    }
                                ]
                            },
                            {
                                "cloneable": true,
                                "code": "deductible",
                                "dataType": "currency",
                                "disabled": false,
                                "displaySequence": 1,
                                "filterable": true,
                                "hasRules": true,
                                "hidden": false,
                                "inputType": "dropdown",
                                "isNotTranslatable": false,
                                "label": "Deductible",
                                "multiselect": false,
                                "readonly": false,
                                "required": false,
                                "userValues": null,
                                "values": [
                                    {
                                        "disabled": false,
                                        "id": "0",
                                        "label": "$500",
                                        "readonly": false,
                                        "value": 500
                                    },
                                    {
                                        "disabled": false,
                                        "id": "1",
                                        "label": "$1,000",
                                        "readonly": false,
                                        "value": 1000
                                    },
                                    {
                                        "disabled": false,
                                        "id": "2",
                                        "label": "$2,500",
                                        "readonly": false,
                                        "value": 2500
                                    },
                                    {
                                        "disabled": false,
                                        "id": "3",
                                        "label": "$5,000",
                                        "readonly": false,
                                        "value": 5000
                                    },
                                    {
                                        "disabled": false,
                                        "id": "4",
                                        "label": "$10,000",
                                        "readonly": false,
                                        "value": 10000
                                    },
                                    {
                                        "disabled": false,
                                        "id": "5",
                                        "label": "$25,000",
                                        "readonly": false,
                                        "value": 25000
                                    },
                                    {
                                        "disabled": false,
                                        "id": "6",
                                        "label": "$50,000",
                                        "readonly": false,
                                        "value": 50000
                                    },
                                    {
                                        "disabled": false,
                                        "id": "7",
                                        "label": "$75,000",
                                        "readonly": false,
                                        "value": 75000
                                    },
                                    {
                                        "disabled": false,
                                        "id": "8",
                                        "label": "$100,000",
                                        "readonly": false,
                                        "value": 100000
                                    }
                                ]
                            },
                            {
                                "cloneable": true,
                                "code": "coverageCode",
                                "dataType": "text",
                                "disabled": true,
                                "displaySequence": 2,
                                "filterable": true,
                                "hasRules": true,
                                "hidden": true,
                                "inputType": "text",
                                "isNotTranslatable": false,
                                "label": "Coverage Code",
                                "multiselect": false,
                                "readonly": true,
                                "required": false,
                                "userValues": null,
                                "values": [
                                    {
                                        "disabled": true,
                                        "readonly": true
                                    }
                                ]
                            }
                        ],
                        "totalSize": 3
                    }
                }
            ],
            "totalSize": 1
        },
        "%vlocity_namespace%__AttributeRules__c": {
            "coverageLimit": {
                "attributeRules": [
                    {
                        "actions": {
                            "Set Value": {
                                "client": {
                                    "params": {
                                    }
                                },
                                "remote": {
                                    "params": {
                                    }
                                },
                                "rest": {
                                    "link": null,
                                    "method": null,
                                    "params": {
                                    }
                                }
                            }
                        },
                        "expression": "ETOACrime.coverageLimit <= 1000000",
                        "ruleType": "Set Value",
                        "valueExpression": "ETOACrime.coverageLimit"
                    },
                    {
                        "actions": {
                            "Set Value": {
                                "client": {
                                    "params": {
                                    }
                                },
                                "remote": {
                                    "params": {
                                    }
                                },
                                "rest": {
                                    "link": null,
                                    "method": null,
                                    "params": {
                                    }
                                }
                            }
                        },
                        "expression": "ETOACrime.coverageLimit > 1000000",
                        "ruleType": "Set Value",
                        "valueExpression": "1000000"
                    }
                ]
            },
            "deductible": {
                "attributeRules": [
                    {
                        "actions": {
                            "Set Value": {
                                "client": {
                                    "params": {
                                    }
                                },
                                "remote": {
                                    "params": {
                                    }
                                },
                                "rest": {
                                    "link": null,
                                    "method": null,
                                    "params": {
                                    }
                                }
                            }
                        },
                        "expression": "ETOACrime.deductible > 0",
                        "ruleType": "Set Value",
                        "valueExpression": "ETOACrime.deductible"
                    }
                ],
                "valueRules": {
                    "4": [
                        {
                            "actions": {
                                "Hide": {
                                    "client": {
                                        "params": {
                                        }
                                    },
                                    "remote": {
                                        "params": {
                                        }
                                    },
                                    "rest": {
                                        "link": null,
                                        "method": null,
                                        "params": {
                                        }
                                    }
                                }
                            },
                            "expression": "%ETAGCrime.coverageLimit% <= 10000",
                            "ruleType": "Hide"
                        }
                    ],
                    "5": [
                        {
                            "actions": {
                                "Hide": {
                                    "client": {
                                        "params": {
                                        }
                                    },
                                    "remote": {
                                        "params": {
                                        }
                                    },
                                    "rest": {
                                        "link": null,
                                        "method": null,
                                        "params": {
                                        }
                                    }
                                }
                            },
                            "expression": "%ETAGCrime.coverageLimit% <= 25000",
                            "ruleType": "Hide"
                        }
                    ],
                    "6": [
                        {
                            "actions": {
                                "Hide": {
                                    "client": {
                                        "params": {
                                        }
                                    },
                                    "remote": {
                                        "params": {
                                        }
                                    },
                                    "rest": {
                                        "link": null,
                                        "method": null,
                                        "params": {
                                        }
                                    }
                                }
                            },
                            "expression": "%ETAGCrime.coverageLimit% <= 50000",
                            "ruleType": "Hide"
                        }
                    ],
                    "7": [
                        {
                            "actions": {
                                "Hide": {
                                    "client": {
                                        "params": {
                                        }
                                    },
                                    "remote": {
                                        "params": {
                                        }
                                    },
                                    "rest": {
                                        "link": null,
                                        "method": null,
                                        "params": {
                                        }
                                    }
                                }
                            },
                            "expression": "%ETAGCrime.coverageLimit% <= 75000",
                            "ruleType": "Hide"
                        }
                    ],
                    "8": [
                        {
                            "actions": {
                                "Hide": {
                                    "client": {
                                        "params": {
                                        }
                                    },
                                    "remote": {
                                        "params": {
                                        }
                                    },
                                    "rest": {
                                        "link": null,
                                        "method": null,
                                        "params": {
                                        }
                                    }
                                }
                            },
                            "expression": "%ETAGCrime.coverageLimit% <= 100000",
                            "ruleType": "Hide"
                        }
                    ]
                }
            }
        },
        "%vlocity_namespace%__JSONAttribute__c": "",
        "%vlocity_namespace%__ProductChildItemId__c": {
            "%vlocity_namespace%__GlobalKey__c": "cb1862c5-dca2-2316-6efb-e84e89c6557d",
            "VlocityDataPackType": "VlocityMatchingKeyObject",
            "VlocityMatchingRecordSourceKey": "%vlocity_namespace%__ProductChildItem__c/cb1862c5-dca2-2316-6efb-e84e89c6557d",
            "VlocityRecordSObjectType": "%vlocity_namespace%__ProductChildItem__c"
        },
        "%vlocity_namespace%__ProductId__c": {
            "%vlocity_namespace%__GlobalKey__c": "3433d7ed-c3de-cfb6-15d0-301035dcdd48",
            "VlocityDataPackType": "VlocityMatchingKeyObject",
            "VlocityMatchingRecordSourceKey": "Product2/3433d7ed-c3de-cfb6-15d0-301035dcdd48",
            "VlocityRecordSObjectType": "Product2"
        },
        "VlocityDataPackType": "SObject",
        "VlocityRecordSObjectType": "%vlocity_namespace%__CompiledAttributeOverride__c",
        "VlocityRecordSourceKey": "%vlocity_namespace%__CompiledAttributeOverride__c/Generated-1817941247"
    }
]