{
    "%vlocity_namespace%__Author__c": "Vlocity",
    "%vlocity_namespace%__Datasource__c": "",
    "%vlocity_namespace%__Definition__c": "ins-claims-injuries-admin-container.json",
    "%vlocity_namespace%__Description__c": "",
    "%vlocity_namespace%__GlobalKey__c": "ins-claims-injuries-admin-container/1/Vlocity/1517508478429",
    "%vlocity_namespace%__ParentID__c": "",
    "%vlocity_namespace%__RequiredPermission__c": "",
    "%vlocity_namespace%__Type__c": "Layout",
    "%vlocity_namespace%__Version__c": 1,
    "Name": "ins-claims-injuries-admin-container",
    "VlocityDataPackType": "SObject",
    "VlocityRecordSObjectType": "%vlocity_namespace%__VlocityUILayout__c",
    "VlocityRecordSourceKey": "%vlocity_namespace%__VlocityUILayout__c/ins-claims-injuries-admin-container",
    "sourceOrgUrl": "/apex/vlocity_ins__carddesignernew?id=?id=a8B4W0000009e8qUAA"
}