{
    "GlobalKey__c": "caisActionDropdownCard/Mgalive_CAIS,LLC/1/1597806122920",
    "dataSource": {
        "type": null
    },
    "enableLwc": true,
    "filter": {
    },
    "sessionVars": [
        {
            "name": "buttonLabel",
            "val": "Get a quote"
        }
    ],
    "states": [
        {
            "collapse": false,
            "conditions": {
                "group": [
                    {
                        "field": "$scope.data.status",
                        "operator": "===",
                        "type": "system",
                        "value": "'active'"
                    }
                ]
            },
            "definedActions": {
                "actions": [
                    {
                        "ContextId": "['Id']",
                        "collapse": true,
                        "conditions": {
                            "group": [
                            ]
                        },
                        "displayName": "Worker's Compensation",
                        "hasExtraParams": false,
                        "id": "Workers Comp",
                        "isCustomAction": true,
                        "isLwcOS": true,
                        "layoutType": "newport",
                        "omniLang": "",
                        "omniSubType": "",
                        "omniType": {
                            "Id": "a3x6s0000000DblAAE",
                            "Language": "English",
                            "Name": "quote/workersCompensation/English",
                            "SubType": "workersCompensation",
                            "Type": "quote",
                            "isLwc": true
                        },
                        "openUrlIn": "New Tab / Window",
                        "type": "OmniScript",
                        "vForcewithNsPrefix": "%vlocity_namespace%__OmniScriptUniversalPage",
                        "vlocityIcon": ""
                    },
                    {
                        "ContextId": "['Id']",
                        "collapse": true,
                        "conditions": {
                            "group": [
                            ]
                        },
                        "displayName": "Crime",
                        "hasExtraParams": false,
                        "id": "Crime",
                        "isCustomAction": true,
                        "isLwcOS": true,
                        "layoutType": "newport",
                        "omniLang": "",
                        "omniSubType": "",
                        "omniType": {
                            "Id": "a3x6s0000000CaDAAU",
                            "Language": "English",
                            "Name": "quote/Crime/English",
                            "SubType": "Crime",
                            "Type": "quote",
                            "isLwc": true
                        },
                        "openUrlIn": "New Tab / Window",
                        "type": "OmniScript",
                        "vForcewithNsPrefix": "%vlocity_namespace%__OmniScriptUniversalPage"
                    },
                    {
                        "ContextId": "['Id']",
                        "collapse": true,
                        "displayName": "Directors and Officers",
                        "hasExtraParams": false,
                        "id": "D&O",
                        "isCustomAction": true,
                        "isLwcOS": true,
                        "layoutType": "newport",
                        "omniLang": "",
                        "omniSubType": "",
                        "omniType": {
                            "Id": "a5C3K0000009KbHUAU",
                            "Language": "English",
                            "Name": "quote/D_O/English",
                            "SubType": "D_O",
                            "Type": "quote",
                            "isLwc": true
                        },
                        "openUrlIn": "New Tab / Window",
                        "type": "OmniScript",
                        "vForcewithNsPrefix": "%vlocity_namespace%__OmniScriptUniversalPage",
                        "vlocityIcon": ""
                    },
                    {
                        "collapse": true,
                        "displayName": "Planned Unit Development (PUD)",
                        "hasExtraParams": false,
                        "id": "Custom Action",
                        "isCustomAction": true,
                        "openUrlIn": "_self",
                        "type": "Custom",
                        "url": "/apex/"
                    },
                    {
                        "collapse": true,
                        "displayName": "Umbrella",
                        "hasExtraParams": false,
                        "id": "Custom Action",
                        "isCustomAction": true,
                        "openUrlIn": "_self",
                        "type": "Custom",
                        "url": "/apex/"
                    }
                ]
            },
            "fields": [
            ],
            "isSmartAction": false,
            "lwc": {
                "DeveloperName": "caisActionDropdown",
                "Id": "0Rb6s00000003EzCAI",
                "MasterLabel": "caisActionDropdown",
                "name": "caisActionDropdown"
            },
            "name": "Active",
            "sObjectType": "",
            "smartAction": {
            }
        }
    ],
    "title": "Get a Quote"
}