{
    "%vlocity_namespace%__Author__c": "Mgalive_CAIS,LLC",
    "%vlocity_namespace%__CardType__c": "",
    "%vlocity_namespace%__Datasource__c": "",
    "%vlocity_namespace%__Definition__c": "caisActionDropdownCard.json",
    "%vlocity_namespace%__Description__c": "",
    "%vlocity_namespace%__GlobalKey__c": "caisActionDropdownCard/Mgalive_CAIS,LLC/1/1597806122920",
    "%vlocity_namespace%__IsChildCard__c": false,
    "%vlocity_namespace%__ParentID__c": "",
    "%vlocity_namespace%__SampleData__c": "",
    "%vlocity_namespace%__Styles__c": "",
    "%vlocity_namespace%__Type__c": "",
    "%vlocity_namespace%__Version__c": 1,
    "Name": "caisActionDropdownCard",
    "VlocityDataPackType": "SObject",
    "VlocityRecordSObjectType": "%vlocity_namespace%__VlocityCard__c",
    "VlocityRecordSourceKey": "%vlocity_namespace%__VlocityCard__c/caisActionDropdownCard",
    "sourceOrgUrl": "/a7n3K0000004UM1QAM"
}