[
    {
        "%vlocity_namespace%__DomainObjectAPIName__c": "Formula",
        "%vlocity_namespace%__DomainObjectCreationOrder__c": 0,
        "%vlocity_namespace%__DomainObjectFieldAPIName__c": "Formula",
        "%vlocity_namespace%__FormulaOrder__c": 1,
        "%vlocity_namespace%__FormulaResultPath__c": "todayDate",
        "%vlocity_namespace%__Formula__c": "NOW(\"MM/dd/yyyy\")",
        "%vlocity_namespace%__IsDisabled__c": false,
        "%vlocity_namespace%__IsRequiredForUpsert__c": false,
        "%vlocity_namespace%__MapId__c": "ProposalIfAnyCoverLetterTransformCustom970",
        "%vlocity_namespace%__UpsertKey__c": false,
        "Name": "ProposalIfAnyCoverLetterTransform",
        "VlocityDataPackType": "SObject",
        "VlocityRecordSObjectType": "%vlocity_namespace%__DRMapItem__c"
    },
    {
        "%vlocity_namespace%__DomainObjectAPIName__c": "Formula",
        "%vlocity_namespace%__DomainObjectCreationOrder__c": 0,
        "%vlocity_namespace%__DomainObjectFieldAPIName__c": "Formula",
        "%vlocity_namespace%__FormulaOrder__c": 2,
        "%vlocity_namespace%__FormulaResultPath__c": "IF_WC",
        "%vlocity_namespace%__Formula__c": "IF(%QuoteType% == \"Workers Compensation If Any\" || %QuoteType% == \"Workers Compensation Payroll\", true, false)",
        "%vlocity_namespace%__IsDisabled__c": false,
        "%vlocity_namespace%__IsRequiredForUpsert__c": false,
        "%vlocity_namespace%__MapId__c": "ProposalIfAnyCoverLetterTransformCustom5734",
        "%vlocity_namespace%__UpsertKey__c": false,
        "Name": "ProposalIfAnyCoverLetterTransform",
        "VlocityDataPackType": "SObject",
        "VlocityRecordSObjectType": "%vlocity_namespace%__DRMapItem__c"
    },
    {
        "%vlocity_namespace%__DomainObjectAPIName__c": "Formula",
        "%vlocity_namespace%__DomainObjectCreationOrder__c": 0,
        "%vlocity_namespace%__DomainObjectFieldAPIName__c": "Formula",
        "%vlocity_namespace%__FormulaOrder__c": 3,
        "%vlocity_namespace%__FormulaResultPath__c": "IF_WCPAYROLL",
        "%vlocity_namespace%__Formula__c": "IF(%QuoteType% == \"Workers Compensation Payroll\", true, false)",
        "%vlocity_namespace%__IsDisabled__c": false,
        "%vlocity_namespace%__IsRequiredForUpsert__c": false,
        "%vlocity_namespace%__MapId__c": "ProposalIfAnyCoverLetterTransformCustom2159",
        "%vlocity_namespace%__UpsertKey__c": false,
        "Name": "ProposalIfAnyCoverLetterTransform",
        "VlocityDataPackType": "SObject",
        "VlocityRecordSObjectType": "%vlocity_namespace%__DRMapItem__c"
    },
    {
        "%vlocity_namespace%__DomainObjectAPIName__c": "json",
        "%vlocity_namespace%__DomainObjectCreationOrder__c": 1,
        "%vlocity_namespace%__DomainObjectFieldAPIName__c": "IF_WC",
        "%vlocity_namespace%__InterfaceFieldAPIName__c": "IF_WC",
        "%vlocity_namespace%__IsDisabled__c": false,
        "%vlocity_namespace%__IsRequiredForUpsert__c": false,
        "%vlocity_namespace%__MapId__c": "ProposalIfAnyCoverLetterTransformCustom2952",
        "%vlocity_namespace%__UpsertKey__c": false,
        "Name": "ProposalIfAnyCoverLetterTransform",
        "VlocityDataPackType": "SObject",
        "VlocityRecordSObjectType": "%vlocity_namespace%__DRMapItem__c"
    },
    {
        "%vlocity_namespace%__DomainObjectAPIName__c": "json",
        "%vlocity_namespace%__DomainObjectCreationOrder__c": 1,
        "%vlocity_namespace%__DomainObjectFieldAPIName__c": "IF_WCPAYROLL",
        "%vlocity_namespace%__InterfaceFieldAPIName__c": "IF_WCPAYROLL",
        "%vlocity_namespace%__IsDisabled__c": false,
        "%vlocity_namespace%__IsRequiredForUpsert__c": false,
        "%vlocity_namespace%__MapId__c": "ProposalIfAnyCoverLetterTransformCustom2234",
        "%vlocity_namespace%__UpsertKey__c": false,
        "Name": "ProposalIfAnyCoverLetterTransform",
        "VlocityDataPackType": "SObject",
        "VlocityRecordSObjectType": "%vlocity_namespace%__DRMapItem__c"
    },
    {
        "%vlocity_namespace%__DomainObjectAPIName__c": "json",
        "%vlocity_namespace%__DomainObjectCreationOrder__c": 1,
        "%vlocity_namespace%__DomainObjectFieldAPIName__c": "agencyMailingCity",
        "%vlocity_namespace%__InterfaceFieldAPIName__c": "AgencyCity",
        "%vlocity_namespace%__IsDisabled__c": false,
        "%vlocity_namespace%__IsRequiredForUpsert__c": false,
        "%vlocity_namespace%__MapId__c": "ProposalIfAnyCoverLetterTransformCustom4396",
        "%vlocity_namespace%__UpsertKey__c": false,
        "Name": "ProposalIfAnyCoverLetterTransform",
        "VlocityDataPackType": "SObject",
        "VlocityRecordSObjectType": "%vlocity_namespace%__DRMapItem__c"
    },
    {
        "%vlocity_namespace%__DomainObjectAPIName__c": "json",
        "%vlocity_namespace%__DomainObjectCreationOrder__c": 1,
        "%vlocity_namespace%__DomainObjectFieldAPIName__c": "agencyMailingState",
        "%vlocity_namespace%__InterfaceFieldAPIName__c": "AgencyState",
        "%vlocity_namespace%__IsDisabled__c": false,
        "%vlocity_namespace%__IsRequiredForUpsert__c": false,
        "%vlocity_namespace%__MapId__c": "ProposalIfAnyCoverLetterTransformCustom5682",
        "%vlocity_namespace%__UpsertKey__c": false,
        "Name": "ProposalIfAnyCoverLetterTransform",
        "VlocityDataPackType": "SObject",
        "VlocityRecordSObjectType": "%vlocity_namespace%__DRMapItem__c"
    },
    {
        "%vlocity_namespace%__DomainObjectAPIName__c": "json",
        "%vlocity_namespace%__DomainObjectCreationOrder__c": 1,
        "%vlocity_namespace%__DomainObjectFieldAPIName__c": "agencyMailingStreet",
        "%vlocity_namespace%__InterfaceFieldAPIName__c": "AgencyStreetAddress",
        "%vlocity_namespace%__IsDisabled__c": false,
        "%vlocity_namespace%__IsRequiredForUpsert__c": false,
        "%vlocity_namespace%__MapId__c": "ProposalIfAnyCoverLetterTransformCustom9696",
        "%vlocity_namespace%__UpsertKey__c": false,
        "Name": "ProposalIfAnyCoverLetterTransform",
        "VlocityDataPackType": "SObject",
        "VlocityRecordSObjectType": "%vlocity_namespace%__DRMapItem__c"
    },
    {
        "%vlocity_namespace%__DomainObjectAPIName__c": "json",
        "%vlocity_namespace%__DomainObjectCreationOrder__c": 1,
        "%vlocity_namespace%__DomainObjectFieldAPIName__c": "agencyMailingZipCode",
        "%vlocity_namespace%__InterfaceFieldAPIName__c": "AgencyZipCode",
        "%vlocity_namespace%__IsDisabled__c": false,
        "%vlocity_namespace%__IsRequiredForUpsert__c": false,
        "%vlocity_namespace%__MapId__c": "ProposalIfAnyCoverLetterTransformCustom3940",
        "%vlocity_namespace%__UpsertKey__c": false,
        "Name": "ProposalIfAnyCoverLetterTransform",
        "VlocityDataPackType": "SObject",
        "VlocityRecordSObjectType": "%vlocity_namespace%__DRMapItem__c"
    },
    {
        "%vlocity_namespace%__DomainObjectAPIName__c": "json",
        "%vlocity_namespace%__DomainObjectCreationOrder__c": 1,
        "%vlocity_namespace%__DomainObjectFieldAPIName__c": "agencyName",
        "%vlocity_namespace%__InterfaceFieldAPIName__c": "AgencyName",
        "%vlocity_namespace%__IsDisabled__c": false,
        "%vlocity_namespace%__IsRequiredForUpsert__c": false,
        "%vlocity_namespace%__MapId__c": "ProposalIfAnyCoverLetterTransformCustom348",
        "%vlocity_namespace%__UpsertKey__c": false,
        "Name": "ProposalIfAnyCoverLetterTransform",
        "VlocityDataPackType": "SObject",
        "VlocityRecordSObjectType": "%vlocity_namespace%__DRMapItem__c"
    },
    {
        "%vlocity_namespace%__DomainObjectAPIName__c": "json",
        "%vlocity_namespace%__DomainObjectCreationOrder__c": 1,
        "%vlocity_namespace%__DomainObjectFieldAPIName__c": "agentName",
        "%vlocity_namespace%__InterfaceFieldAPIName__c": "AgentName",
        "%vlocity_namespace%__IsDisabled__c": false,
        "%vlocity_namespace%__IsRequiredForUpsert__c": false,
        "%vlocity_namespace%__MapId__c": "ProposalIfAnyCoverLetterTransformCustom2589",
        "%vlocity_namespace%__UpsertKey__c": false,
        "Name": "ProposalIfAnyCoverLetterTransform",
        "VlocityDataPackType": "SObject",
        "VlocityRecordSObjectType": "%vlocity_namespace%__DRMapItem__c"
    },
    {
        "%vlocity_namespace%__DomainObjectAPIName__c": "json",
        "%vlocity_namespace%__DomainObjectCreationOrder__c": 1,
        "%vlocity_namespace%__DomainObjectFieldAPIName__c": "city",
        "%vlocity_namespace%__InterfaceFieldAPIName__c": "MailingCity",
        "%vlocity_namespace%__IsDisabled__c": false,
        "%vlocity_namespace%__IsRequiredForUpsert__c": false,
        "%vlocity_namespace%__MapId__c": "ProposalIfAnyCoverLetterTransformCustom6319",
        "%vlocity_namespace%__UpsertKey__c": false,
        "Name": "ProposalIfAnyCoverLetterTransform",
        "VlocityDataPackType": "SObject",
        "VlocityRecordSObjectType": "%vlocity_namespace%__DRMapItem__c"
    },
    {
        "%vlocity_namespace%__DomainObjectAPIName__c": "json",
        "%vlocity_namespace%__DomainObjectCreationOrder__c": 1,
        "%vlocity_namespace%__DomainObjectFieldAPIName__c": "insuredName",
        "%vlocity_namespace%__InterfaceFieldAPIName__c": "InsuredName",
        "%vlocity_namespace%__IsDisabled__c": false,
        "%vlocity_namespace%__IsRequiredForUpsert__c": false,
        "%vlocity_namespace%__MapId__c": "ProposalIfAnyCoverLetterTransformCustom7986",
        "%vlocity_namespace%__UpsertKey__c": false,
        "Name": "ProposalIfAnyCoverLetterTransform",
        "VlocityDataPackType": "SObject",
        "VlocityRecordSObjectType": "%vlocity_namespace%__DRMapItem__c"
    },
    {
        "%vlocity_namespace%__DomainObjectAPIName__c": "json",
        "%vlocity_namespace%__DomainObjectCreationOrder__c": 1,
        "%vlocity_namespace%__DomainObjectFieldAPIName__c": "mailingCareOf",
        "%vlocity_namespace%__InterfaceFieldAPIName__c": "MailingCareOf",
        "%vlocity_namespace%__IsDisabled__c": false,
        "%vlocity_namespace%__IsRequiredForUpsert__c": false,
        "%vlocity_namespace%__MapId__c": "ProposalIfAnyCoverLetterTransformCustom1258",
        "%vlocity_namespace%__UpsertKey__c": false,
        "Name": "ProposalIfAnyCoverLetterTransform",
        "VlocityDataPackType": "SObject",
        "VlocityRecordSObjectType": "%vlocity_namespace%__DRMapItem__c"
    },
    {
        "%vlocity_namespace%__DomainObjectAPIName__c": "json",
        "%vlocity_namespace%__DomainObjectCreationOrder__c": 1,
        "%vlocity_namespace%__DomainObjectFieldAPIName__c": "quoteType",
        "%vlocity_namespace%__InterfaceFieldAPIName__c": "QuoteType",
        "%vlocity_namespace%__IsDisabled__c": false,
        "%vlocity_namespace%__IsRequiredForUpsert__c": false,
        "%vlocity_namespace%__MapId__c": "ProposalIfAnyCoverLetterTransformCustom2028",
        "%vlocity_namespace%__UpsertKey__c": false,
        "Name": "ProposalIfAnyCoverLetterTransform",
        "VlocityDataPackType": "SObject",
        "VlocityRecordSObjectType": "%vlocity_namespace%__DRMapItem__c"
    },
    {
        "%vlocity_namespace%__DomainObjectAPIName__c": "json",
        "%vlocity_namespace%__DomainObjectCreationOrder__c": 1,
        "%vlocity_namespace%__DomainObjectFieldAPIName__c": "state",
        "%vlocity_namespace%__InterfaceFieldAPIName__c": "MailingState",
        "%vlocity_namespace%__IsDisabled__c": false,
        "%vlocity_namespace%__IsRequiredForUpsert__c": false,
        "%vlocity_namespace%__MapId__c": "ProposalIfAnyCoverLetterTransformCustom7765",
        "%vlocity_namespace%__UpsertKey__c": false,
        "Name": "ProposalIfAnyCoverLetterTransform",
        "VlocityDataPackType": "SObject",
        "VlocityRecordSObjectType": "%vlocity_namespace%__DRMapItem__c"
    },
    {
        "%vlocity_namespace%__DomainObjectAPIName__c": "json",
        "%vlocity_namespace%__DomainObjectCreationOrder__c": 1,
        "%vlocity_namespace%__DomainObjectFieldAPIName__c": "streetAddress",
        "%vlocity_namespace%__InterfaceFieldAPIName__c": "MailingAddress",
        "%vlocity_namespace%__IsDisabled__c": false,
        "%vlocity_namespace%__IsRequiredForUpsert__c": false,
        "%vlocity_namespace%__MapId__c": "ProposalIfAnyCoverLetterTransformCustom4843",
        "%vlocity_namespace%__UpsertKey__c": false,
        "Name": "ProposalIfAnyCoverLetterTransform",
        "VlocityDataPackType": "SObject",
        "VlocityRecordSObjectType": "%vlocity_namespace%__DRMapItem__c"
    },
    {
        "%vlocity_namespace%__DomainObjectAPIName__c": "json",
        "%vlocity_namespace%__DomainObjectCreationOrder__c": 1,
        "%vlocity_namespace%__DomainObjectFieldAPIName__c": "todayDate",
        "%vlocity_namespace%__InterfaceFieldAPIName__c": "todayDate",
        "%vlocity_namespace%__IsDisabled__c": false,
        "%vlocity_namespace%__IsRequiredForUpsert__c": false,
        "%vlocity_namespace%__MapId__c": "ProposalIfAnyCoverLetterTransformCustom7039",
        "%vlocity_namespace%__UpsertKey__c": false,
        "Name": "ProposalIfAnyCoverLetterTransform",
        "VlocityDataPackType": "SObject",
        "VlocityRecordSObjectType": "%vlocity_namespace%__DRMapItem__c"
    },
    {
        "%vlocity_namespace%__DomainObjectAPIName__c": "json",
        "%vlocity_namespace%__DomainObjectCreationOrder__c": 1,
        "%vlocity_namespace%__DomainObjectFieldAPIName__c": "zipCode",
        "%vlocity_namespace%__InterfaceFieldAPIName__c": "MailingZipCode",
        "%vlocity_namespace%__IsDisabled__c": false,
        "%vlocity_namespace%__IsRequiredForUpsert__c": false,
        "%vlocity_namespace%__MapId__c": "ProposalIfAnyCoverLetterTransformCustom7068",
        "%vlocity_namespace%__UpsertKey__c": false,
        "Name": "ProposalIfAnyCoverLetterTransform",
        "VlocityDataPackType": "SObject",
        "VlocityRecordSObjectType": "%vlocity_namespace%__DRMapItem__c"
    }
]