{
    "%vlocity_namespace%__Author__c": "Vlocity",
    "%vlocity_namespace%__CSS__c": "",
    "%vlocity_namespace%__CustomJavascript__c": "docgensample-object-document-creation-docx-template.js",
    "%vlocity_namespace%__Definition__c": "",
    "%vlocity_namespace%__Description__c": "",
    "%vlocity_namespace%__DisplayOn__c": "",
    "%vlocity_namespace%__ExternalID__c": "docgensample-object-document-creation-docx-template/1/Vlocity/1579058712970",
    "%vlocity_namespace%__HTML__c": "docgensample-object-document-creation-docx-template.html",
    "%vlocity_namespace%__ParentID__c": "object-document-creation-docx-template/2/Vlocity/1537469682918",
    "%vlocity_namespace%__SampleJson__c": "docgensample-object-document-creation-docx-template_Sample.json",
    "%vlocity_namespace%__Sass__c": "",
    "%vlocity_namespace%__Type__c": "OmniScript Selectable Items",
    "%vlocity_namespace%__Version__c": 1,
    "Name": "docgensample-object-document-creation-docx-template",
    "VlocityDataPackType": "SObject",
    "VlocityRecordSObjectType": "%vlocity_namespace%__VlocityUITemplate__c",
    "VlocityRecordSourceKey": "%vlocity_namespace%__VlocityUITemplate__c/docgensample-object-document-creation-docx-template",
    "sourceOrgUrl": "/apex/vlocity_ins__uitemplatedesigner?id=a8C4W0000004iWOUAY"
}