{
    "AcordForm130": null,
    "DeclinedMessagingStep": null,
    "ReferralMessagingStep": null,
    "SupplementalCommercialStep": null,
    "SupplementalResidentialStep": null,
    "WCIfAny": null,
    "WCPayroll": null,
    "WorkerCompensation": {
        "InsuredDetails": {
            "AdditionalAssociationInformation": {
                "Co_opCheck": null,
                "ExclusiveVendorCheck": null
            },
            "BillingAddress-Block": null,
            "ContractCheck": "Yes",
            "Insured-Block": {
                "AccountId": "0016s000003mXx5AAE",
                "BillingCity_I": "CA",
                "BillingPostalCode_I": "06002",
                "BillingState_I": "CT",
                "BillingStreet_I": "2490 County Road 4300",
                "Insured": "Ltest5",
                "Name": "Ltest5",
                "PhysicalCity_I": "Coffeyville",
                "PhysicalPostalCode_I": "67337",
                "PhysicalState_I": "CA",
                "PhysicalStreet_I": "2490 County Road 4300",
                "ShippingCity_I": "CA",
                "ShippingPostalCode_I": "06002",
                "ShippingState_I": "CT",
                "ShippingStreet_I": "2490 County Road 4300",
                "TaxId": "952666941"
            },
            "MailingAddress-Block": null,
            "PMCAccount-Block": {
                "PMCAccount": "asdf"
            },
            "PMCBillingAddress-Block": {
                "PMCBillingAddress": null
            },
            "PMCMailingAddress-Block": {
                "PMCMailingAddress": null
            },
            "PMCPhysicalAddress-Block": null,
            "PhysicalAddress-Block": {
                "PhysicalAddress": "Trump Tower, North Wabash Avenue, Chicago, IL, USA",
                "PhysicalCity": "Chicago",
                "PhysicalPostalCode": "60611",
                "PhysicalState": "IL",
                "PhysicalStreet": "401 North Wabash Avenue"
            },
            "insuredBillingAddress": null,
            "insuredMailingAddress": null,
            "insuredPhysicalAddress": null,
            "newBillingAddress": null,
            "newMailingAddress": null,
            "newPMCBillingAddress": false,
            "newPMCMailingAddress": false,
            "newPMCPhysicalAddress": true,
            "newPhysicalAddress": null
        },
        "PhysicalStateFormula": "IL"
    },
    "groupId": "00G6s000000NUUCEA4",
    "id": "a3x6s00000008jeAAA",
    "isdtp": "p1",
    "layout": "lightning",
    "lwc": "omniscriptPreview",
    "ns": "%vlocity_namespace%",
    "prodCode": "WCPay",
    "sfdcIFrameHost": "web",
    "sfdcIFrameOrigin": "https://caislive--v3dev--vlocity-ins.visualforce.com",
    "timeStamp": "2020-09-17T08:02:54.430Z",
    "userCurrencyCode": "USD",
    "userId": "0056s000000J6KBAA0",
    "userName": "ramya.vadlamannati@certadux.com.v3dev",
    "userProfile": "System Administrator",
    "userTimeZone": "-420"
}