{
    "%vlocity_namespace%__Author__c": "Vlocity",
    "%vlocity_namespace%__Datasource__c": {
        "type": "Query",
        "value": {
            "query": "SELECT Id,Name,Status FROM Asset WHERE Id = '{{params.id}}'"
        }
    },
    "%vlocity_namespace%__Definition__c": "ins-asset-actions.json",
    "%vlocity_namespace%__Description__c": "",
    "%vlocity_namespace%__GlobalKey__c": "ins-asset-actions/1/Vlocity/1586474888930",
    "%vlocity_namespace%__ParentID__c": "",
    "%vlocity_namespace%__RequiredPermission__c": "",
    "%vlocity_namespace%__Type__c": "Layout",
    "%vlocity_namespace%__Version__c": 1,
    "Name": "ins-asset-actions",
    "VlocityDataPackType": "SObject",
    "VlocityRecordSObjectType": "%vlocity_namespace%__VlocityUILayout__c",
    "VlocityRecordSourceKey": "%vlocity_namespace%__VlocityUILayout__c/ins-asset-actions",
    "sourceOrgUrl": "/apex/vlocity_ins__carddesignernew?id=?id=a8B4W0000009e8kUAA"
}