{
    "%vlocity_namespace%__Author__c": "vlocity",
    "%vlocity_namespace%__CustomJavascript__c": "infinite-list.js",
    "%vlocity_namespace%__Definition__c": "",
    "%vlocity_namespace%__Description__c": "",
    "%vlocity_namespace%__DisplayOn__c": "",
    "%vlocity_namespace%__ExternalID__c": "infinite-list/1/vlocity/1503984777933",
    "%vlocity_namespace%__HTML__c": "infinite-list.html",
    "%vlocity_namespace%__ParentID__c": "",
    "%vlocity_namespace%__SampleJson__c": "",
    "%vlocity_namespace%__Sass__c": "infinite-list.scss",
    "%vlocity_namespace%__Type__c": "containers",
    "%vlocity_namespace%__Version__c": 1,
    "Name": "infinite-list",
    "VlocityDataPackType": "SObject",
    "VlocityRecordSObjectType": "%vlocity_namespace%__VlocityUITemplate__c",
    "VlocityRecordSourceKey": "%vlocity_namespace%__VlocityUITemplate__c/infinite-list",
    "sourceOrgUrl": "/apex/vlocity_ins__uitemplatedesigner?id=a8C4W0000004iW1UAI"
}