{
    "%vlocity_namespace%__Active__c": true,
    "%vlocity_namespace%__InternalNotes__c": "context-id -- SObjectId like QuoteId, OpportunityId,OrderId & ContractId\nselected-template -- selected Template JSON node from previous step. \ndebug -- optional for debugging\ndocument-title  -- Overrides the Default Document Name/Title of your document",
    "%vlocity_namespace%__OmniScriptId__c": {
        "Name": "CAIS_WCPay Print Proposal Packet",
        "VlocityDataPackType": "VlocityMatchingKeyObject",
        "VlocityMatchingRecordSourceKey": "%vlocity_namespace%__OmniScript__c/WCPay/PrintProposalPacket/English",
        "VlocityRecordSObjectType": "%vlocity_namespace%__OmniScript__c"
    },
    "%vlocity_namespace%__ParentElementId__c": {
        "%vlocity_namespace%__OmniScriptId__c": {
            "Name": "CAIS_WCPay Print Proposal Packet",
            "VlocityDataPackType": "VlocityMatchingKeyObject",
            "VlocityMatchingRecordSourceKey": "%vlocity_namespace%__OmniScript__c/WCPay/PrintProposalPacket/English",
            "VlocityRecordSObjectType": "%vlocity_namespace%__OmniScript__c"
        },
        "Name": "Generate Document",
        "VlocityDataPackType": "VlocityMatchingKeyObject",
        "VlocityMatchingRecordSourceKey": "%vlocity_namespace%__Element__c/%vlocity_namespace%__OmniScript__c/WCPay/PrintProposalPacket/English/Generate Document",
        "VlocityRecordSObjectType": "%vlocity_namespace%__Element__c"
    },
    "%vlocity_namespace%__ParentElementName__c": "Generate Document",
    "%vlocity_namespace%__ParentElementType__c": "Step",
    "%vlocity_namespace%__PropertySet__c": {
        "bStandalone": false,
        "conditionType": "Hide if False",
        "controlWidth": 12,
        "customAttributes": [
            {
                "name": "context-id",
                "source": "%ContextId%"
            },
            {
                "name": "selected-template",
                "source": "%PrintPayrollApplicationTemplate%"
            },
            {
                "name": "debug",
                "source": "false"
            },
            {
                "name": "document-title",
                "source": "%PrintPayrollApplicationDoc%"
            }
        ],
        "disOnTplt": false,
        "hide": false,
        "label": null,
        "lwcName": "%vlocity_namespace%__clmOsDocxGenerateDocument",
        "show": null
    },
    "%vlocity_namespace%__ReusableOmniScript__c": false,
    "%vlocity_namespace%__Type__c": "Custom Lightning Web Component",
    "Name": "GenerateDocumentWord",
    "VlocityDataPackType": "SObject",
    "VlocityRecordSObjectType": "%vlocity_namespace%__Element__c",
    "VlocityRecordSourceKey": "%vlocity_namespace%__Element__c/%vlocity_namespace%__OmniScript__c/WCPay/PrintProposalPacket/English/GenerateDocumentWord"
}