{
    "dataSource": {
        "contextVariables": [
            {
                "id": 2,
                "name": "recordId",
                "val": "0YT3K000000Mff1WAC"
            }
        ],
        "orderBy": {
            "isReverse": false,
            "name": ""
        },
        "type": "DataRaptor",
        "value": {
            "bundle": "caisCommissionForPolicy",
            "inputMap": {
                "Id": "{recordId}"
            },
            "resultVar": ""
        }
    },
    "enableLwc": true,
    "globalCSS": true,
    "isFlex": true,
    "lwc": {
        "DeveloperName": "cfCaisPolicyCommission_1_CAIS",
        "Id": "0Rb3K0000008bUJSAY",
        "MasterLabel": "cfCaisPolicyCommission_1_CAIS",
        "NamespacePrefix": "c"
    },
    "states": [
        {
            "actions": [
            ],
            "childCards": [
            ],
            "components": {
                "layer-0": {
                    "children": [
                        {
                            "class": "nds-col ",
                            "element": "outputField",
                            "elementLabel": "Field-4",
                            "name": "Field",
                            "property": {
                                "card": "{card}",
                                "fieldName": "CommissionRate",
                                "format": "M/D/YYYY",
                                "label": "Commission Rate:",
                                "labelclass": "fieldLabel",
                                "placeholder": "",
                                "record": "{record}",
                                "styles": {
                                    "value": {
                                        "fontFamily": "Arial"
                                    }
                                },
                                "type": "text",
                                "valueclass": "fieldValue"
                            },
                            "size": {
                                "default": "6",
                                "isResponsive": false
                            },
                            "stateIndex": 0,
                            "styleObject": {
                                "background": {
                                    "color": "",
                                    "image": "",
                                    "position": "",
                                    "repeat": "",
                                    "size": ""
                                },
                                "border": {
                                    "color": "",
                                    "radius": "",
                                    "style": "",
                                    "type": "",
                                    "width": ""
                                },
                                "class": "",
                                "container": {
                                    "class": ""
                                },
                                "elementStyleProperties": {
                                    "labelclass": "fieldLabel",
                                    "styles": {
                                        "value": {
                                            "fontFamily": "Arial"
                                        }
                                    },
                                    "valueclass": "fieldValue"
                                },
                                "inlineStyle": "",
                                "margin": [
                                ],
                                "padding": [
                                ],
                                "size": {
                                    "default": "6",
                                    "isResponsive": false
                                },
                                "sizeClass": "nds-size_6-of-12 ",
                                "style": "             ",
                                "text": {
                                    "align": "",
                                    "color": ""
                                }
                            },
                            "type": "element"
                        },
                        {
                            "class": "nds-col ",
                            "element": "outputField",
                            "elementLabel": "Field-5",
                            "name": "Field",
                            "property": {
                                "card": "{card}",
                                "currency": "USD",
                                "data-conditions": {
                                    "group": [
                                        {
                                            "field": "LineOfBusiness",
                                            "id": "state-new-condition-0",
                                            "operator": "!=",
                                            "type": "custom",
                                            "value": "\"\""
                                        }
                                    ],
                                    "id": "state-condition-object",
                                    "isParent": true
                                },
                                "fieldName": "CommissionEarned",
                                "format": "MM/DD/YYYY",
                                "label": "Commission Earned:",
                                "labelclass": "fieldLabel",
                                "locale": "en-US",
                                "placeholder": "",
                                "record": "{record}",
                                "type": "text",
                                "valueclass": "fieldValue"
                            },
                            "size": {
                                "default": "6",
                                "isResponsive": false
                            },
                            "stateIndex": 0,
                            "styleObject": {
                                "background": {
                                    "color": "",
                                    "image": "",
                                    "position": "",
                                    "repeat": "",
                                    "size": ""
                                },
                                "border": {
                                    "color": "",
                                    "radius": "",
                                    "style": "",
                                    "type": "",
                                    "width": ""
                                },
                                "container": {
                                    "class": ""
                                },
                                "elementStyleProperties": {
                                    "labelclass": "fieldLabel",
                                    "valueclass": "fieldValue"
                                },
                                "inlineStyle": "",
                                "margin": [
                                ],
                                "padding": [
                                ],
                                "size": {
                                    "default": "6",
                                    "isResponsive": false
                                },
                                "sizeClass": "nds-size_6-of-12 ",
                                "text": {
                                    "align": "",
                                    "color": ""
                                }
                            },
                            "type": "element"
                        }
                    ]
                }
            },
            "conditions": {
                "group": [
                ],
                "id": "state-condition-object",
                "isParent": true
            },
            "definedActions": {
                "actions": [
                ]
            },
            "fields": [
            ],
            "isSmartAction": false,
            "name": "Active",
            "omniscripts": [
            ],
            "smartAction": {
            },
            "styleObject": {
                "background": {
                    "color": "#fff",
                    "image": "",
                    "position": "",
                    "repeat": "",
                    "size": ""
                },
                "border": {
                    "color": "#eee",
                    "radius": "0",
                    "style": "solid",
                    "type": [
                        "border_top",
                        "border_bottom"
                    ],
                    "width": "0.8"
                },
                "class": "nds-border_top nds-border_bottom nds-p-around_medium nds-m-bottom_x-small ",
                "container": {
                    "class": ""
                },
                "elementStyleProperties": {
                },
                "inlineStyle": "",
                "margin": [
                    {
                        "label": "bottom:x-small",
                        "size": "x-small",
                        "type": "bottom"
                    }
                ],
                "padding": [
                    {
                        "label": "around:medium",
                        "size": "medium",
                        "type": "around"
                    }
                ],
                "size": {
                    "default": "12",
                    "isResponsive": false
                },
                "sizeClass": "nds-size_12-of-12 ",
                "style": "background-color:#fff;     border-color:#eee; border-width:0.8px; border-radius:0; border-style:solid;     ",
                "text": {
                    "align": "",
                    "color": ""
                }
            }
        }
    ],
    "theme": "nds",
    "title": "caisPolicyCommission"
}