{
    "%vlocity_namespace%__Author__c": "CAIS",
    "%vlocity_namespace%__Datasource__c": {
        "type": "Query"
    },
    "%vlocity_namespace%__Definition__c": "cais-footer-lwc.json",
    "%vlocity_namespace%__Description__c": "",
    "%vlocity_namespace%__GlobalKey__c": "cais-footer-lwc/1/CAIS/1603315441221",
    "%vlocity_namespace%__ParentID__c": "np-footer-lwc/1/VEX Personal Lines/1580713776920",
    "%vlocity_namespace%__RequiredPermission__c": "",
    "%vlocity_namespace%__Type__c": "Layout",
    "%vlocity_namespace%__Version__c": 1,
    "Name": "cais-footer-lwc",
    "VlocityDataPackType": "SObject",
    "VlocityRecordSObjectType": "%vlocity_namespace%__VlocityUILayout__c",
    "VlocityRecordSourceKey": "%vlocity_namespace%__VlocityUILayout__c/cais-footer-lwc",
    "sourceOrgUrl": "/apex/vlocity_ins__carddesignernew?id=?id=a8B3K0000000C1TUAU"
}