{
    "%vlocity_namespace%__Author__c": "Vlocity",
    "%vlocity_namespace%__CardType__c": "",
    "%vlocity_namespace%__Datasource__c": "",
    "%vlocity_namespace%__Definition__c": "clm-term-attributes.json",
    "%vlocity_namespace%__Description__c": "",
    "%vlocity_namespace%__GlobalKey__c": "clm-term-attributes/Vlocity/1/1543543653061",
    "%vlocity_namespace%__IsChildCard__c": false,
    "%vlocity_namespace%__ParentID__c": "",
    "%vlocity_namespace%__SampleData__c": "",
    "%vlocity_namespace%__Styles__c": "",
    "%vlocity_namespace%__Type__c": "",
    "%vlocity_namespace%__Version__c": 1,
    "Name": "clm-term-attributes",
    "VlocityDataPackType": "SObject",
    "VlocityRecordSObjectType": "%vlocity_namespace%__VlocityCard__c",
    "VlocityRecordSourceKey": "%vlocity_namespace%__VlocityCard__c/clm-term-attributes",
    "sourceOrgUrl": "/a7n4W0000007IjpQAE"
}