{
    "%vlocity_namespace%__Author__c": "Vlocity",
    "%vlocity_namespace%__CustomJavascript__c": "",
    "%vlocity_namespace%__Definition__c": "",
    "%vlocity_namespace%__Description__c": "",
    "%vlocity_namespace%__DisplayOn__c": "All",
    "%vlocity_namespace%__ExternalID__c": "console-sidebar-old/1.0/Vlocity/1452117266432",
    "%vlocity_namespace%__HTML__c": "console-sidebar-old.html",
    "%vlocity_namespace%__ParentID__c": "",
    "%vlocity_namespace%__SampleJson__c": "",
    "%vlocity_namespace%__Sass__c": "console-sidebar-old.scss",
    "%vlocity_namespace%__Type__c": "console",
    "%vlocity_namespace%__Version__c": 1,
    "Name": "console-sidebar-old",
    "VlocityDataPackType": "SObject",
    "VlocityRecordSObjectType": "%vlocity_namespace%__VlocityUITemplate__c",
    "VlocityRecordSourceKey": "%vlocity_namespace%__VlocityUITemplate__c/console-sidebar-old",
    "sourceOrgUrl": "/apex/vlocity_ins__uitemplatedesigner?id=a8C4W0000004iVpUAI"
}