{
    "AccountId": "0016C00000SL1yNQAT",
    "Confirmation": {
    },
    "ContactId": "0036C00000UCrMJQA1",
    "FEINStep": {
        "EnteredFEIN": "234451678",
        "HaveFEIN": "Yes",
        "Insured-Block": null,
        "formattedFEIN": "23-4451678"
    },
    "FinalCarrier": "Chubb",
    "GeneralQuestionsStep": {
        "GeneralQuestions": {
            "AmenitiesLimitedToMembers": "No",
            "AnyRenovations": "No",
            "AvgUnitValue": 22,
            "BarOrRestaurant": null,
            "Circumstancesofclaim": null,
            "CommercialOrRetailOccupancy": "No",
            "Commonareas": null,
            "DU01": "No",
            "DU01_01": null,
            "DU02": null,
            "DU03": "No",
            "DU04": "No",
            "DU04Message": null,
            "DataClaimwasClosed": null,
            "DateofClaim": null,
            "Defensecost": null,
            "ErrorOnNumberOfUnitsCurrentlyBuilt": null,
            "FullTimeEmpCount": null,
            "FullTimeEmpCount0": 0,
            "NumberOfUnitsCurrentlyBuilt": 23,
            "OptionsDrivingToNone": "",
            "OtherExplanation": null,
            "OtherOption": "No",
            "Paidloss": null,
            "PartTimeEmpCount": null,
            "PartTimeEmpCount0": 0,
            "PercentDelinquent": 5.892857142857143,
            "PercentOfUnitsOwnedByOnePerson": 5.892857142857143,
            "PercentageOfCommercialUnits": null,
            "PercentageOfUnitsBuilt": 4.107142857142857,
            "PercentageUnitsSold": 2,
            "RU01": "No",
            "RU01_01": null,
            "RU02": null,
            "RU03": "No",
            "RU04": "No",
            "RU05": "No",
            "RU06": "No",
            "RU06_01": 33,
            "RU07": 33,
            "RU08": "No",
            "RU08Explanation": null,
            "RU09": "No",
            "RU10": "No",
            "RU11": "No",
            "RU12": "No",
            "RU13Circumstancesofclaim": null,
            "RU13DateClaimwasClosed": null,
            "RU13DateofClaim": null,
            "RU13Defensecost": null,
            "RU13Paidloss": null,
            "RU13PreventFurtherClaims": null,
            "RU13Reserveamount": null,
            "RU13claimantName": null,
            "RU14": "No",
            "Reserveamount": null,
            "SqFtOfLargestEstablishment": null,
            "Sub-associations": null,
            "TotalNumberOfEmployees": 0,
            "TotalUnits": 560,
            "claimantName": null,
            "hasAnyLegalIssues": "No",
            "hasDocuments": "No",
            "hasEquestrian": "No",
            "hasFuelingOperation": null,
            "hasMarina": "No",
            "hasSkiing": "No"
        },
        "RuleStatus": "Declined"
    },
    "InsuredDetails": {
        "AdditionalAssociationInformation": {
            "Carrier": "Chubb",
            "DirectEmployeeCheck": "No",
            "NumOfBoardMembers": "43"
        },
        "BillingCityFormula": "San Francisco",
        "BillingPostalCodeFormula": "94102",
        "BillingStateFormula": "CA",
        "BillingStreetFormula": "123 O'Farrell Street",
        "BillingSuiteFormula": null,
        "CommunityAssociation": {
            "BillingAddress-Block": {
                "BillingAddress": "123 O'Farrell Street  San Francisco CA 94102",
                "BillingCity": "San Francisco",
                "BillingState": "CA",
                "BillingStreet": "123 O'Farrell Street",
                "BillingZip": "94102"
            },
            "BillingAddressCheck": false,
            "BillingCareOf": null,
            "BillingSuite": null,
            "Co_opCheck": "No",
            "ContractCheck": "No",
            "DescriptionOfOperation": "Single Family Home Association/HOA (Detached PUD)",
            "FinalFEIN": "23-4451678",
            "FinalInsured": "Atlantis Home Association",
            "FormulaInsuredName": "Atlantis Home Association",
            "InsuredContactBlock": {
                "ContactEmail": "himadeep.guduru@gerentllc.com",
                "ContactFirstName": "Test",
                "ContactLastName": "Crime",
                "ContactPhone": "(111) 222-3334",
                "ContactTitle": "Treasurer"
            },
            "IsInsBillingSameAsMgmtBilling": null,
            "IsInsMailingSameAsMgmtMailing": null,
            "LocationAddress-Block": {
                "LocationAddress": "50 Fremont st San Francisco CA 94105",
                "LocationCity": "San Francisco",
                "LocationState": "CA",
                "LocationStreet": "50 Fremont st",
                "LocationZip": "94105"
            },
            "LocationSuite": null,
            "MailingAddress-Block": {
                "MailingAddress": "233 Ellis Street  San Francisco CA 94102",
                "MailingCity": "San Francisco",
                "MailingState": "CA",
                "MailingStreet": "233 Ellis Street",
                "MailingZip": "94102"
            },
            "MailingAddressCheck": false,
            "MailingCareOf": null,
            "MailingSuite": null,
            "NewInsuredName": null,
            "NonProfitCheck": "Yes",
            "NumberofUnits": "230",
            "OrganizationType": "Association",
            "OtherDescription": null,
            "PMCAccount-Block": null,
            "PMCBillingAddress-Block": null,
            "PMCBillingSuite": null,
            "PMCMailingAddress-Block": null,
            "PMCMailingSuite": null,
            "PropMgmtContactBlock": null,
            "UpdateInsuredName": false,
            "UpdatePMCBillingAddress-Block": null,
            "UpdatePMCBillingAddressCheck": null,
            "UpdatePMCMailingAddress-Block": null,
            "UpdatePMCMailingAddressCheck": null,
            "VacancyRate": "5",
            "existingAccountId": "0016C00000SL1yNQAT"
        },
        "MailingCityFormula": "San Francisco",
        "MailingPostalCodeFormula": "94102",
        "MailingStateFormula": "CA",
        "MailingStreetFormula": "233 Ellis Street",
        "MailingSuiteFormula": null,
        "UIAN": "",
        "newPMCAccount": false
    },
    "InsuredDetails1": {
        "LiabilityBlock": {
            "LiabilityLimit": null
        },
        "PolicyTerm": {
            "EffectiveDate": "1900-04-12",
            "ExpirationDate": "1901-04-11T18:38:50.000Z",
            "ExpirationDateMod": "2020-11-30",
            "Messaging4": true,
            "PartialTerm": false
        }
    },
    "Monopolistic": null,
    "Name": "Atlantis Home Association",
    "UWQueueId": "00G6C000001uYzPUAU",
    "currentUserAccountId": "0016C00000S470uQAB",
    "currentUserContactId": "0036C00000TViQfQAL",
    "finalAccountId": "0016C00000SL1yNQAT",
    "groupId": "00G6C000001uYzNUAU",
    "newAccountId": "0016C00000SL1yNQAT",
    "opportunityId": "0066C000006nYhgQAE",
    "prodCode": "DO",
    "productCode": "",
    "timeStamp": "2020-11-30T12:59:55.879Z",
    "userCurrencyCode": "USD",
    "userId": "0056C000002DrGeQAK",
    "userName": "ramyakrishna.vadlamannati@gerentllc.com.cais.dev",
    "userProfile": "System Administrator",
    "userTimeZone": "-480",
    "wcLocationState": "CA"
}