[
    {
        "%vlocity_namespace%__DomainObjectAPIName__c": "Formula",
        "%vlocity_namespace%__DomainObjectCreationOrder__c": 0,
        "%vlocity_namespace%__DomainObjectFieldAPIName__c": "Formula",
        "%vlocity_namespace%__FormulaOrder__c": 1,
        "%vlocity_namespace%__FormulaResultPath__c": "TaxClassification",
        "%vlocity_namespace%__Formula__c": "IF(irs_Type == \"Limited liability Company\",\"LLC\",\"\")",
        "%vlocity_namespace%__IsDisabled__c": false,
        "%vlocity_namespace%__IsRequiredForUpsert__c": false,
        "%vlocity_namespace%__MapId__c": "AgencyContractTransformForDocuSignCustoma206s0000005X9sAAEItem5",
        "%vlocity_namespace%__UpsertKey__c": false,
        "Name": "AgencyContractTransformForDocuSign",
        "VlocityDataPackType": "SObject",
        "VlocityRecordSObjectType": "%vlocity_namespace%__DRMapItem__c"
    },
    {
        "%vlocity_namespace%__DomainObjectAPIName__c": "Formula",
        "%vlocity_namespace%__DomainObjectCreationOrder__c": 0,
        "%vlocity_namespace%__DomainObjectFieldAPIName__c": "Formula",
        "%vlocity_namespace%__FormulaOrder__c": 10,
        "%vlocity_namespace%__FormulaResultPath__c": "AAUserName",
        "%vlocity_namespace%__Formula__c": "CONCAT(PCFirst_Name, ' ', PCLast_Name)",
        "%vlocity_namespace%__IsDisabled__c": false,
        "%vlocity_namespace%__IsRequiredForUpsert__c": false,
        "%vlocity_namespace%__MapId__c": "AgencyContractTransformForDocuSignCustom3117",
        "%vlocity_namespace%__UpsertKey__c": false,
        "Name": "AgencyContractTransformForDocuSign",
        "VlocityDataPackType": "SObject",
        "VlocityRecordSObjectType": "%vlocity_namespace%__DRMapItem__c"
    },
    {
        "%vlocity_namespace%__DomainObjectAPIName__c": "Formula",
        "%vlocity_namespace%__DomainObjectCreationOrder__c": 0,
        "%vlocity_namespace%__DomainObjectFieldAPIName__c": "Formula",
        "%vlocity_namespace%__FormulaOrder__c": 11,
        "%vlocity_namespace%__FormulaResultPath__c": "AASName",
        "%vlocity_namespace%__Formula__c": "CONCAT(AASFirst_Name, ' ', AASLast_Name)",
        "%vlocity_namespace%__IsDisabled__c": false,
        "%vlocity_namespace%__IsRequiredForUpsert__c": false,
        "%vlocity_namespace%__MapId__c": "AgencyContractTransformForDocuSignCustom2057",
        "%vlocity_namespace%__UpsertKey__c": false,
        "Name": "AgencyContractTransformForDocuSign",
        "VlocityDataPackType": "SObject",
        "VlocityRecordSObjectType": "%vlocity_namespace%__DRMapItem__c"
    },
    {
        "%vlocity_namespace%__DomainObjectAPIName__c": "Formula",
        "%vlocity_namespace%__DomainObjectCreationOrder__c": 0,
        "%vlocity_namespace%__DomainObjectFieldAPIName__c": "Formula",
        "%vlocity_namespace%__FormulaOrder__c": 2,
        "%vlocity_namespace%__FormulaResultPath__c": "taxTypeFEIN",
        "%vlocity_namespace%__Formula__c": "IF(TaxIdType ==\"FEIN\",FEIN_SSN,null)",
        "%vlocity_namespace%__IsDisabled__c": false,
        "%vlocity_namespace%__IsRequiredForUpsert__c": false,
        "%vlocity_namespace%__MapId__c": "AgencyContractTransformForDocuSignCustoma206s0000005X9sAAEItem3",
        "%vlocity_namespace%__UpsertKey__c": false,
        "Name": "AgencyContractTransformForDocuSign",
        "VlocityDataPackType": "SObject",
        "VlocityRecordSObjectType": "%vlocity_namespace%__DRMapItem__c"
    },
    {
        "%vlocity_namespace%__DomainObjectAPIName__c": "Formula",
        "%vlocity_namespace%__DomainObjectCreationOrder__c": 0,
        "%vlocity_namespace%__DomainObjectFieldAPIName__c": "Formula",
        "%vlocity_namespace%__FormulaOrder__c": 3,
        "%vlocity_namespace%__FormulaResultPath__c": "taxTypeSSN",
        "%vlocity_namespace%__Formula__c": "IF(TaxIdType ==\"SSN\",FEIN_SSN,null)",
        "%vlocity_namespace%__IsDisabled__c": false,
        "%vlocity_namespace%__IsRequiredForUpsert__c": false,
        "%vlocity_namespace%__MapId__c": "AgencyContractTransformForDocuSignCustoma206s0000005X9sAAEItem2",
        "%vlocity_namespace%__UpsertKey__c": false,
        "Name": "AgencyContractTransformForDocuSign",
        "VlocityDataPackType": "SObject",
        "VlocityRecordSObjectType": "%vlocity_namespace%__DRMapItem__c"
    },
    {
        "%vlocity_namespace%__DomainObjectAPIName__c": "Formula",
        "%vlocity_namespace%__DomainObjectCreationOrder__c": 0,
        "%vlocity_namespace%__DomainObjectFieldAPIName__c": "Formula",
        "%vlocity_namespace%__FormulaOrder__c": 4,
        "%vlocity_namespace%__FormulaResultPath__c": "llcTaxclass",
        "%vlocity_namespace%__Formula__c": "IF(llc_Tax_classicification ==\"P=Partnership\",\"P\", IF(llc_Tax_classicification == \"S=S corporation\",\"S\",\"C\"))",
        "%vlocity_namespace%__IsDisabled__c": false,
        "%vlocity_namespace%__IsRequiredForUpsert__c": false,
        "%vlocity_namespace%__MapId__c": "AgencyContractTransformForDocuSignCustoma206s0000005X9sAAEItem1",
        "%vlocity_namespace%__UpsertKey__c": false,
        "Name": "AgencyContractTransformForDocuSign",
        "VlocityDataPackType": "SObject",
        "VlocityRecordSObjectType": "%vlocity_namespace%__DRMapItem__c"
    },
    {
        "%vlocity_namespace%__DomainObjectAPIName__c": "Formula",
        "%vlocity_namespace%__DomainObjectCreationOrder__c": 0,
        "%vlocity_namespace%__DomainObjectFieldAPIName__c": "Formula",
        "%vlocity_namespace%__FormulaOrder__c": 5,
        "%vlocity_namespace%__FormulaResultPath__c": "LocationStreet",
        "%vlocity_namespace%__Formula__c": "CONCAT(LocAddress1,' ',LocAddress2)",
        "%vlocity_namespace%__IsDisabled__c": false,
        "%vlocity_namespace%__IsRequiredForUpsert__c": false,
        "%vlocity_namespace%__MapId__c": "AgencyContractTransformForDocuSignCustom1878",
        "%vlocity_namespace%__UpsertKey__c": false,
        "Name": "AgencyContractTransformForDocuSign",
        "VlocityDataPackType": "SObject",
        "VlocityRecordSObjectType": "%vlocity_namespace%__DRMapItem__c"
    },
    {
        "%vlocity_namespace%__DomainObjectAPIName__c": "Formula",
        "%vlocity_namespace%__DomainObjectCreationOrder__c": 0,
        "%vlocity_namespace%__DomainObjectFieldAPIName__c": "Formula",
        "%vlocity_namespace%__FormulaOrder__c": 6,
        "%vlocity_namespace%__FormulaResultPath__c": "MailStreet",
        "%vlocity_namespace%__Formula__c": "CONCAT(MailAddress1,' ',MailAddress2)",
        "%vlocity_namespace%__IsDisabled__c": false,
        "%vlocity_namespace%__IsRequiredForUpsert__c": false,
        "%vlocity_namespace%__MapId__c": "AgencyContractTransformForDocuSignCustom414",
        "%vlocity_namespace%__UpsertKey__c": false,
        "Name": "AgencyContractTransformForDocuSign",
        "VlocityDataPackType": "SObject",
        "VlocityRecordSObjectType": "%vlocity_namespace%__DRMapItem__c"
    },
    {
        "%vlocity_namespace%__DomainObjectAPIName__c": "Formula",
        "%vlocity_namespace%__DomainObjectCreationOrder__c": 0,
        "%vlocity_namespace%__DomainObjectFieldAPIName__c": "Formula",
        "%vlocity_namespace%__FormulaOrder__c": 7,
        "%vlocity_namespace%__FormulaResultPath__c": "LocationCityStateZip",
        "%vlocity_namespace%__Formula__c": "CONCAT(LocCity,' ',Locstate,' ',Loczip)",
        "%vlocity_namespace%__IsDisabled__c": false,
        "%vlocity_namespace%__IsRequiredForUpsert__c": false,
        "%vlocity_namespace%__MapId__c": "AgencyContractTransformForDocuSignCustom2329",
        "%vlocity_namespace%__UpsertKey__c": false,
        "Name": "AgencyContractTransformForDocuSign",
        "VlocityDataPackType": "SObject",
        "VlocityRecordSObjectType": "%vlocity_namespace%__DRMapItem__c"
    },
    {
        "%vlocity_namespace%__DomainObjectAPIName__c": "Formula",
        "%vlocity_namespace%__DomainObjectCreationOrder__c": 0,
        "%vlocity_namespace%__DomainObjectFieldAPIName__c": "Formula",
        "%vlocity_namespace%__FormulaOrder__c": 8,
        "%vlocity_namespace%__FormulaResultPath__c": "MailCityStateZip",
        "%vlocity_namespace%__Formula__c": "CONCAT(MailCity,' ',Mailstate,' ',Mailzip)",
        "%vlocity_namespace%__IsDisabled__c": false,
        "%vlocity_namespace%__IsRequiredForUpsert__c": false,
        "%vlocity_namespace%__MapId__c": "AgencyContractTransformForDocuSignCustom1595",
        "%vlocity_namespace%__UpsertKey__c": false,
        "Name": "AgencyContractTransformForDocuSign",
        "VlocityDataPackType": "SObject",
        "VlocityRecordSObjectType": "%vlocity_namespace%__DRMapItem__c"
    },
    {
        "%vlocity_namespace%__DomainObjectAPIName__c": "Formula",
        "%vlocity_namespace%__DomainObjectCreationOrder__c": 0,
        "%vlocity_namespace%__DomainObjectFieldAPIName__c": "Formula",
        "%vlocity_namespace%__FormulaOrder__c": 9,
        "%vlocity_namespace%__FormulaResultPath__c": "UserName",
        "%vlocity_namespace%__Formula__c": "CONCAT(User_First_Name, ' ', User_Last_Name)",
        "%vlocity_namespace%__IsDisabled__c": false,
        "%vlocity_namespace%__IsRequiredForUpsert__c": false,
        "%vlocity_namespace%__MapId__c": "AgencyContractTransformForDocuSignCustom5172",
        "%vlocity_namespace%__UpsertKey__c": false,
        "Name": "AgencyContractTransformForDocuSign",
        "VlocityDataPackType": "SObject",
        "VlocityRecordSObjectType": "%vlocity_namespace%__DRMapItem__c"
    },
    {
        "%vlocity_namespace%__DomainObjectAPIName__c": "json",
        "%vlocity_namespace%__DomainObjectCreationOrder__c": 1,
        "%vlocity_namespace%__DomainObjectFieldAPIName__c": "tabs:radioGroupTabs:LLC",
        "%vlocity_namespace%__InterfaceFieldAPIName__c": "TaxClassification",
        "%vlocity_namespace%__IsDisabled__c": false,
        "%vlocity_namespace%__IsRequiredForUpsert__c": false,
        "%vlocity_namespace%__MapId__c": "AgencyContractTransformForDocuSignCustoma206s0000005X9sAAEItem27",
        "%vlocity_namespace%__UpsertKey__c": false,
        "Name": "AgencyContractTransformForDocuSign",
        "VlocityDataPackType": "SObject",
        "VlocityRecordSObjectType": "%vlocity_namespace%__DRMapItem__c"
    },
    {
        "%vlocity_namespace%__DomainObjectAPIName__c": "json",
        "%vlocity_namespace%__DomainObjectCreationOrder__c": 1,
        "%vlocity_namespace%__DomainObjectFieldAPIName__c": "tabs:radioGroupTabs:TaxClassificationRadioGroup",
        "%vlocity_namespace%__InterfaceFieldAPIName__c": "llcTaxclass",
        "%vlocity_namespace%__IsDisabled__c": false,
        "%vlocity_namespace%__IsRequiredForUpsert__c": false,
        "%vlocity_namespace%__MapId__c": "AgencyContractTransformForDocuSignCustom7427",
        "%vlocity_namespace%__UpsertKey__c": false,
        "Name": "AgencyContractTransformForDocuSign",
        "VlocityDataPackType": "SObject",
        "VlocityRecordSObjectType": "%vlocity_namespace%__DRMapItem__c"
    },
    {
        "%vlocity_namespace%__DomainObjectAPIName__c": "json",
        "%vlocity_namespace%__DomainObjectCreationOrder__c": 1,
        "%vlocity_namespace%__DomainObjectFieldAPIName__c": "tabs:textTabs:AASEmail",
        "%vlocity_namespace%__InterfaceFieldAPIName__c": "AASemail",
        "%vlocity_namespace%__IsDisabled__c": false,
        "%vlocity_namespace%__IsRequiredForUpsert__c": false,
        "%vlocity_namespace%__MapId__c": "AgencyContractTransformForDocuSignCustoma206s0000005X9sAAEItem6",
        "%vlocity_namespace%__UpsertKey__c": false,
        "Name": "AgencyContractTransformForDocuSign",
        "VlocityDataPackType": "SObject",
        "VlocityRecordSObjectType": "%vlocity_namespace%__DRMapItem__c"
    },
    {
        "%vlocity_namespace%__DomainObjectAPIName__c": "json",
        "%vlocity_namespace%__DomainObjectCreationOrder__c": 1,
        "%vlocity_namespace%__DomainObjectFieldAPIName__c": "tabs:textTabs:AASFax",
        "%vlocity_namespace%__InterfaceFieldAPIName__c": "AASfax",
        "%vlocity_namespace%__IsDisabled__c": false,
        "%vlocity_namespace%__IsRequiredForUpsert__c": false,
        "%vlocity_namespace%__MapId__c": "AgencyContractTransformForDocuSignCustoma206s0000005X9sAAEItem7",
        "%vlocity_namespace%__UpsertKey__c": false,
        "Name": "AgencyContractTransformForDocuSign",
        "VlocityDataPackType": "SObject",
        "VlocityRecordSObjectType": "%vlocity_namespace%__DRMapItem__c"
    },
    {
        "%vlocity_namespace%__DomainObjectAPIName__c": "json",
        "%vlocity_namespace%__DomainObjectCreationOrder__c": 1,
        "%vlocity_namespace%__DomainObjectFieldAPIName__c": "tabs:textTabs:AASMobilePhone",
        "%vlocity_namespace%__InterfaceFieldAPIName__c": "AASmob",
        "%vlocity_namespace%__IsDisabled__c": false,
        "%vlocity_namespace%__IsRequiredForUpsert__c": false,
        "%vlocity_namespace%__MapId__c": "AgencyContractTransformForDocuSignCustoma206s0000005X9sAAEItem10",
        "%vlocity_namespace%__UpsertKey__c": false,
        "Name": "AgencyContractTransformForDocuSign",
        "VlocityDataPackType": "SObject",
        "VlocityRecordSObjectType": "%vlocity_namespace%__DRMapItem__c"
    },
    {
        "%vlocity_namespace%__DomainObjectAPIName__c": "json",
        "%vlocity_namespace%__DomainObjectCreationOrder__c": 1,
        "%vlocity_namespace%__DomainObjectFieldAPIName__c": "tabs:textTabs:AASName",
        "%vlocity_namespace%__InterfaceFieldAPIName__c": "AASName",
        "%vlocity_namespace%__IsDisabled__c": false,
        "%vlocity_namespace%__IsRequiredForUpsert__c": false,
        "%vlocity_namespace%__MapId__c": "AgencyContractTransformForDocuSignCustoma206s0000005X9sAAEItem8",
        "%vlocity_namespace%__UpsertKey__c": false,
        "Name": "AgencyContractTransformForDocuSign",
        "VlocityDataPackType": "SObject",
        "VlocityRecordSObjectType": "%vlocity_namespace%__DRMapItem__c"
    },
    {
        "%vlocity_namespace%__DomainObjectAPIName__c": "json",
        "%vlocity_namespace%__DomainObjectCreationOrder__c": 1,
        "%vlocity_namespace%__DomainObjectFieldAPIName__c": "tabs:textTabs:AASOfficePhone",
        "%vlocity_namespace%__InterfaceFieldAPIName__c": "AASphone",
        "%vlocity_namespace%__IsDisabled__c": false,
        "%vlocity_namespace%__IsRequiredForUpsert__c": false,
        "%vlocity_namespace%__MapId__c": "AgencyContractTransformForDocuSignCustoma206s0000005X9sAAEItem11",
        "%vlocity_namespace%__UpsertKey__c": false,
        "Name": "AgencyContractTransformForDocuSign",
        "VlocityDataPackType": "SObject",
        "VlocityRecordSObjectType": "%vlocity_namespace%__DRMapItem__c"
    },
    {
        "%vlocity_namespace%__DomainObjectAPIName__c": "json",
        "%vlocity_namespace%__DomainObjectCreationOrder__c": 1,
        "%vlocity_namespace%__DomainObjectFieldAPIName__c": "tabs:textTabs:AAUserEmail",
        "%vlocity_namespace%__InterfaceFieldAPIName__c": "PCemail",
        "%vlocity_namespace%__IsDisabled__c": false,
        "%vlocity_namespace%__IsRequiredForUpsert__c": false,
        "%vlocity_namespace%__MapId__c": "AgencyContractTransformForDocuSignCustoma206s0000005X9sAAEItem44",
        "%vlocity_namespace%__UpsertKey__c": false,
        "Name": "AgencyContractTransformForDocuSign",
        "VlocityDataPackType": "SObject",
        "VlocityRecordSObjectType": "%vlocity_namespace%__DRMapItem__c"
    },
    {
        "%vlocity_namespace%__DomainObjectAPIName__c": "json",
        "%vlocity_namespace%__DomainObjectCreationOrder__c": 1,
        "%vlocity_namespace%__DomainObjectFieldAPIName__c": "tabs:textTabs:AAUserFax",
        "%vlocity_namespace%__InterfaceFieldAPIName__c": "PCfax",
        "%vlocity_namespace%__IsDisabled__c": false,
        "%vlocity_namespace%__IsRequiredForUpsert__c": false,
        "%vlocity_namespace%__MapId__c": "AgencyContractTransformForDocuSignCustoma206s0000005X9sAAEItem45",
        "%vlocity_namespace%__UpsertKey__c": false,
        "Name": "AgencyContractTransformForDocuSign",
        "VlocityDataPackType": "SObject",
        "VlocityRecordSObjectType": "%vlocity_namespace%__DRMapItem__c"
    },
    {
        "%vlocity_namespace%__DomainObjectAPIName__c": "json",
        "%vlocity_namespace%__DomainObjectCreationOrder__c": 1,
        "%vlocity_namespace%__DomainObjectFieldAPIName__c": "tabs:textTabs:AAUserMobilePhone",
        "%vlocity_namespace%__InterfaceFieldAPIName__c": "PCmob",
        "%vlocity_namespace%__IsDisabled__c": false,
        "%vlocity_namespace%__IsRequiredForUpsert__c": false,
        "%vlocity_namespace%__MapId__c": "AgencyContractTransformForDocuSignCustoma206s0000005X9sAAEItem48",
        "%vlocity_namespace%__UpsertKey__c": false,
        "Name": "AgencyContractTransformForDocuSign",
        "VlocityDataPackType": "SObject",
        "VlocityRecordSObjectType": "%vlocity_namespace%__DRMapItem__c"
    },
    {
        "%vlocity_namespace%__DomainObjectAPIName__c": "json",
        "%vlocity_namespace%__DomainObjectCreationOrder__c": 1,
        "%vlocity_namespace%__DomainObjectFieldAPIName__c": "tabs:textTabs:AAUserName",
        "%vlocity_namespace%__InterfaceFieldAPIName__c": "AAUserName",
        "%vlocity_namespace%__IsDisabled__c": false,
        "%vlocity_namespace%__IsRequiredForUpsert__c": false,
        "%vlocity_namespace%__MapId__c": "AgencyContractTransformForDocuSignCustoma206s0000005X9sAAEItem46",
        "%vlocity_namespace%__UpsertKey__c": false,
        "Name": "AgencyContractTransformForDocuSign",
        "VlocityDataPackType": "SObject",
        "VlocityRecordSObjectType": "%vlocity_namespace%__DRMapItem__c"
    },
    {
        "%vlocity_namespace%__DomainObjectAPIName__c": "json",
        "%vlocity_namespace%__DomainObjectCreationOrder__c": 1,
        "%vlocity_namespace%__DomainObjectFieldAPIName__c": "tabs:textTabs:AAUserOfficePhone",
        "%vlocity_namespace%__InterfaceFieldAPIName__c": "PCphone",
        "%vlocity_namespace%__IsDisabled__c": false,
        "%vlocity_namespace%__IsRequiredForUpsert__c": false,
        "%vlocity_namespace%__MapId__c": "AgencyContractTransformForDocuSignCustoma206s0000005X9sAAEItem49",
        "%vlocity_namespace%__UpsertKey__c": false,
        "Name": "AgencyContractTransformForDocuSign",
        "VlocityDataPackType": "SObject",
        "VlocityRecordSObjectType": "%vlocity_namespace%__DRMapItem__c"
    },
    {
        "%vlocity_namespace%__DomainObjectAPIName__c": "json",
        "%vlocity_namespace%__DomainObjectCreationOrder__c": 1,
        "%vlocity_namespace%__DomainObjectFieldAPIName__c": "tabs:textTabs:AgencyDBA",
        "%vlocity_namespace%__InterfaceFieldAPIName__c": "Agency_DBA",
        "%vlocity_namespace%__IsDisabled__c": false,
        "%vlocity_namespace%__IsRequiredForUpsert__c": false,
        "%vlocity_namespace%__MapId__c": "AgencyContractTransformForDocuSignCustoma206s0000005X9sAAEItem12",
        "%vlocity_namespace%__UpsertKey__c": false,
        "Name": "AgencyContractTransformForDocuSign",
        "VlocityDataPackType": "SObject",
        "VlocityRecordSObjectType": "%vlocity_namespace%__DRMapItem__c"
    },
    {
        "%vlocity_namespace%__DomainObjectAPIName__c": "json",
        "%vlocity_namespace%__DomainObjectCreationOrder__c": 1,
        "%vlocity_namespace%__DomainObjectFieldAPIName__c": "tabs:textTabs:AgencyFax",
        "%vlocity_namespace%__InterfaceFieldAPIName__c": "contactFax",
        "%vlocity_namespace%__IsDisabled__c": false,
        "%vlocity_namespace%__IsRequiredForUpsert__c": false,
        "%vlocity_namespace%__MapId__c": "AgencyContractTransformForDocuSignCustoma206s0000005X9sAAEItem17",
        "%vlocity_namespace%__UpsertKey__c": false,
        "Name": "AgencyContractTransformForDocuSign",
        "VlocityDataPackType": "SObject",
        "VlocityRecordSObjectType": "%vlocity_namespace%__DRMapItem__c"
    },
    {
        "%vlocity_namespace%__DomainObjectAPIName__c": "json",
        "%vlocity_namespace%__DomainObjectCreationOrder__c": 1,
        "%vlocity_namespace%__DomainObjectFieldAPIName__c": "tabs:textTabs:AgencyNPN",
        "%vlocity_namespace%__InterfaceFieldAPIName__c": "Agency_NPN",
        "%vlocity_namespace%__IsDisabled__c": false,
        "%vlocity_namespace%__IsRequiredForUpsert__c": false,
        "%vlocity_namespace%__MapId__c": "AgencyContractTransformForDocuSignCustoma206s0000005X9sAAEItem14",
        "%vlocity_namespace%__UpsertKey__c": false,
        "Name": "AgencyContractTransformForDocuSign",
        "VlocityDataPackType": "SObject",
        "VlocityRecordSObjectType": "%vlocity_namespace%__DRMapItem__c"
    },
    {
        "%vlocity_namespace%__DomainObjectAPIName__c": "json",
        "%vlocity_namespace%__DomainObjectCreationOrder__c": 1,
        "%vlocity_namespace%__DomainObjectFieldAPIName__c": "tabs:textTabs:AgencyName",
        "%vlocity_namespace%__InterfaceFieldAPIName__c": "Agency_Name",
        "%vlocity_namespace%__IsDisabled__c": false,
        "%vlocity_namespace%__IsRequiredForUpsert__c": false,
        "%vlocity_namespace%__MapId__c": "AgencyContractTransformForDocuSignCustoma206s0000005X9sAAEItem13",
        "%vlocity_namespace%__UpsertKey__c": false,
        "Name": "AgencyContractTransformForDocuSign",
        "VlocityDataPackType": "SObject",
        "VlocityRecordSObjectType": "%vlocity_namespace%__DRMapItem__c"
    },
    {
        "%vlocity_namespace%__DomainObjectAPIName__c": "json",
        "%vlocity_namespace%__DomainObjectCreationOrder__c": 1,
        "%vlocity_namespace%__DomainObjectFieldAPIName__c": "tabs:textTabs:AgencyPhone",
        "%vlocity_namespace%__InterfaceFieldAPIName__c": "contactPhone",
        "%vlocity_namespace%__IsDisabled__c": false,
        "%vlocity_namespace%__IsRequiredForUpsert__c": false,
        "%vlocity_namespace%__MapId__c": "AgencyContractTransformForDocuSignCustoma206s0000005X9sAAEItem18",
        "%vlocity_namespace%__UpsertKey__c": false,
        "Name": "AgencyContractTransformForDocuSign",
        "VlocityDataPackType": "SObject",
        "VlocityRecordSObjectType": "%vlocity_namespace%__DRMapItem__c"
    },
    {
        "%vlocity_namespace%__DomainObjectAPIName__c": "json",
        "%vlocity_namespace%__DomainObjectCreationOrder__c": 1,
        "%vlocity_namespace%__DomainObjectFieldAPIName__c": "tabs:textTabs:CaptiveAgency",
        "%vlocity_namespace%__InterfaceFieldAPIName__c": "captiveAgency",
        "%vlocity_namespace%__IsDisabled__c": false,
        "%vlocity_namespace%__IsRequiredForUpsert__c": false,
        "%vlocity_namespace%__MapId__c": "AgencyContractTransformForDocuSignCustoma206s0000005X9sAAEItem15",
        "%vlocity_namespace%__TransformValuesMap__c": "{\"true\":\"Yes\",\"false\":\"No\"}",
        "%vlocity_namespace%__UpsertKey__c": false,
        "Name": "AgencyContractTransformForDocuSign",
        "VlocityDataPackType": "SObject",
        "VlocityRecordSObjectType": "%vlocity_namespace%__DRMapItem__c"
    },
    {
        "%vlocity_namespace%__DomainObjectAPIName__c": "json",
        "%vlocity_namespace%__DomainObjectCreationOrder__c": 1,
        "%vlocity_namespace%__DomainObjectFieldAPIName__c": "tabs:textTabs:CaptiveAgencyType",
        "%vlocity_namespace%__InterfaceFieldAPIName__c": "CaptiveAgencyType",
        "%vlocity_namespace%__IsDisabled__c": false,
        "%vlocity_namespace%__IsRequiredForUpsert__c": false,
        "%vlocity_namespace%__MapId__c": "AgencyContractTransformForDocuSignCustoma206s0000005X9sAAEItem16",
        "%vlocity_namespace%__UpsertKey__c": false,
        "Name": "AgencyContractTransformForDocuSign",
        "VlocityDataPackType": "SObject",
        "VlocityRecordSObjectType": "%vlocity_namespace%__DRMapItem__c"
    },
    {
        "%vlocity_namespace%__DomainObjectAPIName__c": "json",
        "%vlocity_namespace%__DomainObjectCreationOrder__c": 1,
        "%vlocity_namespace%__DomainObjectFieldAPIName__c": "tabs:textTabs:CrimeBondExpiryDate",
        "%vlocity_namespace%__InterfaceFieldAPIName__c": "crimeBondExpirydate",
        "%vlocity_namespace%__IsDisabled__c": false,
        "%vlocity_namespace%__IsRequiredForUpsert__c": false,
        "%vlocity_namespace%__MapId__c": "AgencyContractTransformForDocuSignCustoma206s0000005X9sAAEItem19",
        "%vlocity_namespace%__UpsertKey__c": false,
        "Name": "AgencyContractTransformForDocuSign",
        "VlocityDataPackType": "SObject",
        "VlocityRecordSObjectType": "%vlocity_namespace%__DRMapItem__c"
    },
    {
        "%vlocity_namespace%__DomainObjectAPIName__c": "json",
        "%vlocity_namespace%__DomainObjectCreationOrder__c": 1,
        "%vlocity_namespace%__DomainObjectFieldAPIName__c": "tabs:textTabs:CurrentOwnerEstYear",
        "%vlocity_namespace%__InterfaceFieldAPIName__c": "currentOwnerEstYear",
        "%vlocity_namespace%__IsDisabled__c": false,
        "%vlocity_namespace%__IsRequiredForUpsert__c": false,
        "%vlocity_namespace%__MapId__c": "AgencyContractTransformForDocuSignCustoma206s0000005X9sAAEItem20",
        "%vlocity_namespace%__UpsertKey__c": false,
        "Name": "AgencyContractTransformForDocuSign",
        "VlocityDataPackType": "SObject",
        "VlocityRecordSObjectType": "%vlocity_namespace%__DRMapItem__c"
    },
    {
        "%vlocity_namespace%__DomainObjectAPIName__c": "json",
        "%vlocity_namespace%__DomainObjectCreationOrder__c": 1,
        "%vlocity_namespace%__DomainObjectFieldAPIName__c": "tabs:textTabs:EOExpirationDate",
        "%vlocity_namespace%__InterfaceFieldAPIName__c": "EOExpirationDate",
        "%vlocity_namespace%__IsDisabled__c": false,
        "%vlocity_namespace%__IsRequiredForUpsert__c": false,
        "%vlocity_namespace%__MapId__c": "AgencyContractTransformForDocuSignCustoma206s0000005X9sAAEItem21",
        "%vlocity_namespace%__UpsertKey__c": false,
        "Name": "AgencyContractTransformForDocuSign",
        "VlocityDataPackType": "SObject",
        "VlocityRecordSObjectType": "%vlocity_namespace%__DRMapItem__c"
    },
    {
        "%vlocity_namespace%__DomainObjectAPIName__c": "json",
        "%vlocity_namespace%__DomainObjectCreationOrder__c": 1,
        "%vlocity_namespace%__DomainObjectFieldAPIName__c": "tabs:textTabs:FEIN",
        "%vlocity_namespace%__InterfaceFieldAPIName__c": "taxTypeFEIN",
        "%vlocity_namespace%__IsDisabled__c": false,
        "%vlocity_namespace%__IsRequiredForUpsert__c": false,
        "%vlocity_namespace%__MapId__c": "AgencyContractTransformForDocuSignCustoma206s0000005X9sAAEItem54",
        "%vlocity_namespace%__UpsertKey__c": false,
        "Name": "AgencyContractTransformForDocuSign",
        "VlocityDataPackType": "SObject",
        "VlocityRecordSObjectType": "%vlocity_namespace%__DRMapItem__c"
    },
    {
        "%vlocity_namespace%__DomainObjectAPIName__c": "json",
        "%vlocity_namespace%__DomainObjectCreationOrder__c": 1,
        "%vlocity_namespace%__DomainObjectFieldAPIName__c": "tabs:textTabs:HowdidYouHear",
        "%vlocity_namespace%__InterfaceFieldAPIName__c": "howdidYouHear",
        "%vlocity_namespace%__IsDisabled__c": false,
        "%vlocity_namespace%__IsRequiredForUpsert__c": false,
        "%vlocity_namespace%__MapId__c": "AgencyContractTransformForDocuSignCustoma206s0000005X9sAAEItem23",
        "%vlocity_namespace%__UpsertKey__c": false,
        "Name": "AgencyContractTransformForDocuSign",
        "VlocityDataPackType": "SObject",
        "VlocityRecordSObjectType": "%vlocity_namespace%__DRMapItem__c"
    },
    {
        "%vlocity_namespace%__DomainObjectAPIName__c": "json",
        "%vlocity_namespace%__DomainObjectCreationOrder__c": 1,
        "%vlocity_namespace%__DomainObjectFieldAPIName__c": "tabs:textTabs:IRSType",
        "%vlocity_namespace%__InterfaceFieldAPIName__c": "irs_Type",
        "%vlocity_namespace%__IsDisabled__c": false,
        "%vlocity_namespace%__IsRequiredForUpsert__c": false,
        "%vlocity_namespace%__MapId__c": "AgencyContractTransformForDocuSignCustoma206s0000005X9sAAEItem26",
        "%vlocity_namespace%__UpsertKey__c": false,
        "Name": "AgencyContractTransformForDocuSign",
        "VlocityDataPackType": "SObject",
        "VlocityRecordSObjectType": "%vlocity_namespace%__DRMapItem__c"
    },
    {
        "%vlocity_namespace%__DomainObjectAPIName__c": "json",
        "%vlocity_namespace%__DomainObjectCreationOrder__c": 1,
        "%vlocity_namespace%__DomainObjectFieldAPIName__c": "tabs:textTabs:InsProductsAgencyNeeds",
        "%vlocity_namespace%__InterfaceFieldAPIName__c": "insProductsAgencyNeeds",
        "%vlocity_namespace%__IsDisabled__c": false,
        "%vlocity_namespace%__IsRequiredForUpsert__c": false,
        "%vlocity_namespace%__MapId__c": "AgencyContractTransformForDocuSignCustoma206s0000005X9sAAEItem24",
        "%vlocity_namespace%__UpsertKey__c": false,
        "Name": "AgencyContractTransformForDocuSign",
        "VlocityDataPackType": "SObject",
        "VlocityRecordSObjectType": "%vlocity_namespace%__DRMapItem__c"
    },
    {
        "%vlocity_namespace%__DomainObjectAPIName__c": "json",
        "%vlocity_namespace%__DomainObjectCreationOrder__c": 1,
        "%vlocity_namespace%__DomainObjectFieldAPIName__c": "tabs:textTabs:InsuredAssocCount",
        "%vlocity_namespace%__InterfaceFieldAPIName__c": "InsurecommunityCount",
        "%vlocity_namespace%__IsDisabled__c": false,
        "%vlocity_namespace%__IsRequiredForUpsert__c": false,
        "%vlocity_namespace%__MapId__c": "AgencyContractTransformForDocuSignCustoma206s0000005X9sAAEItem25",
        "%vlocity_namespace%__UpsertKey__c": false,
        "Name": "AgencyContractTransformForDocuSign",
        "VlocityDataPackType": "SObject",
        "VlocityRecordSObjectType": "%vlocity_namespace%__DRMapItem__c"
    },
    {
        "%vlocity_namespace%__DomainObjectAPIName__c": "json",
        "%vlocity_namespace%__DomainObjectCreationOrder__c": 1,
        "%vlocity_namespace%__DomainObjectFieldAPIName__c": "tabs:textTabs:LLCTaxClassification",
        "%vlocity_namespace%__InterfaceFieldAPIName__c": "llc_Tax_classicification",
        "%vlocity_namespace%__IsDisabled__c": false,
        "%vlocity_namespace%__IsRequiredForUpsert__c": false,
        "%vlocity_namespace%__MapId__c": "AgencyContractTransformForDocuSignCustom7145",
        "%vlocity_namespace%__UpsertKey__c": false,
        "Name": "AgencyContractTransformForDocuSign",
        "VlocityDataPackType": "SObject",
        "VlocityRecordSObjectType": "%vlocity_namespace%__DRMapItem__c"
    },
    {
        "%vlocity_namespace%__DomainObjectAPIName__c": "json",
        "%vlocity_namespace%__DomainObjectCreationOrder__c": 1,
        "%vlocity_namespace%__DomainObjectFieldAPIName__c": "tabs:textTabs:LocationCityStateZip",
        "%vlocity_namespace%__InterfaceFieldAPIName__c": "LocationCityStateZip",
        "%vlocity_namespace%__IsDisabled__c": false,
        "%vlocity_namespace%__IsRequiredForUpsert__c": false,
        "%vlocity_namespace%__MapId__c": "AgencyContractTransformForDocuSignCustom7027",
        "%vlocity_namespace%__UpsertKey__c": false,
        "Name": "AgencyContractTransformForDocuSign",
        "VlocityDataPackType": "SObject",
        "VlocityRecordSObjectType": "%vlocity_namespace%__DRMapItem__c"
    },
    {
        "%vlocity_namespace%__DomainObjectAPIName__c": "json",
        "%vlocity_namespace%__DomainObjectCreationOrder__c": 1,
        "%vlocity_namespace%__DomainObjectFieldAPIName__c": "tabs:textTabs:LocationStreet",
        "%vlocity_namespace%__InterfaceFieldAPIName__c": "LocationStreet",
        "%vlocity_namespace%__IsDisabled__c": false,
        "%vlocity_namespace%__IsRequiredForUpsert__c": false,
        "%vlocity_namespace%__MapId__c": "AgencyContractTransformForDocuSignCustoma206s0000005X9sAAEItem29",
        "%vlocity_namespace%__UpsertKey__c": false,
        "Name": "AgencyContractTransformForDocuSign",
        "VlocityDataPackType": "SObject",
        "VlocityRecordSObjectType": "%vlocity_namespace%__DRMapItem__c"
    },
    {
        "%vlocity_namespace%__DomainObjectAPIName__c": "json",
        "%vlocity_namespace%__DomainObjectCreationOrder__c": 1,
        "%vlocity_namespace%__DomainObjectFieldAPIName__c": "tabs:textTabs:MailingCityStateZip",
        "%vlocity_namespace%__InterfaceFieldAPIName__c": "MailCityStateZip",
        "%vlocity_namespace%__IsDisabled__c": false,
        "%vlocity_namespace%__IsRequiredForUpsert__c": false,
        "%vlocity_namespace%__MapId__c": "AgencyContractTransformForDocuSignCustom4594",
        "%vlocity_namespace%__UpsertKey__c": false,
        "Name": "AgencyContractTransformForDocuSign",
        "VlocityDataPackType": "SObject",
        "VlocityRecordSObjectType": "%vlocity_namespace%__DRMapItem__c"
    },
    {
        "%vlocity_namespace%__DomainObjectAPIName__c": "json",
        "%vlocity_namespace%__DomainObjectCreationOrder__c": 1,
        "%vlocity_namespace%__DomainObjectFieldAPIName__c": "tabs:textTabs:MailingStreet",
        "%vlocity_namespace%__InterfaceFieldAPIName__c": "MailStreet",
        "%vlocity_namespace%__IsDisabled__c": false,
        "%vlocity_namespace%__IsRequiredForUpsert__c": false,
        "%vlocity_namespace%__MapId__c": "AgencyContractTransformForDocuSignCustoma206s0000005X9sAAEItem35",
        "%vlocity_namespace%__UpsertKey__c": false,
        "Name": "AgencyContractTransformForDocuSign",
        "VlocityDataPackType": "SObject",
        "VlocityRecordSObjectType": "%vlocity_namespace%__DRMapItem__c"
    },
    {
        "%vlocity_namespace%__DefaultValue__c": "N/A",
        "%vlocity_namespace%__DomainObjectAPIName__c": "json",
        "%vlocity_namespace%__DomainObjectCreationOrder__c": 1,
        "%vlocity_namespace%__DomainObjectFieldAPIName__c": "tabs:textTabs:OtherBusinessInterest",
        "%vlocity_namespace%__InterfaceFieldAPIName__c": "otherBusinessInterest",
        "%vlocity_namespace%__IsDisabled__c": false,
        "%vlocity_namespace%__IsRequiredForUpsert__c": false,
        "%vlocity_namespace%__MapId__c": "AgencyContractTransformForDocuSignCustoma206s0000005X9sAAEItem40",
        "%vlocity_namespace%__UpsertKey__c": false,
        "Name": "AgencyContractTransformForDocuSign",
        "VlocityDataPackType": "SObject",
        "VlocityRecordSObjectType": "%vlocity_namespace%__DRMapItem__c"
    },
    {
        "%vlocity_namespace%__DomainObjectAPIName__c": "json",
        "%vlocity_namespace%__DomainObjectCreationOrder__c": 1,
        "%vlocity_namespace%__DomainObjectFieldAPIName__c": "tabs:textTabs:OwnerChanged",
        "%vlocity_namespace%__InterfaceFieldAPIName__c": "Ownerchanged",
        "%vlocity_namespace%__IsDisabled__c": false,
        "%vlocity_namespace%__IsRequiredForUpsert__c": false,
        "%vlocity_namespace%__MapId__c": "AgencyContractTransformForDocuSignCustoma206s0000005X9sAAEItem41",
        "%vlocity_namespace%__TransformValuesMap__c": "{\"true\":\"Yes\",\"false\":\"No\"}",
        "%vlocity_namespace%__UpsertKey__c": false,
        "Name": "AgencyContractTransformForDocuSign",
        "VlocityDataPackType": "SObject",
        "VlocityRecordSObjectType": "%vlocity_namespace%__DRMapItem__c"
    },
    {
        "%vlocity_namespace%__DomainObjectAPIName__c": "json",
        "%vlocity_namespace%__DomainObjectCreationOrder__c": 1,
        "%vlocity_namespace%__DomainObjectFieldAPIName__c": "tabs:textTabs:OwnnedByOtherBusiness",
        "%vlocity_namespace%__InterfaceFieldAPIName__c": "ownnedByOtherBussiness",
        "%vlocity_namespace%__IsDisabled__c": false,
        "%vlocity_namespace%__IsRequiredForUpsert__c": false,
        "%vlocity_namespace%__MapId__c": "AgencyContractTransformForDocuSignCustoma206s0000005X9sAAEItem42",
        "%vlocity_namespace%__TransformValuesMap__c": "{\"true\":\"Yes\",\"false\":\"No\"}",
        "%vlocity_namespace%__UpsertKey__c": false,
        "Name": "AgencyContractTransformForDocuSign",
        "VlocityDataPackType": "SObject",
        "VlocityRecordSObjectType": "%vlocity_namespace%__DRMapItem__c"
    },
    {
        "%vlocity_namespace%__DefaultValue__c": "N/A",
        "%vlocity_namespace%__DomainObjectAPIName__c": "json",
        "%vlocity_namespace%__DomainObjectCreationOrder__c": 1,
        "%vlocity_namespace%__DomainObjectFieldAPIName__c": "tabs:textTabs:PreviousMergedEntities",
        "%vlocity_namespace%__InterfaceFieldAPIName__c": "previousMergeAcquired",
        "%vlocity_namespace%__IsDisabled__c": false,
        "%vlocity_namespace%__IsRequiredForUpsert__c": false,
        "%vlocity_namespace%__MapId__c": "AgencyContractTransformForDocuSignCustoma206s0000005X9sAAEItem50",
        "%vlocity_namespace%__UpsertKey__c": false,
        "Name": "AgencyContractTransformForDocuSign",
        "VlocityDataPackType": "SObject",
        "VlocityRecordSObjectType": "%vlocity_namespace%__DRMapItem__c"
    },
    {
        "%vlocity_namespace%__DomainObjectAPIName__c": "json",
        "%vlocity_namespace%__DomainObjectCreationOrder__c": 1,
        "%vlocity_namespace%__DomainObjectFieldAPIName__c": "tabs:textTabs:SSN",
        "%vlocity_namespace%__InterfaceFieldAPIName__c": "taxTypeSSN",
        "%vlocity_namespace%__IsDisabled__c": false,
        "%vlocity_namespace%__IsRequiredForUpsert__c": false,
        "%vlocity_namespace%__MapId__c": "AgencyContractTransformForDocuSignCustoma206s0000005X9sAAEItem55",
        "%vlocity_namespace%__UpsertKey__c": false,
        "Name": "AgencyContractTransformForDocuSign",
        "VlocityDataPackType": "SObject",
        "VlocityRecordSObjectType": "%vlocity_namespace%__DRMapItem__c"
    },
    {
        "%vlocity_namespace%__DomainObjectAPIName__c": "json",
        "%vlocity_namespace%__DomainObjectCreationOrder__c": 1,
        "%vlocity_namespace%__DomainObjectFieldAPIName__c": "tabs:textTabs:StateInsuranceLicense",
        "%vlocity_namespace%__InterfaceFieldAPIName__c": "StateInsuranceLicense",
        "%vlocity_namespace%__IsDisabled__c": false,
        "%vlocity_namespace%__IsRequiredForUpsert__c": false,
        "%vlocity_namespace%__MapId__c": "AgencyContractTransformForDocuSignCustoma206s0000005X9sAAEItem51",
        "%vlocity_namespace%__UpsertKey__c": false,
        "Name": "AgencyContractTransformForDocuSign",
        "VlocityDataPackType": "SObject",
        "VlocityRecordSObjectType": "%vlocity_namespace%__DRMapItem__c"
    },
    {
        "%vlocity_namespace%__DomainObjectAPIName__c": "json",
        "%vlocity_namespace%__DomainObjectCreationOrder__c": 1,
        "%vlocity_namespace%__DomainObjectFieldAPIName__c": "tabs:textTabs:SubpicklistforHowDidyouHear",
        "%vlocity_namespace%__InterfaceFieldAPIName__c": "SubpicklistforHowDidyouHear",
        "%vlocity_namespace%__IsDisabled__c": false,
        "%vlocity_namespace%__IsRequiredForUpsert__c": false,
        "%vlocity_namespace%__MapId__c": "AgencyContractTransformForDocuSignCustoma206s0000005X9sAAEItem52",
        "%vlocity_namespace%__UpsertKey__c": false,
        "Name": "AgencyContractTransformForDocuSign",
        "VlocityDataPackType": "SObject",
        "VlocityRecordSObjectType": "%vlocity_namespace%__DRMapItem__c"
    },
    {
        "%vlocity_namespace%__DomainObjectAPIName__c": "json",
        "%vlocity_namespace%__DomainObjectCreationOrder__c": 1,
        "%vlocity_namespace%__DomainObjectFieldAPIName__c": "tabs:textTabs:TCLLC",
        "%vlocity_namespace%__InterfaceFieldAPIName__c": "llcTaxclass",
        "%vlocity_namespace%__IsDisabled__c": false,
        "%vlocity_namespace%__IsRequiredForUpsert__c": false,
        "%vlocity_namespace%__MapId__c": "AgencyContractTransformForDocuSignCustoma206s0000005X9sAAEItem28",
        "%vlocity_namespace%__UpsertKey__c": false,
        "Name": "AgencyContractTransformForDocuSign",
        "VlocityDataPackType": "SObject",
        "VlocityRecordSObjectType": "%vlocity_namespace%__DRMapItem__c"
    },
    {
        "%vlocity_namespace%__DomainObjectAPIName__c": "json",
        "%vlocity_namespace%__DomainObjectCreationOrder__c": 1,
        "%vlocity_namespace%__DomainObjectFieldAPIName__c": "tabs:textTabs:TaxId",
        "%vlocity_namespace%__InterfaceFieldAPIName__c": "FEIN_SSN",
        "%vlocity_namespace%__IsDisabled__c": false,
        "%vlocity_namespace%__IsRequiredForUpsert__c": false,
        "%vlocity_namespace%__MapId__c": "AgencyContractTransformForDocuSignCustoma206s0000005X9sAAEItem22",
        "%vlocity_namespace%__UpsertKey__c": false,
        "Name": "AgencyContractTransformForDocuSign",
        "VlocityDataPackType": "SObject",
        "VlocityRecordSObjectType": "%vlocity_namespace%__DRMapItem__c"
    },
    {
        "%vlocity_namespace%__DomainObjectAPIName__c": "json",
        "%vlocity_namespace%__DomainObjectCreationOrder__c": 1,
        "%vlocity_namespace%__DomainObjectFieldAPIName__c": "tabs:textTabs:TotalCommercialPremium",
        "%vlocity_namespace%__DomainObjectFieldType__c": "Currency",
        "%vlocity_namespace%__InterfaceFieldAPIName__c": "totalComPr",
        "%vlocity_namespace%__IsDisabled__c": false,
        "%vlocity_namespace%__IsRequiredForUpsert__c": false,
        "%vlocity_namespace%__MapId__c": "AgencyContractTransformForDocuSignCustoma206s0000005X9sAAEItem56",
        "%vlocity_namespace%__UpsertKey__c": false,
        "Name": "AgencyContractTransformForDocuSign",
        "VlocityDataPackType": "SObject",
        "VlocityRecordSObjectType": "%vlocity_namespace%__DRMapItem__c"
    },
    {
        "%vlocity_namespace%__DomainObjectAPIName__c": "json",
        "%vlocity_namespace%__DomainObjectCreationOrder__c": 1,
        "%vlocity_namespace%__DomainObjectFieldAPIName__c": "tabs:textTabs:TotalStaff",
        "%vlocity_namespace%__InterfaceFieldAPIName__c": "totalNoOfStaff",
        "%vlocity_namespace%__IsDisabled__c": false,
        "%vlocity_namespace%__IsRequiredForUpsert__c": false,
        "%vlocity_namespace%__MapId__c": "AgencyContractTransformForDocuSignCustoma206s0000005X9sAAEItem57",
        "%vlocity_namespace%__UpsertKey__c": false,
        "Name": "AgencyContractTransformForDocuSign",
        "VlocityDataPackType": "SObject",
        "VlocityRecordSObjectType": "%vlocity_namespace%__DRMapItem__c"
    },
    {
        "%vlocity_namespace%__DomainObjectAPIName__c": "json",
        "%vlocity_namespace%__DomainObjectCreationOrder__c": 1,
        "%vlocity_namespace%__DomainObjectFieldAPIName__c": "tabs:textTabs:TotalWrittenPremium",
        "%vlocity_namespace%__DomainObjectFieldType__c": "Currency",
        "%vlocity_namespace%__InterfaceFieldAPIName__c": "totalWrittenPremium",
        "%vlocity_namespace%__IsDisabled__c": false,
        "%vlocity_namespace%__IsRequiredForUpsert__c": false,
        "%vlocity_namespace%__MapId__c": "AgencyContractTransformForDocuSignCustoma206s0000005X9sAAEItem58",
        "%vlocity_namespace%__UpsertKey__c": false,
        "Name": "AgencyContractTransformForDocuSign",
        "VlocityDataPackType": "SObject",
        "VlocityRecordSObjectType": "%vlocity_namespace%__DRMapItem__c"
    },
    {
        "%vlocity_namespace%__DomainObjectAPIName__c": "json",
        "%vlocity_namespace%__DomainObjectCreationOrder__c": 1,
        "%vlocity_namespace%__DomainObjectFieldAPIName__c": "tabs:textTabs:UserEmail",
        "%vlocity_namespace%__InterfaceFieldAPIName__c": "User_email",
        "%vlocity_namespace%__IsDisabled__c": false,
        "%vlocity_namespace%__IsRequiredForUpsert__c": false,
        "%vlocity_namespace%__MapId__c": "AgencyContractTransformForDocuSignCustoma206s0000005X9sAAEItem59",
        "%vlocity_namespace%__UpsertKey__c": false,
        "Name": "AgencyContractTransformForDocuSign",
        "VlocityDataPackType": "SObject",
        "VlocityRecordSObjectType": "%vlocity_namespace%__DRMapItem__c"
    },
    {
        "%vlocity_namespace%__DomainObjectAPIName__c": "json",
        "%vlocity_namespace%__DomainObjectCreationOrder__c": 1,
        "%vlocity_namespace%__DomainObjectFieldAPIName__c": "tabs:textTabs:UserName",
        "%vlocity_namespace%__InterfaceFieldAPIName__c": "UserName",
        "%vlocity_namespace%__IsDisabled__c": false,
        "%vlocity_namespace%__IsRequiredForUpsert__c": false,
        "%vlocity_namespace%__MapId__c": "AgencyContractTransformForDocuSignCustoma206s0000005X9sAAEItem60",
        "%vlocity_namespace%__UpsertKey__c": false,
        "Name": "AgencyContractTransformForDocuSign",
        "VlocityDataPackType": "SObject",
        "VlocityRecordSObjectType": "%vlocity_namespace%__DRMapItem__c"
    },
    {
        "%vlocity_namespace%__DomainObjectAPIName__c": "json",
        "%vlocity_namespace%__DomainObjectCreationOrder__c": 1,
        "%vlocity_namespace%__DomainObjectFieldAPIName__c": "tabs:textTabs:Website",
        "%vlocity_namespace%__InterfaceFieldAPIName__c": "website",
        "%vlocity_namespace%__IsDisabled__c": false,
        "%vlocity_namespace%__IsRequiredForUpsert__c": false,
        "%vlocity_namespace%__MapId__c": "AgencyContractTransformForDocuSignCustoma206s0000005X9sAAEItem62",
        "%vlocity_namespace%__UpsertKey__c": false,
        "Name": "AgencyContractTransformForDocuSign",
        "VlocityDataPackType": "SObject",
        "VlocityRecordSObjectType": "%vlocity_namespace%__DRMapItem__c"
    },
    {
        "%vlocity_namespace%__DomainObjectAPIName__c": "json",
        "%vlocity_namespace%__DomainObjectCreationOrder__c": 1,
        "%vlocity_namespace%__DomainObjectFieldAPIName__c": "tabs:textTabs:WholesalerAggCluster",
        "%vlocity_namespace%__InterfaceFieldAPIName__c": "wholesalerAggCluster",
        "%vlocity_namespace%__IsDisabled__c": false,
        "%vlocity_namespace%__IsRequiredForUpsert__c": false,
        "%vlocity_namespace%__MapId__c": "AgencyContractTransformForDocuSignCustoma206s0000005X9sAAEItem63",
        "%vlocity_namespace%__TransformValuesMap__c": "{\"true\":\"Yes\",\"false\":\"No\"}",
        "%vlocity_namespace%__UpsertKey__c": false,
        "Name": "AgencyContractTransformForDocuSign",
        "VlocityDataPackType": "SObject",
        "VlocityRecordSObjectType": "%vlocity_namespace%__DRMapItem__c"
    },
    {
        "%vlocity_namespace%__DomainObjectAPIName__c": "json",
        "%vlocity_namespace%__DomainObjectCreationOrder__c": 1,
        "%vlocity_namespace%__DomainObjectFieldAPIName__c": "tabs:textTabs:w9AgencyDBA",
        "%vlocity_namespace%__InterfaceFieldAPIName__c": "Agency_DBA",
        "%vlocity_namespace%__IsDisabled__c": false,
        "%vlocity_namespace%__IsRequiredForUpsert__c": false,
        "%vlocity_namespace%__MapId__c": "AgencyContractTransformForDocuSignCustom5957",
        "%vlocity_namespace%__UpsertKey__c": false,
        "Name": "AgencyContractTransformForDocuSign",
        "VlocityDataPackType": "SObject",
        "VlocityRecordSObjectType": "%vlocity_namespace%__DRMapItem__c"
    },
    {
        "%vlocity_namespace%__DomainObjectAPIName__c": "json",
        "%vlocity_namespace%__DomainObjectCreationOrder__c": 1,
        "%vlocity_namespace%__DomainObjectFieldAPIName__c": "tabs:textTabs:w9AgencyName",
        "%vlocity_namespace%__InterfaceFieldAPIName__c": "Agency_Name",
        "%vlocity_namespace%__IsDisabled__c": false,
        "%vlocity_namespace%__IsRequiredForUpsert__c": false,
        "%vlocity_namespace%__MapId__c": "AgencyContractTransformForDocuSignCustom3978",
        "%vlocity_namespace%__UpsertKey__c": false,
        "Name": "AgencyContractTransformForDocuSign",
        "VlocityDataPackType": "SObject",
        "VlocityRecordSObjectType": "%vlocity_namespace%__DRMapItem__c"
    },
    {
        "%vlocity_namespace%__DomainObjectAPIName__c": "json",
        "%vlocity_namespace%__DomainObjectCreationOrder__c": 1,
        "%vlocity_namespace%__DomainObjectFieldAPIName__c": "tabs:textTabs:w9LocationCityStateZip",
        "%vlocity_namespace%__InterfaceFieldAPIName__c": "LocationCityStateZip",
        "%vlocity_namespace%__IsDisabled__c": false,
        "%vlocity_namespace%__IsRequiredForUpsert__c": false,
        "%vlocity_namespace%__MapId__c": "AgencyContractTransformForDocuSignCustom2930",
        "%vlocity_namespace%__UpsertKey__c": false,
        "Name": "AgencyContractTransformForDocuSign",
        "VlocityDataPackType": "SObject",
        "VlocityRecordSObjectType": "%vlocity_namespace%__DRMapItem__c"
    },
    {
        "%vlocity_namespace%__DomainObjectAPIName__c": "json",
        "%vlocity_namespace%__DomainObjectCreationOrder__c": 1,
        "%vlocity_namespace%__DomainObjectFieldAPIName__c": "tabs:textTabs:w9LocationStreet",
        "%vlocity_namespace%__InterfaceFieldAPIName__c": "LocationStreet",
        "%vlocity_namespace%__IsDisabled__c": false,
        "%vlocity_namespace%__IsRequiredForUpsert__c": false,
        "%vlocity_namespace%__MapId__c": "AgencyContractTransformForDocuSignCustom3833",
        "%vlocity_namespace%__UpsertKey__c": false,
        "Name": "AgencyContractTransformForDocuSign",
        "VlocityDataPackType": "SObject",
        "VlocityRecordSObjectType": "%vlocity_namespace%__DRMapItem__c"
    }
]