{
    "%vlocity_namespace%__CustomJavaScript__c": "Interaction_handleInteractionFieldClick_SampleInput.json",
    "%vlocity_namespace%__DisableMetadataCache__c": false,
    "%vlocity_namespace%__ElementTypeToHTMLTemplateList__c": "{\"ElementTypeToHTMLTemplateList\":[]}",
    "%vlocity_namespace%__Element__c": [
        "Interaction_handleInteractionFieldClick_Element_createInteractionTopic.json",
        "Interaction_handleInteractionFieldClick_Element_ResponseAction.json"
    ],
    "%vlocity_namespace%__IsLwcEnabled__c": false,
    "%vlocity_namespace%__IsProcedure__c": true,
    "%vlocity_namespace%__IsReusable__c": false,
    "%vlocity_namespace%__IsTest__c": false,
    "%vlocity_namespace%__Language__c": "Procedure",
    "%vlocity_namespace%__ProcedureKey__c": "Interaction_handleInteractionFieldClick",
    "%vlocity_namespace%__PropertySet__c": "Interaction_handleInteractionFieldClick_PropertySet.json",
    "%vlocity_namespace%__SubType__c": "handleInteractionFieldClick",
    "%vlocity_namespace%__Type__c": "Interaction",
    "Name": "InteractionClick",
    "VlocityDataPackType": "SObject",
    "VlocityRecordSObjectType": "%vlocity_namespace%__OmniScript__c",
    "VlocityRecordSourceKey": "%vlocity_namespace%__OmniScript__c/Interaction/handleInteractionFieldClick/Procedure",
    "sourceOrgUrl": "/apex/vlocity_ins__integrationproceduredesigner?id=a5C4W000000M0GcUAK"
}