{
    "%vlocity_namespace%__Author__c": "Vlocity",
    "%vlocity_namespace%__CustomJavascript__c": "ins-os-multi-item-modal.js",
    "%vlocity_namespace%__Definition__c": "",
    "%vlocity_namespace%__Description__c": "",
    "%vlocity_namespace%__DisplayOn__c": "",
    "%vlocity_namespace%__ExternalID__c": "ins-os-multi-item-modal/1/Vlocity/1529518971007",
    "%vlocity_namespace%__HTML__c": "ins-os-multi-item-modal.html",
    "%vlocity_namespace%__ParentID__c": "",
    "%vlocity_namespace%__SampleJson__c": "ins-os-multi-item-modal_Sample.json",
    "%vlocity_namespace%__Sass__c": "ins-os-multi-item-modal.scss",
    "%vlocity_namespace%__Type__c": "OmniScript Selectable Items",
    "%vlocity_namespace%__Version__c": 1,
    "Name": "ins-os-multi-item-modal",
    "VlocityDataPackType": "SObject",
    "VlocityRecordSObjectType": "%vlocity_namespace%__VlocityUITemplate__c",
    "VlocityRecordSourceKey": "%vlocity_namespace%__VlocityUITemplate__c/ins-os-multi-item-modal",
    "sourceOrgUrl": "/apex/vlocity_ins__uitemplatedesigner?id=a8C4W0000004iWlUAI"
}