{
    "DirectorsAndOfficersQuoteInqRq": {
        "CommlPolicy": {
            "BillingMethodCd": "AB",
            "BroadLobCd": "C",
            "CommlPolicySupplement": {
                "AverageResidentialUnitValue": "250000",
                "NumberOfEmployees": "0",
                "NumberOfUnitsWhenComplete": "38",
                "PercentageOfUnitsBuilt": "100",
                "PercentageOfUnitsRetail": "0",
                "PercentageOfUnitsSold": "100",
                "RetailOccupancy": "No",
                "SquareFootageOfLargestRetailEstablishment": "0"
            },
            "CommunityAssociation": "Condo - Residential",
            "ContractTerm": {
                "DurationPeriod": {
                    "NumUnits": "12",
                    "UnitMeasurementCd": "Month"
                },
                "EffectiveDt": "2020-11-15",
                "EndTime": "11:00:00",
                "ExpirationDt": "2021-11-15",
                "StartTime": "12:00:00"
            },
            "ControllingStateProvCd": "NJ",
            "LobCd": "DirectorsAndOfficers",
            "LobSubCd": "CAP",
            "PaymentOption": {
                "NumPayments": "01",
                "PaymentPlanCd": "AFL"
            },
            "PolicyVersion": "1",
            "QuestionAnswer": [
                {
                    "Explanation": "",
                    "Num": "",
                    "QuestionCd": "DU01",
                    "QuestionText": "Does the builder/developer or agent maintain representation on the board?",
                    "YesNoCd": "No"
                },
                {
                    "Explanation": "",
                    "Num": "",
                    "QuestionCd": "RU01",
                    "QuestionText": "Are any units rented or leased?",
                    "YesNoCd": "Yes"
                },
                {
                    "Explanation": "",
                    "Num": "39",
                    "QuestionCd": "RU01_01",
                    "QuestionText": "What percentage of units are rented or leased?",
                    "YesNoCd": ""
                },
                {
                    "Explanation": "",
                    "Num": "",
                    "QuestionCd": "RU02",
                    "QuestionText": "Are any units short-term or vacation rentals?",
                    "YesNoCd": "No"
                },
                {
                    "Explanation": "",
                    "Num": "",
                    "QuestionCd": "RU03",
                    "QuestionText": "A golf course or country club?",
                    "YesNoCd": "No"
                },
                {
                    "Explanation": "",
                    "Num": "",
                    "QuestionCd": "DU02",
                    "QuestionText": "Does the golf/country club have a separate board or is it separately managed?",
                    "YesNoCd": "Unknown"
                },
                {
                    "Explanation": "",
                    "Num": "",
                    "QuestionCd": "DU03",
                    "QuestionText": "An airport/airstrip?",
                    "YesNoCd": "No"
                },
                {
                    "Explanation": "",
                    "Num": "",
                    "QuestionCd": "RU04",
                    "QuestionText": "A water treatment facility?",
                    "YesNoCd": "No"
                },
                {
                    "Explanation": "",
                    "Num": "",
                    "QuestionCd": "RU05",
                    "QuestionText": "A sewage treatment facility?",
                    "YesNoCd": "No"
                },
                {
                    "Explanation": "",
                    "Num": "",
                    "QuestionCd": "DU04",
                    "QuestionText": "Does the Association have a negative fund balance?",
                    "YesNoCd": "No"
                },
                {
                    "Explanation": "",
                    "Num": "",
                    "QuestionCd": "RU06",
                    "QuestionText": "Does any one person/entity own multiple units?",
                    "YesNoCd": "No"
                },
                {
                    "Explanation": "",
                    "Num": "0",
                    "QuestionCd": "RU07",
                    "QuestionText": "Please indicate the percentage of units in arrears over 90 days.",
                    "YesNoCd": ""
                },
                {
                    "Explanation": "",
                    "Num": "",
                    "QuestionCd": "RU08",
                    "QuestionText": "Has the association completed a foreclosure sale against an owner?",
                    "YesNoCd": "No"
                },
                {
                    "Explanation": "",
                    "Num": "",
                    "QuestionCd": "RU09",
                    "QuestionText": "Have any board elections been challenged?",
                    "YesNoCd": "No"
                },
                {
                    "Explanation": "",
                    "Num": "",
                    "QuestionCd": "RU10",
                    "QuestionText": "Has the board initiated litigation for reasons other than collection of dues or fees?",
                    "YesNoCd": "No"
                },
                {
                    "Explanation": "",
                    "Num": "",
                    "QuestionCd": "RU11",
                    "QuestionText": "Has the association completed any renovation or improvement projects which resulted in a special assessment for the members?",
                    "YesNoCd": "No"
                },
                {
                    "Explanation": "",
                    "Num": "",
                    "QuestionCd": "RU12",
                    "QuestionText": "Within the last five years, has any inquiry, complaint, notice of hearing, claim or suit been made against the applicant, or any person proposed for insurance in the capacity of director, officer, trustee, employee, or volunteer of the applicant?",
                    "YesNoCd": "No"
                },
                {
                    "Explanation": "",
                    "Num": "",
                    "QuestionCd": "RU13",
                    "QuestionText": "Is any person(s) proposed for this insurance aware of any fact, circumstance or situation which may result in a claim against the applicant or any of its directors, officers, trustees, employees or volunteers?",
                    "YesNoCd": "No"
                },
                {
                    "Explanation": "",
                    "Num": "",
                    "QuestionCd": "RU14",
                    "QuestionText": "Has any policy for any of the lines seeking coverage been cancelled or non-renewed for reasons other than non-payment of premium?",
                    "YesNoCd": "No"
                }
            ],
            "QuoteInfo": {
                "InitialQuoteRequestDt": "2020-11-02"
            }
        },
        "DirectorsAndOfficersLineBusiness": {
            "CommlCoverage": {
                "CoverageCd": "D&O",
                "CoverageDesc": "DirectorsAndOfficers",
                "CoverageTypeCd": "Coverage",
                "EffectiveDt": "2020-11-15",
                "ExpirationDt": "2021-11-15",
                "Limit": {
                    "FormatInteger": "1,000,000"
                }
            },
            "LobCd": "DirectorsAndOfficers",
            "LobSubCd": "CAP"
        },
        "InsuredOrPrincipal": {
            "GeneralPartyInfo": {
                "Addr": {
                    "Addr1": "1806 Highway 35, Suite 301",
                    "Addr2": "",
                    "AddrTypeCd": "MailingAddress",
                    "City": "Oakhurst",
                    "PostalCode": "07755",
                    "StateProvCd": "NJ"
                },
                "Communications": {
                    "EmailInfo": {
                        "EmailAddr": ""
                    },
                    "PhoneInfo": {
                        "PhoneNumber": "(732) 517-0064"
                    }
                },
                "Location": {
                    "Addr": {
                        "Addr1": "1700 Webb Street",
                        "Addr2": "",
                        "AddrTypeCd": "PhysicalRisk",
                        "City": "Asbury Park",
                        "LocationDesc": "1",
                        "LocationName": "PrimaryLocation",
                        "PostalCode": "07712",
                        "StateProvCd": "NJ"
                    }
                },
                "NameInfo": {
                    "CommlName": {
                        "CommercialName": "Miramar Condominium Association Inc."
                    }
                },
                "SameAsMailingAddress": "0"
            }
        },
        "MsgRqInfo": {
            "AcordStandardVersionCd": "1.28",
            "BroadLobCd": "C",
            "BusinessPurposeTypeCd": "NBQ",
            "TransactionEffectiveDt": "2020-11-02"
        },
        "Producer": {
            "GeneralPartyInfo": {
                "Addr": {
                    "Addr1": "5045 Robert J Mathews Parkway",
                    "Addr2": "Suite 100",
                    "AddrTypeCd": "MailingAddress",
                    "City": "El Dorado Hills",
                    "PostalCode": "95762",
                    "StateProvCd": "CA"
                },
                "Communications": {
                    "EmailInfo": {
                        "EmailAddr": "condod&o@mgalive.com"
                    },
                    "PhoneInfo": {
                        "PhoneNumber": "916-939-9960"
                    }
                },
                "NameInfo": {
                    "CommlName": {
                        "CommercialName": "Community Association Insurance Solutions LLC"
                    }
                }
            },
            "ProducerInfo": {
                "ContractNumber": "Z07845"
            }
        },
        "RemarkText": ""
    },
    "RqUID": "321ab9cf-8e29-44f5-ad46-08385b25409e"
}