{
    "dataSource": {
        "contextVariables": [
            {
                "id": 2,
                "name": "recordId",
                "val": "0YT3K000000Mff1WAC"
            }
        ],
        "orderBy": {
            "isReverse": false,
            "name": ""
        },
        "type": "DataRaptor",
        "value": {
            "bundle": "caisPolicyDetails",
            "inputMap": {
                "Id": "{recordId}"
            },
            "resultVar": ""
        }
    },
    "enableLwc": true,
    "globalCSS": true,
    "isFlex": true,
    "lwc": {
        "DeveloperName": "cfCaisPolicyHeader_1_CAIS",
        "Id": "0Rb3K0000008bUnSAI",
        "MasterLabel": "cfCaisPolicyHeader_1_CAIS",
        "NamespacePrefix": "c"
    },
    "states": [
        {
            "actions": [
            ],
            "childCards": [
            ],
            "components": {
                "layer-0": {
                    "children": [
                        {
                            "class": "nds-col ",
                            "element": "outputField",
                            "elementLabel": "Block-0-Text-0",
                            "name": "Text",
                            "property": {
                                "card": "{card}",
                                "mergeField": "%3Cdiv%3E%7BLineOfBusiness%7D%20Policy%3C/div%3E",
                                "record": "{record}"
                            },
                            "size": {
                                "default": "12",
                                "isResponsive": false
                            },
                            "stateIndex": 0,
                            "styleObject": {
                                "background": {
                                    "color": "",
                                    "image": "",
                                    "position": "",
                                    "repeat": "",
                                    "size": ""
                                },
                                "border": {
                                    "color": "",
                                    "radius": "",
                                    "style": "",
                                    "type": "",
                                    "width": ""
                                },
                                "class": "cardHeader",
                                "container": {
                                    "class": ""
                                },
                                "customClass": "cardHeader",
                                "elementStyleProperties": {
                                },
                                "inlineStyle": "",
                                "margin": [
                                ],
                                "padding": [
                                ],
                                "size": {
                                    "default": "12",
                                    "isResponsive": false
                                },
                                "sizeClass": "nds-size_12-of-12 ",
                                "style": "            color:#16325C; ",
                                "text": {
                                    "align": "",
                                    "color": "#16325C"
                                }
                            },
                            "type": "text",
                            "userUpdatedElementLabel": true
                        },
                        {
                            "children": [
                            ],
                            "class": "nds-col ",
                            "element": "block",
                            "elementLabel": "Block-1",
                            "name": "Block",
                            "property": {
                                "card": "{card}",
                                "collapsedByDefault": false,
                                "collapsible": false,
                                "label": "Block",
                                "record": "{record}"
                            },
                            "size": {
                                "default": "12",
                                "isResponsive": false
                            },
                            "stateIndex": 0,
                            "styleObject": {
                                "class": "nds-p-around_x-small",
                                "padding": [
                                    {
                                        "size": "x-small",
                                        "type": "around"
                                    }
                                ],
                                "sizeClass": "nds-size_12-of-12"
                            },
                            "type": "block"
                        },
                        {
                            "class": "nds-col ",
                            "element": "outputField",
                            "elementLabel": "Text-2",
                            "name": "Text",
                            "property": {
                                "card": "{card}",
                                "mergeField": "%3Cdiv%3E%3Cspan%20style=%22font-family:%20Lato,%20sans-serif;%20font-size:%2010pt;%22%3E%3Cstrong%3E%3Cspan%20class=%22nds-text-heading_small%22%20style=%22color:%20#34495e;%22%3EPOLICY%20#:%20%7BPolicyNumber%7D%3C/span%3E%3C/strong%3E%3C/span%3E%3C/div%3E",
                                "record": "{record}"
                            },
                            "size": {
                                "default": "12",
                                "isResponsive": false
                            },
                            "stateIndex": 0,
                            "styleObject": {
                                "background": {
                                    "color": "",
                                    "image": "",
                                    "position": "",
                                    "repeat": "",
                                    "size": ""
                                },
                                "border": {
                                    "color": "",
                                    "radius": "",
                                    "style": "",
                                    "type": "",
                                    "width": ""
                                },
                                "class": "obj-num-field",
                                "container": {
                                    "class": ""
                                },
                                "customClass": "obj-num-field",
                                "elementStyleProperties": {
                                },
                                "inlineStyle": "",
                                "margin": [
                                ],
                                "padding": [
                                ],
                                "size": {
                                    "default": "12",
                                    "isResponsive": false
                                },
                                "sizeClass": "nds-size_12-of-12 ",
                                "style": "             ",
                                "text": {
                                    "align": "",
                                    "color": ""
                                }
                            },
                            "type": "text"
                        },
                        {
                            "children": [
                            ],
                            "class": "nds-col ",
                            "element": "block",
                            "elementLabel": "Block-3",
                            "name": "Block",
                            "property": {
                                "card": "{card}",
                                "collapsedByDefault": false,
                                "collapsible": false,
                                "label": "Block",
                                "record": "{record}"
                            },
                            "size": {
                                "default": "12",
                                "isResponsive": false
                            },
                            "stateIndex": 0,
                            "styleObject": {
                                "class": "nds-p-around_x-small",
                                "padding": [
                                    {
                                        "size": "x-small",
                                        "type": "around"
                                    }
                                ],
                                "sizeClass": "nds-size_12-of-12"
                            },
                            "type": "block"
                        },
                        {
                            "class": "nds-col ",
                            "element": "outputField",
                            "elementLabel": "Field-4",
                            "name": "Field",
                            "property": {
                                "card": "{card}",
                                "fieldName": "AccountName",
                                "label": "Insured:",
                                "labelclass": "fieldLabel",
                                "placeholder": "",
                                "record": "{record}",
                                "styles": {
                                    "value": {
                                        "fontFamily": "Arial"
                                    }
                                },
                                "type": "text",
                                "valueclass": "fieldValue"
                            },
                            "size": {
                                "default": "12",
                                "isResponsive": false
                            },
                            "stateIndex": 0,
                            "styleObject": {
                                "background": {
                                    "color": "",
                                    "image": "",
                                    "position": "",
                                    "repeat": "",
                                    "size": ""
                                },
                                "border": {
                                    "color": "",
                                    "radius": "",
                                    "style": "",
                                    "type": "",
                                    "width": ""
                                },
                                "container": {
                                    "class": ""
                                },
                                "elementStyleProperties": {
                                    "labelclass": "fieldLabel",
                                    "styles": {
                                        "value": {
                                            "fontFamily": "Arial"
                                        }
                                    },
                                    "valueclass": "fieldValue"
                                },
                                "inlineStyle": "",
                                "margin": [
                                ],
                                "padding": [
                                ],
                                "size": {
                                    "default": "12",
                                    "isResponsive": false
                                },
                                "sizeClass": "nds-size_12-of-12",
                                "text": {
                                    "align": "",
                                    "color": ""
                                }
                            },
                            "type": "element"
                        },
                        {
                            "class": "nds-col ",
                            "element": "outputField",
                            "elementLabel": "Field-5",
                            "name": "Field",
                            "property": {
                                "card": "{card}",
                                "currency": "USD",
                                "data-conditions": {
                                    "group": [
                                        {
                                            "field": "LineOfBusiness",
                                            "id": "state-new-condition-0",
                                            "operator": "!=",
                                            "type": "custom",
                                            "value": "\"\""
                                        }
                                    ],
                                    "id": "state-condition-object",
                                    "isParent": true
                                },
                                "fieldName": "LineOfBusiness",
                                "format": "MM/DD/YYYY",
                                "label": "Line Of Business:",
                                "labelclass": "fieldLabel",
                                "locale": "en-US",
                                "placeholder": "",
                                "record": "{record}",
                                "type": "text",
                                "valueclass": "fieldValue"
                            },
                            "size": {
                                "default": "6",
                                "isResponsive": false
                            },
                            "stateIndex": 0,
                            "styleObject": {
                                "background": {
                                    "color": "",
                                    "image": "",
                                    "position": "",
                                    "repeat": "",
                                    "size": ""
                                },
                                "border": {
                                    "color": "",
                                    "radius": "",
                                    "style": "",
                                    "type": "",
                                    "width": ""
                                },
                                "container": {
                                    "class": ""
                                },
                                "elementStyleProperties": {
                                    "labelclass": "fieldLabel",
                                    "valueclass": "fieldValue"
                                },
                                "inlineStyle": "",
                                "margin": [
                                ],
                                "padding": [
                                ],
                                "size": {
                                    "default": "6",
                                    "isResponsive": false
                                },
                                "sizeClass": "nds-size_6-of-12 ",
                                "text": {
                                    "align": "",
                                    "color": ""
                                }
                            },
                            "type": "element"
                        },
                        {
                            "class": "nds-col ",
                            "element": "outputField",
                            "elementLabel": "Field-7",
                            "name": "Field",
                            "property": {
                                "card": "{card}",
                                "fieldName": "Status",
                                "label": "Status:",
                                "labelclass": "fieldLabel",
                                "placeholder": "",
                                "record": "{record}",
                                "styles": {
                                    "value": {
                                        "fontFamily": "Arial"
                                    }
                                },
                                "type": "text",
                                "valueclass": "fieldValue"
                            },
                            "size": {
                                "default": "6",
                                "isResponsive": false
                            },
                            "stateIndex": 0,
                            "styleObject": {
                                "background": {
                                    "color": "",
                                    "image": "",
                                    "position": "",
                                    "repeat": "",
                                    "size": ""
                                },
                                "border": {
                                    "color": "",
                                    "radius": "",
                                    "style": "",
                                    "type": "",
                                    "width": ""
                                },
                                "container": {
                                    "class": ""
                                },
                                "elementStyleProperties": {
                                    "labelclass": "fieldLabel",
                                    "styles": {
                                        "value": {
                                            "fontFamily": "Arial"
                                        }
                                    },
                                    "valueclass": "fieldValue"
                                },
                                "inlineStyle": "",
                                "margin": [
                                ],
                                "padding": [
                                ],
                                "size": {
                                    "default": "6",
                                    "isResponsive": false
                                },
                                "sizeClass": "nds-size_6-of-12 ",
                                "text": {
                                    "align": "",
                                    "color": ""
                                }
                            },
                            "type": "element"
                        },
                        {
                            "class": "nds-col ",
                            "element": "outputField",
                            "elementLabel": "Field-8",
                            "name": "Field",
                            "property": {
                                "card": "{card}",
                                "fieldName": "ExpirationDate",
                                "format": "MM/DD/YYYY",
                                "label": "Policy Expiration Date:",
                                "labelclass": "fieldLabel",
                                "placeholder": "",
                                "record": "{record}",
                                "styles": {
                                    "value": {
                                        "fontFamily": "Arial"
                                    }
                                },
                                "type": "date",
                                "valueclass": "fieldValue"
                            },
                            "size": {
                                "default": "6",
                                "isResponsive": false
                            },
                            "stateIndex": 0,
                            "styleObject": {
                                "background": {
                                    "color": "",
                                    "image": "",
                                    "position": "",
                                    "repeat": "",
                                    "size": ""
                                },
                                "border": {
                                    "color": "",
                                    "radius": "",
                                    "style": "",
                                    "type": "",
                                    "width": ""
                                },
                                "container": {
                                    "class": ""
                                },
                                "elementStyleProperties": {
                                    "labelclass": "fieldLabel",
                                    "styles": {
                                        "value": {
                                            "fontFamily": "Arial"
                                        }
                                    },
                                    "valueclass": "fieldValue"
                                },
                                "inlineStyle": "",
                                "margin": [
                                ],
                                "padding": [
                                ],
                                "size": {
                                    "default": "6",
                                    "isResponsive": false
                                },
                                "sizeClass": "nds-size_6-of-12 ",
                                "text": {
                                    "align": "",
                                    "color": ""
                                }
                            },
                            "type": "element"
                        },
                        {
                            "class": "nds-col ",
                            "element": "outputField",
                            "elementLabel": "Field-9",
                            "name": "Field",
                            "property": {
                                "card": "{card}",
                                "fieldName": "LocationAddress",
                                "format": "MM/DD/YYYY",
                                "label": "Location Address:",
                                "labelclass": "fieldLabel",
                                "placeholder": "",
                                "record": "{record}",
                                "styles": {
                                    "value": {
                                        "fontFamily": "Arial"
                                    }
                                },
                                "type": "text",
                                "valueclass": "fieldValue"
                            },
                            "size": {
                                "default": "6",
                                "isResponsive": false
                            },
                            "stateIndex": 0,
                            "styleObject": {
                                "background": {
                                    "color": "",
                                    "image": "",
                                    "position": "",
                                    "repeat": "",
                                    "size": ""
                                },
                                "border": {
                                    "color": "",
                                    "radius": "",
                                    "style": "",
                                    "type": "",
                                    "width": ""
                                },
                                "container": {
                                    "class": ""
                                },
                                "elementStyleProperties": {
                                    "labelclass": "fieldLabel",
                                    "styles": {
                                        "value": {
                                            "fontFamily": "Arial"
                                        }
                                    },
                                    "valueclass": "fieldValue"
                                },
                                "inlineStyle": "",
                                "margin": [
                                ],
                                "padding": [
                                ],
                                "size": {
                                    "default": "6",
                                    "isResponsive": false
                                },
                                "sizeClass": "nds-size_6-of-12 ",
                                "text": {
                                    "align": "",
                                    "color": ""
                                }
                            },
                            "type": "element"
                        },
                        {
                            "class": "nds-col ",
                            "element": "outputField",
                            "elementLabel": "Field-10",
                            "name": "Field",
                            "property": {
                                "card": "{card}",
                                "fieldName": "EffectiveDate",
                                "format": "MM/DD/YYYY",
                                "label": "Policy Effective Date:",
                                "labelclass": "fieldLabel",
                                "placeholder": "",
                                "record": "{record}",
                                "styles": {
                                    "value": {
                                        "fontFamily": "Arial"
                                    }
                                },
                                "type": "date",
                                "valueclass": "fieldValue"
                            },
                            "size": {
                                "default": "6",
                                "isResponsive": false
                            },
                            "stateIndex": 0,
                            "styleObject": {
                                "background": {
                                    "color": "",
                                    "image": "",
                                    "position": "",
                                    "repeat": "",
                                    "size": ""
                                },
                                "border": {
                                    "color": "",
                                    "radius": "",
                                    "style": "",
                                    "type": "",
                                    "width": ""
                                },
                                "container": {
                                    "class": ""
                                },
                                "elementStyleProperties": {
                                    "labelclass": "fieldLabel",
                                    "styles": {
                                        "value": {
                                            "fontFamily": "Arial"
                                        }
                                    },
                                    "valueclass": "fieldValue"
                                },
                                "inlineStyle": "",
                                "margin": [
                                ],
                                "padding": [
                                ],
                                "size": {
                                    "default": "6",
                                    "isResponsive": false
                                },
                                "sizeClass": "nds-size_6-of-12 ",
                                "text": {
                                    "align": "",
                                    "color": ""
                                }
                            },
                            "type": "element"
                        },
                        {
                            "class": "nds-col ",
                            "element": "outputField",
                            "elementLabel": "Field-11",
                            "name": "Field",
                            "property": {
                                "card": "{card}",
                                "fieldName": "MailingAddress",
                                "format": "MM/DD/YYYY",
                                "label": "Mailing Address:",
                                "labelclass": "fieldLabel",
                                "placeholder": "",
                                "record": "{record}",
                                "styles": {
                                    "value": {
                                        "fontFamily": "Arial"
                                    }
                                },
                                "type": "text",
                                "valueclass": "fieldValue"
                            },
                            "size": {
                                "default": "6",
                                "isResponsive": false
                            },
                            "stateIndex": 0,
                            "styleObject": {
                                "background": {
                                    "color": "",
                                    "image": "",
                                    "position": "",
                                    "repeat": "",
                                    "size": ""
                                },
                                "border": {
                                    "color": "",
                                    "radius": "",
                                    "style": "",
                                    "type": "",
                                    "width": ""
                                },
                                "container": {
                                    "class": ""
                                },
                                "elementStyleProperties": {
                                    "labelclass": "fieldLabel",
                                    "styles": {
                                        "value": {
                                            "fontFamily": "Arial"
                                        }
                                    },
                                    "valueclass": "fieldValue"
                                },
                                "inlineStyle": "",
                                "margin": [
                                ],
                                "padding": [
                                ],
                                "size": {
                                    "default": "6",
                                    "isResponsive": false
                                },
                                "sizeClass": "nds-size_6-of-12 ",
                                "text": {
                                    "align": "",
                                    "color": ""
                                }
                            },
                            "type": "element"
                        },
                        {
                            "class": "nds-col ",
                            "element": "outputField",
                            "elementLabel": "Field-12",
                            "name": "Field",
                            "property": {
                                "card": "{card}",
                                "currency": "USD",
                                "fieldName": "Premium",
                                "format": "MM/DD/YYYY",
                                "label": "Premium:",
                                "labelclass": "fieldLabel",
                                "locale": "en-US",
                                "placeholder": "",
                                "record": "{record}",
                                "styles": {
                                    "value": {
                                        "fontFamily": "Arial"
                                    }
                                },
                                "type": "currency",
                                "valueclass": "fieldValue"
                            },
                            "size": {
                                "default": "6",
                                "isResponsive": false
                            },
                            "stateIndex": 0,
                            "styleObject": {
                                "background": {
                                    "color": "",
                                    "image": "",
                                    "position": "",
                                    "repeat": "",
                                    "size": ""
                                },
                                "border": {
                                    "color": "",
                                    "radius": "",
                                    "style": "",
                                    "type": "",
                                    "width": ""
                                },
                                "container": {
                                    "class": ""
                                },
                                "elementStyleProperties": {
                                    "labelclass": "fieldLabel",
                                    "styles": {
                                        "value": {
                                            "fontFamily": "Arial"
                                        }
                                    },
                                    "valueclass": "fieldValue"
                                },
                                "inlineStyle": "",
                                "margin": [
                                ],
                                "padding": [
                                ],
                                "size": {
                                    "default": "6",
                                    "isResponsive": false
                                },
                                "sizeClass": "nds-size_6-of-12 ",
                                "text": {
                                    "align": "",
                                    "color": ""
                                }
                            },
                            "type": "element"
                        },
                        {
                            "class": "nds-col ",
                            "element": "outputField",
                            "elementLabel": "Field-13",
                            "name": "Field",
                            "property": {
                                "card": "{card}",
                                "fieldName": "BillingAddress",
                                "format": "MM/DD/YYYY",
                                "label": "Billing Address:",
                                "labelclass": "fieldLabel",
                                "placeholder": "",
                                "record": "{record}",
                                "styles": {
                                    "value": {
                                        "fontFamily": "Arial"
                                    }
                                },
                                "type": "text",
                                "valueclass": "fieldValue"
                            },
                            "size": {
                                "default": "6",
                                "isResponsive": false
                            },
                            "stateIndex": 0,
                            "styleObject": {
                                "background": {
                                    "color": "",
                                    "image": "",
                                    "position": "",
                                    "repeat": "",
                                    "size": ""
                                },
                                "border": {
                                    "color": "",
                                    "radius": "",
                                    "style": "",
                                    "type": "",
                                    "width": ""
                                },
                                "container": {
                                    "class": ""
                                },
                                "elementStyleProperties": {
                                    "labelclass": "fieldLabel",
                                    "styles": {
                                        "value": {
                                            "fontFamily": "Arial"
                                        }
                                    },
                                    "valueclass": "fieldValue"
                                },
                                "inlineStyle": "",
                                "margin": [
                                ],
                                "padding": [
                                ],
                                "size": {
                                    "default": "6",
                                    "isResponsive": false
                                },
                                "sizeClass": "nds-size_6-of-12 ",
                                "text": {
                                    "align": "",
                                    "color": ""
                                }
                            },
                            "type": "element"
                        },
                        {
                            "class": "nds-col ",
                            "element": "outputField",
                            "elementLabel": "Field-14",
                            "name": "Field",
                            "property": {
                                "card": "{card}",
                                "currency": "USD",
                                "fieldName": "Tax",
                                "format": "MM/DD/YYYY",
                                "label": "Taxes & Fees:",
                                "labelclass": "fieldLabel",
                                "locale": "en-US",
                                "placeholder": "",
                                "record": "{record}",
                                "styles": {
                                    "value": {
                                        "fontFamily": "Arial"
                                    }
                                },
                                "type": "currency",
                                "valueclass": "fieldValue"
                            },
                            "size": {
                                "default": "6",
                                "isResponsive": false
                            },
                            "stateIndex": 0,
                            "styleObject": {
                                "background": {
                                    "color": "",
                                    "image": "",
                                    "position": "",
                                    "repeat": "",
                                    "size": ""
                                },
                                "border": {
                                    "color": "",
                                    "radius": "",
                                    "style": "",
                                    "type": "",
                                    "width": ""
                                },
                                "container": {
                                    "class": ""
                                },
                                "elementStyleProperties": {
                                    "labelclass": "fieldLabel",
                                    "styles": {
                                        "value": {
                                            "fontFamily": "Arial"
                                        }
                                    },
                                    "valueclass": "fieldValue"
                                },
                                "inlineStyle": "",
                                "margin": [
                                ],
                                "padding": [
                                ],
                                "size": {
                                    "default": "6",
                                    "isResponsive": false
                                },
                                "sizeClass": "nds-size_6-of-12 ",
                                "text": {
                                    "align": "",
                                    "color": ""
                                }
                            },
                            "type": "element"
                        },
                        {
                            "class": "nds-col ",
                            "element": "outputField",
                            "elementLabel": "Field-15",
                            "name": "Field",
                            "property": {
                                "card": "{card}",
                                "placeholder": "",
                                "record": "{record}",
                                "type": "text"
                            },
                            "size": {
                                "default": "6",
                                "isResponsive": false
                            },
                            "stateIndex": 0,
                            "styleObject": {
                                "size": {
                                    "default": "6",
                                    "isResponsive": false
                                },
                                "sizeClass": "nds-size_6-of-12 "
                            },
                            "type": "element"
                        },
                        {
                            "class": "nds-col ",
                            "element": "outputField",
                            "elementLabel": "Field-16",
                            "name": "Field",
                            "property": {
                                "card": "{card}",
                                "currency": "USD",
                                "fieldName": "TotalAmount",
                                "format": "MM/DD/YYYY",
                                "label": "Total Amount:",
                                "labelclass": "fieldLabel",
                                "locale": "en-US",
                                "placeholder": "",
                                "record": "{record}",
                                "styles": {
                                    "value": {
                                        "fontFamily": "Arial",
                                        "fontSize": "1.25em",
                                        "textDecoration": "bold"
                                    }
                                },
                                "type": "currency",
                                "valueclass": "fieldValue"
                            },
                            "size": {
                                "default": "6",
                                "isResponsive": false
                            },
                            "stateIndex": 0,
                            "styleObject": {
                                "background": {
                                    "color": "",
                                    "image": "",
                                    "position": "",
                                    "repeat": "",
                                    "size": ""
                                },
                                "border": {
                                    "color": "",
                                    "radius": "",
                                    "style": "",
                                    "type": "",
                                    "width": ""
                                },
                                "class": "",
                                "container": {
                                    "class": ""
                                },
                                "elementStyleProperties": {
                                    "labelclass": "fieldLabel",
                                    "styles": {
                                        "value": {
                                            "fontFamily": "Arial",
                                            "fontSize": "1.25em",
                                            "textDecoration": "bold"
                                        }
                                    },
                                    "valueclass": "fieldValue"
                                },
                                "inlineStyle": "",
                                "margin": [
                                ],
                                "padding": [
                                ],
                                "size": {
                                    "default": "6",
                                    "isResponsive": false
                                },
                                "sizeClass": "nds-size_6-of-12 ",
                                "style": "             ",
                                "text": {
                                    "align": "",
                                    "color": ""
                                }
                            },
                            "type": "element"
                        }
                    ]
                }
            },
            "conditions": {
                "group": [
                ],
                "id": "state-condition-object",
                "isParent": true
            },
            "definedActions": {
                "actions": [
                ]
            },
            "fields": [
            ],
            "isSmartAction": false,
            "name": "Active",
            "omniscripts": [
            ],
            "smartAction": {
            },
            "styleObject": {
                "background": {
                    "color": "#fff",
                    "image": "",
                    "position": "",
                    "repeat": "",
                    "size": ""
                },
                "border": {
                    "color": "#eee",
                    "radius": "0",
                    "style": "solid",
                    "type": "",
                    "width": "0.8"
                },
                "class": "nds-p-around_large nds-m-bottom_x-small ",
                "container": {
                    "class": ""
                },
                "elementStyleProperties": {
                },
                "inlineStyle": "",
                "margin": [
                    {
                        "label": "bottom:x-small",
                        "size": "x-small",
                        "type": "bottom"
                    }
                ],
                "padding": [
                    {
                        "label": "around:large",
                        "size": "large",
                        "type": "around"
                    }
                ],
                "size": {
                    "default": "12",
                    "isResponsive": false
                },
                "sizeClass": "nds-size_12-of-12 ",
                "style": "background-color:#fff;     border-color:#eee; border-width:0.8px; border-radius:0; border-style:solid;     ",
                "text": {
                    "align": "",
                    "color": ""
                }
            }
        }
    ],
    "theme": "nds",
    "title": "caisPolicyHeader"
}