{
    "%vlocity_namespace%__Author__c": "CAIS",
    "%vlocity_namespace%__Datasource__c": "",
    "%vlocity_namespace%__Definition__c": "caisManageYourQuotesLWC.json",
    "%vlocity_namespace%__Description__c": "",
    "%vlocity_namespace%__GlobalKey__c": "caisManageYourQuotesLWC/3/CAIS/1601577921109",
    "%vlocity_namespace%__ParentID__c": "",
    "%vlocity_namespace%__RequiredPermission__c": "",
    "%vlocity_namespace%__Type__c": "Layout",
    "%vlocity_namespace%__Version__c": 3,
    "Name": "caisManageYourQuotesLWC",
    "VlocityDataPackType": "SObject",
    "VlocityRecordSObjectType": "%vlocity_namespace%__VlocityUILayout__c",
    "VlocityRecordSourceKey": "%vlocity_namespace%__VlocityUILayout__c/caisManageYourQuotesLWC",
    "sourceOrgUrl": "/apex/vlocity_ins__carddesignernew?id=?id=a8B3K0000000CT6UAM"
}