{
    "AcordForm130": {
        "ADACompliantWorkplace": null,
        "AdditionalLocations": null,
        "AdditionalLocationsBlock": {
            "AddLocAddressBlock-Block": {
                "AddLocAddressBlock": null,
                "AddLocCity": null,
                "AddLocState": null,
                "AddLocStreetAddress": null,
                "AddLocZipcode": null
            },
            "AddLocAddressFormula": null,
            "AdditionalLocationNumber": null
        },
        "AnyOtherAssociations": null,
        "AthleticTeamsSponsored": null,
        "CalculatedFullTimeEmployees": null,
        "DWCompEditBlock": {
            "DWPolicyNumbers": null,
            "EntityName": null
        },
        "DWExplain": null,
        "DiscontinuedOperations": null,
        "DisputedWorkComp": null,
        "EmployeeAgeGroup": null,
        "EmployeeHealthPlans": null,
        "EmployeesUnder16Over60Age": null,
        "EmployeesWorkAtHome": null,
        "EstimatedAnnualRevenuesFL": null,
        "GroupTransportation": null,
        "HandicapEmployees": null,
        "HaveAdditionalDocuments": null,
        "HomeDutiesPerformed": null,
        "LIOtherAssociation": null,
        "LITypeofBusiness": null,
        "LaborInterchange": null,
        "LeaseEmployeeExplain": null,
        "LeaseEmployees": null,
        "NonRenewalReason": null,
        "OftenTravelStates": null,
        "OtherInsurance": null,
        "OtherInsuranceEditBlock": {
            "Coverages": null,
            "PolicyNumber": null,
            "Terms": null
        },
        "OtherTypeofBusiness": null,
        "OwnsAirWaterCraft": null,
        "PaymentPlanOption": null,
        "PercentageSubcontracted": null,
        "PhysicalsRequired": null,
        "PriorCoverageDeclined": null,
        "ProvidingTransportation": null,
        "RatingInfoBlock": {
            "RatingInfoCDC": null,
            "RatingInfoClassCode": null,
            "RatingInfoDescCode": null,
            "RatingInfoEmpFulltime": null,
            "RatingInfoEmpPartTime": null,
            "RatingInfoLocation": null,
            "RatingInfoPremium": null,
            "RatingInfoRate": null,
            "RatingInfoRemuneration": null,
            "RatingInfoState": null
        },
        "SeasonalEmployees": null,
        "SubcontractorsUsed": null,
        "SubletWithoutCOI": null,
        "TaxLiens": null,
        "TransportationFrequency": null,
        "TravelOutofState": null,
        "USLHCoverage": null,
        "UploadAdditionalFiles": [
            {
                "data": null,
                "filename": null,
                "size": null
            }
        ],
        "VolunteerLabor": null,
        "WCPayRuleStatus": null,
        "WhatTransportation": null,
        "WhatTypeofBusiness": null,
        "WhoIsDoingWork": null,
        "WhoTransported": null,
        "WorkBargesVessels": null,
        "WorkPerformedWhere": null,
        "WorkUnderground": null,
        "WrittenSafetyProgram": null,
        "YearsInBusiness": null,
        "agentLocation": null
    },
    "ConfirmationWCPay": {
    },
    "ContextId": null,
    "ReferralTextBlock": null,
    "SICNAICSCodes": [
        {
            "NAICS": 531311,
            "SIC": 6531
        }
    ],
    "SupplementalCommercialStep": {
        "ExplanationPolicyHistoryComm": null,
        "GeneralDutiesCommercial": {
            "DutiesComm": null,
            "EmploymentLocationComm": null,
            "NumFullTimeEmpComm": null,
            "NumPartTimeEmpComm": null
        },
        "MessagingCAReqPolicyHistoryComm": null,
        "MessagingPolicyHistoryComm": null,
        "PolicyHistoryCountComm": null,
        "Q10SuppCommText": null,
        "Q10aSuppCommText": null,
        "Q1SuppCommText": null,
        "Q2SuppCommText": null,
        "Q3SuppCommText": null,
        "Q4SuppCommText": null,
        "Q4aSuppCommText": null,
        "Q5SuppCommText": null,
        "Q6SuppCommText": null,
        "Q7SuppCommText": null,
        "Q8SuppCommText": null,
        "Q9SuppCommText": null,
        "Q9aSuppCommText": null,
        "QaSuppCommText": null,
        "QbSuppCommText": null,
        "QbbSuppCommText": null,
        "TotalEarnedPremiumAmountComm": null,
        "TotalPayrollAmountComm": null,
        "TotalsforAmountIncurredComm": null,
        "TotalsforClaimsComm": null,
        "WCPolicyHistoryBlockComm": {
            "AmountIncurredComm": null,
            "CarrierComm": null,
            "CountComm": null,
            "EarnedPremiumAmountComm": null,
            "NumOfClaimsComm": null,
            "PayrollAmountComm": null,
            "PolicyDateComm": null,
            "ValuationDateComm": null
        }
    },
    "SupplementalResidentialStep": {
        "AssocSpecialActivities": null,
        "AssocSpecialActivityDesc": null,
        "EmpHealthInsurance": null,
        "EmpLeasedOrBorrow": null,
        "EmpOnCall": null,
        "EmpOtherCompensation": null,
        "EmpOtherCompensationDesc": null,
        "EmpTimeClock": null,
        "EmployeeOnPremise": null,
        "ExplanationPolicyHistory": null,
        "GeneralDutiesResidential": {
            "Duties": null,
            "EmploymentLocation": null,
            "NumFullTimeEmp": null,
            "NumPartTimeEmp": null
        },
        "InsuranceNumber": null,
        "IsManagerOnsite": null,
        "MessagingCARequiredPolicyHistory": null,
        "MessagingPolicyHistory": null,
        "NoOfEmployees": null,
        "PolicyHistoryCount": null,
        "RequireInsuranceProof": null,
        "SalariedEmp": null,
        "TotalEarnedPremiumAmount": null,
        "TotalPayrollAmount": null,
        "TotalsforAmountIncurred": null,
        "TotalsforClaims": null,
        "WCPolicyHistoryBlock": {
            "AmountIncurred": null,
            "Carrier": null,
            "Count": null,
            "EarnedPremiumAmount": null,
            "NumOfClaims": null,
            "PayrollAmount": null,
            "PolicyDate": null,
            "ValuationDate": null
        }
    },
    "WCPayroll": {
        "DescOperationType": null,
        "FormsBlock": {
            "HaveAcord130Form": null,
            "HaveAdditionalForms": null,
            "HaveSupplementalForm": null,
            "UploadForms": [
                {
                    "data": null,
                    "filename": null,
                    "size": null
                }
            ]
        },
        "LiabilityBlock": {
            "LiabilityLimit": null
        },
        "PolicyTermBlock": {
            "EffectiveDate": null,
            "ExpirationDate": null,
            "ExpirationDateDefault": null,
            "IsPartialTerm": null
        }
    },
    "newDeclinedTextBlock": null,
    "prodCode": "WCPay",
    "timeStamp": null,
    "userId": null,
    "userName": null,
    "userProfile": null,
    "userTimeZone": null,
    "vlcPersistentComponent": {
    },
    "vlcTimeTracking": {
        "AcordForm130": null,
        "ConfirmationWCPay": null,
        "IP_CreateWCPayQuote": null,
        "RuleProcessingServiceWCPay": null,
        "SupplementalCommercialStep": null,
        "SupplementalResidentialStep": null,
        "WCPayroll": null,
        "setMailFieldsandReferralTextWCPay": null
    }
}