[
    {
        "%vlocity_namespace%__FloorPrice__c": "",
        "%vlocity_namespace%__OverageCharge__c": "",
        "%vlocity_namespace%__OverageUOM__c": "",
        "%vlocity_namespace%__RecurringPrice__c": "",
        "%vlocity_namespace%__RecurringUOM__c": "Monthly",
        "IsActive": true,
        "IsArchived": false,
        "Name": "Community Association Payroll",
        "Pricebook2.Name": "Standard Price Book",
        "Pricebook2Id": {
            "Name": "Standard Price Book",
            "VlocityDataPackType": "VlocityLookupMatchingKeyObject",
            "VlocityLookupRecordSourceKey": "Pricebook2/Standard Price Book",
            "VlocityRecordSObjectType": "Pricebook2"
        },
        "Product2.%vlocity_namespace%__GlobalKey__c": "b9828f4a-0b6b-cb0b-75d5-edcbc1d604c7",
        "Product2Id": {
            "%vlocity_namespace%__GlobalKey__c": "b9828f4a-0b6b-cb0b-75d5-edcbc1d604c7",
            "VlocityDataPackType": "VlocityMatchingKeyObject",
            "VlocityMatchingRecordSourceKey": "Product2/b9828f4a-0b6b-cb0b-75d5-edcbc1d604c7",
            "VlocityRecordSObjectType": "Product2"
        },
        "ProductCode": "CAWCPay",
        "UnitPrice": 1,
        "UseStandardPrice": false,
        "VlocityDataPackType": "SObject",
        "VlocityRecordSObjectType": "PricebookEntry",
        "VlocityRecordSourceKey": "PricebookEntry/Pricebook2/Standard Price Book/Product2/b9828f4a-0b6b-cb0b-75d5-edcbc1d604c7"
    }
]