[
    {
        "%vlocity_namespace%__DomainObjectAPIName__c": "json",
        "%vlocity_namespace%__DomainObjectCreationOrder__c": 0,
        "%vlocity_namespace%__DomainObjectFieldAPIName__c": "Quote",
        "%vlocity_namespace%__FilterGroup__c": 0,
        "%vlocity_namespace%__FilterOperator__c": "=",
        "%vlocity_namespace%__FilterValue__c": "quoteId",
        "%vlocity_namespace%__InterfaceFieldAPIName__c": "Id",
        "%vlocity_namespace%__InterfaceObjectLookupOrder__c": 1,
        "%vlocity_namespace%__InterfaceObjectName__c": "Quote",
        "%vlocity_namespace%__IsDisabled__c": false,
        "%vlocity_namespace%__IsRequiredForUpsert__c": false,
        "%vlocity_namespace%__MapId__c": "getQuoteNumberCustom9809",
        "%vlocity_namespace%__UpsertKey__c": false,
        "Name": "getQuoteNumber",
        "VlocityDataPackType": "SObject",
        "VlocityRecordSObjectType": "%vlocity_namespace%__DRMapItem__c"
    },
    {
        "%vlocity_namespace%__DomainObjectAPIName__c": "json",
        "%vlocity_namespace%__DomainObjectCreationOrder__c": 0,
        "%vlocity_namespace%__DomainObjectFieldAPIName__c": "Quote2",
        "%vlocity_namespace%__FilterGroup__c": 0,
        "%vlocity_namespace%__FilterOperator__c": "=",
        "%vlocity_namespace%__FilterValue__c": "quoteId2",
        "%vlocity_namespace%__InterfaceFieldAPIName__c": "Id",
        "%vlocity_namespace%__InterfaceObjectLookupOrder__c": 2,
        "%vlocity_namespace%__InterfaceObjectName__c": "Quote",
        "%vlocity_namespace%__IsDisabled__c": false,
        "%vlocity_namespace%__IsRequiredForUpsert__c": false,
        "%vlocity_namespace%__MapId__c": "getQuoteNumberCustom8782",
        "%vlocity_namespace%__UpsertKey__c": false,
        "Name": "getQuoteNumber",
        "VlocityDataPackType": "SObject",
        "VlocityRecordSObjectType": "%vlocity_namespace%__DRMapItem__c"
    },
    {
        "%vlocity_namespace%__DomainObjectAPIName__c": "json",
        "%vlocity_namespace%__DomainObjectCreationOrder__c": 0,
        "%vlocity_namespace%__DomainObjectFieldAPIName__c": "QuoteLineItem1",
        "%vlocity_namespace%__FilterGroup__c": 0,
        "%vlocity_namespace%__FilterOperator__c": "=",
        "%vlocity_namespace%__FilterValue__c": "quoteId",
        "%vlocity_namespace%__InterfaceFieldAPIName__c": "QuoteId",
        "%vlocity_namespace%__InterfaceObjectLookupOrder__c": 3,
        "%vlocity_namespace%__InterfaceObjectName__c": "QuoteLineItem",
        "%vlocity_namespace%__IsDisabled__c": false,
        "%vlocity_namespace%__IsRequiredForUpsert__c": false,
        "%vlocity_namespace%__MapId__c": "getQuoteNumberCustom5814",
        "%vlocity_namespace%__UpsertKey__c": false,
        "Name": "getQuoteNumber",
        "VlocityDataPackType": "SObject",
        "VlocityRecordSObjectType": "%vlocity_namespace%__DRMapItem__c"
    },
    {
        "%vlocity_namespace%__DomainObjectAPIName__c": "json",
        "%vlocity_namespace%__DomainObjectCreationOrder__c": 0,
        "%vlocity_namespace%__DomainObjectFieldAPIName__c": "QuoteLineItem1",
        "%vlocity_namespace%__FilterGroup__c": 0,
        "%vlocity_namespace%__FilterOperator__c": "ORDER BY",
        "%vlocity_namespace%__FilterValue__c": "CreatedDate,%vlocity_namespace%__ProductName__c",
        "%vlocity_namespace%__InterfaceObjectLookupOrder__c": 3,
        "%vlocity_namespace%__InterfaceObjectName__c": "QuoteLineItem",
        "%vlocity_namespace%__IsDisabled__c": false,
        "%vlocity_namespace%__IsRequiredForUpsert__c": false,
        "%vlocity_namespace%__MapId__c": "getQuoteNumberCustom3110",
        "%vlocity_namespace%__UpsertKey__c": false,
        "Name": "getQuoteNumber",
        "VlocityDataPackType": "SObject",
        "VlocityRecordSObjectType": "%vlocity_namespace%__DRMapItem__c"
    },
    {
        "%vlocity_namespace%__DomainObjectAPIName__c": "json",
        "%vlocity_namespace%__DomainObjectCreationOrder__c": 0,
        "%vlocity_namespace%__DomainObjectFieldAPIName__c": "QuoteLineItem2",
        "%vlocity_namespace%__FilterGroup__c": 0,
        "%vlocity_namespace%__FilterOperator__c": "=",
        "%vlocity_namespace%__FilterValue__c": "quoteId2",
        "%vlocity_namespace%__InterfaceFieldAPIName__c": "QuoteId",
        "%vlocity_namespace%__InterfaceObjectLookupOrder__c": 4,
        "%vlocity_namespace%__InterfaceObjectName__c": "QuoteLineItem",
        "%vlocity_namespace%__IsDisabled__c": false,
        "%vlocity_namespace%__IsRequiredForUpsert__c": false,
        "%vlocity_namespace%__MapId__c": "getQuoteNumberCustom1480",
        "%vlocity_namespace%__UpsertKey__c": false,
        "Name": "getQuoteNumber",
        "VlocityDataPackType": "SObject",
        "VlocityRecordSObjectType": "%vlocity_namespace%__DRMapItem__c"
    },
    {
        "%vlocity_namespace%__DomainObjectAPIName__c": "json",
        "%vlocity_namespace%__DomainObjectCreationOrder__c": 0,
        "%vlocity_namespace%__DomainObjectFieldAPIName__c": "QuoteLineItem2",
        "%vlocity_namespace%__FilterGroup__c": 0,
        "%vlocity_namespace%__FilterOperator__c": "ORDER BY",
        "%vlocity_namespace%__FilterValue__c": "CreatedDate,%vlocity_namespace%__ProductName__c",
        "%vlocity_namespace%__InterfaceObjectLookupOrder__c": 4,
        "%vlocity_namespace%__InterfaceObjectName__c": "QuoteLineItem",
        "%vlocity_namespace%__IsDisabled__c": false,
        "%vlocity_namespace%__IsRequiredForUpsert__c": false,
        "%vlocity_namespace%__MapId__c": "getQuoteNumberCustom8015",
        "%vlocity_namespace%__UpsertKey__c": false,
        "Name": "getQuoteNumber",
        "VlocityDataPackType": "SObject",
        "VlocityRecordSObjectType": "%vlocity_namespace%__DRMapItem__c"
    },
    {
        "%vlocity_namespace%__DomainObjectAPIName__c": "Formula",
        "%vlocity_namespace%__DomainObjectCreationOrder__c": 0,
        "%vlocity_namespace%__DomainObjectFieldAPIName__c": "Formula",
        "%vlocity_namespace%__FormulaOrder__c": 1,
        "%vlocity_namespace%__FormulaResultPath__c": "QuoteLineItem1:ACoverage",
        "%vlocity_namespace%__Formula__c": "IF(QuoteLineItem1:%vlocity_namespace%__ProductName__c == 'A. Employee Theft',  QuoteLineItem1:%vlocity_namespace%__AttributeSelectedValues__c,'')",
        "%vlocity_namespace%__IsDisabled__c": false,
        "%vlocity_namespace%__IsRequiredForUpsert__c": false,
        "%vlocity_namespace%__MapId__c": "getQuoteNumberCustom7256",
        "%vlocity_namespace%__UpsertKey__c": false,
        "Name": "getQuoteNumber",
        "VlocityDataPackType": "SObject",
        "VlocityRecordSObjectType": "%vlocity_namespace%__DRMapItem__c"
    },
    {
        "%vlocity_namespace%__DomainObjectAPIName__c": "Formula",
        "%vlocity_namespace%__DomainObjectCreationOrder__c": 0,
        "%vlocity_namespace%__DomainObjectFieldAPIName__c": "Formula",
        "%vlocity_namespace%__FormulaOrder__c": 10,
        "%vlocity_namespace%__FormulaResultPath__c": "QuoteLineItem2:AOnlyCoverage",
        "%vlocity_namespace%__Formula__c": "IF(QuoteLineItem2:%vlocity_namespace%__ProductName__c == 'A. Employee Theft (Only)',  QuoteLineItem2:%vlocity_namespace%__AttributeSelectedValues__c,'')",
        "%vlocity_namespace%__IsDisabled__c": false,
        "%vlocity_namespace%__IsRequiredForUpsert__c": false,
        "%vlocity_namespace%__MapId__c": "getQuoteNumberCustom4667",
        "%vlocity_namespace%__UpsertKey__c": false,
        "Name": "getQuoteNumber",
        "VlocityDataPackType": "SObject",
        "VlocityRecordSObjectType": "%vlocity_namespace%__DRMapItem__c"
    },
    {
        "%vlocity_namespace%__DomainObjectAPIName__c": "Formula",
        "%vlocity_namespace%__DomainObjectCreationOrder__c": 0,
        "%vlocity_namespace%__DomainObjectFieldAPIName__c": "Formula",
        "%vlocity_namespace%__FormulaOrder__c": 2,
        "%vlocity_namespace%__FormulaResultPath__c": "QuoteLineItem1:BCoverage",
        "%vlocity_namespace%__Formula__c": "IF(QuoteLineItem1:%vlocity_namespace%__ProductName__c == 'B. Forgery or Alterations',  QuoteLineItem1:%vlocity_namespace%__AttributeSelectedValues__c,'')",
        "%vlocity_namespace%__IsDisabled__c": false,
        "%vlocity_namespace%__IsRequiredForUpsert__c": false,
        "%vlocity_namespace%__MapId__c": "getQuoteNumberCustom2651",
        "%vlocity_namespace%__UpsertKey__c": false,
        "Name": "getQuoteNumber",
        "VlocityDataPackType": "SObject",
        "VlocityRecordSObjectType": "%vlocity_namespace%__DRMapItem__c"
    },
    {
        "%vlocity_namespace%__DomainObjectAPIName__c": "Formula",
        "%vlocity_namespace%__DomainObjectCreationOrder__c": 0,
        "%vlocity_namespace%__DomainObjectFieldAPIName__c": "Formula",
        "%vlocity_namespace%__FormulaOrder__c": 3,
        "%vlocity_namespace%__FormulaResultPath__c": "QuoteLineItem1:CCoverage",
        "%vlocity_namespace%__Formula__c": "IF(QuoteLineItem1:%vlocity_namespace%__ProductName__c == 'C. Inside the Premises Theft of Money and Securities',  QuoteLineItem1:%vlocity_namespace%__AttributeSelectedValues__c,'')",
        "%vlocity_namespace%__IsDisabled__c": false,
        "%vlocity_namespace%__IsRequiredForUpsert__c": false,
        "%vlocity_namespace%__MapId__c": "getQuoteNumberCustom9196",
        "%vlocity_namespace%__UpsertKey__c": false,
        "Name": "getQuoteNumber",
        "VlocityDataPackType": "SObject",
        "VlocityRecordSObjectType": "%vlocity_namespace%__DRMapItem__c"
    },
    {
        "%vlocity_namespace%__DomainObjectAPIName__c": "Formula",
        "%vlocity_namespace%__DomainObjectCreationOrder__c": 0,
        "%vlocity_namespace%__DomainObjectFieldAPIName__c": "Formula",
        "%vlocity_namespace%__FormulaOrder__c": 4,
        "%vlocity_namespace%__FormulaResultPath__c": "QuoteLineItem1:DCoverage",
        "%vlocity_namespace%__Formula__c": "IF(QuoteLineItem1:%vlocity_namespace%__ProductName__c == 'D. Inside the Premises Robbery or Safe Burglary of Other Property',  QuoteLineItem1:%vlocity_namespace%__AttributeSelectedValues__c,'')",
        "%vlocity_namespace%__IsDisabled__c": false,
        "%vlocity_namespace%__IsRequiredForUpsert__c": false,
        "%vlocity_namespace%__MapId__c": "getQuoteNumberCustom7414",
        "%vlocity_namespace%__UpsertKey__c": false,
        "Name": "getQuoteNumber",
        "VlocityDataPackType": "SObject",
        "VlocityRecordSObjectType": "%vlocity_namespace%__DRMapItem__c"
    },
    {
        "%vlocity_namespace%__DomainObjectAPIName__c": "Formula",
        "%vlocity_namespace%__DomainObjectCreationOrder__c": 0,
        "%vlocity_namespace%__DomainObjectFieldAPIName__c": "Formula",
        "%vlocity_namespace%__FormulaOrder__c": 5,
        "%vlocity_namespace%__FormulaResultPath__c": "QuoteLineItem1:ECoverage",
        "%vlocity_namespace%__Formula__c": "IF(QuoteLineItem1:%vlocity_namespace%__ProductName__c == 'E. Outside the Premises',  QuoteLineItem1:%vlocity_namespace%__AttributeSelectedValues__c,'')",
        "%vlocity_namespace%__IsDisabled__c": false,
        "%vlocity_namespace%__IsRequiredForUpsert__c": false,
        "%vlocity_namespace%__MapId__c": "getQuoteNumberCustom2796",
        "%vlocity_namespace%__UpsertKey__c": false,
        "Name": "getQuoteNumber",
        "VlocityDataPackType": "SObject",
        "VlocityRecordSObjectType": "%vlocity_namespace%__DRMapItem__c"
    },
    {
        "%vlocity_namespace%__DomainObjectAPIName__c": "Formula",
        "%vlocity_namespace%__DomainObjectCreationOrder__c": 0,
        "%vlocity_namespace%__DomainObjectFieldAPIName__c": "Formula",
        "%vlocity_namespace%__FormulaOrder__c": 6,
        "%vlocity_namespace%__FormulaResultPath__c": "QuoteLineItem1:FCoverage",
        "%vlocity_namespace%__Formula__c": "IF(QuoteLineItem1:%vlocity_namespace%__ProductName__c == 'F. Computer and Funds Transfer Fraud',  QuoteLineItem1:%vlocity_namespace%__AttributeSelectedValues__c,'')",
        "%vlocity_namespace%__IsDisabled__c": false,
        "%vlocity_namespace%__IsRequiredForUpsert__c": false,
        "%vlocity_namespace%__MapId__c": "getQuoteNumberCustom4891",
        "%vlocity_namespace%__UpsertKey__c": false,
        "Name": "getQuoteNumber",
        "VlocityDataPackType": "SObject",
        "VlocityRecordSObjectType": "%vlocity_namespace%__DRMapItem__c"
    },
    {
        "%vlocity_namespace%__DomainObjectAPIName__c": "Formula",
        "%vlocity_namespace%__DomainObjectCreationOrder__c": 0,
        "%vlocity_namespace%__DomainObjectFieldAPIName__c": "Formula",
        "%vlocity_namespace%__FormulaOrder__c": 7,
        "%vlocity_namespace%__FormulaResultPath__c": "QuoteLineItem1:GCoverage",
        "%vlocity_namespace%__Formula__c": "IF(QuoteLineItem1:%vlocity_namespace%__ProductName__c == 'G. Money Orders & Counterfeit Money',  QuoteLineItem1:%vlocity_namespace%__AttributeSelectedValues__c,'')",
        "%vlocity_namespace%__IsDisabled__c": false,
        "%vlocity_namespace%__IsRequiredForUpsert__c": false,
        "%vlocity_namespace%__MapId__c": "getQuoteNumberCustom1217",
        "%vlocity_namespace%__UpsertKey__c": false,
        "Name": "getQuoteNumber",
        "VlocityDataPackType": "SObject",
        "VlocityRecordSObjectType": "%vlocity_namespace%__DRMapItem__c"
    },
    {
        "%vlocity_namespace%__DomainObjectAPIName__c": "Formula",
        "%vlocity_namespace%__DomainObjectCreationOrder__c": 0,
        "%vlocity_namespace%__DomainObjectFieldAPIName__c": "Formula",
        "%vlocity_namespace%__FormulaOrder__c": 8,
        "%vlocity_namespace%__FormulaResultPath__c": "QuoteLineItem1:XsCoverageAG",
        "%vlocity_namespace%__Formula__c": "IF(QuoteLineItem1:%vlocity_namespace%__ProductName__c == 'Excess Coverage',  QuoteLineItem1:%vlocity_namespace%__AttributeSelectedValues__c,'')",
        "%vlocity_namespace%__IsDisabled__c": false,
        "%vlocity_namespace%__IsRequiredForUpsert__c": false,
        "%vlocity_namespace%__MapId__c": "getQuoteNumberCustom2046",
        "%vlocity_namespace%__UpsertKey__c": false,
        "Name": "getQuoteNumber",
        "VlocityDataPackType": "SObject",
        "VlocityRecordSObjectType": "%vlocity_namespace%__DRMapItem__c"
    },
    {
        "%vlocity_namespace%__DomainObjectAPIName__c": "Formula",
        "%vlocity_namespace%__DomainObjectCreationOrder__c": 0,
        "%vlocity_namespace%__DomainObjectFieldAPIName__c": "Formula",
        "%vlocity_namespace%__FormulaOrder__c": 9,
        "%vlocity_namespace%__FormulaResultPath__c": "QuoteLineItem2:XsCoverageAOnly",
        "%vlocity_namespace%__Formula__c": "IF(QuoteLineItem2:%vlocity_namespace%__ProductName__c == 'Excess Coverage',  QuoteLineItem2:%vlocity_namespace%__AttributeSelectedValues__c,'')",
        "%vlocity_namespace%__IsDisabled__c": false,
        "%vlocity_namespace%__IsRequiredForUpsert__c": false,
        "%vlocity_namespace%__MapId__c": "getQuoteNumberCustom7902",
        "%vlocity_namespace%__UpsertKey__c": false,
        "Name": "getQuoteNumber",
        "VlocityDataPackType": "SObject",
        "VlocityRecordSObjectType": "%vlocity_namespace%__DRMapItem__c"
    },
    {
        "%vlocity_namespace%__DomainObjectAPIName__c": "json",
        "%vlocity_namespace%__DomainObjectCreationOrder__c": 1,
        "%vlocity_namespace%__DomainObjectFieldAPIName__c": "Quote:ACoverageLimit",
        "%vlocity_namespace%__DomainObjectFieldType__c": "Currency",
        "%vlocity_namespace%__InterfaceFieldAPIName__c": "QuoteLineItem1:ACoverage:coverageLimit",
        "%vlocity_namespace%__IsDisabled__c": false,
        "%vlocity_namespace%__IsRequiredForUpsert__c": false,
        "%vlocity_namespace%__MapId__c": "getQuoteNumberCustom4105",
        "%vlocity_namespace%__UpsertKey__c": false,
        "Name": "getQuoteNumber",
        "VlocityDataPackType": "SObject",
        "VlocityRecordSObjectType": "%vlocity_namespace%__DRMapItem__c"
    },
    {
        "%vlocity_namespace%__DomainObjectAPIName__c": "json",
        "%vlocity_namespace%__DomainObjectCreationOrder__c": 1,
        "%vlocity_namespace%__DomainObjectFieldAPIName__c": "Quote:ADeductible",
        "%vlocity_namespace%__DomainObjectFieldType__c": "Currency",
        "%vlocity_namespace%__InterfaceFieldAPIName__c": "QuoteLineItem1:ACoverage:deductible",
        "%vlocity_namespace%__IsDisabled__c": false,
        "%vlocity_namespace%__IsRequiredForUpsert__c": false,
        "%vlocity_namespace%__MapId__c": "getQuoteNumberCustom9155",
        "%vlocity_namespace%__UpsertKey__c": false,
        "Name": "getQuoteNumber",
        "VlocityDataPackType": "SObject",
        "VlocityRecordSObjectType": "%vlocity_namespace%__DRMapItem__c"
    },
    {
        "%vlocity_namespace%__DomainObjectAPIName__c": "json",
        "%vlocity_namespace%__DomainObjectCreationOrder__c": 1,
        "%vlocity_namespace%__DomainObjectFieldAPIName__c": "Quote:AOnlyCoverageLimit",
        "%vlocity_namespace%__DomainObjectFieldType__c": "Currency",
        "%vlocity_namespace%__InterfaceFieldAPIName__c": "QuoteLineItem2:AOnlyCoverage:coverageLimit",
        "%vlocity_namespace%__IsDisabled__c": false,
        "%vlocity_namespace%__IsRequiredForUpsert__c": false,
        "%vlocity_namespace%__MapId__c": "getQuoteNumberCustom5648",
        "%vlocity_namespace%__UpsertKey__c": false,
        "Name": "getQuoteNumber",
        "VlocityDataPackType": "SObject",
        "VlocityRecordSObjectType": "%vlocity_namespace%__DRMapItem__c"
    },
    {
        "%vlocity_namespace%__DomainObjectAPIName__c": "json",
        "%vlocity_namespace%__DomainObjectCreationOrder__c": 1,
        "%vlocity_namespace%__DomainObjectFieldAPIName__c": "Quote:AOnlyDeductible",
        "%vlocity_namespace%__DomainObjectFieldType__c": "Currency",
        "%vlocity_namespace%__InterfaceFieldAPIName__c": "QuoteLineItem2:AOnlyCoverage:deductible",
        "%vlocity_namespace%__IsDisabled__c": false,
        "%vlocity_namespace%__IsRequiredForUpsert__c": false,
        "%vlocity_namespace%__MapId__c": "getQuoteNumberCustom4006",
        "%vlocity_namespace%__UpsertKey__c": false,
        "Name": "getQuoteNumber",
        "VlocityDataPackType": "SObject",
        "VlocityRecordSObjectType": "%vlocity_namespace%__DRMapItem__c"
    },
    {
        "%vlocity_namespace%__DomainObjectAPIName__c": "json",
        "%vlocity_namespace%__DomainObjectCreationOrder__c": 1,
        "%vlocity_namespace%__DomainObjectFieldAPIName__c": "Quote:BCoverageLimit",
        "%vlocity_namespace%__DomainObjectFieldType__c": "Currency",
        "%vlocity_namespace%__InterfaceFieldAPIName__c": "QuoteLineItem1:BCoverage:coverageLimit",
        "%vlocity_namespace%__IsDisabled__c": false,
        "%vlocity_namespace%__IsRequiredForUpsert__c": false,
        "%vlocity_namespace%__MapId__c": "getQuoteNumberCustom6722",
        "%vlocity_namespace%__UpsertKey__c": false,
        "Name": "getQuoteNumber",
        "VlocityDataPackType": "SObject",
        "VlocityRecordSObjectType": "%vlocity_namespace%__DRMapItem__c"
    },
    {
        "%vlocity_namespace%__DomainObjectAPIName__c": "json",
        "%vlocity_namespace%__DomainObjectCreationOrder__c": 1,
        "%vlocity_namespace%__DomainObjectFieldAPIName__c": "Quote:BDeductible",
        "%vlocity_namespace%__DomainObjectFieldType__c": "Currency",
        "%vlocity_namespace%__InterfaceFieldAPIName__c": "QuoteLineItem1:BCoverage:deductible",
        "%vlocity_namespace%__IsDisabled__c": false,
        "%vlocity_namespace%__IsRequiredForUpsert__c": false,
        "%vlocity_namespace%__MapId__c": "getQuoteNumberCustom7004",
        "%vlocity_namespace%__UpsertKey__c": false,
        "Name": "getQuoteNumber",
        "VlocityDataPackType": "SObject",
        "VlocityRecordSObjectType": "%vlocity_namespace%__DRMapItem__c"
    },
    {
        "%vlocity_namespace%__DomainObjectAPIName__c": "json",
        "%vlocity_namespace%__DomainObjectCreationOrder__c": 1,
        "%vlocity_namespace%__DomainObjectFieldAPIName__c": "Quote:CCoverageLimit",
        "%vlocity_namespace%__DomainObjectFieldType__c": "Currency",
        "%vlocity_namespace%__InterfaceFieldAPIName__c": "QuoteLineItem1:CCoverage:coverageLimit",
        "%vlocity_namespace%__IsDisabled__c": false,
        "%vlocity_namespace%__IsRequiredForUpsert__c": false,
        "%vlocity_namespace%__MapId__c": "getQuoteNumberCustom2137",
        "%vlocity_namespace%__UpsertKey__c": false,
        "Name": "getQuoteNumber",
        "VlocityDataPackType": "SObject",
        "VlocityRecordSObjectType": "%vlocity_namespace%__DRMapItem__c"
    },
    {
        "%vlocity_namespace%__DomainObjectAPIName__c": "json",
        "%vlocity_namespace%__DomainObjectCreationOrder__c": 1,
        "%vlocity_namespace%__DomainObjectFieldAPIName__c": "Quote:CDeductible",
        "%vlocity_namespace%__DomainObjectFieldType__c": "Currency",
        "%vlocity_namespace%__InterfaceFieldAPIName__c": "QuoteLineItem1:CCoverage:deductible",
        "%vlocity_namespace%__IsDisabled__c": false,
        "%vlocity_namespace%__IsRequiredForUpsert__c": false,
        "%vlocity_namespace%__MapId__c": "getQuoteNumberCustom405",
        "%vlocity_namespace%__UpsertKey__c": false,
        "Name": "getQuoteNumber",
        "VlocityDataPackType": "SObject",
        "VlocityRecordSObjectType": "%vlocity_namespace%__DRMapItem__c"
    },
    {
        "%vlocity_namespace%__DomainObjectAPIName__c": "json",
        "%vlocity_namespace%__DomainObjectCreationOrder__c": 1,
        "%vlocity_namespace%__DomainObjectFieldAPIName__c": "Quote:DCoverageLimit",
        "%vlocity_namespace%__DomainObjectFieldType__c": "Currency",
        "%vlocity_namespace%__InterfaceFieldAPIName__c": "QuoteLineItem1:DCoverage:coverageLimit",
        "%vlocity_namespace%__IsDisabled__c": false,
        "%vlocity_namespace%__IsRequiredForUpsert__c": false,
        "%vlocity_namespace%__MapId__c": "getQuoteNumberCustom3652",
        "%vlocity_namespace%__UpsertKey__c": false,
        "Name": "getQuoteNumber",
        "VlocityDataPackType": "SObject",
        "VlocityRecordSObjectType": "%vlocity_namespace%__DRMapItem__c"
    },
    {
        "%vlocity_namespace%__DomainObjectAPIName__c": "json",
        "%vlocity_namespace%__DomainObjectCreationOrder__c": 1,
        "%vlocity_namespace%__DomainObjectFieldAPIName__c": "Quote:DDeductible",
        "%vlocity_namespace%__DomainObjectFieldType__c": "Currency",
        "%vlocity_namespace%__InterfaceFieldAPIName__c": "QuoteLineItem1:DCoverage:deductible",
        "%vlocity_namespace%__IsDisabled__c": false,
        "%vlocity_namespace%__IsRequiredForUpsert__c": false,
        "%vlocity_namespace%__MapId__c": "getQuoteNumberCustom2434",
        "%vlocity_namespace%__UpsertKey__c": false,
        "Name": "getQuoteNumber",
        "VlocityDataPackType": "SObject",
        "VlocityRecordSObjectType": "%vlocity_namespace%__DRMapItem__c"
    },
    {
        "%vlocity_namespace%__DomainObjectAPIName__c": "json",
        "%vlocity_namespace%__DomainObjectCreationOrder__c": 1,
        "%vlocity_namespace%__DomainObjectFieldAPIName__c": "Quote:ECoverageLimit",
        "%vlocity_namespace%__DomainObjectFieldType__c": "Currency",
        "%vlocity_namespace%__InterfaceFieldAPIName__c": "QuoteLineItem1:ECoverage:coverageLimit",
        "%vlocity_namespace%__IsDisabled__c": false,
        "%vlocity_namespace%__IsRequiredForUpsert__c": false,
        "%vlocity_namespace%__MapId__c": "getQuoteNumberCustom4895",
        "%vlocity_namespace%__UpsertKey__c": false,
        "Name": "getQuoteNumber",
        "VlocityDataPackType": "SObject",
        "VlocityRecordSObjectType": "%vlocity_namespace%__DRMapItem__c"
    },
    {
        "%vlocity_namespace%__DomainObjectAPIName__c": "json",
        "%vlocity_namespace%__DomainObjectCreationOrder__c": 1,
        "%vlocity_namespace%__DomainObjectFieldAPIName__c": "Quote:EDeductible",
        "%vlocity_namespace%__DomainObjectFieldType__c": "Currency",
        "%vlocity_namespace%__InterfaceFieldAPIName__c": "QuoteLineItem1:ECoverage:deductible",
        "%vlocity_namespace%__IsDisabled__c": false,
        "%vlocity_namespace%__IsRequiredForUpsert__c": false,
        "%vlocity_namespace%__MapId__c": "getQuoteNumberCustom80",
        "%vlocity_namespace%__UpsertKey__c": false,
        "Name": "getQuoteNumber",
        "VlocityDataPackType": "SObject",
        "VlocityRecordSObjectType": "%vlocity_namespace%__DRMapItem__c"
    },
    {
        "%vlocity_namespace%__DomainObjectAPIName__c": "json",
        "%vlocity_namespace%__DomainObjectCreationOrder__c": 1,
        "%vlocity_namespace%__DomainObjectFieldAPIName__c": "Quote:FCoverageLimit",
        "%vlocity_namespace%__DomainObjectFieldType__c": "Currency",
        "%vlocity_namespace%__InterfaceFieldAPIName__c": "QuoteLineItem1:FCoverage:coverageLimit",
        "%vlocity_namespace%__IsDisabled__c": false,
        "%vlocity_namespace%__IsRequiredForUpsert__c": false,
        "%vlocity_namespace%__MapId__c": "getQuoteNumberCustom4450",
        "%vlocity_namespace%__UpsertKey__c": false,
        "Name": "getQuoteNumber",
        "VlocityDataPackType": "SObject",
        "VlocityRecordSObjectType": "%vlocity_namespace%__DRMapItem__c"
    },
    {
        "%vlocity_namespace%__DomainObjectAPIName__c": "json",
        "%vlocity_namespace%__DomainObjectCreationOrder__c": 1,
        "%vlocity_namespace%__DomainObjectFieldAPIName__c": "Quote:FDeductible",
        "%vlocity_namespace%__DomainObjectFieldType__c": "Currency",
        "%vlocity_namespace%__InterfaceFieldAPIName__c": "QuoteLineItem1:FCoverage:deductible",
        "%vlocity_namespace%__IsDisabled__c": false,
        "%vlocity_namespace%__IsRequiredForUpsert__c": false,
        "%vlocity_namespace%__MapId__c": "getQuoteNumberCustom5595",
        "%vlocity_namespace%__UpsertKey__c": false,
        "Name": "getQuoteNumber",
        "VlocityDataPackType": "SObject",
        "VlocityRecordSObjectType": "%vlocity_namespace%__DRMapItem__c"
    },
    {
        "%vlocity_namespace%__DomainObjectAPIName__c": "json",
        "%vlocity_namespace%__DomainObjectCreationOrder__c": 1,
        "%vlocity_namespace%__DomainObjectFieldAPIName__c": "Quote:GCoverageLimit",
        "%vlocity_namespace%__DomainObjectFieldType__c": "Currency",
        "%vlocity_namespace%__InterfaceFieldAPIName__c": "QuoteLineItem1:GCoverage:coverageLimit",
        "%vlocity_namespace%__IsDisabled__c": false,
        "%vlocity_namespace%__IsRequiredForUpsert__c": false,
        "%vlocity_namespace%__MapId__c": "getQuoteNumberCustom6067",
        "%vlocity_namespace%__UpsertKey__c": false,
        "Name": "getQuoteNumber",
        "VlocityDataPackType": "SObject",
        "VlocityRecordSObjectType": "%vlocity_namespace%__DRMapItem__c"
    },
    {
        "%vlocity_namespace%__DomainObjectAPIName__c": "json",
        "%vlocity_namespace%__DomainObjectCreationOrder__c": 1,
        "%vlocity_namespace%__DomainObjectFieldAPIName__c": "Quote:GDeductible",
        "%vlocity_namespace%__DomainObjectFieldType__c": "Currency",
        "%vlocity_namespace%__InterfaceFieldAPIName__c": "QuoteLineItem1:GCoverage:deductible",
        "%vlocity_namespace%__IsDisabled__c": false,
        "%vlocity_namespace%__IsRequiredForUpsert__c": false,
        "%vlocity_namespace%__MapId__c": "getQuoteNumberCustom4377",
        "%vlocity_namespace%__UpsertKey__c": false,
        "Name": "getQuoteNumber",
        "VlocityDataPackType": "SObject",
        "VlocityRecordSObjectType": "%vlocity_namespace%__DRMapItem__c"
    },
    {
        "%vlocity_namespace%__DomainObjectAPIName__c": "json",
        "%vlocity_namespace%__DomainObjectCreationOrder__c": 1,
        "%vlocity_namespace%__DomainObjectFieldAPIName__c": "Quote:XsLiabilityAG",
        "%vlocity_namespace%__DomainObjectFieldType__c": "Currency",
        "%vlocity_namespace%__InterfaceFieldAPIName__c": "QuoteLineItem1:XsCoverageAG:liabilityLimit",
        "%vlocity_namespace%__IsDisabled__c": false,
        "%vlocity_namespace%__IsRequiredForUpsert__c": false,
        "%vlocity_namespace%__MapId__c": "getQuoteNumberCustom2930",
        "%vlocity_namespace%__UpsertKey__c": false,
        "Name": "getQuoteNumber",
        "VlocityDataPackType": "SObject",
        "VlocityRecordSObjectType": "%vlocity_namespace%__DRMapItem__c"
    },
    {
        "%vlocity_namespace%__DomainObjectAPIName__c": "json",
        "%vlocity_namespace%__DomainObjectCreationOrder__c": 1,
        "%vlocity_namespace%__DomainObjectFieldAPIName__c": "Quote:XsLiabilityAOnly",
        "%vlocity_namespace%__DomainObjectFieldType__c": "Currency",
        "%vlocity_namespace%__InterfaceFieldAPIName__c": "QuoteLineItem2:XsCoverageAOnly:liabilityLimit",
        "%vlocity_namespace%__IsDisabled__c": false,
        "%vlocity_namespace%__IsRequiredForUpsert__c": false,
        "%vlocity_namespace%__MapId__c": "getQuoteNumberCustom2202",
        "%vlocity_namespace%__UpsertKey__c": false,
        "Name": "getQuoteNumber",
        "VlocityDataPackType": "SObject",
        "VlocityRecordSObjectType": "%vlocity_namespace%__DRMapItem__c"
    },
    {
        "%vlocity_namespace%__DomainObjectAPIName__c": "json",
        "%vlocity_namespace%__DomainObjectCreationOrder__c": 1,
        "%vlocity_namespace%__DomainObjectFieldAPIName__c": "Quote:quoteId",
        "%vlocity_namespace%__InterfaceFieldAPIName__c": "Quote:Id",
        "%vlocity_namespace%__IsDisabled__c": false,
        "%vlocity_namespace%__IsRequiredForUpsert__c": false,
        "%vlocity_namespace%__MapId__c": "getQuoteNumberCustom6309",
        "%vlocity_namespace%__UpsertKey__c": false,
        "Name": "getQuoteNumber",
        "VlocityDataPackType": "SObject",
        "VlocityRecordSObjectType": "%vlocity_namespace%__DRMapItem__c"
    },
    {
        "%vlocity_namespace%__DefaultValue__c": "\"\"",
        "%vlocity_namespace%__DomainObjectAPIName__c": "json",
        "%vlocity_namespace%__DomainObjectCreationOrder__c": 1,
        "%vlocity_namespace%__DomainObjectFieldAPIName__c": "Quote:quoteId2",
        "%vlocity_namespace%__InterfaceFieldAPIName__c": "Quote2:Id",
        "%vlocity_namespace%__IsDisabled__c": false,
        "%vlocity_namespace%__IsRequiredForUpsert__c": false,
        "%vlocity_namespace%__MapId__c": "getQuoteNumberCustom2005",
        "%vlocity_namespace%__UpsertKey__c": false,
        "Name": "getQuoteNumber",
        "VlocityDataPackType": "SObject",
        "VlocityRecordSObjectType": "%vlocity_namespace%__DRMapItem__c"
    },
    {
        "%vlocity_namespace%__DomainObjectAPIName__c": "json",
        "%vlocity_namespace%__DomainObjectCreationOrder__c": 1,
        "%vlocity_namespace%__DomainObjectFieldAPIName__c": "Quote:quoteNumber",
        "%vlocity_namespace%__InterfaceFieldAPIName__c": "Quote:QuoteNumber",
        "%vlocity_namespace%__IsDisabled__c": false,
        "%vlocity_namespace%__IsRequiredForUpsert__c": false,
        "%vlocity_namespace%__MapId__c": "getQuoteNumberCustom3262",
        "%vlocity_namespace%__UpsertKey__c": false,
        "Name": "getQuoteNumber",
        "VlocityDataPackType": "SObject",
        "VlocityRecordSObjectType": "%vlocity_namespace%__DRMapItem__c"
    },
    {
        "%vlocity_namespace%__DefaultValue__c": "\"\"",
        "%vlocity_namespace%__DomainObjectAPIName__c": "json",
        "%vlocity_namespace%__DomainObjectCreationOrder__c": 1,
        "%vlocity_namespace%__DomainObjectFieldAPIName__c": "Quote:quoteNumber2",
        "%vlocity_namespace%__InterfaceFieldAPIName__c": "Quote2:QuoteNumber",
        "%vlocity_namespace%__IsDisabled__c": false,
        "%vlocity_namespace%__IsRequiredForUpsert__c": false,
        "%vlocity_namespace%__MapId__c": "getQuoteNumberCustom6821",
        "%vlocity_namespace%__UpsertKey__c": false,
        "Name": "getQuoteNumber",
        "VlocityDataPackType": "SObject",
        "VlocityRecordSObjectType": "%vlocity_namespace%__DRMapItem__c"
    },
    {
        "%vlocity_namespace%__DomainObjectAPIName__c": "json",
        "%vlocity_namespace%__DomainObjectCreationOrder__c": 1,
        "%vlocity_namespace%__DomainObjectFieldAPIName__c": "Quote:subTotalAG",
        "%vlocity_namespace%__DomainObjectFieldType__c": "Currency",
        "%vlocity_namespace%__InterfaceFieldAPIName__c": "Quote:Subtotal",
        "%vlocity_namespace%__IsDisabled__c": false,
        "%vlocity_namespace%__IsRequiredForUpsert__c": false,
        "%vlocity_namespace%__MapId__c": "getQuoteNumberCustom6013",
        "%vlocity_namespace%__UpsertKey__c": false,
        "Name": "getQuoteNumber",
        "VlocityDataPackType": "SObject",
        "VlocityRecordSObjectType": "%vlocity_namespace%__DRMapItem__c"
    },
    {
        "%vlocity_namespace%__DomainObjectAPIName__c": "json",
        "%vlocity_namespace%__DomainObjectCreationOrder__c": 1,
        "%vlocity_namespace%__DomainObjectFieldAPIName__c": "Quote:subTotalAOnly",
        "%vlocity_namespace%__DomainObjectFieldType__c": "Currency",
        "%vlocity_namespace%__InterfaceFieldAPIName__c": "Quote2:Subtotal",
        "%vlocity_namespace%__IsDisabled__c": false,
        "%vlocity_namespace%__IsRequiredForUpsert__c": false,
        "%vlocity_namespace%__MapId__c": "getQuoteNumberCustom3369",
        "%vlocity_namespace%__UpsertKey__c": false,
        "Name": "getQuoteNumber",
        "VlocityDataPackType": "SObject",
        "VlocityRecordSObjectType": "%vlocity_namespace%__DRMapItem__c"
    },
    {
        "%vlocity_namespace%__DomainObjectAPIName__c": "json",
        "%vlocity_namespace%__DomainObjectCreationOrder__c": 1,
        "%vlocity_namespace%__DomainObjectFieldAPIName__c": "Quote:taxAG",
        "%vlocity_namespace%__DomainObjectFieldType__c": "Currency",
        "%vlocity_namespace%__InterfaceFieldAPIName__c": "Quote:Tax",
        "%vlocity_namespace%__IsDisabled__c": false,
        "%vlocity_namespace%__IsRequiredForUpsert__c": false,
        "%vlocity_namespace%__MapId__c": "getQuoteNumberCustom8691",
        "%vlocity_namespace%__UpsertKey__c": false,
        "Name": "getQuoteNumber",
        "VlocityDataPackType": "SObject",
        "VlocityRecordSObjectType": "%vlocity_namespace%__DRMapItem__c"
    },
    {
        "%vlocity_namespace%__DomainObjectAPIName__c": "json",
        "%vlocity_namespace%__DomainObjectCreationOrder__c": 1,
        "%vlocity_namespace%__DomainObjectFieldAPIName__c": "Quote:taxAOnly",
        "%vlocity_namespace%__DomainObjectFieldType__c": "Currency",
        "%vlocity_namespace%__InterfaceFieldAPIName__c": "Quote2:Tax",
        "%vlocity_namespace%__IsDisabled__c": false,
        "%vlocity_namespace%__IsRequiredForUpsert__c": false,
        "%vlocity_namespace%__MapId__c": "getQuoteNumberCustom2291",
        "%vlocity_namespace%__UpsertKey__c": false,
        "Name": "getQuoteNumber",
        "VlocityDataPackType": "SObject",
        "VlocityRecordSObjectType": "%vlocity_namespace%__DRMapItem__c"
    },
    {
        "%vlocity_namespace%__DomainObjectAPIName__c": "json",
        "%vlocity_namespace%__DomainObjectCreationOrder__c": 1,
        "%vlocity_namespace%__DomainObjectFieldAPIName__c": "Quote:totalAG",
        "%vlocity_namespace%__DomainObjectFieldType__c": "Currency",
        "%vlocity_namespace%__InterfaceFieldAPIName__c": "Quote:GrandTotal",
        "%vlocity_namespace%__IsDisabled__c": false,
        "%vlocity_namespace%__IsRequiredForUpsert__c": false,
        "%vlocity_namespace%__MapId__c": "getQuoteNumberCustom6515",
        "%vlocity_namespace%__UpsertKey__c": false,
        "Name": "getQuoteNumber",
        "VlocityDataPackType": "SObject",
        "VlocityRecordSObjectType": "%vlocity_namespace%__DRMapItem__c"
    },
    {
        "%vlocity_namespace%__DomainObjectAPIName__c": "json",
        "%vlocity_namespace%__DomainObjectCreationOrder__c": 1,
        "%vlocity_namespace%__DomainObjectFieldAPIName__c": "Quote:totalAOnly",
        "%vlocity_namespace%__DomainObjectFieldType__c": "Currency",
        "%vlocity_namespace%__InterfaceFieldAPIName__c": "Quote2:GrandTotal",
        "%vlocity_namespace%__IsDisabled__c": false,
        "%vlocity_namespace%__IsRequiredForUpsert__c": false,
        "%vlocity_namespace%__MapId__c": "getQuoteNumberCustom4481",
        "%vlocity_namespace%__UpsertKey__c": false,
        "Name": "getQuoteNumber",
        "VlocityDataPackType": "SObject",
        "VlocityRecordSObjectType": "%vlocity_namespace%__DRMapItem__c"
    }
]