{
    "Contact": {
        "Email": "akudupudi@gerentllc.com",
        "Name": "Avinash Kudupudi"
    },
    "Quote": {
        "DOPolEffDate": "2020-12-30",
        "DOPolEndDate": "2021-12-30",
        "DOQuoteEffDate": "2020-12-30",
        "DOQuoteEndDate": "2021-12-30",
        "DOQuoteNumber": "AD68874Q2020",
        "DOQuotePostalCode": "67005",
        "MailingCity": "Arkansas City",
        "MailingPostalCode": "67005",
        "MailingState": "KS",
        "MailingStreet": "1200 North E Street"
    }
}