{
    "%vlocity_namespace%__Active__c": true,
    "%vlocity_namespace%__OmniScriptId__c": {
        "Name": "Onboarding NIPR Integration",
        "VlocityDataPackType": "VlocityMatchingKeyObject",
        "VlocityMatchingRecordSourceKey": "%vlocity_namespace%__OmniScript__c/Onboarding/NIPR/Procedure",
        "VlocityRecordSObjectType": "%vlocity_namespace%__OmniScript__c"
    },
    "%vlocity_namespace%__PropertySet__c": {
        "actionMessage": "",
        "additionalInput": {
        },
        "additionalOutput": {
        },
        "chainOnStep": false,
        "disOnTplt": false,
        "executionConditionalFormula": "AgencyInformation:EINNumber <> $Vlocity.Null AND duplicateTINCheck:dupAgent == \"No\"",
        "failOnStepError": true,
        "failureConditionalFormula": "",
        "failureResponse": {
        },
        "label": "HTTPAction1",
        "namedCredential": "",
        "postActionLogging": "",
        "preActionLogging": "%endpoint%",
        "responseJSONNode": "",
        "responseJSONPath": "",
        "restMethod": "POST",
        "restOptions": {
            "clientCertificateName": "",
            "headers": {
                "Authorization": "%base64TransformUserPwd:encodeUserPass%"
            },
            "isCompressed": false,
            "params": {
            },
            "sendBody": true,
            "timeout": 0,
            "xmlEscapeResponse": false
        },
        "restPath": "https://pdb-services-beta.nipr.com/npn-ws/npnLookup",
        "retryCount": 0,
        "returnOnlyAdditionalOutput": false,
        "returnOnlyFailureResponse": false,
        "sendJSONNode": "",
        "sendJSONPath": "buildNPNBody:editedBody",
        "sendOnlyAdditionalInput": false,
        "show": null,
        "type": "Integration",
        "useFormulas": true
    },
    "%vlocity_namespace%__ReusableOmniScript__c": false,
    "%vlocity_namespace%__Type__c": "Rest Action",
    "Name": "calloutNPNLookup",
    "VlocityDataPackType": "SObject",
    "VlocityRecordSObjectType": "%vlocity_namespace%__Element__c",
    "VlocityRecordSourceKey": "%vlocity_namespace%__Element__c/%vlocity_namespace%__OmniScript__c/Onboarding/NIPR/Procedure/calloutNPNLookup"
}