{
    "%vlocity_namespace%__AdditionalInformation__c": "Duplicate FEIN check",
    "%vlocity_namespace%__CustomJavaScript__c": "Onboarding_NIPR_SampleInput.json",
    "%vlocity_namespace%__DisableMetadataCache__c": false,
    "%vlocity_namespace%__ElementTypeToHTMLTemplateList__c": "{\"ElementTypeToHTMLTemplateList\":[]}",
    "%vlocity_namespace%__Element__c": [
        "Onboarding_NIPR_Element_duplicateTINCheck.json",
        "Onboarding_NIPR_Element_duplicateTINQueueExtract.json",
        "Onboarding_NIPR_Element_duplicateTINCreateCase.json",
        "Onboarding_NIPR_Element_setUserPwd.json",
        "Onboarding_NIPR_Element_base64TransformUserPwd.json",
        "Onboarding_NIPR_Element_transformFEIN.json",
        "Onboarding_NIPR_Element_transformSSN.json",
        "Onboarding_NIPR_Element_buildNPNBody.json",
        "Onboarding_NIPR_Element_buildNPNBodySSN.json",
        "Onboarding_NIPR_Element_calloutNPNLookup.json",
        "Onboarding_NIPR_Element_calloutNPNLookupSSN.json",
        "Onboarding_NIPR_Element_transformNPNLookupResp.json",
        "Onboarding_NIPR_Element_transformNPNLookupRespSSN.json",
        "Onboarding_NIPR_Element_convertLead.json",
        "Onboarding_NIPR_Element_invalidTINCreateCase.json",
        "Onboarding_NIPR_Element_ResponseAction.json",
        "Onboarding_NIPR_Element_ResponseAction2.json",
        "Onboarding_NIPR_Element_ResponseAction3.json"
    ],
    "%vlocity_namespace%__IsLwcEnabled__c": false,
    "%vlocity_namespace%__IsProcedure__c": true,
    "%vlocity_namespace%__IsReusable__c": false,
    "%vlocity_namespace%__IsTest__c": false,
    "%vlocity_namespace%__Language__c": "Procedure",
    "%vlocity_namespace%__ProcedureKey__c": "Onboarding_NIPR",
    "%vlocity_namespace%__PropertySet__c": "Onboarding_NIPR_PropertySet.json",
    "%vlocity_namespace%__SubType__c": "NIPR",
    "%vlocity_namespace%__Type__c": "Onboarding",
    "Name": "Onboarding NIPR Integration",
    "VlocityDataPackType": "SObject",
    "VlocityRecordSObjectType": "%vlocity_namespace%__OmniScript__c",
    "VlocityRecordSourceKey": "%vlocity_namespace%__OmniScript__c/Onboarding/NIPR/Procedure",
    "sourceOrgUrl": "/apex/vlocity_ins__integrationproceduredesigner?id=a5C3K0000009KmDUAU"
}