{
    "AgencyDetails": {
    },
    "AgencyInformation": {
        "AddressCheck": "Yes",
        "AgencyIRSType": "C Corporation",
        "AgencyIRSTypeSubList": null,
        "AgencyLegalName": "t108",
        "AgencyLocationAddress-Block": {
            "AgencyLocationAddress": "2300 Woodland Avenue, Coffeyville, KS, USA",
            "LocationCity": "Coffeyville",
            "LocationCountry": "United States",
            "LocationPostalCode": "67337",
            "LocationState": "KS",
            "LocationStreet": "2300 Woodland Avenue"
        },
        "AgencyMailingAddress-Block": null,
        "EINNumber": "345645645",
        "MailingAddressLine2": null,
        "Phone": "4264554654",
        "SSNNumber": null,
        "SameAgencyMailingAddress": "2300 Woodland Avenue, Coffeyville, KS, USA",
        "SameAgencyMailingLine2": null,
        "TypeofFederalTax": "FEIN",
        "Website": "www.test.com"
    },
    "CaptiveAgencyCheck": true,
    "Certifications": {
    },
    "CommonCaseCheck": false,
    "ContactInfoAdmin": {
    },
    "ContextId": "00Q6s000001UffgEAC",
    "Marketing": {
    },
    "Review": {
    },
    "UserSignerEmail": "avinash.kudupudi@certadux.com",
    "UserSignerFirstName": "t108",
    "UserSignerLastName": "t108",
    "UserSignerMobilePhone": "",
    "UserSignerOfficePhone": "",
    "lead": {
        "Company": "t108",
        "Email": "avinash.kudupudi@certadux.com",
        "FirstName": "t108",
        "Id": "00Q6s000001UffgEAC",
        "LastName": "t108",
        "Name": "t108 t108"
    },
    "timeStamp": "2020-09-23T19:53:18.098Z",
    "userCurrencyCode": "USD",
    "userId": "0050d000007c87JAAQ",
    "userName": "avinash.kudupudi@certadux.com.v3dev",
    "userProfile": "System Administrator",
    "userTimeZone": "-420"
}