{
    "%vlocity_namespace%__DestinationFieldName__c": "%vlocity_namespace%__LastName__c",
    "%vlocity_namespace%__DestinationSObjectType__c": "%vlocity_namespace%__GroupCensusMember__c",
    "%vlocity_namespace%__SourceFieldName__c": "%vlocity_namespace%__LastName__c",
    "%vlocity_namespace%__SourceFieldSObjectType__c": "",
    "%vlocity_namespace%__SourceFieldType__c": "string",
    "%vlocity_namespace%__SourceSObjectType__c": "%vlocity_namespace%__InsuredGroupCensusMember__c",
    "Name": "InsuredCensusMember_CensusMember_LName",
    "VlocityDataPackType": "SObject",
    "VlocityRecordSObjectType": "%vlocity_namespace%__CustomFieldMap__c",
    "VlocityRecordSourceKey": "%vlocity_namespace%__CustomFieldMap__c/Generated-1244146028",
    "sourceOrgUrl": "/a374W00000D3VaSQAV"
}