[
    "CalculationMatrix/AgencyBaseCommissions",
    "DataRaptor/getQuoteAgencyCommissionInfo",
    "DataRaptor/getSpecialCommissionInfo",
    "DataRaptor/updatePolicyCommissions",
    "DataRaptor/updatePolicyCommissionsSpl"
]