{
    "%vlocity_namespace%__Active__c": true,
    "%vlocity_namespace%__OmniScriptId__c": {
        "Name": "Commission Calculation",
        "VlocityDataPackType": "VlocityMatchingKeyObject",
        "VlocityMatchingRecordSourceKey": "%vlocity_namespace%__OmniScript__c/Calculate/AgencyCommissions/Procedure",
        "VlocityRecordSObjectType": "%vlocity_namespace%__OmniScript__c"
    },
    "%vlocity_namespace%__PropertySet__c": {
        "actionMessage": "",
        "additionalInput": {
        },
        "additionalOutput": {
        },
        "bundle": "getSpecialCommissionInfo",
        "chainOnStep": false,
        "dataRaptor Input Parameters": [
        ],
        "disOnTplt": false,
        "executionConditionalFormula": "%getQuoteAgencyCommissionInfo:Agency:overrideType% == 'Special'",
        "failOnStepError": true,
        "failureConditionalFormula": "",
        "failureResponse": {
        },
        "ignoreCache": false,
        "label": "DataRaptorExtractAction2",
        "responseJSONNode": "",
        "responseJSONPath": "",
        "returnOnlyAdditionalOutput": false,
        "returnOnlyFailureResponse": false,
        "sendJSONNode": "",
        "sendJSONPath": "",
        "sendOnlyAdditionalInput": false,
        "show": null,
        "useFormulas": true
    },
    "%vlocity_namespace%__ReusableOmniScript__c": false,
    "%vlocity_namespace%__Type__c": "DataRaptor Extract Action",
    "Name": "getSpecialCommissionInfo",
    "VlocityDataPackType": "SObject",
    "VlocityRecordSObjectType": "%vlocity_namespace%__Element__c",
    "VlocityRecordSourceKey": "%vlocity_namespace%__Element__c/%vlocity_namespace%__OmniScript__c/Calculate/AgencyCommissions/Procedure/getSpecialCommissionInfo"
}