{
    "%vlocity_namespace%__Active__c": true,
    "%vlocity_namespace%__OmniScriptId__c": {
        "Name": "Commission Calculation",
        "VlocityDataPackType": "VlocityMatchingKeyObject",
        "VlocityMatchingRecordSourceKey": "%vlocity_namespace%__OmniScript__c/Calculate/AgencyCommissions/Procedure",
        "VlocityRecordSObjectType": "%vlocity_namespace%__OmniScript__c"
    },
    "%vlocity_namespace%__PropertySet__c": {
        "actionMessage": "",
        "additionalOutput": {
        },
        "chainOnStep": false,
        "defaultMatrixResult": {
        },
        "disOnTplt": false,
        "executionConditionalFormula": "",
        "failOnStepError": true,
        "failureConditionalFormula": "",
        "failureResponse": {
        },
        "label": "MatrixAction1",
        "matrix Input Parameters": [
            {
                "name": "getQuoteAgencyCommissionInfo:Quote:LOB",
                "value": "LOB"
            },
            {
                "name": "getQuoteAgencyCommissionInfo:Quote:Carrier",
                "value": "Carrier"
            },
            {
                "name": "getQuoteAgencyCommissionInfo:Quote:StateClassification",
                "value": "StateClassification"
            },
            {
                "name": "getQuoteAgencyCommissionInfo:Quote:BusinessType",
                "value": "BusinessType"
            },
            {
                "name": "getQuoteAgencyCommissionInfo:Agency:overrideType",
                "value": "OverrideCategory"
            },
            {
                "name": "getQuoteAgencyCommissionInfo:Agency:policyCount",
                "value": "PolicyCountRange"
            }
        ],
        "remoteOptions": {
            "matrixName": "AgencyBaseCommissions"
        },
        "responseJSONNode": "",
        "responseJSONPath": "",
        "returnOnlyAdditionalOutput": false,
        "returnOnlyFailureResponse": false,
        "sendJSONNode": "",
        "sendJSONPath": "getQuoteAgencyCommissionInfo",
        "show": null,
        "useFormulas": true
    },
    "%vlocity_namespace%__ReusableOmniScript__c": false,
    "%vlocity_namespace%__Type__c": "Matrix Action",
    "Name": "getCommissionSplitInfo",
    "VlocityDataPackType": "SObject",
    "VlocityRecordSObjectType": "%vlocity_namespace%__Element__c",
    "VlocityRecordSourceKey": "%vlocity_namespace%__Element__c/%vlocity_namespace%__OmniScript__c/Calculate/AgencyCommissions/Procedure/getCommissionSplitInfo"
}