{
    "AgencyMailingAddress": "5045 Robert J Mathews Pkwy Suite 200 El Dorado Hills, CA 95762",
    "AgencyPhysicalAddress": "5045 Robert J Mathews Pkwy El Dorado Hills CA 95762",
    "AgentAdminUpdate": {
        "AgencyInformation": {
            "AccountName": "Community Association Insurance Solutions LLC",
            "AgencyFax": "(323) 999-8912",
            "AgencyMailingAddressSuite": "Suite 200",
            "AgencyMailingCity": "El Dorado Hills,",
            "AgencyMailingCountry": "United States",
            "AgencyMailingPostalCode": "95762",
            "AgencyMailingState": "CA",
            "AgencyMailingStreet": "5045 Robert J Mathews Pkwy",
            "AgencyNPN": "234478",
            "AgencyPhone": "+1 888-833-4158",
            "AgencyPhysicalAddressSuite": "Suite 100",
            "AgencyPhysicalCity": "El Dorado Hills",
            "AgencyPhysicalCountry": "United States",
            "AgencyPhysicalState": "CA",
            "AgencyPhysicalStreet": "5045 Robert J Mathews Pkwy",
            "AgencyPhysicalZipcode": "95762",
            "AgencyTIN": "23-4451645",
            "AgencyWebsite": "https://www.caislive.com/"
        },
        "AgentInformation": {
            "UserAddressCIty": "El Dorado Hills",
            "UserAddressCountry": "United States",
            "UserAddressPostalCode": "95762",
            "UserAddressState": "CA",
            "UserAddressStreet": "5045 Robert J Mathews Pkwy",
            "UserEmail": "himadeep.guduru@gerentllc.com",
            "UserFax": "9962105798",
            "UserFirstName": "Arthur",
            "UserMobile": "0012345678",
            "UserWebsite": "https://www.caislive.com/",
            "userLastName": "Curry"
        }
    },
    "ContextId": "0056C000002DrGeQAK",
    "UserAccountId": "0016C00000S470uQAB",
    "UserAddress": "",
    "UserId": "0056C000002DrGeQAK",
    "UserName": "Arthur Curry",
    "timeStamp": "2020-12-09T11:55:01.921Z",
    "userCurrencyCode": "USD",
    "userId": "0056C000002Dn6iQAC",
    "userName": "himadeep.guduru@gerentllc.com.cais.dev",
    "userProfile": "System Administrator",
    "userTimeZone": "-480"
}