{
    "GlobalKey__c": "cais-agentProfile-admin-card/Mgalive_CAIS,LLC/1/1599840630549",
    "dataSource": {
        "type": null
    },
    "enableLwc": true,
    "filter": {
    },
    "states": [
        {
            "actionCtxId": "['PrimaryContact']['Id']",
            "conditions": {
                "group": [
                    {
                        "field": "$scope.data.status",
                        "operator": "===",
                        "type": "system",
                        "value": "'active'"
                    }
                ]
            },
            "definedActions": {
                "actions": [
                    {
                        "collapse": true,
                        "displayName": "Update Contact",
                        "hasExtraParams": false,
                        "iconName": "icon-v-document1-line",
                        "id": "View Contact",
                        "isCustomAction": false,
                        "type": "Vlocity Action"
                    }
                ]
            },
            "fields": [
                {
                    "collapse": true,
                    "displayLabel": "['PrimaryContact']['Npn']",
                    "group": "Custom Properties",
                    "label": "PrimaryContact Npn",
                    "name": "['PrimaryContact']['Npn']",
                    "type": "string"
                },
                {
                    "collapse": true,
                    "displayLabel": "['PrimaryContact']['address1']",
                    "group": "Custom Properties",
                    "label": "PrimaryContact address1",
                    "name": "['PrimaryContact']['address1']",
                    "type": "string"
                },
                {
                    "collapse": true,
                    "displayLabel": "['PrimaryContact']['address2']",
                    "group": "Custom Properties",
                    "label": "PrimaryContact address2",
                    "name": "['PrimaryContact']['address2']",
                    "type": "string"
                },
                {
                    "collapse": true,
                    "displayLabel": "['PrimaryContact']['Phone']",
                    "group": "Custom Properties",
                    "label": "PrimaryContact Phone",
                    "name": "['PrimaryContact']['Phone']",
                    "type": "string"
                },
                {
                    "collapse": true,
                    "displayLabel": "['PrimaryContact']['Fax']",
                    "group": "Custom Properties",
                    "label": "PrimaryContact Fax",
                    "name": "['PrimaryContact']['Fax']",
                    "type": "string"
                },
                {
                    "collapse": true,
                    "displayLabel": "['PrimaryContact']['Email']",
                    "group": "Custom Properties",
                    "label": "PrimaryContact Email",
                    "name": "['PrimaryContact']['Email']",
                    "type": "string"
                },
                {
                    "collapse": true,
                    "displayLabel": "['PrimaryContact']['WebSite']",
                    "group": "Custom Properties",
                    "label": "PrimaryContact WebSite",
                    "name": "['PrimaryContact']['WebSite']",
                    "type": "string"
                }
            ],
            "isSmartAction": false,
            "lwc": {
                "DeveloperName": "npAgentProfileAdminContact",
                "Id": "0Rb6s00000003ulCAA",
                "MasterLabel": "npAgentProfileAdminContact",
                "name": "npAgentProfileAdminContact"
            },
            "name": "Active",
            "sObjectType": "Contact",
            "smartAction": {
            }
        }
    ],
    "title": "Admin Contact"
}