{
    "%vlocity_namespace%__Author__c": "Vlocity",
    "%vlocity_namespace%__CustomJavascript__c": "ins-os-census-member-upload.js",
    "%vlocity_namespace%__Definition__c": "",
    "%vlocity_namespace%__Description__c": "",
    "%vlocity_namespace%__DisplayOn__c": "",
    "%vlocity_namespace%__ExternalID__c": "ins-os-census-member-upload/1/Vlocity/1563756226408",
    "%vlocity_namespace%__HTML__c": "ins-os-census-member-upload.html",
    "%vlocity_namespace%__ParentID__c": "",
    "%vlocity_namespace%__SampleJson__c": "",
    "%vlocity_namespace%__Sass__c": "ins-os-census-member-upload.scss",
    "%vlocity_namespace%__Type__c": "component",
    "%vlocity_namespace%__Version__c": 1,
    "Name": "ins-os-census-member-upload",
    "VlocityDataPackType": "SObject",
    "VlocityRecordSObjectType": "%vlocity_namespace%__VlocityUITemplate__c",
    "VlocityRecordSourceKey": "%vlocity_namespace%__VlocityUITemplate__c/ins-os-census-member-upload",
    "sourceOrgUrl": "/apex/vlocity_ins__uitemplatedesigner?id=a8C4W0000004iWfUAI"
}