{
    "%vlocity_namespace%__CalculationMatrixId__c": {
        "Name": "CrimeRatesTaxes",
        "VlocityDataPackType": "VlocityMatchingKeyObject",
        "VlocityMatchingRecordSourceKey": "%vlocity_namespace%__CalculationMatrix__c/CrimeRatesTaxes",
        "VlocityRecordSObjectType": "%vlocity_namespace%__CalculationMatrix__c"
    },
    "%vlocity_namespace%__CalculationMatrixId__r.Name": "CrimeRatesTaxes",
    "%vlocity_namespace%__CalculationMatrixRow__c": "CrimeRatesTaxes_Version_Rows.json",
    "%vlocity_namespace%__CurrentStatus__c": "Active",
    "%vlocity_namespace%__EndDateTime__c": "",
    "%vlocity_namespace%__GlobalKey__c": "CrimeRatesTaxes v1",
    "%vlocity_namespace%__GroupKeyValue__c": "",
    "%vlocity_namespace%__MatrixRecordType__c": "Standard",
    "%vlocity_namespace%__MatrixUseLongOutput__c": false,
    "%vlocity_namespace%__Priority__c": 1,
    "%vlocity_namespace%__StartDateTime__c": "2020-01-01T08:00:00.000Z",
    "%vlocity_namespace%__SubGroupKeyValue__c": "",
    "%vlocity_namespace%__UseLongOutput__c": false,
    "%vlocity_namespace%__VersionNumber__c": 1,
    "%vlocity_namespace%__WildcardColumn__c": "State",
    "%vlocity_namespace%__WildcardValue__c": "GN",
    "Name": "CrimeRatesTaxes v1",
    "VlocityDataPackType": "SObject",
    "VlocityRecordSObjectType": "%vlocity_namespace%__CalculationMatrixVersion__c",
    "VlocityRecordSourceKey": "%vlocity_namespace%__CalculationMatrixVersion__c/1/%vlocity_namespace%__CalculationMatrix__c/CrimeRatesTaxes"
}