{
    "AgencyInformation": {
        "AddressCheck": "No",
        "AddressLine2": "13800 COPPERMINE RD",
        "AddressTypeAhead-Block": {
            "City": "HERNDON",
            "Country": "United States",
            "PostalCode": "20171-6163",
            "State": "VA",
            "Street": null
        },
        "AgencyDBA": "asdfadf",
        "AgencyIRSType": "Individual/sole proprietor or single-member LLC",
        "AgencyIRSTypeSubList": "C=C corporation",
        "AgencyLegalName": "asdfasdf",
        "AgencyLocationAddress": "13800 COPPERMINE RD",
        "EINNumber": null,
        "Fax": "9999999999",
        "NPNNumber": "8888",
        "NewAddressLine2": "13800 COPPERMINE RD",
        "NewAgencyMailingAddress": "13800 COPPERMINE RD",
        "Phone": "0000000000",
        "SSNNumber": "999999999",
        "SameAddressLine2": null,
        "SameAgencyMailingAddress": null,
        "TypeofFederalTax": "SSN",
        "Website": "www.google.com"
    },
    "id": "a3x6s00000007tTAAQ",
    "isdtp": "p1",
    "layout": "lightning",
    "lead": {
    },
    "lwc": "omniscriptPreview",
    "ns": "%vlocity_namespace%",
    "sfdcIFrameHost": "web",
    "sfdcIFrameOrigin": "https://caislive--v3dev--vlocity-ins.visualforce.com",
    "timeStamp": "2020-08-19T07:47:20.894Z",
    "userCurrencyCode": "USD",
    "userId": "0056s000000J6KBAA0",
    "userName": "ramya.vadlamannati@certadux.com.v3dev",
    "userProfile": "System Administrator",
    "userTimeZone": "-420"
}