{
    "%vlocity_namespace%__Author__c": "Vlocity",
    "%vlocity_namespace%__Datasource__c": {
        "contextVariables": [
            {
                "name": "params.id",
                "val": "001o000000SLNueAAH"
            }
        ],
        "type": "Query",
        "value": {
            "query": "SELECT Id, Name, BillingAddress, Phone, PhotoURL, Type, Industry, Website FROM Account WHERE Id = '{{params.id}}'"
        }
    },
    "%vlocity_namespace%__Definition__c": "console-sidebar-slds.json",
    "%vlocity_namespace%__Description__c": "",
    "%vlocity_namespace%__GlobalKey__c": "console-sidebar-slds/1/Vlocity/1495043708218",
    "%vlocity_namespace%__ParentID__c": "",
    "%vlocity_namespace%__RequiredPermission__c": "",
    "%vlocity_namespace%__Type__c": "Layout",
    "%vlocity_namespace%__Version__c": 1,
    "Name": "console-sidebar-slds",
    "VlocityDataPackType": "SObject",
    "VlocityRecordSObjectType": "%vlocity_namespace%__VlocityUILayout__c",
    "VlocityRecordSourceKey": "%vlocity_namespace%__VlocityUILayout__c/console-sidebar-slds",
    "sourceOrgUrl": "/apex/vlocity_ins__carddesignernew?id=?id=a8B4W0000009e87UAA"
}