{
    "%vlocity_namespace%__Author__c": "Vlocity",
    "%vlocity_namespace%__CustomJavascript__c": "mobile-policy-card.js",
    "%vlocity_namespace%__Definition__c": "",
    "%vlocity_namespace%__Description__c": "",
    "%vlocity_namespace%__DisplayOn__c": "",
    "%vlocity_namespace%__ExternalID__c": "mobile-policy-card/1/Vlocity/1469483494767",
    "%vlocity_namespace%__HTML__c": "mobile-policy-card.html",
    "%vlocity_namespace%__ParentID__c": "",
    "%vlocity_namespace%__SampleJson__c": "mobile-policy-card_Sample.json",
    "%vlocity_namespace%__Sass__c": "mobile-policy-card.scss",
    "%vlocity_namespace%__Type__c": "Cards",
    "%vlocity_namespace%__Version__c": 1,
    "Name": "mobile-policy-card",
    "VlocityDataPackType": "SObject",
    "VlocityRecordSObjectType": "%vlocity_namespace%__VlocityUITemplate__c",
    "VlocityRecordSourceKey": "%vlocity_namespace%__VlocityUITemplate__c/mobile-policy-card",
    "sourceOrgUrl": "/apex/vlocity_ins__uitemplatedesigner?id=a8C4W0000004iWWUAY"
}