[
    {
        "%vlocity_namespace%__DomainObjectAPIName__c": "json",
        "%vlocity_namespace%__DomainObjectCreationOrder__c": 1,
        "%vlocity_namespace%__DomainObjectFieldAPIName__c": "AGENCY_NAME",
        "%vlocity_namespace%__InterfaceFieldAPIName__c": "AgencyName",
        "%vlocity_namespace%__IsDisabled__c": true,
        "%vlocity_namespace%__IsRequiredForUpsert__c": false,
        "%vlocity_namespace%__MapId__c": "CAIS_TransformAccountforTRIACoverageLetter29061553914308424",
        "%vlocity_namespace%__UpsertKey__c": false,
        "Name": "CAIS_TransformAccountforTRIACoverageLetter",
        "VlocityDataPackType": "SObject",
        "VlocityRecordSObjectType": "%vlocity_namespace%__DRMapItem__c"
    },
    {
        "%vlocity_namespace%__DomainObjectAPIName__c": "json",
        "%vlocity_namespace%__DomainObjectCreationOrder__c": 1,
        "%vlocity_namespace%__DomainObjectFieldAPIName__c": "EffectiveDate",
        "%vlocity_namespace%__InterfaceFieldAPIName__c": "EffectiveDate",
        "%vlocity_namespace%__IsDisabled__c": false,
        "%vlocity_namespace%__IsRequiredForUpsert__c": false,
        "%vlocity_namespace%__MapId__c": "CAIS_TransformAccountforTRIACoverageLetterCustom9718",
        "%vlocity_namespace%__UpsertKey__c": false,
        "Name": "CAIS_TransformAccountforTRIACoverageLetter",
        "VlocityDataPackType": "SObject",
        "VlocityRecordSObjectType": "%vlocity_namespace%__DRMapItem__c"
    },
    {
        "%vlocity_namespace%__DomainObjectAPIName__c": "json",
        "%vlocity_namespace%__DomainObjectCreationOrder__c": 1,
        "%vlocity_namespace%__DomainObjectFieldAPIName__c": "InsuredName",
        "%vlocity_namespace%__InterfaceFieldAPIName__c": "InsuredName",
        "%vlocity_namespace%__IsDisabled__c": false,
        "%vlocity_namespace%__IsRequiredForUpsert__c": false,
        "%vlocity_namespace%__MapId__c": "CAIS_TransformAccountforTRIACoverageLetter8530239278609935",
        "%vlocity_namespace%__UpsertKey__c": false,
        "Name": "CAIS_TransformAccountforTRIACoverageLetter",
        "VlocityDataPackType": "SObject",
        "VlocityRecordSObjectType": "%vlocity_namespace%__DRMapItem__c"
    },
    {
        "%vlocity_namespace%__DomainObjectAPIName__c": "json",
        "%vlocity_namespace%__DomainObjectCreationOrder__c": 1,
        "%vlocity_namespace%__DomainObjectFieldAPIName__c": "PolicyNumber",
        "%vlocity_namespace%__InterfaceFieldAPIName__c": "PolicyNumber",
        "%vlocity_namespace%__IsDisabled__c": false,
        "%vlocity_namespace%__IsRequiredForUpsert__c": false,
        "%vlocity_namespace%__MapId__c": "CAIS_TransformAccountforTRIACoverageLetterCustom4656",
        "%vlocity_namespace%__UpsertKey__c": false,
        "Name": "CAIS_TransformAccountforTRIACoverageLetter",
        "VlocityDataPackType": "SObject",
        "VlocityRecordSObjectType": "%vlocity_namespace%__DRMapItem__c"
    }
]