{
    "%vlocity_namespace%__Author__c": "Vlocity",
    "%vlocity_namespace%__CustomJavascript__c": "docgensample-object-document-selected-template-list.js",
    "%vlocity_namespace%__Definition__c": "",
    "%vlocity_namespace%__Description__c": "",
    "%vlocity_namespace%__DisplayOn__c": "",
    "%vlocity_namespace%__ExternalID__c": "docgensample-object-document-selected-template-list/1/Vlocity/1579058987967",
    "%vlocity_namespace%__HTML__c": "docgensample-object-document-selected-template-list.html",
    "%vlocity_namespace%__ParentID__c": "object-document-selected-template-list/1/vlocityDev/1575295589954",
    "%vlocity_namespace%__SampleJson__c": "",
    "%vlocity_namespace%__Sass__c": "docgensample-object-document-selected-template-list.scss",
    "%vlocity_namespace%__Type__c": "OmniScript Selectable Items",
    "%vlocity_namespace%__Version__c": 1,
    "Name": "docgensample-object-document-selected-template-list",
    "VlocityDataPackType": "SObject",
    "VlocityRecordSObjectType": "%vlocity_namespace%__VlocityUITemplate__c",
    "VlocityRecordSourceKey": "%vlocity_namespace%__VlocityUITemplate__c/docgensample-object-document-selected-template-list",
    "sourceOrgUrl": "/apex/vlocity_ins__uitemplatedesigner?id=a8C4W0000004iWRUAY"
}