{
    "%vlocity_namespace%__Author__c": "Vlocity",
    "%vlocity_namespace%__CustomJavascript__c": "",
    "%vlocity_namespace%__Definition__c": "",
    "%vlocity_namespace%__Description__c": "",
    "%vlocity_namespace%__DisplayOn__c": "",
    "%vlocity_namespace%__ExternalID__c": "ins-product-selection-item/1/vlocity/1489607578279",
    "%vlocity_namespace%__HTML__c": "ins-product-selection-item.html",
    "%vlocity_namespace%__ParentID__c": "",
    "%vlocity_namespace%__SampleJson__c": "ins-product-selection-item_Sample.json",
    "%vlocity_namespace%__Sass__c": "ins-product-selection-item.scss",
    "%vlocity_namespace%__Type__c": "Cards",
    "%vlocity_namespace%__Version__c": 1,
    "Name": "ins-product-selection-item",
    "VlocityDataPackType": "SObject",
    "VlocityRecordSObjectType": "%vlocity_namespace%__VlocityUITemplate__c",
    "VlocityRecordSourceKey": "%vlocity_namespace%__VlocityUITemplate__c/ins-product-selection-item",
    "sourceOrgUrl": "/apex/vlocity_ins__uitemplatedesigner?id=a8C4W0000004iUxUAI"
}