{
    "%vlocity_namespace%__DestinationFieldName__c": "Product2Id",
    "%vlocity_namespace%__DestinationSObjectType__c": "QuoteLineItem",
    "%vlocity_namespace%__SourceFieldName__c": "Id",
    "%vlocity_namespace%__SourceFieldSObjectType__c": "",
    "%vlocity_namespace%__SourceFieldType__c": "id",
    "%vlocity_namespace%__SourceSObjectType__c": "Product2",
    "Name": "CustomFieldMap__ca374W00000D3VacQAF",
    "VlocityDataPackType": "SObject",
    "VlocityRecordSObjectType": "%vlocity_namespace%__CustomFieldMap__c",
    "VlocityRecordSourceKey": "%vlocity_namespace%__CustomFieldMap__c/Generated1788148199",
    "sourceOrgUrl": "/a374W00000D3VacQAF"
}