{
    "dataSource": {
        "contextVariables": [
            {
                "id": 1,
                "name": "recordId",
                "val": "0YT3K000000Mff1WAC"
            }
        ],
        "orderBy": {
            "isReverse": false,
            "name": ""
        },
        "type": "DataRaptor",
        "value": {
            "bundle": "caisFetchDocuments",
            "inputMap": {
                "LinkId": "{recordId}"
            },
            "resultVar": ""
        }
    },
    "enableLwc": true,
    "globalCSS": true,
    "isFlex": true,
    "isRepeatable": false,
    "lwc": {
        "DeveloperName": "cfCaisPolicyDocument_1_CAIS",
        "Id": "0Rb6C0000008na4SAA",
        "MasterLabel": "cfCaisPolicyDocument_1_CAIS",
        "NamespacePrefix": "c"
    },
    "states": [
        {
            "actions": [
            ],
            "childCards": [
                "caisPolicyDocumentRepeater"
            ],
            "components": {
                "layer-0": {
                    "children": [
                        {
                            "class": "nds-col ",
                            "element": "outputField",
                            "elementLabel": "Block-0-Text-0",
                            "name": "Text",
                            "property": {
                                "card": "{card}",
                                "mergeField": "%3Cdiv%3EDocuments%3C/div%3E",
                                "record": "{record}"
                            },
                            "size": {
                                "default": "12",
                                "isResponsive": false
                            },
                            "stateIndex": 0,
                            "styleObject": {
                                "background": {
                                    "color": "",
                                    "image": "",
                                    "position": "",
                                    "repeat": "",
                                    "size": ""
                                },
                                "border": {
                                    "color": "",
                                    "radius": "",
                                    "style": "",
                                    "type": "",
                                    "width": ""
                                },
                                "class": "cardHeader",
                                "container": {
                                    "class": ""
                                },
                                "customClass": "cardHeader",
                                "elementStyleProperties": {
                                },
                                "inlineStyle": "",
                                "margin": [
                                ],
                                "padding": [
                                ],
                                "size": {
                                    "default": "12",
                                    "isResponsive": false
                                },
                                "sizeClass": "nds-size_12-of-12 ",
                                "style": "            color:#16325C; ",
                                "text": {
                                    "align": "",
                                    "color": "#16325C"
                                }
                            },
                            "type": "text",
                            "userUpdatedElementLabel": true
                        },
                        {
                            "children": [
                            ],
                            "class": "nds-col ",
                            "element": "block",
                            "elementLabel": "Block-1",
                            "name": "Block",
                            "property": {
                                "card": "{card}",
                                "collapsedByDefault": false,
                                "collapsible": false,
                                "label": "Block",
                                "record": "{record}"
                            },
                            "size": {
                                "default": "12",
                                "isResponsive": false
                            },
                            "stateIndex": 0,
                            "styleObject": {
                                "class": "nds-p-around_x-small",
                                "padding": [
                                    {
                                        "size": "x-small",
                                        "type": "around"
                                    }
                                ],
                                "sizeClass": "nds-size_12-of-12"
                            },
                            "type": "block"
                        },
                        {
                            "children": [
                            ],
                            "class": "nds-col ",
                            "element": "block",
                            "elementLabel": "Block-2",
                            "name": "Block",
                            "property": {
                                "card": "{card}",
                                "collapsedByDefault": false,
                                "collapsible": false,
                                "label": "Block",
                                "record": "{record}"
                            },
                            "size": {
                                "default": "12",
                                "isResponsive": false
                            },
                            "stateIndex": 0,
                            "styleObject": {
                                "class": "nds-p-around_x-small",
                                "padding": [
                                    {
                                        "size": "x-small",
                                        "type": "around"
                                    }
                                ],
                                "sizeClass": "nds-size_12-of-12"
                            },
                            "type": "block"
                        },
                        {
                            "class": "nds-col ",
                            "element": "childCardPreview",
                            "elementLabel": "FlexCard-3",
                            "name": "FlexCard",
                            "property": {
                                "cardName": "caisPolicyDocumentRepeater",
                                "cardNode": "",
                                "isChildCardTrackingEnabled": false,
                                "recordId": "{recordId}",
                                "selectedState": "Active"
                            },
                            "size": {
                                "default": "12",
                                "isResponsive": false
                            },
                            "stateIndex": 0,
                            "styleObject": {
                                "sizeClass": "nds-size_12-of-12"
                            },
                            "type": "element"
                        }
                    ]
                }
            },
            "conditions": {
                "group": [
                ],
                "id": "state-condition-object",
                "isParent": true
            },
            "definedActions": {
                "actions": [
                ]
            },
            "fields": [
            ],
            "isSmartAction": false,
            "name": "Active",
            "omniscripts": [
            ],
            "smartAction": {
            },
            "styleObject": {
                "background": {
                    "color": "#fff",
                    "image": "",
                    "position": "",
                    "repeat": "",
                    "size": ""
                },
                "border": {
                    "color": "#eee",
                    "radius": "0",
                    "style": "solid",
                    "type": "",
                    "width": "0.8"
                },
                "class": "nds-p-around_large nds-m-bottom_x-small ",
                "container": {
                    "class": ""
                },
                "elementStyleProperties": {
                },
                "inlineStyle": "",
                "margin": [
                    {
                        "label": "bottom:x-small",
                        "size": "x-small",
                        "type": "bottom"
                    }
                ],
                "padding": [
                    {
                        "label": "around:large",
                        "size": "large",
                        "type": "around"
                    }
                ],
                "size": {
                    "default": "12",
                    "isResponsive": false
                },
                "sizeClass": "nds-size_12-of-12 ",
                "style": "background-color:#fff;     border-color:#eee; border-width:0.8px; border-radius:0; border-style:solid;     ",
                "text": {
                    "align": "",
                    "color": ""
                }
            }
        }
    ],
    "theme": "nds",
    "title": "caisPolicyDocument"
}