[
    {
        "%vlocity_namespace%__DomainObjectAPIName__c": "Formula",
        "%vlocity_namespace%__DomainObjectCreationOrder__c": 0,
        "%vlocity_namespace%__DomainObjectFieldAPIName__c": "Formula",
        "%vlocity_namespace%__FormulaOrder__c": 1,
        "%vlocity_namespace%__FormulaResultPath__c": "policyTermExpDate",
        "%vlocity_namespace%__Formula__c": "IF(%WCIfAny:PolicyTerm:PartialTerm% == \"true\", %WCIfAny:PolicyTerm:wciaExpirationDateMod%,%WCIfAny:PolicyTerm:wciaExpirationDate%)",
        "%vlocity_namespace%__IsDisabled__c": false,
        "%vlocity_namespace%__IsRequiredForUpsert__c": false,
        "%vlocity_namespace%__MapId__c": "TransformForIfAnyQuoteCreationCustom7023",
        "%vlocity_namespace%__UpsertKey__c": false,
        "Name": "TransformForIfAnyQuoteCreation",
        "VlocityDataPackType": "SObject",
        "VlocityRecordSObjectType": "%vlocity_namespace%__DRMapItem__c"
    },
    {
        "%vlocity_namespace%__DomainObjectAPIName__c": "Formula",
        "%vlocity_namespace%__DomainObjectCreationOrder__c": 0,
        "%vlocity_namespace%__DomainObjectFieldAPIName__c": "Formula",
        "%vlocity_namespace%__FormulaOrder__c": 2,
        "%vlocity_namespace%__FormulaResultPath__c": "quoteExpDate",
        "%vlocity_namespace%__Formula__c": "ADDDAY(%WCIfAny:PolicyTerm:wciaEffectiveDate%,90)",
        "%vlocity_namespace%__IsDisabled__c": false,
        "%vlocity_namespace%__IsRequiredForUpsert__c": false,
        "%vlocity_namespace%__MapId__c": "TransformForIfAnyQuoteCreationCustom8236",
        "%vlocity_namespace%__UpsertKey__c": false,
        "Name": "TransformForIfAnyQuoteCreation",
        "VlocityDataPackType": "SObject",
        "VlocityRecordSObjectType": "%vlocity_namespace%__DRMapItem__c"
    },
    {
        "%vlocity_namespace%__DomainObjectAPIName__c": "Formula",
        "%vlocity_namespace%__DomainObjectCreationOrder__c": 0,
        "%vlocity_namespace%__DomainObjectFieldAPIName__c": "Formula",
        "%vlocity_namespace%__FormulaOrder__c": 3,
        "%vlocity_namespace%__FormulaResultPath__c": "mailingStreet",
        "%vlocity_namespace%__Formula__c": "CONCAT(%WorkerCompensation:MailingStreetFormula%,\" \",%WorkerCompensation:MailingSuiteFormula%)",
        "%vlocity_namespace%__IsDisabled__c": false,
        "%vlocity_namespace%__IsRequiredForUpsert__c": false,
        "%vlocity_namespace%__MapId__c": "TransformForIfAnyQuoteCreationCustom4301",
        "%vlocity_namespace%__UpsertKey__c": false,
        "Name": "TransformForIfAnyQuoteCreation",
        "VlocityDataPackType": "SObject",
        "VlocityRecordSObjectType": "%vlocity_namespace%__DRMapItem__c"
    },
    {
        "%vlocity_namespace%__DomainObjectAPIName__c": "Formula",
        "%vlocity_namespace%__DomainObjectCreationOrder__c": 0,
        "%vlocity_namespace%__DomainObjectFieldAPIName__c": "Formula",
        "%vlocity_namespace%__FormulaOrder__c": 4,
        "%vlocity_namespace%__FormulaResultPath__c": "billingStreet",
        "%vlocity_namespace%__Formula__c": "CONCAT(%WorkerCompensation:BillingStreetFormula%,\" \",%WorkerCompensation:BillingSuiteFormula%)",
        "%vlocity_namespace%__IsDisabled__c": false,
        "%vlocity_namespace%__IsRequiredForUpsert__c": false,
        "%vlocity_namespace%__MapId__c": "TransformForIfAnyQuoteCreationCustom1612",
        "%vlocity_namespace%__UpsertKey__c": false,
        "Name": "TransformForIfAnyQuoteCreation",
        "VlocityDataPackType": "SObject",
        "VlocityRecordSObjectType": "%vlocity_namespace%__DRMapItem__c"
    },
    {
        "%vlocity_namespace%__DomainObjectAPIName__c": "Formula",
        "%vlocity_namespace%__DomainObjectCreationOrder__c": 0,
        "%vlocity_namespace%__DomainObjectFieldAPIName__c": "Formula",
        "%vlocity_namespace%__FormulaOrder__c": 5,
        "%vlocity_namespace%__FormulaResultPath__c": "QuoteName",
        "%vlocity_namespace%__Formula__c": "CONCAT(%WorkerCompensation:CommunityAssociation:FinalInsured%,\"-WCIA-\",SUBSTRING(%WCIfAny:PolicyTerm:wciaEffectiveDate%,0,10))",
        "%vlocity_namespace%__IsDisabled__c": false,
        "%vlocity_namespace%__IsRequiredForUpsert__c": false,
        "%vlocity_namespace%__MapId__c": "TransformForIfAnyQuoteCreationCustom3543",
        "%vlocity_namespace%__UpsertKey__c": false,
        "Name": "TransformForIfAnyQuoteCreation",
        "VlocityDataPackType": "SObject",
        "VlocityRecordSObjectType": "%vlocity_namespace%__DRMapItem__c"
    },
    {
        "%vlocity_namespace%__DomainObjectAPIName__c": "Formula",
        "%vlocity_namespace%__DomainObjectCreationOrder__c": 0,
        "%vlocity_namespace%__DomainObjectFieldAPIName__c": "Formula",
        "%vlocity_namespace%__FormulaOrder__c": 6,
        "%vlocity_namespace%__FormulaResultPath__c": "NewPMCName",
        "%vlocity_namespace%__Formula__c": "IF(%WorkerCompensation:CommunityAssociation:PMCAccount-Block:PMCAccountId% == null,%WorkerCompensation:CommunityAssociation:PMCAccount-Block:PMCAccount%,null)",
        "%vlocity_namespace%__IsDisabled__c": false,
        "%vlocity_namespace%__IsRequiredForUpsert__c": false,
        "%vlocity_namespace%__MapId__c": "TransformForIfAnyQuoteCreationCustom7696",
        "%vlocity_namespace%__UpsertKey__c": false,
        "Name": "TransformForIfAnyQuoteCreation",
        "VlocityDataPackType": "SObject",
        "VlocityRecordSObjectType": "%vlocity_namespace%__DRMapItem__c"
    },
    {
        "%vlocity_namespace%__DomainObjectAPIName__c": "Formula",
        "%vlocity_namespace%__DomainObjectCreationOrder__c": 0,
        "%vlocity_namespace%__DomainObjectFieldAPIName__c": "Formula",
        "%vlocity_namespace%__FormulaOrder__c": 7,
        "%vlocity_namespace%__FormulaResultPath__c": "WCRuleStatus",
        "%vlocity_namespace%__Formula__c": "IF(%GeneralQuestionsStep:WCRuleStatusIfAny% == \"Declined\" , \"Declined\" , IF(%GeneralQuestionsStep:WCRuleStatusIfAny% == \"Referral\", \"Underwriting Review\",IF(%GeneralQuestionsStep:WCRuleStatusIfAny% == \"Application\", \"Approved\", '')))",
        "%vlocity_namespace%__IsDisabled__c": false,
        "%vlocity_namespace%__IsRequiredForUpsert__c": false,
        "%vlocity_namespace%__MapId__c": "TransformForIfAnyQuoteCreationCustom243",
        "%vlocity_namespace%__UpsertKey__c": false,
        "Name": "TransformForIfAnyQuoteCreation",
        "VlocityDataPackType": "SObject",
        "VlocityRecordSObjectType": "%vlocity_namespace%__DRMapItem__c"
    },
    {
        "%vlocity_namespace%__DomainObjectAPIName__c": "Formula",
        "%vlocity_namespace%__DomainObjectCreationOrder__c": 0,
        "%vlocity_namespace%__DomainObjectFieldAPIName__c": "Formula",
        "%vlocity_namespace%__FormulaOrder__c": 8,
        "%vlocity_namespace%__FormulaResultPath__c": "SubStatus",
        "%vlocity_namespace%__Formula__c": "IF(%WCRuleStatus% == \"Underwriting Review\" , \"Referred\" , '')",
        "%vlocity_namespace%__IsDisabled__c": false,
        "%vlocity_namespace%__IsRequiredForUpsert__c": false,
        "%vlocity_namespace%__MapId__c": "TransformForIfAnyQuoteCreationCustom1770",
        "%vlocity_namespace%__UpsertKey__c": false,
        "Name": "TransformForIfAnyQuoteCreation",
        "VlocityDataPackType": "SObject",
        "VlocityRecordSObjectType": "%vlocity_namespace%__DRMapItem__c"
    },
    {
        "%vlocity_namespace%__DomainObjectAPIName__c": "Formula",
        "%vlocity_namespace%__DomainObjectCreationOrder__c": 0,
        "%vlocity_namespace%__DomainObjectFieldAPIName__c": "Formula",
        "%vlocity_namespace%__FormulaOrder__c": 9,
        "%vlocity_namespace%__FormulaResultPath__c": "ReasonCode",
        "%vlocity_namespace%__Formula__c": "IF(%WCRuleStatus% == \"Approved\" , \"System Approved\" , '')",
        "%vlocity_namespace%__IsDisabled__c": false,
        "%vlocity_namespace%__IsRequiredForUpsert__c": false,
        "%vlocity_namespace%__MapId__c": "TransformForIfAnyQuoteCreationCustom6718",
        "%vlocity_namespace%__UpsertKey__c": false,
        "Name": "TransformForIfAnyQuoteCreation",
        "VlocityDataPackType": "SObject",
        "VlocityRecordSObjectType": "%vlocity_namespace%__DRMapItem__c"
    },
    {
        "%vlocity_namespace%__DomainObjectAPIName__c": "json",
        "%vlocity_namespace%__DomainObjectCreationOrder__c": 1,
        "%vlocity_namespace%__DomainObjectFieldAPIName__c": "quoteJSON:accountId",
        "%vlocity_namespace%__InterfaceFieldAPIName__c": "finalAccountId",
        "%vlocity_namespace%__IsDisabled__c": false,
        "%vlocity_namespace%__IsRequiredForUpsert__c": false,
        "%vlocity_namespace%__MapId__c": "TransformForIfAnyQuoteCreationCustom5575",
        "%vlocity_namespace%__UpsertKey__c": false,
        "Name": "TransformForIfAnyQuoteCreation",
        "VlocityDataPackType": "SObject",
        "VlocityRecordSObjectType": "%vlocity_namespace%__DRMapItem__c"
    },
    {
        "%vlocity_namespace%__DomainObjectAPIName__c": "json",
        "%vlocity_namespace%__DomainObjectCreationOrder__c": 1,
        "%vlocity_namespace%__DomainObjectFieldAPIName__c": "quoteJSON:additionalFields:%vlocity_namespace%__AgencyBrokerageId__c",
        "%vlocity_namespace%__InterfaceFieldAPIName__c": "currentUserAccountId",
        "%vlocity_namespace%__IsDisabled__c": false,
        "%vlocity_namespace%__IsRequiredForUpsert__c": false,
        "%vlocity_namespace%__MapId__c": "TransformForIfAnyQuoteCreationCustom2400",
        "%vlocity_namespace%__UpsertKey__c": false,
        "Name": "TransformForIfAnyQuoteCreation",
        "VlocityDataPackType": "SObject",
        "VlocityRecordSObjectType": "%vlocity_namespace%__DRMapItem__c"
    },
    {
        "%vlocity_namespace%__DomainObjectAPIName__c": "json",
        "%vlocity_namespace%__DomainObjectCreationOrder__c": 1,
        "%vlocity_namespace%__DomainObjectFieldAPIName__c": "quoteJSON:additionalFields:%vlocity_namespace%__EndDate__c",
        "%vlocity_namespace%__InterfaceFieldAPIName__c": "policyTermExpDate",
        "%vlocity_namespace%__IsDisabled__c": false,
        "%vlocity_namespace%__IsRequiredForUpsert__c": false,
        "%vlocity_namespace%__MapId__c": "TransformForIfAnyQuoteCreationCustom7360",
        "%vlocity_namespace%__UpsertKey__c": false,
        "Name": "TransformForIfAnyQuoteCreation",
        "VlocityDataPackType": "SObject",
        "VlocityRecordSObjectType": "%vlocity_namespace%__DRMapItem__c"
    },
    {
        "%vlocity_namespace%__DefaultValue__c": "Annual",
        "%vlocity_namespace%__DomainObjectAPIName__c": "json",
        "%vlocity_namespace%__DomainObjectCreationOrder__c": 1,
        "%vlocity_namespace%__DomainObjectFieldAPIName__c": "quoteJSON:additionalFields:%vlocity_namespace%__Term__c",
        "%vlocity_namespace%__IsDisabled__c": false,
        "%vlocity_namespace%__IsRequiredForUpsert__c": false,
        "%vlocity_namespace%__MapId__c": "TransformForIfAnyQuoteCreationCustom1777",
        "%vlocity_namespace%__UpsertKey__c": false,
        "Name": "TransformForIfAnyQuoteCreation",
        "VlocityDataPackType": "SObject",
        "VlocityRecordSObjectType": "%vlocity_namespace%__DRMapItem__c"
    },
    {
        "%vlocity_namespace%__DomainObjectAPIName__c": "json",
        "%vlocity_namespace%__DomainObjectCreationOrder__c": 1,
        "%vlocity_namespace%__DomainObjectFieldAPIName__c": "quoteJSON:additionalFields:BillingCity",
        "%vlocity_namespace%__InterfaceFieldAPIName__c": "WorkerCompensation:BillingCityFormula",
        "%vlocity_namespace%__IsDisabled__c": false,
        "%vlocity_namespace%__IsRequiredForUpsert__c": false,
        "%vlocity_namespace%__MapId__c": "TransformForIfAnyQuoteCreationCustom9853",
        "%vlocity_namespace%__UpsertKey__c": false,
        "Name": "TransformForIfAnyQuoteCreation",
        "VlocityDataPackType": "SObject",
        "VlocityRecordSObjectType": "%vlocity_namespace%__DRMapItem__c"
    },
    {
        "%vlocity_namespace%__DefaultValue__c": "United States",
        "%vlocity_namespace%__DomainObjectAPIName__c": "json",
        "%vlocity_namespace%__DomainObjectCreationOrder__c": 1,
        "%vlocity_namespace%__DomainObjectFieldAPIName__c": "quoteJSON:additionalFields:BillingCountry",
        "%vlocity_namespace%__IsDisabled__c": false,
        "%vlocity_namespace%__IsRequiredForUpsert__c": false,
        "%vlocity_namespace%__MapId__c": "TransformForIfAnyQuoteCreationCustom5712",
        "%vlocity_namespace%__UpsertKey__c": false,
        "Name": "TransformForIfAnyQuoteCreation",
        "VlocityDataPackType": "SObject",
        "VlocityRecordSObjectType": "%vlocity_namespace%__DRMapItem__c"
    },
    {
        "%vlocity_namespace%__DomainObjectAPIName__c": "json",
        "%vlocity_namespace%__DomainObjectCreationOrder__c": 1,
        "%vlocity_namespace%__DomainObjectFieldAPIName__c": "quoteJSON:additionalFields:BillingName",
        "%vlocity_namespace%__InterfaceFieldAPIName__c": "WorkerCompensation:CommunityAssociation:BillingCareOf",
        "%vlocity_namespace%__IsDisabled__c": false,
        "%vlocity_namespace%__IsRequiredForUpsert__c": false,
        "%vlocity_namespace%__MapId__c": "TransformForIfAnyQuoteCreationCustom6949",
        "%vlocity_namespace%__UpsertKey__c": false,
        "Name": "TransformForIfAnyQuoteCreation",
        "VlocityDataPackType": "SObject",
        "VlocityRecordSObjectType": "%vlocity_namespace%__DRMapItem__c"
    },
    {
        "%vlocity_namespace%__DomainObjectAPIName__c": "json",
        "%vlocity_namespace%__DomainObjectCreationOrder__c": 1,
        "%vlocity_namespace%__DomainObjectFieldAPIName__c": "quoteJSON:additionalFields:BillingPostalCode",
        "%vlocity_namespace%__InterfaceFieldAPIName__c": "WorkerCompensation:BillingPostalCodeFormula",
        "%vlocity_namespace%__IsDisabled__c": false,
        "%vlocity_namespace%__IsRequiredForUpsert__c": false,
        "%vlocity_namespace%__MapId__c": "TransformForIfAnyQuoteCreationCustom4435",
        "%vlocity_namespace%__UpsertKey__c": false,
        "Name": "TransformForIfAnyQuoteCreation",
        "VlocityDataPackType": "SObject",
        "VlocityRecordSObjectType": "%vlocity_namespace%__DRMapItem__c"
    },
    {
        "%vlocity_namespace%__DomainObjectAPIName__c": "json",
        "%vlocity_namespace%__DomainObjectCreationOrder__c": 1,
        "%vlocity_namespace%__DomainObjectFieldAPIName__c": "quoteJSON:additionalFields:BillingState",
        "%vlocity_namespace%__InterfaceFieldAPIName__c": "WorkerCompensation:BillingStateFormula",
        "%vlocity_namespace%__IsDisabled__c": false,
        "%vlocity_namespace%__IsRequiredForUpsert__c": false,
        "%vlocity_namespace%__MapId__c": "TransformForIfAnyQuoteCreationCustom9900",
        "%vlocity_namespace%__UpsertKey__c": false,
        "Name": "TransformForIfAnyQuoteCreation",
        "VlocityDataPackType": "SObject",
        "VlocityRecordSObjectType": "%vlocity_namespace%__DRMapItem__c"
    },
    {
        "%vlocity_namespace%__DomainObjectAPIName__c": "json",
        "%vlocity_namespace%__DomainObjectCreationOrder__c": 1,
        "%vlocity_namespace%__DomainObjectFieldAPIName__c": "quoteJSON:additionalFields:BillingStreet",
        "%vlocity_namespace%__InterfaceFieldAPIName__c": "billingStreet",
        "%vlocity_namespace%__IsDisabled__c": false,
        "%vlocity_namespace%__IsRequiredForUpsert__c": false,
        "%vlocity_namespace%__MapId__c": "TransformForIfAnyQuoteCreationCustom1451",
        "%vlocity_namespace%__UpsertKey__c": false,
        "Name": "TransformForIfAnyQuoteCreation",
        "VlocityDataPackType": "SObject",
        "VlocityRecordSObjectType": "%vlocity_namespace%__DRMapItem__c"
    },
    {
        "%vlocity_namespace%__DefaultValue__c": "New",
        "%vlocity_namespace%__DomainObjectAPIName__c": "json",
        "%vlocity_namespace%__DomainObjectCreationOrder__c": 1,
        "%vlocity_namespace%__DomainObjectFieldAPIName__c": "quoteJSON:additionalFields:Business_Type__c",
        "%vlocity_namespace%__IsDisabled__c": false,
        "%vlocity_namespace%__IsRequiredForUpsert__c": false,
        "%vlocity_namespace%__MapId__c": "TransformForIfAnyQuoteCreationCustom2783",
        "%vlocity_namespace%__UpsertKey__c": false,
        "Name": "TransformForIfAnyQuoteCreation",
        "VlocityDataPackType": "SObject",
        "VlocityRecordSObjectType": "%vlocity_namespace%__DRMapItem__c"
    },
    {
        "%vlocity_namespace%__DefaultValue__c": "PMA",
        "%vlocity_namespace%__DomainObjectAPIName__c": "json",
        "%vlocity_namespace%__DomainObjectCreationOrder__c": 1,
        "%vlocity_namespace%__DomainObjectFieldAPIName__c": "quoteJSON:additionalFields:Carrier__c",
        "%vlocity_namespace%__IsDisabled__c": false,
        "%vlocity_namespace%__IsRequiredForUpsert__c": false,
        "%vlocity_namespace%__MapId__c": "TransformForIfAnyQuoteCreationCustom8686",
        "%vlocity_namespace%__UpsertKey__c": false,
        "Name": "TransformForIfAnyQuoteCreation",
        "VlocityDataPackType": "SObject",
        "VlocityRecordSObjectType": "%vlocity_namespace%__DRMapItem__c"
    },
    {
        "%vlocity_namespace%__DefaultValue__c": "\"\"",
        "%vlocity_namespace%__DomainObjectAPIName__c": "json",
        "%vlocity_namespace%__DomainObjectCreationOrder__c": 1,
        "%vlocity_namespace%__DomainObjectFieldAPIName__c": "quoteJSON:additionalFields:Class_Code__c",
        "%vlocity_namespace%__IsDisabled__c": false,
        "%vlocity_namespace%__IsRequiredForUpsert__c": false,
        "%vlocity_namespace%__MapId__c": "TransformForIfAnyQuoteCreationCustom8281",
        "%vlocity_namespace%__UpsertKey__c": false,
        "Name": "TransformForIfAnyQuoteCreation",
        "VlocityDataPackType": "SObject",
        "VlocityRecordSObjectType": "%vlocity_namespace%__DRMapItem__c"
    },
    {
        "%vlocity_namespace%__DomainObjectAPIName__c": "json",
        "%vlocity_namespace%__DomainObjectCreationOrder__c": 1,
        "%vlocity_namespace%__DomainObjectFieldAPIName__c": "quoteJSON:additionalFields:ContactId",
        "%vlocity_namespace%__InterfaceFieldAPIName__c": "ContactId",
        "%vlocity_namespace%__IsDisabled__c": false,
        "%vlocity_namespace%__IsRequiredForUpsert__c": false,
        "%vlocity_namespace%__MapId__c": "TransformForIfAnyQuoteCreationCustom857",
        "%vlocity_namespace%__UpsertKey__c": false,
        "Name": "TransformForIfAnyQuoteCreation",
        "VlocityDataPackType": "SObject",
        "VlocityRecordSObjectType": "%vlocity_namespace%__DRMapItem__c"
    },
    {
        "%vlocity_namespace%__DomainObjectAPIName__c": "json",
        "%vlocity_namespace%__DomainObjectCreationOrder__c": 1,
        "%vlocity_namespace%__DomainObjectFieldAPIName__c": "quoteJSON:additionalFields:Email",
        "%vlocity_namespace%__InterfaceFieldAPIName__c": "WorkerCompensation:CommunityAssociation:InsuredContactBlock:ContactEmail",
        "%vlocity_namespace%__IsDisabled__c": false,
        "%vlocity_namespace%__IsRequiredForUpsert__c": false,
        "%vlocity_namespace%__MapId__c": "TransformForIfAnyQuoteCreationCustom8853",
        "%vlocity_namespace%__UpsertKey__c": false,
        "Name": "TransformForIfAnyQuoteCreation",
        "VlocityDataPackType": "SObject",
        "VlocityRecordSObjectType": "%vlocity_namespace%__DRMapItem__c"
    },
    {
        "%vlocity_namespace%__DomainObjectAPIName__c": "json",
        "%vlocity_namespace%__DomainObjectCreationOrder__c": 1,
        "%vlocity_namespace%__DomainObjectFieldAPIName__c": "quoteJSON:additionalFields:ExpirationDate",
        "%vlocity_namespace%__InterfaceFieldAPIName__c": "quoteExpDate",
        "%vlocity_namespace%__IsDisabled__c": false,
        "%vlocity_namespace%__IsRequiredForUpsert__c": false,
        "%vlocity_namespace%__MapId__c": "TransformForIfAnyQuoteCreationCustom2505",
        "%vlocity_namespace%__UpsertKey__c": false,
        "Name": "TransformForIfAnyQuoteCreation",
        "VlocityDataPackType": "SObject",
        "VlocityRecordSObjectType": "%vlocity_namespace%__DRMapItem__c"
    },
    {
        "%vlocity_namespace%__DomainObjectAPIName__c": "json",
        "%vlocity_namespace%__DomainObjectCreationOrder__c": 1,
        "%vlocity_namespace%__DomainObjectFieldAPIName__c": "quoteJSON:additionalFields:FEIN__c",
        "%vlocity_namespace%__InterfaceFieldAPIName__c": "WorkerCompensation:CommunityAssociation:FinalFEIN",
        "%vlocity_namespace%__IsDisabled__c": false,
        "%vlocity_namespace%__IsRequiredForUpsert__c": false,
        "%vlocity_namespace%__MapId__c": "TransformForIfAnyQuoteCreationCustom767",
        "%vlocity_namespace%__UpsertKey__c": false,
        "Name": "TransformForIfAnyQuoteCreation",
        "VlocityDataPackType": "SObject",
        "VlocityRecordSObjectType": "%vlocity_namespace%__DRMapItem__c"
    },
    {
        "%vlocity_namespace%__DefaultValue__c": "WCIA",
        "%vlocity_namespace%__DomainObjectAPIName__c": "json",
        "%vlocity_namespace%__DomainObjectCreationOrder__c": 1,
        "%vlocity_namespace%__DomainObjectFieldAPIName__c": "quoteJSON:additionalFields:Line_of_Business__c",
        "%vlocity_namespace%__IsDisabled__c": false,
        "%vlocity_namespace%__IsRequiredForUpsert__c": false,
        "%vlocity_namespace%__MapId__c": "TransformForIfAnyQuoteCreationCustom7525",
        "%vlocity_namespace%__UpsertKey__c": false,
        "Name": "TransformForIfAnyQuoteCreation",
        "VlocityDataPackType": "SObject",
        "VlocityRecordSObjectType": "%vlocity_namespace%__DRMapItem__c"
    },
    {
        "%vlocity_namespace%__DomainObjectAPIName__c": "json",
        "%vlocity_namespace%__DomainObjectCreationOrder__c": 1,
        "%vlocity_namespace%__DomainObjectFieldAPIName__c": "quoteJSON:additionalFields:NAICS_Code__c",
        "%vlocity_namespace%__DomainObjectFieldType__c": "String",
        "%vlocity_namespace%__InterfaceFieldAPIName__c": "getRatedProduct:records|1:CalculatedPriceData:SICNAICSCodes__NAICS",
        "%vlocity_namespace%__IsDisabled__c": false,
        "%vlocity_namespace%__IsRequiredForUpsert__c": false,
        "%vlocity_namespace%__MapId__c": "TransformForIfAnyQuoteCreationCustom5291",
        "%vlocity_namespace%__UpsertKey__c": false,
        "Name": "TransformForIfAnyQuoteCreation",
        "VlocityDataPackType": "SObject",
        "VlocityRecordSObjectType": "%vlocity_namespace%__DRMapItem__c"
    },
    {
        "%vlocity_namespace%__DomainObjectAPIName__c": "json",
        "%vlocity_namespace%__DomainObjectCreationOrder__c": 1,
        "%vlocity_namespace%__DomainObjectFieldAPIName__c": "quoteJSON:additionalFields:Name",
        "%vlocity_namespace%__InterfaceFieldAPIName__c": "QuoteName",
        "%vlocity_namespace%__IsDisabled__c": false,
        "%vlocity_namespace%__IsRequiredForUpsert__c": false,
        "%vlocity_namespace%__MapId__c": "TransformForIfAnyQuoteCreationCustom6863",
        "%vlocity_namespace%__UpsertKey__c": false,
        "Name": "TransformForIfAnyQuoteCreation",
        "VlocityDataPackType": "SObject",
        "VlocityRecordSObjectType": "%vlocity_namespace%__DRMapItem__c"
    },
    {
        "%vlocity_namespace%__DomainObjectAPIName__c": "json",
        "%vlocity_namespace%__DomainObjectCreationOrder__c": 1,
        "%vlocity_namespace%__DomainObjectFieldAPIName__c": "quoteJSON:additionalFields:New_PMC_Account__c",
        "%vlocity_namespace%__InterfaceFieldAPIName__c": "NewPMCName",
        "%vlocity_namespace%__IsDisabled__c": false,
        "%vlocity_namespace%__IsRequiredForUpsert__c": false,
        "%vlocity_namespace%__MapId__c": "TransformForIfAnyQuoteCreationCustom2481",
        "%vlocity_namespace%__UpsertKey__c": false,
        "Name": "TransformForIfAnyQuoteCreation",
        "VlocityDataPackType": "SObject",
        "VlocityRecordSObjectType": "%vlocity_namespace%__DRMapItem__c"
    },
    {
        "%vlocity_namespace%__DomainObjectAPIName__c": "json",
        "%vlocity_namespace%__DomainObjectCreationOrder__c": 1,
        "%vlocity_namespace%__DomainObjectFieldAPIName__c": "quoteJSON:additionalFields:PMC_Contact_First_Name__c",
        "%vlocity_namespace%__InterfaceFieldAPIName__c": "WorkerCompensation:CommunityAssociation:PropMgmtContactBlock:PropMgmtFName",
        "%vlocity_namespace%__IsDisabled__c": false,
        "%vlocity_namespace%__IsRequiredForUpsert__c": false,
        "%vlocity_namespace%__MapId__c": "TransformForIfAnyQuoteCreationCustom9806",
        "%vlocity_namespace%__UpsertKey__c": false,
        "Name": "TransformForIfAnyQuoteCreation",
        "VlocityDataPackType": "SObject",
        "VlocityRecordSObjectType": "%vlocity_namespace%__DRMapItem__c"
    },
    {
        "%vlocity_namespace%__DomainObjectAPIName__c": "json",
        "%vlocity_namespace%__DomainObjectCreationOrder__c": 1,
        "%vlocity_namespace%__DomainObjectFieldAPIName__c": "quoteJSON:additionalFields:PMC_Contact_Last_Name__c",
        "%vlocity_namespace%__InterfaceFieldAPIName__c": "WorkerCompensation:CommunityAssociation:PropMgmtContactBlock:PropMgmtLName",
        "%vlocity_namespace%__IsDisabled__c": false,
        "%vlocity_namespace%__IsRequiredForUpsert__c": false,
        "%vlocity_namespace%__MapId__c": "TransformForIfAnyQuoteCreationCustom3071",
        "%vlocity_namespace%__UpsertKey__c": false,
        "Name": "TransformForIfAnyQuoteCreation",
        "VlocityDataPackType": "SObject",
        "VlocityRecordSObjectType": "%vlocity_namespace%__DRMapItem__c"
    },
    {
        "%vlocity_namespace%__DomainObjectAPIName__c": "json",
        "%vlocity_namespace%__DomainObjectCreationOrder__c": 1,
        "%vlocity_namespace%__DomainObjectFieldAPIName__c": "quoteJSON:additionalFields:Phone",
        "%vlocity_namespace%__InterfaceFieldAPIName__c": "WorkerCompensation:CommunityAssociation:InsuredContactBlock:ContactPhone",
        "%vlocity_namespace%__IsDisabled__c": false,
        "%vlocity_namespace%__IsRequiredForUpsert__c": false,
        "%vlocity_namespace%__MapId__c": "TransformForIfAnyQuoteCreationCustom2786",
        "%vlocity_namespace%__UpsertKey__c": false,
        "Name": "TransformForIfAnyQuoteCreation",
        "VlocityDataPackType": "SObject",
        "VlocityRecordSObjectType": "%vlocity_namespace%__DRMapItem__c"
    },
    {
        "%vlocity_namespace%__DomainObjectAPIName__c": "json",
        "%vlocity_namespace%__DomainObjectCreationOrder__c": 1,
        "%vlocity_namespace%__DomainObjectFieldAPIName__c": "quoteJSON:additionalFields:Policy_Term_Effective_Date__c",
        "%vlocity_namespace%__InterfaceFieldAPIName__c": "WCIfAny:PolicyTerm:wciaEffectiveDate",
        "%vlocity_namespace%__IsDisabled__c": true,
        "%vlocity_namespace%__IsRequiredForUpsert__c": false,
        "%vlocity_namespace%__MapId__c": "TransformForIfAnyQuoteCreationCustom2968",
        "%vlocity_namespace%__UpsertKey__c": false,
        "Name": "TransformForIfAnyQuoteCreation",
        "VlocityDataPackType": "SObject",
        "VlocityRecordSObjectType": "%vlocity_namespace%__DRMapItem__c"
    },
    {
        "%vlocity_namespace%__DomainObjectAPIName__c": "json",
        "%vlocity_namespace%__DomainObjectCreationOrder__c": 1,
        "%vlocity_namespace%__DomainObjectFieldAPIName__c": "quoteJSON:additionalFields:QuoteJson__c",
        "%vlocity_namespace%__DomainObjectFieldType__c": "JSON",
        "%vlocity_namespace%__InterfaceFieldAPIName__c": "TransformToStoreQuoteJson:StoredQuote",
        "%vlocity_namespace%__IsDisabled__c": false,
        "%vlocity_namespace%__IsRequiredForUpsert__c": false,
        "%vlocity_namespace%__MapId__c": "TransformForIfAnyQuoteCreationCustom5689",
        "%vlocity_namespace%__UpsertKey__c": false,
        "Name": "TransformForIfAnyQuoteCreation",
        "VlocityDataPackType": "SObject",
        "VlocityRecordSObjectType": "%vlocity_namespace%__DRMapItem__c"
    },
    {
        "%vlocity_namespace%__DomainObjectAPIName__c": "json",
        "%vlocity_namespace%__DomainObjectCreationOrder__c": 1,
        "%vlocity_namespace%__DomainObjectFieldAPIName__c": "quoteJSON:additionalFields:QuoteToCity",
        "%vlocity_namespace%__InterfaceFieldAPIName__c": "WorkerCompensation:CommunityAssociation:LocationAddress-Block:LocationCity",
        "%vlocity_namespace%__IsDisabled__c": false,
        "%vlocity_namespace%__IsRequiredForUpsert__c": false,
        "%vlocity_namespace%__MapId__c": "TransformForIfAnyQuoteCreationCustom3132",
        "%vlocity_namespace%__UpsertKey__c": false,
        "Name": "TransformForIfAnyQuoteCreation",
        "VlocityDataPackType": "SObject",
        "VlocityRecordSObjectType": "%vlocity_namespace%__DRMapItem__c"
    },
    {
        "%vlocity_namespace%__DefaultValue__c": "United States",
        "%vlocity_namespace%__DomainObjectAPIName__c": "json",
        "%vlocity_namespace%__DomainObjectCreationOrder__c": 1,
        "%vlocity_namespace%__DomainObjectFieldAPIName__c": "quoteJSON:additionalFields:QuoteToCountry",
        "%vlocity_namespace%__IsDisabled__c": false,
        "%vlocity_namespace%__IsRequiredForUpsert__c": false,
        "%vlocity_namespace%__MapId__c": "TransformForIfAnyQuoteCreationCustom4101",
        "%vlocity_namespace%__UpsertKey__c": false,
        "Name": "TransformForIfAnyQuoteCreation",
        "VlocityDataPackType": "SObject",
        "VlocityRecordSObjectType": "%vlocity_namespace%__DRMapItem__c"
    },
    {
        "%vlocity_namespace%__DomainObjectAPIName__c": "json",
        "%vlocity_namespace%__DomainObjectCreationOrder__c": 1,
        "%vlocity_namespace%__DomainObjectFieldAPIName__c": "quoteJSON:additionalFields:QuoteToPostalCode",
        "%vlocity_namespace%__InterfaceFieldAPIName__c": "WorkerCompensation:CommunityAssociation:LocationAddress-Block:LocationZip",
        "%vlocity_namespace%__IsDisabled__c": false,
        "%vlocity_namespace%__IsRequiredForUpsert__c": false,
        "%vlocity_namespace%__MapId__c": "TransformForIfAnyQuoteCreationCustom7027",
        "%vlocity_namespace%__UpsertKey__c": false,
        "Name": "TransformForIfAnyQuoteCreation",
        "VlocityDataPackType": "SObject",
        "VlocityRecordSObjectType": "%vlocity_namespace%__DRMapItem__c"
    },
    {
        "%vlocity_namespace%__DomainObjectAPIName__c": "json",
        "%vlocity_namespace%__DomainObjectCreationOrder__c": 1,
        "%vlocity_namespace%__DomainObjectFieldAPIName__c": "quoteJSON:additionalFields:QuoteToState",
        "%vlocity_namespace%__InterfaceFieldAPIName__c": "WorkerCompensation:CommunityAssociation:LocationAddress-Block:LocationState",
        "%vlocity_namespace%__IsDisabled__c": false,
        "%vlocity_namespace%__IsRequiredForUpsert__c": false,
        "%vlocity_namespace%__MapId__c": "TransformForIfAnyQuoteCreationCustom8275",
        "%vlocity_namespace%__UpsertKey__c": false,
        "Name": "TransformForIfAnyQuoteCreation",
        "VlocityDataPackType": "SObject",
        "VlocityRecordSObjectType": "%vlocity_namespace%__DRMapItem__c"
    },
    {
        "%vlocity_namespace%__DomainObjectAPIName__c": "json",
        "%vlocity_namespace%__DomainObjectCreationOrder__c": 1,
        "%vlocity_namespace%__DomainObjectFieldAPIName__c": "quoteJSON:additionalFields:QuoteToStreet",
        "%vlocity_namespace%__InterfaceFieldAPIName__c": "WorkerCompensation:CommunityAssociation:LocationAddress-Block:LocationStreet",
        "%vlocity_namespace%__IsDisabled__c": false,
        "%vlocity_namespace%__IsRequiredForUpsert__c": false,
        "%vlocity_namespace%__MapId__c": "TransformForIfAnyQuoteCreationCustom8538",
        "%vlocity_namespace%__UpsertKey__c": false,
        "Name": "TransformForIfAnyQuoteCreation",
        "VlocityDataPackType": "SObject",
        "VlocityRecordSObjectType": "%vlocity_namespace%__DRMapItem__c"
    },
    {
        "%vlocity_namespace%__DomainObjectAPIName__c": "json",
        "%vlocity_namespace%__DomainObjectCreationOrder__c": 1,
        "%vlocity_namespace%__DomainObjectFieldAPIName__c": "quoteJSON:additionalFields:Reason_Code__c",
        "%vlocity_namespace%__InterfaceFieldAPIName__c": "ReasonCode",
        "%vlocity_namespace%__IsDisabled__c": false,
        "%vlocity_namespace%__IsRequiredForUpsert__c": false,
        "%vlocity_namespace%__MapId__c": "TransformForIfAnyQuoteCreationCustom882",
        "%vlocity_namespace%__UpsertKey__c": false,
        "Name": "TransformForIfAnyQuoteCreation",
        "VlocityDataPackType": "SObject",
        "VlocityRecordSObjectType": "%vlocity_namespace%__DRMapItem__c"
    },
    {
        "%vlocity_namespace%__DomainObjectAPIName__c": "json",
        "%vlocity_namespace%__DomainObjectCreationOrder__c": 1,
        "%vlocity_namespace%__DomainObjectFieldAPIName__c": "quoteJSON:additionalFields:SIC_Code__c",
        "%vlocity_namespace%__DomainObjectFieldType__c": "String",
        "%vlocity_namespace%__InterfaceFieldAPIName__c": "getRatedProduct:records|1:CalculatedPriceData:SICNAICSCodes__SIC",
        "%vlocity_namespace%__IsDisabled__c": false,
        "%vlocity_namespace%__IsRequiredForUpsert__c": false,
        "%vlocity_namespace%__MapId__c": "TransformForIfAnyQuoteCreationCustom3192",
        "%vlocity_namespace%__UpsertKey__c": false,
        "Name": "TransformForIfAnyQuoteCreation",
        "VlocityDataPackType": "SObject",
        "VlocityRecordSObjectType": "%vlocity_namespace%__DRMapItem__c"
    },
    {
        "%vlocity_namespace%__DomainObjectAPIName__c": "json",
        "%vlocity_namespace%__DomainObjectCreationOrder__c": 1,
        "%vlocity_namespace%__DomainObjectFieldAPIName__c": "quoteJSON:additionalFields:ShippingCity",
        "%vlocity_namespace%__InterfaceFieldAPIName__c": "WorkerCompensation:MailingCityFormula",
        "%vlocity_namespace%__IsDisabled__c": false,
        "%vlocity_namespace%__IsRequiredForUpsert__c": false,
        "%vlocity_namespace%__MapId__c": "TransformForIfAnyQuoteCreationCustom4079",
        "%vlocity_namespace%__UpsertKey__c": false,
        "Name": "TransformForIfAnyQuoteCreation",
        "VlocityDataPackType": "SObject",
        "VlocityRecordSObjectType": "%vlocity_namespace%__DRMapItem__c"
    },
    {
        "%vlocity_namespace%__DefaultValue__c": "United States",
        "%vlocity_namespace%__DomainObjectAPIName__c": "json",
        "%vlocity_namespace%__DomainObjectCreationOrder__c": 1,
        "%vlocity_namespace%__DomainObjectFieldAPIName__c": "quoteJSON:additionalFields:ShippingCountry",
        "%vlocity_namespace%__IsDisabled__c": false,
        "%vlocity_namespace%__IsRequiredForUpsert__c": false,
        "%vlocity_namespace%__MapId__c": "TransformForIfAnyQuoteCreationCustom3298",
        "%vlocity_namespace%__UpsertKey__c": false,
        "Name": "TransformForIfAnyQuoteCreation",
        "VlocityDataPackType": "SObject",
        "VlocityRecordSObjectType": "%vlocity_namespace%__DRMapItem__c"
    },
    {
        "%vlocity_namespace%__DomainObjectAPIName__c": "json",
        "%vlocity_namespace%__DomainObjectCreationOrder__c": 1,
        "%vlocity_namespace%__DomainObjectFieldAPIName__c": "quoteJSON:additionalFields:ShippingName",
        "%vlocity_namespace%__InterfaceFieldAPIName__c": "WorkerCompensation:CommunityAssociation:MailingCareOf",
        "%vlocity_namespace%__IsDisabled__c": false,
        "%vlocity_namespace%__IsRequiredForUpsert__c": false,
        "%vlocity_namespace%__MapId__c": "TransformForIfAnyQuoteCreationCustom6147",
        "%vlocity_namespace%__UpsertKey__c": false,
        "Name": "TransformForIfAnyQuoteCreation",
        "VlocityDataPackType": "SObject",
        "VlocityRecordSObjectType": "%vlocity_namespace%__DRMapItem__c"
    },
    {
        "%vlocity_namespace%__DomainObjectAPIName__c": "json",
        "%vlocity_namespace%__DomainObjectCreationOrder__c": 1,
        "%vlocity_namespace%__DomainObjectFieldAPIName__c": "quoteJSON:additionalFields:ShippingPostalCode",
        "%vlocity_namespace%__InterfaceFieldAPIName__c": "WorkerCompensation:MailingPostalCodeFormula",
        "%vlocity_namespace%__IsDisabled__c": false,
        "%vlocity_namespace%__IsRequiredForUpsert__c": false,
        "%vlocity_namespace%__MapId__c": "TransformForIfAnyQuoteCreationCustom4052",
        "%vlocity_namespace%__UpsertKey__c": false,
        "Name": "TransformForIfAnyQuoteCreation",
        "VlocityDataPackType": "SObject",
        "VlocityRecordSObjectType": "%vlocity_namespace%__DRMapItem__c"
    },
    {
        "%vlocity_namespace%__DomainObjectAPIName__c": "json",
        "%vlocity_namespace%__DomainObjectCreationOrder__c": 1,
        "%vlocity_namespace%__DomainObjectFieldAPIName__c": "quoteJSON:additionalFields:ShippingState",
        "%vlocity_namespace%__InterfaceFieldAPIName__c": "WorkerCompensation:MailingStateFormula",
        "%vlocity_namespace%__IsDisabled__c": false,
        "%vlocity_namespace%__IsRequiredForUpsert__c": false,
        "%vlocity_namespace%__MapId__c": "TransformForIfAnyQuoteCreationCustom8804",
        "%vlocity_namespace%__UpsertKey__c": false,
        "Name": "TransformForIfAnyQuoteCreation",
        "VlocityDataPackType": "SObject",
        "VlocityRecordSObjectType": "%vlocity_namespace%__DRMapItem__c"
    },
    {
        "%vlocity_namespace%__DomainObjectAPIName__c": "json",
        "%vlocity_namespace%__DomainObjectCreationOrder__c": 1,
        "%vlocity_namespace%__DomainObjectFieldAPIName__c": "quoteJSON:additionalFields:ShippingStreet",
        "%vlocity_namespace%__InterfaceFieldAPIName__c": "mailingStreet",
        "%vlocity_namespace%__IsDisabled__c": false,
        "%vlocity_namespace%__IsRequiredForUpsert__c": false,
        "%vlocity_namespace%__MapId__c": "TransformForIfAnyQuoteCreationCustom3134",
        "%vlocity_namespace%__UpsertKey__c": false,
        "Name": "TransformForIfAnyQuoteCreation",
        "VlocityDataPackType": "SObject",
        "VlocityRecordSObjectType": "%vlocity_namespace%__DRMapItem__c"
    },
    {
        "%vlocity_namespace%__DomainObjectAPIName__c": "json",
        "%vlocity_namespace%__DomainObjectCreationOrder__c": 1,
        "%vlocity_namespace%__DomainObjectFieldAPIName__c": "quoteJSON:additionalFields:Status",
        "%vlocity_namespace%__InterfaceFieldAPIName__c": "WCRuleStatus",
        "%vlocity_namespace%__IsDisabled__c": false,
        "%vlocity_namespace%__IsRequiredForUpsert__c": false,
        "%vlocity_namespace%__MapId__c": "TransformForIfAnyQuoteCreationCustom4398",
        "%vlocity_namespace%__UpsertKey__c": false,
        "Name": "TransformForIfAnyQuoteCreation",
        "VlocityDataPackType": "SObject",
        "VlocityRecordSObjectType": "%vlocity_namespace%__DRMapItem__c"
    },
    {
        "%vlocity_namespace%__DomainObjectAPIName__c": "json",
        "%vlocity_namespace%__DomainObjectCreationOrder__c": 1,
        "%vlocity_namespace%__DomainObjectFieldAPIName__c": "quoteJSON:additionalFields:Sub_Status__c",
        "%vlocity_namespace%__InterfaceFieldAPIName__c": "SubStatus",
        "%vlocity_namespace%__IsDisabled__c": false,
        "%vlocity_namespace%__IsRequiredForUpsert__c": false,
        "%vlocity_namespace%__MapId__c": "TransformForIfAnyQuoteCreationCustom6811",
        "%vlocity_namespace%__UpsertKey__c": false,
        "Name": "TransformForIfAnyQuoteCreation",
        "VlocityDataPackType": "SObject",
        "VlocityRecordSObjectType": "%vlocity_namespace%__DRMapItem__c"
    },
    {
        "%vlocity_namespace%__DomainObjectAPIName__c": "json",
        "%vlocity_namespace%__DomainObjectCreationOrder__c": 1,
        "%vlocity_namespace%__DomainObjectFieldAPIName__c": "quoteJSON:additionalFields:Tax",
        "%vlocity_namespace%__InterfaceFieldAPIName__c": "getRatedProduct:records|1:CalculatedPriceData:WCIA_PMARates__TaxFees",
        "%vlocity_namespace%__IsDisabled__c": false,
        "%vlocity_namespace%__IsRequiredForUpsert__c": false,
        "%vlocity_namespace%__MapId__c": "TransformForIfAnyQuoteCreationCustom4058",
        "%vlocity_namespace%__UpsertKey__c": false,
        "Name": "TransformForIfAnyQuoteCreation",
        "VlocityDataPackType": "SObject",
        "VlocityRecordSObjectType": "%vlocity_namespace%__DRMapItem__c"
    },
    {
        "%vlocity_namespace%__DomainObjectAPIName__c": "json",
        "%vlocity_namespace%__DomainObjectCreationOrder__c": 1,
        "%vlocity_namespace%__DomainObjectFieldAPIName__c": "quoteJSON:effectiveDate",
        "%vlocity_namespace%__InterfaceFieldAPIName__c": "WCIfAny:PolicyTerm:wciaEffectiveDate",
        "%vlocity_namespace%__IsDisabled__c": false,
        "%vlocity_namespace%__IsRequiredForUpsert__c": false,
        "%vlocity_namespace%__MapId__c": "TransformForIfAnyQuoteCreationCustom7664",
        "%vlocity_namespace%__UpsertKey__c": false,
        "Name": "TransformForIfAnyQuoteCreation",
        "VlocityDataPackType": "SObject",
        "VlocityRecordSObjectType": "%vlocity_namespace%__DRMapItem__c"
    },
    {
        "%vlocity_namespace%__DomainObjectAPIName__c": "json",
        "%vlocity_namespace%__DomainObjectCreationOrder__c": 1,
        "%vlocity_namespace%__DomainObjectFieldAPIName__c": "quoteJSON:opportunityId",
        "%vlocity_namespace%__InterfaceFieldAPIName__c": "opportunityId",
        "%vlocity_namespace%__IsDisabled__c": false,
        "%vlocity_namespace%__IsRequiredForUpsert__c": false,
        "%vlocity_namespace%__MapId__c": "TransformForIfAnyQuoteCreationCustom1668",
        "%vlocity_namespace%__UpsertKey__c": false,
        "Name": "TransformForIfAnyQuoteCreation",
        "VlocityDataPackType": "SObject",
        "VlocityRecordSObjectType": "%vlocity_namespace%__DRMapItem__c"
    },
    {
        "%vlocity_namespace%__DomainObjectAPIName__c": "json",
        "%vlocity_namespace%__DomainObjectCreationOrder__c": 1,
        "%vlocity_namespace%__DomainObjectFieldAPIName__c": "quoteJSON:productConfigurationDetail:records",
        "%vlocity_namespace%__InterfaceFieldAPIName__c": "getRatedProduct:records",
        "%vlocity_namespace%__IsDisabled__c": false,
        "%vlocity_namespace%__IsRequiredForUpsert__c": false,
        "%vlocity_namespace%__MapId__c": "TransformForIfAnyQuoteCreationCustom3004",
        "%vlocity_namespace%__UpsertKey__c": false,
        "Name": "TransformForIfAnyQuoteCreation",
        "VlocityDataPackType": "SObject",
        "VlocityRecordSObjectType": "%vlocity_namespace%__DRMapItem__c"
    }
]