{
    "%vlocity_namespace%__Author__c": "Vlocity",
    "%vlocity_namespace%__CustomJavascript__c": "",
    "%vlocity_namespace%__Definition__c": "",
    "%vlocity_namespace%__Description__c": "",
    "%vlocity_namespace%__DisplayOn__c": "",
    "%vlocity_namespace%__ExternalID__c": "clm-runtime-contract-term-row/1/Vlocity/1545175215731",
    "%vlocity_namespace%__HTML__c": "clm-runtime-contract-term-row.html",
    "%vlocity_namespace%__ParentID__c": "clm-contract-term-runtime-row/1/Vlocity/1545095177443",
    "%vlocity_namespace%__SampleJson__c": "clm-runtime-contract-term-row_Sample.json",
    "%vlocity_namespace%__Sass__c": "clm-runtime-contract-term-row.scss",
    "%vlocity_namespace%__Type__c": "Cards",
    "%vlocity_namespace%__Version__c": 1,
    "Name": "clm-runtime-contract-term-row",
    "VlocityDataPackType": "SObject",
    "VlocityRecordSObjectType": "%vlocity_namespace%__VlocityUITemplate__c",
    "VlocityRecordSourceKey": "%vlocity_namespace%__VlocityUITemplate__c/clm-runtime-contract-term-row",
    "sourceOrgUrl": "/apex/vlocity_ins__uitemplatedesigner?id=a8C4W0000004iXAUAY"
}