{
    "%vlocity_namespace%__Author__c": "Vlocity",
    "%vlocity_namespace%__Datasource__c": "",
    "%vlocity_namespace%__Definition__c": "ins-quote-classes-and-plans.json",
    "%vlocity_namespace%__Description__c": "",
    "%vlocity_namespace%__GlobalKey__c": "ins-quote-classes-and-plans/1/Vlocity/1493147465479",
    "%vlocity_namespace%__ParentID__c": "KDEMO_currentenrollment/1/Vlocity/1492547152747",
    "%vlocity_namespace%__RequiredPermission__c": "",
    "%vlocity_namespace%__Type__c": "Layout",
    "%vlocity_namespace%__Version__c": 1,
    "Name": "ins-quote-classes-and-plans",
    "VlocityDataPackType": "SObject",
    "VlocityRecordSObjectType": "%vlocity_namespace%__VlocityUILayout__c",
    "VlocityRecordSourceKey": "%vlocity_namespace%__VlocityUILayout__c/ins-quote-classes-and-plans",
    "sourceOrgUrl": "/apex/vlocity_ins__carddesignernew?id=?id=a8B4W0000009e9jUAA"
}