{
    "%vlocity_namespace%__ActionClassName__c": "",
    "%vlocity_namespace%__CalculationProcedureVersion__c": "ExcessCrimePremiumCalculation_Version.json",
    "%vlocity_namespace%__Description__c": "",
    "%vlocity_namespace%__GlobalKey__c": "ExcessCrimePremiumCalculation",
    "%vlocity_namespace%__SubType__c": "",
    "%vlocity_namespace%__Type__c": "",
    "Name": "ExcessCrimePremiumCalculation",
    "RecordTypeId": {
        "DeveloperName": "Declarative",
        "SobjectType": "%vlocity_namespace%__CalculationProcedure__c",
        "VlocityDataPackType": "VlocityLookupMatchingKeyObject",
        "VlocityLookupRecordSourceKey": "RecordType/%vlocity_namespace%__CalculationProcedure__c/Declarative",
        "VlocityRecordSObjectType": "RecordType"
    },
    "VlocityDataPackType": "SObject",
    "VlocityRecordSObjectType": "%vlocity_namespace%__CalculationProcedure__c",
    "VlocityRecordSourceKey": "%vlocity_namespace%__CalculationProcedure__c/ExcessCrimePremiumCalculation",
    "sourceOrgUrl": "/a2Q3K000000BSPrUAO"
}