{
    "%vlocity_namespace%__Author__c": "Vlocity",
    "%vlocity_namespace%__CSS__c": "",
    "%vlocity_namespace%__CustomJavascript__c": "flyout-grid-actions-slds.js",
    "%vlocity_namespace%__Definition__c": "",
    "%vlocity_namespace%__Description__c": "flyout-grid-actions-slds\n\nDisplays actions in a flyout.",
    "%vlocity_namespace%__DisplayOn__c": "All",
    "%vlocity_namespace%__ExternalID__c": "flyout-grid-actions-slds/1/Vlocity/1468580512025",
    "%vlocity_namespace%__HTML__c": "flyout-grid-actions-slds.html",
    "%vlocity_namespace%__ParentID__c": "",
    "%vlocity_namespace%__SampleJson__c": "flyout-grid-actions-slds_Sample.json",
    "%vlocity_namespace%__Sass__c": "",
    "%vlocity_namespace%__Type__c": "Flyout",
    "%vlocity_namespace%__Version__c": 1,
    "Name": "flyout-grid-actions-slds",
    "VlocityDataPackType": "SObject",
    "VlocityRecordSObjectType": "%vlocity_namespace%__VlocityUITemplate__c",
    "VlocityRecordSourceKey": "%vlocity_namespace%__VlocityUITemplate__c/flyout-grid-actions-slds",
    "sourceOrgUrl": "/apex/vlocity_ins__uitemplatedesigner?id=a8C4W0000004iVvUAI"
}