{
    "%vlocity_namespace%__BatchSize__c": "",
    "%vlocity_namespace%__CheckFieldLevelSecurity__c": false,
    "%vlocity_namespace%__CustomInputClass__c": "",
    "%vlocity_namespace%__CustomOutputClass__c": "",
    "%vlocity_namespace%__DRMapItem__c": "CAIS_DO_Transform_CreateQuoteResp_Mappings.json",
    "%vlocity_namespace%__DRMapName__c": "CAIS_DO_Transform_CreateQuoteResp",
    "%vlocity_namespace%__DeleteOnSuccess__c": false,
    "%vlocity_namespace%__Description__c": "",
    "%vlocity_namespace%__GlobalKey__c": "CAIS_DO_Transform_CreateQuoteResp",
    "%vlocity_namespace%__IgnoreErrors__c": false,
    "%vlocity_namespace%__InputCustom__c": "",
    "%vlocity_namespace%__InputJson__c": "",
    "%vlocity_namespace%__InputType__c": "XML",
    "%vlocity_namespace%__InputXml__c": "<ACORD xmlns=\"http://www.ACORD.org/standards/PC_Surety/ACORD1/xml/\" xmlns:xsi=\"http://www.w3.org/2001/XMLSchema-instance\" xmlns:ace=\"urn:com.acegroup.acord-extensions\">\n    <InsuranceSvcRs>\n        <Status>\n            <StatusCd>0</StatusCd>\n            <StatusDesc>success</StatusDesc>\n        </Status>\n        <RqUID>321ab9cf-8e29-44f5-ad46-08385b25409e</RqUID>\n        <DirectorsAndOfficersQuoteInqRs xmlns=\"\">\n            <MsgRsInfo>\n                <BusinessPurposeTypeCd xmlns=\"http://www.ACORD.org/standards/PC_Surety/ACORD1/xml/\">NBQ</BusinessPurposeTypeCd>\n                <TransactionEffectiveDt xmlns=\"http://www.ACORD.org/standards/PC_Surety/ACORD1/xml/\">2020-11-02</TransactionEffectiveDt>\n                <BroadLobCd xmlns=\"http://www.ACORD.org/standards/PC_Surety/ACORD1/xml/\">C</BroadLobCd>\n                <AcordStandardVersionCd xmlns=\"http://www.ACORD.org/standards/PC_Surety/ACORD1/xml/\">1.28</AcordStandardVersionCd>\n            </MsgRsInfo>\n            <Producer xmlns=\"http://www.ACORD.org/standards/PC_Surety/ACORD1/xml/\">\n                <GeneralPartyInfo>\n                    <NameInfo>\n                        <CommlName>\n                            <CommercialName>Community Association Insurance Solutions LLC</CommercialName>\n                        </CommlName>\n                    </NameInfo>\n                    <Addr>\n                        <AddrTypeCd>MailingAddress</AddrTypeCd>\n                        <Addr1>5045 Robert J Mathews Parkway</Addr1>\n                        <Addr2>Suite 100</Addr2>\n                        <City>El Dorado Hills</City>\n                        <StateProvCd>CA</StateProvCd>\n                        <PostalCode>95762</PostalCode>\n                    </Addr>\n                    <Communications>\n                        <PhoneInfo>\n                            <PhoneNumber>916-939-9960</PhoneNumber>\n                        </PhoneInfo>\n                        <EmailInfo>\n                            <EmailAddr>condod&amp;o@mgalive.com</EmailAddr>\n                        </EmailInfo>\n                    </Communications>\n                </GeneralPartyInfo>\n                <ProducerInfo>\n                    <ContractNumber>Z07845</ContractNumber>\n                </ProducerInfo>\n            </Producer>\n            <InsuredOrPrincipal xmlns=\"http://www.ACORD.org/standards/PC_Surety/ACORD1/xml/\">\n                <GeneralPartyInfo>\n                    <NameInfo>\n                        <CommlName>\n                            <CommercialName>Miramar Condominium Association Inc.</CommercialName>\n                        </CommlName>\n                    </NameInfo>\n                    <SameAsMailingAddress>0</SameAsMailingAddress>\n                    <Location>\n                        <Addr>\n                            <AddrTypeCd>PhysicalRisk</AddrTypeCd>\n                            <Addr1>1700 Webb Street</Addr1>\n                            <Addr2 />\n                            <City>Asbury Park</City>\n                            <StateProvCd>NJ</StateProvCd>\n                            <PostalCode>07712</PostalCode>\n                            <LocationName>PrimaryLocation</LocationName>\n                            <LocationDesc>1</LocationDesc>\n                        </Addr>\n                    </Location>\n                    <Addr>\n                        <AddrTypeCd>MailingAddress</AddrTypeCd>\n                        <Addr1>1806 Highway 35, Suite 301</Addr1>\n                        <Addr2 />\n                        <City>Oakhurst</City>\n                        <StateProvCd>NJ</StateProvCd>\n                        <PostalCode>07755</PostalCode>\n                    </Addr>\n                    <Communications>\n                        <PhoneInfo>\n                            <PhoneNumber>(732) 517-0064</PhoneNumber>\n                        </PhoneInfo>\n                        <EmailInfo>\n                            <EmailAddr />\n                        </EmailInfo>\n                    </Communications>\n                </GeneralPartyInfo>\n            </InsuredOrPrincipal>\n            <CommlPolicy>\n                <PolicyVersion xmlns=\"http://www.ACORD.org/standards/PC_Surety/ACORD1/xml/\">1</PolicyVersion>\n                <BroadLobCd xmlns=\"http://www.ACORD.org/standards/PC_Surety/ACORD1/xml/\">C</BroadLobCd>\n                <LobCd xmlns=\"http://www.ACORD.org/standards/PC_Surety/ACORD1/xml/\">DirectorsAndOfficers</LobCd>\n                <CommunityAssociation xmlns=\"http://www.ACORD.org/standards/PC_Surety/ACORD1/xml/\">Condo - Residential</CommunityAssociation>\n                <LobSubCd xmlns=\"http://www.ACORD.org/standards/PC_Surety/ACORD1/xml/\">CAP</LobSubCd>\n                <ControllingStateProvCd xmlns=\"http://www.ACORD.org/standards/PC_Surety/ACORD1/xml/\">NJ</ControllingStateProvCd>\n                <ContractTerm xmlns=\"http://www.ACORD.org/standards/PC_Surety/ACORD1/xml/\">\n                    <EffectiveDt>2020-11-15</EffectiveDt>\n                    <ExpirationDt>2021-11-15</ExpirationDt>\n                    <StartTime>12:00:00</StartTime>\n                    <EndTime>11:00:00</EndTime>\n                    <DurationPeriod>\n                        <NumUnits>12</NumUnits>\n                        <UnitMeasurementCd>Month</UnitMeasurementCd>\n                    </DurationPeriod>\n                </ContractTerm>\n                <BillingMethodCd xmlns=\"http://www.ACORD.org/standards/PC_Surety/ACORD1/xml/\">AB</BillingMethodCd>\n                <PaymentOption xmlns=\"http://www.ACORD.org/standards/PC_Surety/ACORD1/xml/\">\n                    <PaymentPlanCd>AFL</PaymentPlanCd>\n                    <NumPayments>01</NumPayments>\n                </PaymentOption>\n                <QuoteInfo>\n                    <CompanysQuoteNumber>AD68550Q2020</CompanysQuoteNumber>\n                    <InitialQuoteRequestDt xmlns=\"http://www.ACORD.org/standards/PC_Surety/ACORD1/xml/\">2020-11-02</InitialQuoteRequestDt>\n                </QuoteInfo>\n                <WrittenAmt>\n                    <Amt>1050.26</Amt>\n                </WrittenAmt>\n                <DO500kPremium>835</DO500kPremium>\n                <DO500kTaxesAndFee>5.00999999999999</DO500kTaxesAndFee>\n                <DO1MPremium>1044</DO1MPremium>\n                <DO1MTaxesAndFee>6.25999999999999</DO1MTaxesAndFee>\n                <DO2MPremium>1566</DO2MPremium>\n                <DO2MTaxesAndFee>9.40000000000009</DO2MTaxesAndFee>\n                <DO3MPremium>2066</DO3MPremium>\n                <DO3MTaxesAndFee>12.4000000000001</DO3MTaxesAndFee>\n                <DO4MPremium>2566</DO4MPremium>\n                <DO4MTaxesAndFee>15.4000000000001</DO4MTaxesAndFee>\n                <DO5MPremium>3066</DO5MPremium>\n                <DO5MTaxesAndFee>18.4000000000001</DO5MTaxesAndFee>\n                <WritingCompany>ACEFire</WritingCompany>\n                <Retention>500</Retention>\n                <TaxesSurcharges>6.26</TaxesSurcharges>\n                <QuestionAnswer xmlns=\"http://www.ACORD.org/standards/PC_Surety/ACORD1/xml/\">\n                    <QuestionCd>DU01</QuestionCd>\n                    <QuestionText>Does the builder/developer or agent maintain representation on the board?</QuestionText>\n                    <YesNoCd>No</YesNoCd>\n                    <Num />\n                    <Explanation />\n                </QuestionAnswer>\n                <QuestionAnswer xmlns=\"http://www.ACORD.org/standards/PC_Surety/ACORD1/xml/\">\n                    <QuestionCd>RU01</QuestionCd>\n                    <QuestionText>Are any units rented or leased?</QuestionText>\n                    <YesNoCd>Yes</YesNoCd>\n                    <Num />\n                    <Explanation />\n                </QuestionAnswer>\n                <QuestionAnswer xmlns=\"http://www.ACORD.org/standards/PC_Surety/ACORD1/xml/\">\n                    <QuestionCd>RU01_01</QuestionCd>\n                    <QuestionText>What percentage of units are rented or leased?</QuestionText>\n                    <YesNoCd />\n                    <Num>39</Num>\n                    <Explanation />\n                </QuestionAnswer>\n                <QuestionAnswer xmlns=\"http://www.ACORD.org/standards/PC_Surety/ACORD1/xml/\">\n                    <QuestionCd>RU02</QuestionCd>\n                    <QuestionText>Are any units short-term or vacation rentals?</QuestionText>\n                    <YesNoCd>No</YesNoCd>\n                    <Num />\n                    <Explanation />\n                </QuestionAnswer>\n                <QuestionAnswer xmlns=\"http://www.ACORD.org/standards/PC_Surety/ACORD1/xml/\">\n                    <QuestionCd>RU03</QuestionCd>\n                    <QuestionText>A golf course or country club?</QuestionText>\n                    <YesNoCd>No</YesNoCd>\n                    <Num />\n                    <Explanation />\n                </QuestionAnswer>\n                <QuestionAnswer xmlns=\"http://www.ACORD.org/standards/PC_Surety/ACORD1/xml/\">\n                    <QuestionCd>DU02</QuestionCd>\n                    <QuestionText>Does the golf/country club have a separate board or is it separately managed?</QuestionText>\n                    <YesNoCd>Unknown</YesNoCd>\n                    <Num />\n                    <Explanation />\n                </QuestionAnswer>\n                <QuestionAnswer xmlns=\"http://www.ACORD.org/standards/PC_Surety/ACORD1/xml/\">\n                    <QuestionCd>DU03</QuestionCd>\n                    <QuestionText>An airport/airstrip?</QuestionText>\n                    <YesNoCd>No</YesNoCd>\n                    <Num />\n                    <Explanation />\n                </QuestionAnswer>\n                <QuestionAnswer xmlns=\"http://www.ACORD.org/standards/PC_Surety/ACORD1/xml/\">\n                    <QuestionCd>RU04</QuestionCd>\n                    <QuestionText>A water treatment facility?</QuestionText>\n                    <YesNoCd>No</YesNoCd>\n                    <Num />\n                    <Explanation />\n                </QuestionAnswer>\n                <QuestionAnswer xmlns=\"http://www.ACORD.org/standards/PC_Surety/ACORD1/xml/\">\n                    <QuestionCd>RU05</QuestionCd>\n                    <QuestionText>A sewage treatment facility?</QuestionText>\n                    <YesNoCd>No</YesNoCd>\n                    <Num />\n                    <Explanation />\n                </QuestionAnswer>\n                <QuestionAnswer xmlns=\"http://www.ACORD.org/standards/PC_Surety/ACORD1/xml/\">\n                    <QuestionCd>DU04</QuestionCd>\n                    <QuestionText>Does the Association have a negative fund balance?</QuestionText>\n                    <YesNoCd>No</YesNoCd>\n                    <Num />\n                    <Explanation />\n                </QuestionAnswer>\n                <QuestionAnswer xmlns=\"http://www.ACORD.org/standards/PC_Surety/ACORD1/xml/\">\n                    <QuestionCd>RU06</QuestionCd>\n                    <QuestionText>Does any one person/entity own multiple units?</QuestionText>\n                    <YesNoCd>No</YesNoCd>\n                    <Num />\n                    <Explanation />\n                </QuestionAnswer>\n                <QuestionAnswer xmlns=\"http://www.ACORD.org/standards/PC_Surety/ACORD1/xml/\">\n                    <QuestionCd>RU07</QuestionCd>\n                    <QuestionText>Please indicate the percentage of units in arrears over 90 days.</QuestionText>\n                    <YesNoCd />\n                    <Num>0</Num>\n                    <Explanation />\n                </QuestionAnswer>\n                <QuestionAnswer xmlns=\"http://www.ACORD.org/standards/PC_Surety/ACORD1/xml/\">\n                    <QuestionCd>RU08</QuestionCd>\n                    <QuestionText>Has the association completed a foreclosure sale against an owner?</QuestionText>\n                    <YesNoCd>No</YesNoCd>\n                    <Num />\n                    <Explanation />\n                </QuestionAnswer>\n                <QuestionAnswer xmlns=\"http://www.ACORD.org/standards/PC_Surety/ACORD1/xml/\">\n                    <QuestionCd>RU09</QuestionCd>\n                    <QuestionText>Have any board elections been challenged?</QuestionText>\n                    <YesNoCd>No</YesNoCd>\n                    <Num />\n                    <Explanation />\n                </QuestionAnswer>\n                <QuestionAnswer xmlns=\"http://www.ACORD.org/standards/PC_Surety/ACORD1/xml/\">\n                    <QuestionCd>RU10</QuestionCd>\n                    <QuestionText>Has the board initiated litigation for reasons other than collection of dues or fees?</QuestionText>\n                    <YesNoCd>No</YesNoCd>\n                    <Num />\n                    <Explanation />\n                </QuestionAnswer>\n                <QuestionAnswer xmlns=\"http://www.ACORD.org/standards/PC_Surety/ACORD1/xml/\">\n                    <QuestionCd>RU11</QuestionCd>\n                    <QuestionText>Has the association completed any renovation or improvement projects which resulted in a special assessment for the members?</QuestionText>\n                    <YesNoCd>No</YesNoCd>\n                    <Num />\n                    <Explanation />\n                </QuestionAnswer>\n                <QuestionAnswer xmlns=\"http://www.ACORD.org/standards/PC_Surety/ACORD1/xml/\">\n                    <QuestionCd>RU12</QuestionCd>\n                    <QuestionText>Within the last five years, has any inquiry, complaint, notice of hearing, claim or suit been made against the applicant, or any person proposed for insurance in the capacity of director, officer, trustee, employee, or volunteer of the applicant?</QuestionText>\n                    <YesNoCd>No</YesNoCd>\n                    <Num />\n                    <Explanation />\n                </QuestionAnswer>\n                <QuestionAnswer xmlns=\"http://www.ACORD.org/standards/PC_Surety/ACORD1/xml/\">\n                    <QuestionCd>RU13</QuestionCd>\n                    <QuestionText>Is any person(s) proposed for this insurance aware of any fact, circumstance or situation which may result in a claim against the applicant or any of its directors, officers, trustees, employees or volunteers?</QuestionText>\n                    <YesNoCd>No</YesNoCd>\n                    <Num />\n                    <Explanation />\n                </QuestionAnswer>\n                <QuestionAnswer xmlns=\"http://www.ACORD.org/standards/PC_Surety/ACORD1/xml/\">\n                    <QuestionCd>RU14</QuestionCd>\n                    <QuestionText>Has any policy for any of the lines seeking coverage been cancelled or non-renewed for reasons other than non-payment of premium?</QuestionText>\n                    <YesNoCd>No</YesNoCd>\n                    <Num />\n                    <Explanation />\n                </QuestionAnswer>\n                <CommlPolicySupplement xmlns=\"http://www.ACORD.org/standards/PC_Surety/ACORD1/xml/\">\n                    <NumberOfUnitsWhenComplete>38</NumberOfUnitsWhenComplete>\n                    <PercentageOfUnitsBuilt>100</PercentageOfUnitsBuilt>\n                    <PercentageOfUnitsSold>100</PercentageOfUnitsSold>\n                    <PercentageOfUnitsRetail>0</PercentageOfUnitsRetail>\n                    <NumberOfEmployees>0</NumberOfEmployees>\n                    <SquareFootageOfLargestRetailEstablishment>0</SquareFootageOfLargestRetailEstablishment>\n                    <AverageResidentialUnitValue>250000</AverageResidentialUnitValue>\n                    <RetailOccupancy>No</RetailOccupancy>\n                </CommlPolicySupplement>\n            </CommlPolicy>\n            <DirectorsAndOfficersLineBusiness xmlns=\"http://www.ACORD.org/standards/PC_Surety/ACORD1/xml/\">\n                <LobCd>DirectorsAndOfficers</LobCd>\n                <LobSubCd>CAP</LobSubCd>\n                <CommlCoverage>\n                    <CoverageCd>D&amp;O</CoverageCd>\n                    <CoverageTypeCd>Coverage</CoverageTypeCd>\n                    <CoverageDesc>DirectorsAndOfficers</CoverageDesc>\n                    <Limit>\n                        <FormatInteger>1,000,000</FormatInteger>\n                    </Limit>\n                    <EffectiveDt>2020-11-15</EffectiveDt>\n                    <ExpirationDt>2021-11-15</ExpirationDt>\n                </CommlCoverage>\n            </DirectorsAndOfficersLineBusiness>\n            <RemarkText xmlns=\"http://www.ACORD.org/standards/PC_Surety/ACORD1/xml/\" />\n        </DirectorsAndOfficersQuoteInqRs>\n    </InsuranceSvcRs>\n</ACORD>",
    "%vlocity_namespace%__InterfaceObject__c": "json",
    "%vlocity_namespace%__IsDefaultForInterface__c": false,
    "%vlocity_namespace%__IsProcessSuperBulk__c": false,
    "%vlocity_namespace%__OuboundStagingObjectDataField__c": "",
    "%vlocity_namespace%__OutboundConfigurationField__c": "",
    "%vlocity_namespace%__OutboundConfigurationName__c": "",
    "%vlocity_namespace%__OutboundStagingObjectName__c": "",
    "%vlocity_namespace%__OutputType__c": "JSON",
    "%vlocity_namespace%__OverwriteAllNullValues__c": false,
    "%vlocity_namespace%__PreprocessorClassName__c": "",
    "%vlocity_namespace%__ProcessNowThreshold__c": -1,
    "%vlocity_namespace%__RequiredPermission__c": "",
    "%vlocity_namespace%__RollbackOnError__c": false,
    "%vlocity_namespace%__SalesforcePlatformCacheType__c": "",
    "%vlocity_namespace%__SampleInputCustom__c": "",
    "%vlocity_namespace%__SampleInputJSON__c": "",
    "%vlocity_namespace%__SampleInputRows__c": "",
    "%vlocity_namespace%__SampleInputXML__c": "CAIS_DO_Transform_CreateQuoteResp_SampleInputXML.xml",
    "%vlocity_namespace%__TargetOutCustom__c": "",
    "%vlocity_namespace%__TargetOutDocuSignTemplateId__c": "",
    "%vlocity_namespace%__TargetOutJson__c": "",
    "%vlocity_namespace%__TargetOutPdfDocName__c": "",
    "%vlocity_namespace%__TargetOutXml__c": "",
    "%vlocity_namespace%__TimeToLiveMinutes__c": "",
    "%vlocity_namespace%__Type__c": "Transform",
    "%vlocity_namespace%__UseAssignmentRules__c": false,
    "%vlocity_namespace%__UseTranslations__c": false,
    "%vlocity_namespace%__XmlOutputSequence__c": "",
    "%vlocity_namespace%__XmlRemoveDeclaration__c": false,
    "Name": "CAIS_DO_Transform_CreateQuoteResp",
    "VlocityDataPackType": "SObject",
    "VlocityRecordSObjectType": "%vlocity_namespace%__DRBundle__c",
    "VlocityRecordSourceKey": "%vlocity_namespace%__DRBundle__c/CAIS_DO_Transform_CreateQuoteResp",
    "sourceOrgUrl": "/apex/vlocity_ins__drmapper?id=a3F3K000000CpbpUAC"
}