{
    "dataSource": {
        "contextVariables": [
            {
                "id": 1,
                "name": "recordId",
                "val": "0YT6C0000009xzkWAA"
            }
        ],
        "orderBy": {
            "isReverse": false,
            "name": ""
        },
        "type": "DataRaptor",
        "value": {
            "bundle": "caisReadContactFromPolicy",
            "inputMap": {
                "Id": "{recordId}"
            },
            "resultVar": ""
        }
    },
    "enableLwc": true,
    "globalCSS": true,
    "isFlex": true,
    "lwc": {
        "DeveloperName": "cfCaisContactOnQuote_1_CAISLive",
        "Id": "0Rb6C0000008okUSAQ",
        "MasterLabel": "cfCaisContactOnQuote_1_CAISLive",
        "NamespacePrefix": "c"
    },
    "states": [
        {
            "actions": [
            ],
            "childCards": [
            ],
            "components": {
                "layer-0": {
                    "children": [
                        {
                            "class": "slds-col ",
                            "element": "outputField",
                            "elementLabel": "Text-0",
                            "name": "Text",
                            "property": {
                                "card": "{card}",
                                "mergeField": "%3Cdiv%3EContact%20Details%3C/div%3E",
                                "record": "{record}"
                            },
                            "size": {
                                "default": "12",
                                "isResponsive": false
                            },
                            "stateIndex": 0,
                            "styleObject": {
                                "background": {
                                    "color": "",
                                    "image": "",
                                    "position": "",
                                    "repeat": "",
                                    "size": ""
                                },
                                "border": {
                                    "color": "",
                                    "radius": "",
                                    "style": "",
                                    "type": "",
                                    "width": ""
                                },
                                "class": "cardHeader",
                                "container": {
                                    "class": ""
                                },
                                "customClass": "cardHeader",
                                "elementStyleProperties": {
                                },
                                "inlineStyle": "",
                                "margin": [
                                ],
                                "padding": [
                                ],
                                "size": {
                                    "default": "12",
                                    "isResponsive": false
                                },
                                "sizeClass": "slds-size_12-of-12 ",
                                "style": "             ",
                                "text": {
                                    "align": "",
                                    "color": ""
                                }
                            },
                            "type": "text"
                        },
                        {
                            "children": [
                            ],
                            "class": "slds-col ",
                            "element": "block",
                            "elementLabel": "Block-1",
                            "name": "Block",
                            "property": {
                                "card": "{card}",
                                "collapsedByDefault": false,
                                "collapsible": false,
                                "label": "Block",
                                "record": "{record}"
                            },
                            "size": {
                                "default": "12",
                                "isResponsive": false
                            },
                            "stateIndex": 0,
                            "styleObject": {
                                "class": "slds-p-around_x-small",
                                "padding": [
                                    {
                                        "size": "x-small",
                                        "type": "around"
                                    }
                                ],
                                "sizeClass": "slds-size_12-of-12"
                            },
                            "type": "block"
                        },
                        {
                            "class": "slds-col ",
                            "element": "outputField",
                            "elementLabel": "Field-2",
                            "name": "Field",
                            "property": {
                                "card": "{card}",
                                "fieldName": "FirstName",
                                "label": "First Name",
                                "labelclass": "fieldLabel",
                                "placeholder": "",
                                "record": "{record}",
                                "type": "text",
                                "valueclass": "fieldValue"
                            },
                            "size": {
                                "default": "12",
                                "isResponsive": false
                            },
                            "stateIndex": 0,
                            "styleObject": {
                                "background": {
                                    "color": "",
                                    "image": "",
                                    "position": "",
                                    "repeat": "",
                                    "size": ""
                                },
                                "border": {
                                    "color": "",
                                    "radius": "",
                                    "style": "",
                                    "type": "",
                                    "width": ""
                                },
                                "container": {
                                    "class": ""
                                },
                                "elementStyleProperties": {
                                    "labelclass": "fieldLabel",
                                    "valueclass": "fieldValue"
                                },
                                "inlineStyle": "",
                                "margin": [
                                ],
                                "padding": [
                                ],
                                "size": {
                                    "default": "12",
                                    "isResponsive": false
                                },
                                "sizeClass": "slds-size_12-of-12",
                                "text": {
                                    "align": "",
                                    "color": ""
                                }
                            },
                            "type": "element"
                        },
                        {
                            "class": "slds-col ",
                            "element": "outputField",
                            "elementLabel": "Field-3",
                            "name": "Field",
                            "property": {
                                "card": "{card}",
                                "fieldName": "LastName",
                                "label": "Last Name",
                                "labelclass": "fieldLabel",
                                "placeholder": "",
                                "record": "{record}",
                                "type": "text",
                                "valueclass": "fieldValue"
                            },
                            "size": {
                                "default": "12",
                                "isResponsive": false
                            },
                            "stateIndex": 0,
                            "styleObject": {
                                "background": {
                                    "color": "",
                                    "image": "",
                                    "position": "",
                                    "repeat": "",
                                    "size": ""
                                },
                                "border": {
                                    "color": "",
                                    "radius": "",
                                    "style": "",
                                    "type": "",
                                    "width": ""
                                },
                                "container": {
                                    "class": ""
                                },
                                "elementStyleProperties": {
                                    "labelclass": "fieldLabel",
                                    "valueclass": "fieldValue"
                                },
                                "inlineStyle": "",
                                "margin": [
                                ],
                                "padding": [
                                ],
                                "size": {
                                    "default": "12",
                                    "isResponsive": false
                                },
                                "sizeClass": "slds-size_12-of-12",
                                "text": {
                                    "align": "",
                                    "color": ""
                                }
                            },
                            "type": "element"
                        },
                        {
                            "class": "slds-col ",
                            "element": "outputField",
                            "elementLabel": "Field-4",
                            "name": "Field",
                            "property": {
                                "card": "{card}",
                                "fieldName": "Title",
                                "label": "Title",
                                "labelclass": "fieldLabel",
                                "placeholder": "",
                                "record": "{record}",
                                "type": "text",
                                "valueclass": "fieldValue"
                            },
                            "size": {
                                "default": "12",
                                "isResponsive": false
                            },
                            "stateIndex": 0,
                            "styleObject": {
                                "background": {
                                    "color": "",
                                    "image": "",
                                    "position": "",
                                    "repeat": "",
                                    "size": ""
                                },
                                "border": {
                                    "color": "",
                                    "radius": "",
                                    "style": "",
                                    "type": "",
                                    "width": ""
                                },
                                "container": {
                                    "class": ""
                                },
                                "elementStyleProperties": {
                                    "labelclass": "fieldLabel",
                                    "valueclass": "fieldValue"
                                },
                                "inlineStyle": "",
                                "margin": [
                                ],
                                "padding": [
                                ],
                                "size": {
                                    "default": "12",
                                    "isResponsive": false
                                },
                                "sizeClass": "slds-size_12-of-12",
                                "text": {
                                    "align": "",
                                    "color": ""
                                }
                            },
                            "type": "element"
                        },
                        {
                            "class": "slds-col ",
                            "element": "outputField",
                            "elementLabel": "Field-4-clone-0",
                            "name": "Field",
                            "property": {
                                "card": "{card}",
                                "fieldName": "Type",
                                "label": "Type",
                                "labelclass": "fieldLabel",
                                "placeholder": "",
                                "record": "{record}",
                                "type": "text",
                                "valueclass": "fieldValue"
                            },
                            "size": {
                                "default": "12",
                                "isResponsive": false
                            },
                            "stateIndex": 0,
                            "styleObject": {
                                "background": {
                                    "color": "",
                                    "image": "",
                                    "position": "",
                                    "repeat": "",
                                    "size": ""
                                },
                                "border": {
                                    "color": "",
                                    "radius": "",
                                    "style": "",
                                    "type": "",
                                    "width": ""
                                },
                                "container": {
                                    "class": ""
                                },
                                "elementStyleProperties": {
                                    "labelclass": "fieldLabel",
                                    "valueclass": "fieldValue"
                                },
                                "inlineStyle": "",
                                "margin": [
                                ],
                                "padding": [
                                ],
                                "size": {
                                    "default": "12",
                                    "isResponsive": false
                                },
                                "sizeClass": "slds-size_12-of-12",
                                "text": {
                                    "align": "",
                                    "color": ""
                                }
                            },
                            "type": "element"
                        },
                        {
                            "class": "slds-col ",
                            "element": "outputField",
                            "elementLabel": "Field-5",
                            "name": "Field",
                            "property": {
                                "card": "{card}",
                                "fieldName": "Phone",
                                "label": "Phone",
                                "labelclass": "fieldLabel",
                                "placeholder": "",
                                "record": "{record}",
                                "type": "text",
                                "valueclass": "fieldValue"
                            },
                            "size": {
                                "default": "12",
                                "isResponsive": false
                            },
                            "stateIndex": 0,
                            "styleObject": {
                                "background": {
                                    "color": "",
                                    "image": "",
                                    "position": "",
                                    "repeat": "",
                                    "size": ""
                                },
                                "border": {
                                    "color": "",
                                    "radius": "",
                                    "style": "",
                                    "type": "",
                                    "width": ""
                                },
                                "container": {
                                    "class": ""
                                },
                                "elementStyleProperties": {
                                    "labelclass": "fieldLabel",
                                    "valueclass": "fieldValue"
                                },
                                "inlineStyle": "",
                                "margin": [
                                ],
                                "padding": [
                                ],
                                "size": {
                                    "default": "12",
                                    "isResponsive": false
                                },
                                "sizeClass": "slds-size_12-of-12",
                                "text": {
                                    "align": "",
                                    "color": ""
                                }
                            },
                            "type": "element"
                        },
                        {
                            "class": "slds-col ",
                            "element": "outputField",
                            "elementLabel": "Field-6",
                            "name": "Field",
                            "property": {
                                "card": "{card}",
                                "fieldName": "Email",
                                "label": "Email",
                                "labelclass": "fieldLabel",
                                "placeholder": "",
                                "record": "{record}",
                                "type": "text",
                                "valueclass": "fieldValue"
                            },
                            "size": {
                                "default": "12",
                                "isResponsive": false
                            },
                            "stateIndex": 0,
                            "styleObject": {
                                "background": {
                                    "color": "",
                                    "image": "",
                                    "position": "",
                                    "repeat": "",
                                    "size": ""
                                },
                                "border": {
                                    "color": "",
                                    "radius": "",
                                    "style": "",
                                    "type": "",
                                    "width": ""
                                },
                                "container": {
                                    "class": ""
                                },
                                "elementStyleProperties": {
                                    "labelclass": "fieldLabel",
                                    "valueclass": "fieldValue"
                                },
                                "inlineStyle": "",
                                "margin": [
                                ],
                                "padding": [
                                ],
                                "size": {
                                    "default": "12",
                                    "isResponsive": false
                                },
                                "sizeClass": "slds-size_12-of-12",
                                "text": {
                                    "align": "",
                                    "color": ""
                                }
                            },
                            "type": "element"
                        }
                    ]
                }
            },
            "conditions": {
                "group": [
                ],
                "id": "state-condition-object",
                "isParent": true
            },
            "definedActions": {
                "actions": [
                ]
            },
            "fields": [
            ],
            "isSmartAction": false,
            "name": "Active",
            "omniscripts": [
            ],
            "smartAction": {
            },
            "styleObject": {
                "background": {
                    "color": "#fff",
                    "image": "",
                    "position": "",
                    "repeat": "",
                    "size": ""
                },
                "border": {
                    "color": "#cccccc",
                    "radius": "0",
                    "style": "solid",
                    "type": [
                        "border_top",
                        "border_right",
                        "border_bottom",
                        "border_left"
                    ],
                    "width": "1"
                },
                "class": "slds-card slds-border_top slds-border_right slds-border_bottom slds-border_left slds-p-around_large slds-m-bottom_x-small ",
                "container": {
                    "class": "slds-card"
                },
                "elementStyleProperties": {
                },
                "inlineStyle": "",
                "margin": [
                    {
                        "label": "bottom:x-small",
                        "size": "x-small",
                        "type": "bottom"
                    }
                ],
                "padding": [
                    {
                        "label": "around:large",
                        "size": "large",
                        "type": "around"
                    }
                ],
                "size": {
                    "default": "12",
                    "isResponsive": false
                },
                "sizeClass": "slds-size_12-of-12 ",
                "style": "background-color:#fff;     border-color:#cccccc; border-width:1px; border-radius:0; border-style:solid;     ",
                "text": {
                    "align": "",
                    "color": ""
                }
            }
        }
    ],
    "theme": "slds",
    "title": "caisContactOnPolicy"
}