[
    {
        "%vlocity_namespace%__DomainObjectAPIName__c": "json",
        "%vlocity_namespace%__DomainObjectCreationOrder__c": 1,
        "%vlocity_namespace%__DomainObjectFieldAPIName__c": "StoredQuote:DOPremiums",
        "%vlocity_namespace%__DomainObjectFieldType__c": "Object",
        "%vlocity_namespace%__InterfaceFieldAPIName__c": "allPrems",
        "%vlocity_namespace%__IsDisabled__c": true,
        "%vlocity_namespace%__IsRequiredForUpsert__c": false,
        "%vlocity_namespace%__MapId__c": "CAIS_DO_TransformQuoteJSONCustom7370",
        "%vlocity_namespace%__UpsertKey__c": false,
        "Name": "CAIS_DO_TransformQuoteJSON",
        "VlocityDataPackType": "SObject",
        "VlocityRecordSObjectType": "%vlocity_namespace%__DRMapItem__c"
    },
    {
        "%vlocity_namespace%__DomainObjectAPIName__c": "json",
        "%vlocity_namespace%__DomainObjectCreationOrder__c": 1,
        "%vlocity_namespace%__DomainObjectFieldAPIName__c": "StoredQuote:FEINStep",
        "%vlocity_namespace%__DomainObjectFieldType__c": "Object",
        "%vlocity_namespace%__InterfaceFieldAPIName__c": "FEINStep",
        "%vlocity_namespace%__IsDisabled__c": false,
        "%vlocity_namespace%__IsRequiredForUpsert__c": false,
        "%vlocity_namespace%__MapId__c": "CAIS_DO_TransformQuoteJSONCustoma3F6C000002Sdv4UACItem0",
        "%vlocity_namespace%__UpsertKey__c": false,
        "Name": "CAIS_DO_TransformQuoteJSON",
        "VlocityDataPackType": "SObject",
        "VlocityRecordSObjectType": "%vlocity_namespace%__DRMapItem__c"
    },
    {
        "%vlocity_namespace%__DomainObjectAPIName__c": "json",
        "%vlocity_namespace%__DomainObjectCreationOrder__c": 1,
        "%vlocity_namespace%__DomainObjectFieldAPIName__c": "StoredQuote:GeneralQuestions",
        "%vlocity_namespace%__DomainObjectFieldType__c": "Object",
        "%vlocity_namespace%__InterfaceFieldAPIName__c": "GeneralQuestionsStep",
        "%vlocity_namespace%__IsDisabled__c": false,
        "%vlocity_namespace%__IsRequiredForUpsert__c": false,
        "%vlocity_namespace%__MapId__c": "CAIS_DO_TransformQuoteJSONCustoma3F6C000002Sdv4UACItem1",
        "%vlocity_namespace%__UpsertKey__c": false,
        "Name": "CAIS_DO_TransformQuoteJSON",
        "VlocityDataPackType": "SObject",
        "VlocityRecordSObjectType": "%vlocity_namespace%__DRMapItem__c"
    },
    {
        "%vlocity_namespace%__DomainObjectAPIName__c": "json",
        "%vlocity_namespace%__DomainObjectCreationOrder__c": 1,
        "%vlocity_namespace%__DomainObjectFieldAPIName__c": "StoredQuote:InsuredDetails",
        "%vlocity_namespace%__DomainObjectFieldType__c": "Object",
        "%vlocity_namespace%__InterfaceFieldAPIName__c": "InsuredDetails",
        "%vlocity_namespace%__IsDisabled__c": false,
        "%vlocity_namespace%__IsRequiredForUpsert__c": false,
        "%vlocity_namespace%__MapId__c": "CAIS_DO_TransformQuoteJSONCustoma3F6C000002Sdv4UACItem2",
        "%vlocity_namespace%__UpsertKey__c": false,
        "Name": "CAIS_DO_TransformQuoteJSON",
        "VlocityDataPackType": "SObject",
        "VlocityRecordSObjectType": "%vlocity_namespace%__DRMapItem__c"
    },
    {
        "%vlocity_namespace%__DomainObjectAPIName__c": "json",
        "%vlocity_namespace%__DomainObjectCreationOrder__c": 1,
        "%vlocity_namespace%__DomainObjectFieldAPIName__c": "StoredQuote:PolicyTerms",
        "%vlocity_namespace%__DomainObjectFieldType__c": "Object",
        "%vlocity_namespace%__InterfaceFieldAPIName__c": "PolicyTerms",
        "%vlocity_namespace%__IsDisabled__c": false,
        "%vlocity_namespace%__IsRequiredForUpsert__c": false,
        "%vlocity_namespace%__MapId__c": "CAIS_DO_TransformQuoteJSONCustoma3F6C000002Sdv4UACItem3",
        "%vlocity_namespace%__UpsertKey__c": false,
        "Name": "CAIS_DO_TransformQuoteJSON",
        "VlocityDataPackType": "SObject",
        "VlocityRecordSObjectType": "%vlocity_namespace%__DRMapItem__c"
    }
]