{
    "%vlocity_namespace%__DisableMetadataCache__c": false,
    "%vlocity_namespace%__ElementTypeToHTMLTemplateList__c": "{\"ElementTypeToHTMLTemplateList\":[]}",
    "%vlocity_namespace%__Element__c": [
        "Crime_PrintProposalPacket_English_Element_SetDocumentName.json",
        "Crime_PrintProposalPacket_English_Element_GetTemplateDetails.json",
        "Crime_PrintProposalPacket_English_Element_GetNoKnownLossLetter.json",
        "Crime_PrintProposalPacket_English_Element_Set-Generation-Options.json",
        "Crime_PrintProposalPacket_English_Element_Generate-Document.json",
        "Crime_PrintProposalPacket_English_Element_GenerateDocumentWord.json",
        "Crime_PrintProposalPacket_English_Element_NavigateToQuote.json"
    ],
    "%vlocity_namespace%__IsLwcEnabled__c": true,
    "%vlocity_namespace%__IsProcedure__c": false,
    "%vlocity_namespace%__IsReusable__c": false,
    "%vlocity_namespace%__IsTest__c": false,
    "%vlocity_namespace%__Language__c": "English",
    "%vlocity_namespace%__LastPreviewPage__c": "Lightning",
    "%vlocity_namespace%__PropertySet__c": "Crime_PrintProposalPacket_English_PropertySet.json",
    "%vlocity_namespace%__SubType__c": "PrintProposalPacket",
    "%vlocity_namespace%__Type__c": "Crime",
    "Name": "CAIS_Crime Print Proposal Packet",
    "VlocityDataPackType": "SObject",
    "VlocityRecordSObjectType": "%vlocity_namespace%__OmniScript__c",
    "VlocityRecordSourceKey": "%vlocity_namespace%__OmniScript__c/Crime/PrintProposalPacket/English",
    "sourceOrgUrl": "/apex/vlocity_ins__omniscriptdesigner?id=a5C3K0000009KlZUAU"
}