{
    "%vlocity_namespace%__GlobalKey__c": "",
    "%vlocity_namespace%__Implementation__c": "",
    "%vlocity_namespace%__ThorImplementation__c": "",
    "Name": "NoOp",
    "VlocityDataPackType": "SObject",
    "VlocityRecordSObjectType": "%vlocity_namespace%__ItemImplementation__c",
    "VlocityRecordSourceKey": "%vlocity_namespace%__ItemImplementation__c/NoOp",
    "sourceOrgUrl": "/a4j4W0000016LsjQAE"
}