{
    "%vlocity_namespace%__Author__c": "CAISLive",
    "%vlocity_namespace%__CardType__c": "flex",
    "%vlocity_namespace%__Datasource__c": {
        "contextVariables": [
            {
                "id": 3,
                "name": "recordId",
                "val": "0056C000002DrGeQAK"
            }
        ],
        "orderBy": {
            "isReverse": false,
            "name": ""
        },
        "type": "DataRaptor",
        "value": {
            "bundle": "AgencyAdminstrationExtractDetails",
            "inputMap": {
                "Id": "{recordId}"
            },
            "resultVar": ""
        }
    },
    "%vlocity_namespace%__Definition__c": "caisAgencyAdminProfile.json",
    "%vlocity_namespace%__Description__c": "",
    "%vlocity_namespace%__GlobalKey__c": "caisAgencyAdminProfile/CAISLive/2/1607607259070",
    "%vlocity_namespace%__IsChildCard__c": false,
    "%vlocity_namespace%__ParentID__c": "",
    "%vlocity_namespace%__SampleData__c": "[{\"UserAddress\":\"\",\"AgencyTIN\":\"23-4451987\",\"AgencyMailingAddressSuite\":\"Suite 200\",\"AgencyPhysicalAddressSuite\":\"Suite 100\",\"UserAddressPostalCode\":\"95762\",\"UserAddressCountry\":\"United States\",\"UserAddressState\":\"CA\",\"UserAddressCIty\":\"El Dorado Hills\",\"UserAddressStreet\":\"5045 Robert J Mathews Pkwy\",\"AgencyMailingCountry\":\"United States\",\"AgencyMailingPostalCode\":\"95762\",\"AgencyMailingState\":\"CA\",\"AgencyMailingStreet\":\"5045 Robert J Mathews Pkwy\",\"AgencyPhysicalCountry\":\"United States\",\"AgencyMailingCity\":\"El Dorado Hills,\",\"AgencyPhysicalZipcode\":\"95762\",\"AgencyPhysicalState\":\"CA\",\"AgencyPhysicalCity\":\"El Dorado Hills\",\"AgencyPhysicalStreet\":\"5045 Robert J Mathews Pkwy\",\"UserId\":\"0056C000002DrGeQAK\",\"UserLastName\":\"Curry\",\"UserFirstName\":\"Arthur\",\"UserWebsite\":\"https://www.caislive.com/\",\"UserAccountId\":\"0016C00000S470uQAB\",\"AgencyMailingAddress\":\"5045 Robert J Mathews Pkwy Suite 200 El Dorado Hills, CA 95762\",\"AgencyPhysicalAddress\":\"5045 Robert J Mathews Pkwy El Dorado Hills CA 95762\",\"AgencyWebsite\":\"https://www.caislive.com/\",\"AgencyFax\":\"(323) 999-8912\",\"AgencyPhone\":\"+1 888-833-4158\",\"AgencyNPN\":\"236789\",\"UserFax\":\"9962105798\",\"UserMobile\":\"0012345678\",\"UserName\":\"Arthur Curry\",\"UserEmail\":\"himadeep.guduru@gerentllc.com\",\"AccountName\":\"Community Association Insurance Solutions LLC\"}]",
    "%vlocity_namespace%__Styles__c": "{\"customStyles\":\".agencyValue{\\r\\n    font-weight: bold !important;\\r\\n}\\r\\n.agencyLabel{\\r\\n    font-size: 14px !important;\\r\\n    color: #173156 !important;\\r\\n    line-height: 2 !important;\\r\\n}\\r\\n.updateButton button{\\r\\n    background-color: white !important;\\r\\n    padding: 0.5rem !important;\\r\\n    border: none !important;\\r\\n}\"}",
    "%vlocity_namespace%__Type__c": "",
    "%vlocity_namespace%__Version__c": 2,
    "Name": "caisAgencyAdminProfile",
    "VlocityDataPackType": "SObject",
    "VlocityRecordSObjectType": "%vlocity_namespace%__VlocityCard__c",
    "VlocityRecordSourceKey": "%vlocity_namespace%__VlocityCard__c/caisAgencyAdminProfile",
    "sourceOrgUrl": "/a7n3K0000004ZHzQAM"
}