{
    "%vlocity_namespace%__Author__c": "Vlocity",
    "%vlocity_namespace%__Datasource__c": "",
    "%vlocity_namespace%__Definition__c": "ins-product-methods-helper.json",
    "%vlocity_namespace%__Description__c": "",
    "%vlocity_namespace%__GlobalKey__c": "ins-product-methods-helper/1/Vlocity/1510176384328",
    "%vlocity_namespace%__ParentID__c": "",
    "%vlocity_namespace%__RequiredPermission__c": "",
    "%vlocity_namespace%__Type__c": "Layout",
    "%vlocity_namespace%__Version__c": 1,
    "Name": "ins-product-methods-helper",
    "VlocityDataPackType": "SObject",
    "VlocityRecordSObjectType": "%vlocity_namespace%__VlocityUILayout__c",
    "VlocityRecordSourceKey": "%vlocity_namespace%__VlocityUILayout__c/ins-product-methods-helper",
    "sourceOrgUrl": "/apex/vlocity_ins__carddesignernew?id=?id=a8B4W0000009e9HUAQ"
}