{
    "%vlocity_namespace%__AdditionalInformation__c": "Create Customer Interaction",
    "%vlocity_namespace%__CustomJavaScript__c": "CustomerInteractionContactCMT_Creation_SampleInput.json",
    "%vlocity_namespace%__DisableMetadataCache__c": false,
    "%vlocity_namespace%__ElementTypeToHTMLTemplateList__c": "{\"ElementTypeToHTMLTemplateList\":[]}",
    "%vlocity_namespace%__Element__c": [
        "CustomerInteractionContactCMT_Creation_Element_CreateInteraction.json",
        "CustomerInteractionContactCMT_Creation_Element_TransformNewInteraction.json",
        "CustomerInteractionContactCMT_Creation_Element_ExtractAccountFromContact.json",
        "CustomerInteractionContactCMT_Creation_Element_ExtractAssetBasedOnAccount.json",
        "CustomerInteractionContactCMT_Creation_Element_CreateCMTInteractionTopic.json",
        "CustomerInteractionContactCMT_Creation_Element_Response-Action.json"
    ],
    "%vlocity_namespace%__IsLwcEnabled__c": false,
    "%vlocity_namespace%__IsProcedure__c": true,
    "%vlocity_namespace%__IsReusable__c": false,
    "%vlocity_namespace%__IsTest__c": false,
    "%vlocity_namespace%__Language__c": "Procedure",
    "%vlocity_namespace%__ProcedureKey__c": "CustomerInteractionContactCMT_Creation",
    "%vlocity_namespace%__PropertySet__c": "CustomerInteractionContactCMT_Creation_PropertySet.json",
    "%vlocity_namespace%__SubType__c": "Creation",
    "%vlocity_namespace%__Type__c": "CustomerInteractionContactCMT",
    "Name": "CreateCustomerInteractionContactCMT",
    "VlocityDataPackType": "SObject",
    "VlocityRecordSObjectType": "%vlocity_namespace%__OmniScript__c",
    "VlocityRecordSourceKey": "%vlocity_namespace%__OmniScript__c/CustomerInteractionContactCMT/Creation/Procedure",
    "sourceOrgUrl": "/apex/vlocity_ins__integrationproceduredesigner?id=a5C4W000000M0GaUAK"
}