{
    "TableColumn": {
        "editable": true,
        "fieldName": "email",
        "label": "Email",
        "searchable": true,
        "sortable": true,
        "type": "email",
        "userSelectable": true
    }
}