[
    {
        "%vlocity_namespace%__DomainObjectAPIName__c": "Formula",
        "%vlocity_namespace%__DomainObjectCreationOrder__c": 0,
        "%vlocity_namespace%__DomainObjectFieldAPIName__c": "Formula",
        "%vlocity_namespace%__FormulaOrder__c": 1,
        "%vlocity_namespace%__FormulaResultPath__c": "policyTermExpDate",
        "%vlocity_namespace%__Formula__c": "%PolicyTerms:PolicyTerm:FinalExpirationDate%",
        "%vlocity_namespace%__IsDisabled__c": false,
        "%vlocity_namespace%__IsRequiredForUpsert__c": false,
        "%vlocity_namespace%__MapId__c": "CAIS_DO_TransformQuoteCreation3038791974788573",
        "%vlocity_namespace%__UpsertKey__c": false,
        "Name": "CAIS_DO_TransformQuoteCreation",
        "VlocityDataPackType": "SObject",
        "VlocityRecordSObjectType": "%vlocity_namespace%__DRMapItem__c"
    },
    {
        "%vlocity_namespace%__DomainObjectAPIName__c": "Formula",
        "%vlocity_namespace%__DomainObjectCreationOrder__c": 0,
        "%vlocity_namespace%__DomainObjectFieldAPIName__c": "Formula",
        "%vlocity_namespace%__FormulaOrder__c": 2,
        "%vlocity_namespace%__FormulaResultPath__c": "quoteExpDate",
        "%vlocity_namespace%__Formula__c": "ADDDAY(%PolicyTerms:PolicyTerm:EffectiveDate%,90)",
        "%vlocity_namespace%__IsDisabled__c": false,
        "%vlocity_namespace%__IsRequiredForUpsert__c": false,
        "%vlocity_namespace%__MapId__c": "CAIS_DO_TransformQuoteCreation5446862079215051",
        "%vlocity_namespace%__UpsertKey__c": false,
        "Name": "CAIS_DO_TransformQuoteCreation",
        "VlocityDataPackType": "SObject",
        "VlocityRecordSObjectType": "%vlocity_namespace%__DRMapItem__c"
    },
    {
        "%vlocity_namespace%__DomainObjectAPIName__c": "Formula",
        "%vlocity_namespace%__DomainObjectCreationOrder__c": 0,
        "%vlocity_namespace%__DomainObjectFieldAPIName__c": "Formula",
        "%vlocity_namespace%__FormulaOrder__c": 3,
        "%vlocity_namespace%__FormulaResultPath__c": "mailingStreet",
        "%vlocity_namespace%__Formula__c": "CONCAT(%InsuredDetails:MailingStreetFormula%,\" \",%InsuredDetails:MailingSuiteFormula%)",
        "%vlocity_namespace%__IsDisabled__c": false,
        "%vlocity_namespace%__IsRequiredForUpsert__c": false,
        "%vlocity_namespace%__MapId__c": "CAIS_DO_TransformQuoteCreation8436457458652658",
        "%vlocity_namespace%__UpsertKey__c": false,
        "Name": "CAIS_DO_TransformQuoteCreation",
        "VlocityDataPackType": "SObject",
        "VlocityRecordSObjectType": "%vlocity_namespace%__DRMapItem__c"
    },
    {
        "%vlocity_namespace%__DomainObjectAPIName__c": "Formula",
        "%vlocity_namespace%__DomainObjectCreationOrder__c": 0,
        "%vlocity_namespace%__DomainObjectFieldAPIName__c": "Formula",
        "%vlocity_namespace%__FormulaOrder__c": 4,
        "%vlocity_namespace%__FormulaResultPath__c": "billingStreet",
        "%vlocity_namespace%__Formula__c": "CONCAT(%InsuredDetails:BillingStreetFormula%,\" \",%InsuredDetails:BillingSuiteFormula%)",
        "%vlocity_namespace%__IsDisabled__c": false,
        "%vlocity_namespace%__IsRequiredForUpsert__c": false,
        "%vlocity_namespace%__MapId__c": "CAIS_DO_TransformQuoteCreation2822971186200445",
        "%vlocity_namespace%__UpsertKey__c": false,
        "Name": "CAIS_DO_TransformQuoteCreation",
        "VlocityDataPackType": "SObject",
        "VlocityRecordSObjectType": "%vlocity_namespace%__DRMapItem__c"
    },
    {
        "%vlocity_namespace%__DomainObjectAPIName__c": "Formula",
        "%vlocity_namespace%__DomainObjectCreationOrder__c": 0,
        "%vlocity_namespace%__DomainObjectFieldAPIName__c": "Formula",
        "%vlocity_namespace%__FormulaOrder__c": 5,
        "%vlocity_namespace%__FormulaResultPath__c": "QuoteName",
        "%vlocity_namespace%__Formula__c": "CONCAT(%InsuredDetails:CommunityAssociation:FinalInsured%,\"-D&O-\",SUBSTRING(%PolicyTerms:PolicyTerm:EffectiveDate%,0,10))",
        "%vlocity_namespace%__IsDisabled__c": false,
        "%vlocity_namespace%__IsRequiredForUpsert__c": false,
        "%vlocity_namespace%__MapId__c": "CAIS_DO_TransformQuoteCreation9230752927962862",
        "%vlocity_namespace%__UpsertKey__c": false,
        "Name": "CAIS_DO_TransformQuoteCreation",
        "VlocityDataPackType": "SObject",
        "VlocityRecordSObjectType": "%vlocity_namespace%__DRMapItem__c"
    },
    {
        "%vlocity_namespace%__DomainObjectAPIName__c": "Formula",
        "%vlocity_namespace%__DomainObjectCreationOrder__c": 0,
        "%vlocity_namespace%__DomainObjectFieldAPIName__c": "Formula",
        "%vlocity_namespace%__FormulaOrder__c": 6,
        "%vlocity_namespace%__FormulaResultPath__c": "NewPMCName",
        "%vlocity_namespace%__Formula__c": "IF(%InsuredDetails:CommunityAssociation:PMCAccount-Block:PMCAccountId% == null,%InsuredDetails:CommunityAssociation:PMCAccount-Block:PMCAccount%,null)",
        "%vlocity_namespace%__IsDisabled__c": false,
        "%vlocity_namespace%__IsRequiredForUpsert__c": false,
        "%vlocity_namespace%__MapId__c": "CAIS_DO_TransformQuoteCreation4769181062618093",
        "%vlocity_namespace%__UpsertKey__c": false,
        "Name": "CAIS_DO_TransformQuoteCreation",
        "VlocityDataPackType": "SObject",
        "VlocityRecordSObjectType": "%vlocity_namespace%__DRMapItem__c"
    },
    {
        "%vlocity_namespace%__DomainObjectAPIName__c": "Formula",
        "%vlocity_namespace%__DomainObjectCreationOrder__c": 0,
        "%vlocity_namespace%__DomainObjectFieldAPIName__c": "Formula",
        "%vlocity_namespace%__FormulaOrder__c": 7,
        "%vlocity_namespace%__FormulaResultPath__c": "RuleStatus",
        "%vlocity_namespace%__Formula__c": "IF(%GeneralQuestionsStep:RuleStatus% == \"Declined\" , \"Declined\" , IF(%GeneralQuestionsStep:RuleStatus% == \"Referral\", \"Underwriting Review\",IF(%GeneralQuestionsStep:RuleStatus% == \"Accepted\", \"Approved\", '')))",
        "%vlocity_namespace%__IsDisabled__c": false,
        "%vlocity_namespace%__IsRequiredForUpsert__c": false,
        "%vlocity_namespace%__MapId__c": "CAIS_DO_TransformQuoteCreation8049545137372045",
        "%vlocity_namespace%__UpsertKey__c": false,
        "Name": "CAIS_DO_TransformQuoteCreation",
        "VlocityDataPackType": "SObject",
        "VlocityRecordSObjectType": "%vlocity_namespace%__DRMapItem__c"
    },
    {
        "%vlocity_namespace%__DomainObjectAPIName__c": "Formula",
        "%vlocity_namespace%__DomainObjectCreationOrder__c": 0,
        "%vlocity_namespace%__DomainObjectFieldAPIName__c": "Formula",
        "%vlocity_namespace%__FormulaOrder__c": 8,
        "%vlocity_namespace%__FormulaResultPath__c": "SubStatus",
        "%vlocity_namespace%__Formula__c": "IF(%RuleStatus% == \"Underwriting Review\" , \"Referred\" , '')",
        "%vlocity_namespace%__IsDisabled__c": false,
        "%vlocity_namespace%__IsRequiredForUpsert__c": false,
        "%vlocity_namespace%__MapId__c": "CAIS_DO_TransformQuoteCreation3730290823870879",
        "%vlocity_namespace%__UpsertKey__c": false,
        "Name": "CAIS_DO_TransformQuoteCreation",
        "VlocityDataPackType": "SObject",
        "VlocityRecordSObjectType": "%vlocity_namespace%__DRMapItem__c"
    },
    {
        "%vlocity_namespace%__DomainObjectAPIName__c": "Formula",
        "%vlocity_namespace%__DomainObjectCreationOrder__c": 0,
        "%vlocity_namespace%__DomainObjectFieldAPIName__c": "Formula",
        "%vlocity_namespace%__FormulaOrder__c": 9,
        "%vlocity_namespace%__FormulaResultPath__c": "ReasonCode",
        "%vlocity_namespace%__Formula__c": "IF(%RuleStatus% == \"Approved\" , \"System Approved\" , '')",
        "%vlocity_namespace%__IsDisabled__c": false,
        "%vlocity_namespace%__IsRequiredForUpsert__c": false,
        "%vlocity_namespace%__MapId__c": "CAIS_DO_TransformQuoteCreation18664940263711438",
        "%vlocity_namespace%__UpsertKey__c": false,
        "Name": "CAIS_DO_TransformQuoteCreation",
        "VlocityDataPackType": "SObject",
        "VlocityRecordSObjectType": "%vlocity_namespace%__DRMapItem__c"
    },
    {
        "%vlocity_namespace%__DomainObjectAPIName__c": "json",
        "%vlocity_namespace%__DomainObjectCreationOrder__c": 1,
        "%vlocity_namespace%__DomainObjectFieldAPIName__c": "preQuoteId",
        "%vlocity_namespace%__InterfaceFieldAPIName__c": "DataRaptorPostAction1:Quote_1:Id",
        "%vlocity_namespace%__IsDisabled__c": false,
        "%vlocity_namespace%__IsRequiredForUpsert__c": false,
        "%vlocity_namespace%__MapId__c": "CAIS_DO_TransformQuoteCreationCustom9465",
        "%vlocity_namespace%__UpsertKey__c": false,
        "Name": "CAIS_DO_TransformQuoteCreation",
        "VlocityDataPackType": "SObject",
        "VlocityRecordSObjectType": "%vlocity_namespace%__DRMapItem__c"
    },
    {
        "%vlocity_namespace%__DomainObjectAPIName__c": "json",
        "%vlocity_namespace%__DomainObjectCreationOrder__c": 1,
        "%vlocity_namespace%__DomainObjectFieldAPIName__c": "quoteJSON:PolicyTerms:LiabilityBlock:LiabilityLimit",
        "%vlocity_namespace%__DomainObjectFieldType__c": "String",
        "%vlocity_namespace%__InterfaceFieldAPIName__c": "PolicyTerms:LiabilityBlock:LiabilityLimit",
        "%vlocity_namespace%__IsDisabled__c": false,
        "%vlocity_namespace%__IsRequiredForUpsert__c": false,
        "%vlocity_namespace%__MapId__c": "CAIS_DO_TransformQuoteCreationCustom7948",
        "%vlocity_namespace%__UpsertKey__c": false,
        "Name": "CAIS_DO_TransformQuoteCreation",
        "VlocityDataPackType": "SObject",
        "VlocityRecordSObjectType": "%vlocity_namespace%__DRMapItem__c"
    },
    {
        "%vlocity_namespace%__DomainObjectAPIName__c": "json",
        "%vlocity_namespace%__DomainObjectCreationOrder__c": 1,
        "%vlocity_namespace%__DomainObjectFieldAPIName__c": "quoteJSON:accountId",
        "%vlocity_namespace%__InterfaceFieldAPIName__c": "finalAccountId",
        "%vlocity_namespace%__IsDisabled__c": false,
        "%vlocity_namespace%__IsRequiredForUpsert__c": false,
        "%vlocity_namespace%__MapId__c": "CAIS_DO_TransformQuoteCreation4572619241573044",
        "%vlocity_namespace%__UpsertKey__c": false,
        "Name": "CAIS_DO_TransformQuoteCreation",
        "VlocityDataPackType": "SObject",
        "VlocityRecordSObjectType": "%vlocity_namespace%__DRMapItem__c"
    },
    {
        "%vlocity_namespace%__DomainObjectAPIName__c": "json",
        "%vlocity_namespace%__DomainObjectCreationOrder__c": 1,
        "%vlocity_namespace%__DomainObjectFieldAPIName__c": "quoteJSON:additionalFields:%vlocity_namespace%__AgencyBrokerageId__c",
        "%vlocity_namespace%__InterfaceFieldAPIName__c": "currentUserAccountId",
        "%vlocity_namespace%__IsDisabled__c": false,
        "%vlocity_namespace%__IsRequiredForUpsert__c": false,
        "%vlocity_namespace%__MapId__c": "CAIS_DO_TransformQuoteCreation7508987497568904",
        "%vlocity_namespace%__UpsertKey__c": false,
        "Name": "CAIS_DO_TransformQuoteCreation",
        "VlocityDataPackType": "SObject",
        "VlocityRecordSObjectType": "%vlocity_namespace%__DRMapItem__c"
    },
    {
        "%vlocity_namespace%__DomainObjectAPIName__c": "json",
        "%vlocity_namespace%__DomainObjectCreationOrder__c": 1,
        "%vlocity_namespace%__DomainObjectFieldAPIName__c": "quoteJSON:additionalFields:%vlocity_namespace%__EndDate__c",
        "%vlocity_namespace%__InterfaceFieldAPIName__c": "PolicyTerms:PolicyTerm:FinalExpirationDate",
        "%vlocity_namespace%__IsDisabled__c": false,
        "%vlocity_namespace%__IsRequiredForUpsert__c": false,
        "%vlocity_namespace%__MapId__c": "CAIS_DO_TransformQuoteCreation6208445623914716",
        "%vlocity_namespace%__UpsertKey__c": false,
        "Name": "CAIS_DO_TransformQuoteCreation",
        "VlocityDataPackType": "SObject",
        "VlocityRecordSObjectType": "%vlocity_namespace%__DRMapItem__c"
    },
    {
        "%vlocity_namespace%__DefaultValue__c": "Annual",
        "%vlocity_namespace%__DomainObjectAPIName__c": "json",
        "%vlocity_namespace%__DomainObjectCreationOrder__c": 1,
        "%vlocity_namespace%__DomainObjectFieldAPIName__c": "quoteJSON:additionalFields:%vlocity_namespace%__Term__c",
        "%vlocity_namespace%__IsDisabled__c": false,
        "%vlocity_namespace%__IsRequiredForUpsert__c": false,
        "%vlocity_namespace%__MapId__c": "CAIS_DO_TransformQuoteCreation35791009886260006",
        "%vlocity_namespace%__UpsertKey__c": false,
        "Name": "CAIS_DO_TransformQuoteCreation",
        "VlocityDataPackType": "SObject",
        "VlocityRecordSObjectType": "%vlocity_namespace%__DRMapItem__c"
    },
    {
        "%vlocity_namespace%__DomainObjectAPIName__c": "json",
        "%vlocity_namespace%__DomainObjectCreationOrder__c": 1,
        "%vlocity_namespace%__DomainObjectFieldAPIName__c": "quoteJSON:additionalFields:BillingCity",
        "%vlocity_namespace%__InterfaceFieldAPIName__c": "InsuredDetails:BillingCityFormula",
        "%vlocity_namespace%__IsDisabled__c": false,
        "%vlocity_namespace%__IsRequiredForUpsert__c": false,
        "%vlocity_namespace%__MapId__c": "CAIS_DO_TransformQuoteCreation2121221740603676",
        "%vlocity_namespace%__UpsertKey__c": false,
        "Name": "CAIS_DO_TransformQuoteCreation",
        "VlocityDataPackType": "SObject",
        "VlocityRecordSObjectType": "%vlocity_namespace%__DRMapItem__c"
    },
    {
        "%vlocity_namespace%__DefaultValue__c": "United States",
        "%vlocity_namespace%__DomainObjectAPIName__c": "json",
        "%vlocity_namespace%__DomainObjectCreationOrder__c": 1,
        "%vlocity_namespace%__DomainObjectFieldAPIName__c": "quoteJSON:additionalFields:BillingCountry",
        "%vlocity_namespace%__IsDisabled__c": false,
        "%vlocity_namespace%__IsRequiredForUpsert__c": false,
        "%vlocity_namespace%__MapId__c": "CAIS_DO_TransformQuoteCreation9446946054670473",
        "%vlocity_namespace%__UpsertKey__c": false,
        "Name": "CAIS_DO_TransformQuoteCreation",
        "VlocityDataPackType": "SObject",
        "VlocityRecordSObjectType": "%vlocity_namespace%__DRMapItem__c"
    },
    {
        "%vlocity_namespace%__DomainObjectAPIName__c": "json",
        "%vlocity_namespace%__DomainObjectCreationOrder__c": 1,
        "%vlocity_namespace%__DomainObjectFieldAPIName__c": "quoteJSON:additionalFields:BillingName",
        "%vlocity_namespace%__InterfaceFieldAPIName__c": "InsuredDetails:CommunityAssociation:BillingCareOf",
        "%vlocity_namespace%__IsDisabled__c": false,
        "%vlocity_namespace%__IsRequiredForUpsert__c": false,
        "%vlocity_namespace%__MapId__c": "CAIS_DO_TransformQuoteCreation07691326956246569",
        "%vlocity_namespace%__UpsertKey__c": false,
        "Name": "CAIS_DO_TransformQuoteCreation",
        "VlocityDataPackType": "SObject",
        "VlocityRecordSObjectType": "%vlocity_namespace%__DRMapItem__c"
    },
    {
        "%vlocity_namespace%__DomainObjectAPIName__c": "json",
        "%vlocity_namespace%__DomainObjectCreationOrder__c": 1,
        "%vlocity_namespace%__DomainObjectFieldAPIName__c": "quoteJSON:additionalFields:BillingPostalCode",
        "%vlocity_namespace%__InterfaceFieldAPIName__c": "InsuredDetails:BillingPostalCodeFormula",
        "%vlocity_namespace%__IsDisabled__c": false,
        "%vlocity_namespace%__IsRequiredForUpsert__c": false,
        "%vlocity_namespace%__MapId__c": "CAIS_DO_TransformQuoteCreation7008032980554513",
        "%vlocity_namespace%__UpsertKey__c": false,
        "Name": "CAIS_DO_TransformQuoteCreation",
        "VlocityDataPackType": "SObject",
        "VlocityRecordSObjectType": "%vlocity_namespace%__DRMapItem__c"
    },
    {
        "%vlocity_namespace%__DomainObjectAPIName__c": "json",
        "%vlocity_namespace%__DomainObjectCreationOrder__c": 1,
        "%vlocity_namespace%__DomainObjectFieldAPIName__c": "quoteJSON:additionalFields:BillingState",
        "%vlocity_namespace%__InterfaceFieldAPIName__c": "InsuredDetails:BillingStateFormula",
        "%vlocity_namespace%__IsDisabled__c": false,
        "%vlocity_namespace%__IsRequiredForUpsert__c": false,
        "%vlocity_namespace%__MapId__c": "CAIS_DO_TransformQuoteCreation8921583151937236",
        "%vlocity_namespace%__UpsertKey__c": false,
        "Name": "CAIS_DO_TransformQuoteCreation",
        "VlocityDataPackType": "SObject",
        "VlocityRecordSObjectType": "%vlocity_namespace%__DRMapItem__c"
    },
    {
        "%vlocity_namespace%__DomainObjectAPIName__c": "json",
        "%vlocity_namespace%__DomainObjectCreationOrder__c": 1,
        "%vlocity_namespace%__DomainObjectFieldAPIName__c": "quoteJSON:additionalFields:BillingStreet",
        "%vlocity_namespace%__InterfaceFieldAPIName__c": "billingStreet",
        "%vlocity_namespace%__IsDisabled__c": false,
        "%vlocity_namespace%__IsRequiredForUpsert__c": false,
        "%vlocity_namespace%__MapId__c": "CAIS_DO_TransformQuoteCreation2484800160654781",
        "%vlocity_namespace%__UpsertKey__c": false,
        "Name": "CAIS_DO_TransformQuoteCreation",
        "VlocityDataPackType": "SObject",
        "VlocityRecordSObjectType": "%vlocity_namespace%__DRMapItem__c"
    },
    {
        "%vlocity_namespace%__DefaultValue__c": "New",
        "%vlocity_namespace%__DomainObjectAPIName__c": "json",
        "%vlocity_namespace%__DomainObjectCreationOrder__c": 1,
        "%vlocity_namespace%__DomainObjectFieldAPIName__c": "quoteJSON:additionalFields:Business_Type__c",
        "%vlocity_namespace%__IsDisabled__c": false,
        "%vlocity_namespace%__IsRequiredForUpsert__c": false,
        "%vlocity_namespace%__MapId__c": "CAIS_DO_TransformQuoteCreation4289074866771785",
        "%vlocity_namespace%__UpsertKey__c": false,
        "Name": "CAIS_DO_TransformQuoteCreation",
        "VlocityDataPackType": "SObject",
        "VlocityRecordSObjectType": "%vlocity_namespace%__DRMapItem__c"
    },
    {
        "%vlocity_namespace%__DomainObjectAPIName__c": "json",
        "%vlocity_namespace%__DomainObjectCreationOrder__c": 1,
        "%vlocity_namespace%__DomainObjectFieldAPIName__c": "quoteJSON:additionalFields:Carrier__c",
        "%vlocity_namespace%__InterfaceFieldAPIName__c": "FinalCarrier",
        "%vlocity_namespace%__IsDisabled__c": false,
        "%vlocity_namespace%__IsRequiredForUpsert__c": false,
        "%vlocity_namespace%__MapId__c": "CAIS_DO_TransformQuoteCreation5870365069670549",
        "%vlocity_namespace%__UpsertKey__c": false,
        "Name": "CAIS_DO_TransformQuoteCreation",
        "VlocityDataPackType": "SObject",
        "VlocityRecordSObjectType": "%vlocity_namespace%__DRMapItem__c"
    },
    {
        "%vlocity_namespace%__DefaultValue__c": "\"\"",
        "%vlocity_namespace%__DomainObjectAPIName__c": "json",
        "%vlocity_namespace%__DomainObjectCreationOrder__c": 1,
        "%vlocity_namespace%__DomainObjectFieldAPIName__c": "quoteJSON:additionalFields:Class_Code__c",
        "%vlocity_namespace%__IsDisabled__c": false,
        "%vlocity_namespace%__IsRequiredForUpsert__c": false,
        "%vlocity_namespace%__MapId__c": "CAIS_DO_TransformQuoteCreation12906455270420403",
        "%vlocity_namespace%__UpsertKey__c": false,
        "Name": "CAIS_DO_TransformQuoteCreation",
        "VlocityDataPackType": "SObject",
        "VlocityRecordSObjectType": "%vlocity_namespace%__DRMapItem__c"
    },
    {
        "%vlocity_namespace%__DomainObjectAPIName__c": "json",
        "%vlocity_namespace%__DomainObjectCreationOrder__c": 1,
        "%vlocity_namespace%__DomainObjectFieldAPIName__c": "quoteJSON:additionalFields:ContactId",
        "%vlocity_namespace%__InterfaceFieldAPIName__c": "ContactId",
        "%vlocity_namespace%__IsDisabled__c": false,
        "%vlocity_namespace%__IsRequiredForUpsert__c": false,
        "%vlocity_namespace%__MapId__c": "CAIS_DO_TransformQuoteCreation7414370698943142",
        "%vlocity_namespace%__UpsertKey__c": false,
        "Name": "CAIS_DO_TransformQuoteCreation",
        "VlocityDataPackType": "SObject",
        "VlocityRecordSObjectType": "%vlocity_namespace%__DRMapItem__c"
    },
    {
        "%vlocity_namespace%__DomainObjectAPIName__c": "json",
        "%vlocity_namespace%__DomainObjectCreationOrder__c": 1,
        "%vlocity_namespace%__DomainObjectFieldAPIName__c": "quoteJSON:additionalFields:Email",
        "%vlocity_namespace%__InterfaceFieldAPIName__c": "InsuredDetails:CommunityAssociation:InsuredContactBlock:ContactEmail",
        "%vlocity_namespace%__IsDisabled__c": false,
        "%vlocity_namespace%__IsRequiredForUpsert__c": false,
        "%vlocity_namespace%__MapId__c": "CAIS_DO_TransformQuoteCreation6491841467631398",
        "%vlocity_namespace%__UpsertKey__c": false,
        "Name": "CAIS_DO_TransformQuoteCreation",
        "VlocityDataPackType": "SObject",
        "VlocityRecordSObjectType": "%vlocity_namespace%__DRMapItem__c"
    },
    {
        "%vlocity_namespace%__DomainObjectAPIName__c": "json",
        "%vlocity_namespace%__DomainObjectCreationOrder__c": 1,
        "%vlocity_namespace%__DomainObjectFieldAPIName__c": "quoteJSON:additionalFields:ExpirationDate",
        "%vlocity_namespace%__InterfaceFieldAPIName__c": "PolicyTerms:PolicyTerm:FinalExpirationDate",
        "%vlocity_namespace%__IsDisabled__c": false,
        "%vlocity_namespace%__IsRequiredForUpsert__c": false,
        "%vlocity_namespace%__MapId__c": "CAIS_DO_TransformQuoteCreationCustom4247",
        "%vlocity_namespace%__UpsertKey__c": false,
        "Name": "CAIS_DO_TransformQuoteCreation",
        "VlocityDataPackType": "SObject",
        "VlocityRecordSObjectType": "%vlocity_namespace%__DRMapItem__c"
    },
    {
        "%vlocity_namespace%__DomainObjectAPIName__c": "json",
        "%vlocity_namespace%__DomainObjectCreationOrder__c": 1,
        "%vlocity_namespace%__DomainObjectFieldAPIName__c": "quoteJSON:additionalFields:FEIN__c",
        "%vlocity_namespace%__InterfaceFieldAPIName__c": "InsuredDetails:CommunityAssociation:FinalFEIN",
        "%vlocity_namespace%__IsDisabled__c": false,
        "%vlocity_namespace%__IsRequiredForUpsert__c": false,
        "%vlocity_namespace%__MapId__c": "CAIS_DO_TransformQuoteCreation8992761456800586",
        "%vlocity_namespace%__UpsertKey__c": false,
        "Name": "CAIS_DO_TransformQuoteCreation",
        "VlocityDataPackType": "SObject",
        "VlocityRecordSObjectType": "%vlocity_namespace%__DRMapItem__c"
    },
    {
        "%vlocity_namespace%__DefaultValue__c": "Directors & Officers",
        "%vlocity_namespace%__DomainObjectAPIName__c": "json",
        "%vlocity_namespace%__DomainObjectCreationOrder__c": 1,
        "%vlocity_namespace%__DomainObjectFieldAPIName__c": "quoteJSON:additionalFields:Line_of_Business__c",
        "%vlocity_namespace%__IsDisabled__c": false,
        "%vlocity_namespace%__IsRequiredForUpsert__c": false,
        "%vlocity_namespace%__MapId__c": "CAIS_DO_TransformQuoteCreation5425142049626912",
        "%vlocity_namespace%__UpsertKey__c": false,
        "Name": "CAIS_DO_TransformQuoteCreation",
        "VlocityDataPackType": "SObject",
        "VlocityRecordSObjectType": "%vlocity_namespace%__DRMapItem__c"
    },
    {
        "%vlocity_namespace%__DomainObjectAPIName__c": "json",
        "%vlocity_namespace%__DomainObjectCreationOrder__c": 1,
        "%vlocity_namespace%__DomainObjectFieldAPIName__c": "quoteJSON:additionalFields:NAICS_Code__c",
        "%vlocity_namespace%__DomainObjectFieldType__c": "String",
        "%vlocity_namespace%__InterfaceFieldAPIName__c": "getRatedProduct:records|1:CalculatedPriceData:SICNAICSCodes__NAICS",
        "%vlocity_namespace%__IsDisabled__c": false,
        "%vlocity_namespace%__IsRequiredForUpsert__c": false,
        "%vlocity_namespace%__MapId__c": "CAIS_DO_TransformQuoteCreation02967181112741346",
        "%vlocity_namespace%__UpsertKey__c": false,
        "Name": "CAIS_DO_TransformQuoteCreation",
        "VlocityDataPackType": "SObject",
        "VlocityRecordSObjectType": "%vlocity_namespace%__DRMapItem__c"
    },
    {
        "%vlocity_namespace%__DomainObjectAPIName__c": "json",
        "%vlocity_namespace%__DomainObjectCreationOrder__c": 1,
        "%vlocity_namespace%__DomainObjectFieldAPIName__c": "quoteJSON:additionalFields:Name",
        "%vlocity_namespace%__InterfaceFieldAPIName__c": "QuoteName",
        "%vlocity_namespace%__IsDisabled__c": false,
        "%vlocity_namespace%__IsRequiredForUpsert__c": false,
        "%vlocity_namespace%__MapId__c": "CAIS_DO_TransformQuoteCreation030992078937417178",
        "%vlocity_namespace%__UpsertKey__c": false,
        "Name": "CAIS_DO_TransformQuoteCreation",
        "VlocityDataPackType": "SObject",
        "VlocityRecordSObjectType": "%vlocity_namespace%__DRMapItem__c"
    },
    {
        "%vlocity_namespace%__DomainObjectAPIName__c": "json",
        "%vlocity_namespace%__DomainObjectCreationOrder__c": 1,
        "%vlocity_namespace%__DomainObjectFieldAPIName__c": "quoteJSON:additionalFields:PMC_Contact_First_Name__c",
        "%vlocity_namespace%__InterfaceFieldAPIName__c": "InsuredDetails:CommunityAssociation:PropMgmtContactBlock:PropMgmtFName",
        "%vlocity_namespace%__IsDisabled__c": false,
        "%vlocity_namespace%__IsRequiredForUpsert__c": false,
        "%vlocity_namespace%__MapId__c": "CAIS_DO_TransformQuoteCreation5755076428707171",
        "%vlocity_namespace%__UpsertKey__c": false,
        "Name": "CAIS_DO_TransformQuoteCreation",
        "VlocityDataPackType": "SObject",
        "VlocityRecordSObjectType": "%vlocity_namespace%__DRMapItem__c"
    },
    {
        "%vlocity_namespace%__DomainObjectAPIName__c": "json",
        "%vlocity_namespace%__DomainObjectCreationOrder__c": 1,
        "%vlocity_namespace%__DomainObjectFieldAPIName__c": "quoteJSON:additionalFields:PMC_Contact_Last_Name__c",
        "%vlocity_namespace%__InterfaceFieldAPIName__c": "InsuredDetails:CommunityAssociation:PropMgmtContactBlock:PropMgmtLName",
        "%vlocity_namespace%__IsDisabled__c": false,
        "%vlocity_namespace%__IsRequiredForUpsert__c": false,
        "%vlocity_namespace%__MapId__c": "CAIS_DO_TransformQuoteCreation03893421643805284",
        "%vlocity_namespace%__UpsertKey__c": false,
        "Name": "CAIS_DO_TransformQuoteCreation",
        "VlocityDataPackType": "SObject",
        "VlocityRecordSObjectType": "%vlocity_namespace%__DRMapItem__c"
    },
    {
        "%vlocity_namespace%__DomainObjectAPIName__c": "json",
        "%vlocity_namespace%__DomainObjectCreationOrder__c": 1,
        "%vlocity_namespace%__DomainObjectFieldAPIName__c": "quoteJSON:additionalFields:Phone",
        "%vlocity_namespace%__InterfaceFieldAPIName__c": "InsuredDetails:CommunityAssociation:InsuredContactBlock:ContactPhone",
        "%vlocity_namespace%__IsDisabled__c": false,
        "%vlocity_namespace%__IsRequiredForUpsert__c": false,
        "%vlocity_namespace%__MapId__c": "CAIS_DO_TransformQuoteCreation5104921770573949",
        "%vlocity_namespace%__UpsertKey__c": false,
        "Name": "CAIS_DO_TransformQuoteCreation",
        "VlocityDataPackType": "SObject",
        "VlocityRecordSObjectType": "%vlocity_namespace%__DRMapItem__c"
    },
    {
        "%vlocity_namespace%__DomainObjectAPIName__c": "json",
        "%vlocity_namespace%__DomainObjectCreationOrder__c": 1,
        "%vlocity_namespace%__DomainObjectFieldAPIName__c": "quoteJSON:additionalFields:Policy_Term_Effective_Date__c",
        "%vlocity_namespace%__InterfaceFieldAPIName__c": "PolicyTerms:PolicyTerm:EffectiveDate",
        "%vlocity_namespace%__IsDisabled__c": false,
        "%vlocity_namespace%__IsRequiredForUpsert__c": false,
        "%vlocity_namespace%__MapId__c": "CAIS_DO_TransformQuoteCreation7970740875906623",
        "%vlocity_namespace%__UpsertKey__c": false,
        "Name": "CAIS_DO_TransformQuoteCreation",
        "VlocityDataPackType": "SObject",
        "VlocityRecordSObjectType": "%vlocity_namespace%__DRMapItem__c"
    },
    {
        "%vlocity_namespace%__DomainObjectAPIName__c": "json",
        "%vlocity_namespace%__DomainObjectCreationOrder__c": 1,
        "%vlocity_namespace%__DomainObjectFieldAPIName__c": "quoteJSON:additionalFields:PropertyManagementCompanyname__c",
        "%vlocity_namespace%__InterfaceFieldAPIName__c": "NewPMCName",
        "%vlocity_namespace%__IsDisabled__c": false,
        "%vlocity_namespace%__IsRequiredForUpsert__c": false,
        "%vlocity_namespace%__MapId__c": "CAIS_DO_TransformQuoteCreation7807128458949006",
        "%vlocity_namespace%__UpsertKey__c": false,
        "Name": "CAIS_DO_TransformQuoteCreation",
        "VlocityDataPackType": "SObject",
        "VlocityRecordSObjectType": "%vlocity_namespace%__DRMapItem__c"
    },
    {
        "%vlocity_namespace%__DomainObjectAPIName__c": "json",
        "%vlocity_namespace%__DomainObjectCreationOrder__c": 1,
        "%vlocity_namespace%__DomainObjectFieldAPIName__c": "quoteJSON:additionalFields:QuoteJson__c",
        "%vlocity_namespace%__DomainObjectFieldType__c": "JSON",
        "%vlocity_namespace%__InterfaceFieldAPIName__c": "TransformToStoreQuoteJson:StoredQuote",
        "%vlocity_namespace%__IsDisabled__c": false,
        "%vlocity_namespace%__IsRequiredForUpsert__c": false,
        "%vlocity_namespace%__MapId__c": "CAIS_DO_TransformQuoteCreation6310770898827449",
        "%vlocity_namespace%__UpsertKey__c": false,
        "Name": "CAIS_DO_TransformQuoteCreation",
        "VlocityDataPackType": "SObject",
        "VlocityRecordSObjectType": "%vlocity_namespace%__DRMapItem__c"
    },
    {
        "%vlocity_namespace%__DomainObjectAPIName__c": "json",
        "%vlocity_namespace%__DomainObjectCreationOrder__c": 1,
        "%vlocity_namespace%__DomainObjectFieldAPIName__c": "quoteJSON:additionalFields:QuoteToCity",
        "%vlocity_namespace%__InterfaceFieldAPIName__c": "InsuredDetails:CommunityAssociation:LocationAddress-Block:LocationCity",
        "%vlocity_namespace%__IsDisabled__c": false,
        "%vlocity_namespace%__IsRequiredForUpsert__c": false,
        "%vlocity_namespace%__MapId__c": "CAIS_DO_TransformQuoteCreation06625464018987604",
        "%vlocity_namespace%__UpsertKey__c": false,
        "Name": "CAIS_DO_TransformQuoteCreation",
        "VlocityDataPackType": "SObject",
        "VlocityRecordSObjectType": "%vlocity_namespace%__DRMapItem__c"
    },
    {
        "%vlocity_namespace%__DefaultValue__c": "United States",
        "%vlocity_namespace%__DomainObjectAPIName__c": "json",
        "%vlocity_namespace%__DomainObjectCreationOrder__c": 1,
        "%vlocity_namespace%__DomainObjectFieldAPIName__c": "quoteJSON:additionalFields:QuoteToCountry",
        "%vlocity_namespace%__IsDisabled__c": false,
        "%vlocity_namespace%__IsRequiredForUpsert__c": false,
        "%vlocity_namespace%__MapId__c": "CAIS_DO_TransformQuoteCreation18180660270867643",
        "%vlocity_namespace%__UpsertKey__c": false,
        "Name": "CAIS_DO_TransformQuoteCreation",
        "VlocityDataPackType": "SObject",
        "VlocityRecordSObjectType": "%vlocity_namespace%__DRMapItem__c"
    },
    {
        "%vlocity_namespace%__DomainObjectAPIName__c": "json",
        "%vlocity_namespace%__DomainObjectCreationOrder__c": 1,
        "%vlocity_namespace%__DomainObjectFieldAPIName__c": "quoteJSON:additionalFields:QuoteToPostalCode",
        "%vlocity_namespace%__InterfaceFieldAPIName__c": "InsuredDetails:CommunityAssociation:LocationAddress-Block:LocationZip",
        "%vlocity_namespace%__IsDisabled__c": false,
        "%vlocity_namespace%__IsRequiredForUpsert__c": false,
        "%vlocity_namespace%__MapId__c": "CAIS_DO_TransformQuoteCreation9240637743571982",
        "%vlocity_namespace%__UpsertKey__c": false,
        "Name": "CAIS_DO_TransformQuoteCreation",
        "VlocityDataPackType": "SObject",
        "VlocityRecordSObjectType": "%vlocity_namespace%__DRMapItem__c"
    },
    {
        "%vlocity_namespace%__DomainObjectAPIName__c": "json",
        "%vlocity_namespace%__DomainObjectCreationOrder__c": 1,
        "%vlocity_namespace%__DomainObjectFieldAPIName__c": "quoteJSON:additionalFields:QuoteToState",
        "%vlocity_namespace%__InterfaceFieldAPIName__c": "InsuredDetails:CommunityAssociation:LocationAddress-Block:LocationState",
        "%vlocity_namespace%__IsDisabled__c": false,
        "%vlocity_namespace%__IsRequiredForUpsert__c": false,
        "%vlocity_namespace%__MapId__c": "CAIS_DO_TransformQuoteCreation3554174642293284",
        "%vlocity_namespace%__UpsertKey__c": false,
        "Name": "CAIS_DO_TransformQuoteCreation",
        "VlocityDataPackType": "SObject",
        "VlocityRecordSObjectType": "%vlocity_namespace%__DRMapItem__c"
    },
    {
        "%vlocity_namespace%__DomainObjectAPIName__c": "json",
        "%vlocity_namespace%__DomainObjectCreationOrder__c": 1,
        "%vlocity_namespace%__DomainObjectFieldAPIName__c": "quoteJSON:additionalFields:QuoteToStreet",
        "%vlocity_namespace%__InterfaceFieldAPIName__c": "InsuredDetails:CommunityAssociation:LocationAddress-Block:LocationStreet",
        "%vlocity_namespace%__IsDisabled__c": false,
        "%vlocity_namespace%__IsRequiredForUpsert__c": false,
        "%vlocity_namespace%__MapId__c": "CAIS_DO_TransformQuoteCreation4505604772666103",
        "%vlocity_namespace%__UpsertKey__c": false,
        "Name": "CAIS_DO_TransformQuoteCreation",
        "VlocityDataPackType": "SObject",
        "VlocityRecordSObjectType": "%vlocity_namespace%__DRMapItem__c"
    },
    {
        "%vlocity_namespace%__DefaultValue__c": "Directors & Officers",
        "%vlocity_namespace%__DomainObjectAPIName__c": "json",
        "%vlocity_namespace%__DomainObjectCreationOrder__c": 1,
        "%vlocity_namespace%__DomainObjectFieldAPIName__c": "quoteJSON:additionalFields:Quote_Type__c",
        "%vlocity_namespace%__IsDisabled__c": false,
        "%vlocity_namespace%__IsRequiredForUpsert__c": false,
        "%vlocity_namespace%__MapId__c": "CAIS_DO_TransformQuoteCreation5516212895730608",
        "%vlocity_namespace%__UpsertKey__c": false,
        "Name": "CAIS_DO_TransformQuoteCreation",
        "VlocityDataPackType": "SObject",
        "VlocityRecordSObjectType": "%vlocity_namespace%__DRMapItem__c"
    },
    {
        "%vlocity_namespace%__DomainObjectAPIName__c": "json",
        "%vlocity_namespace%__DomainObjectCreationOrder__c": 1,
        "%vlocity_namespace%__DomainObjectFieldAPIName__c": "quoteJSON:additionalFields:Reason_Code__c",
        "%vlocity_namespace%__InterfaceFieldAPIName__c": "ReasonCode",
        "%vlocity_namespace%__IsDisabled__c": false,
        "%vlocity_namespace%__IsRequiredForUpsert__c": false,
        "%vlocity_namespace%__MapId__c": "CAIS_DO_TransformQuoteCreation7127906448054613",
        "%vlocity_namespace%__UpsertKey__c": false,
        "Name": "CAIS_DO_TransformQuoteCreation",
        "VlocityDataPackType": "SObject",
        "VlocityRecordSObjectType": "%vlocity_namespace%__DRMapItem__c"
    },
    {
        "%vlocity_namespace%__DomainObjectAPIName__c": "json",
        "%vlocity_namespace%__DomainObjectCreationOrder__c": 1,
        "%vlocity_namespace%__DomainObjectFieldAPIName__c": "quoteJSON:additionalFields:SIC_Code__c",
        "%vlocity_namespace%__DomainObjectFieldType__c": "String",
        "%vlocity_namespace%__InterfaceFieldAPIName__c": "getRatedProduct:records|1:CalculatedPriceData:SICNAICSCodes__SIC",
        "%vlocity_namespace%__IsDisabled__c": false,
        "%vlocity_namespace%__IsRequiredForUpsert__c": false,
        "%vlocity_namespace%__MapId__c": "CAIS_DO_TransformQuoteCreation2890823993273166",
        "%vlocity_namespace%__UpsertKey__c": false,
        "Name": "CAIS_DO_TransformQuoteCreation",
        "VlocityDataPackType": "SObject",
        "VlocityRecordSObjectType": "%vlocity_namespace%__DRMapItem__c"
    },
    {
        "%vlocity_namespace%__DomainObjectAPIName__c": "json",
        "%vlocity_namespace%__DomainObjectCreationOrder__c": 1,
        "%vlocity_namespace%__DomainObjectFieldAPIName__c": "quoteJSON:additionalFields:ShippingCity",
        "%vlocity_namespace%__InterfaceFieldAPIName__c": "InsuredDetails:MailingCityFormula",
        "%vlocity_namespace%__IsDisabled__c": false,
        "%vlocity_namespace%__IsRequiredForUpsert__c": false,
        "%vlocity_namespace%__MapId__c": "CAIS_DO_TransformQuoteCreation3061055936837902",
        "%vlocity_namespace%__UpsertKey__c": false,
        "Name": "CAIS_DO_TransformQuoteCreation",
        "VlocityDataPackType": "SObject",
        "VlocityRecordSObjectType": "%vlocity_namespace%__DRMapItem__c"
    },
    {
        "%vlocity_namespace%__DefaultValue__c": "United States",
        "%vlocity_namespace%__DomainObjectAPIName__c": "json",
        "%vlocity_namespace%__DomainObjectCreationOrder__c": 1,
        "%vlocity_namespace%__DomainObjectFieldAPIName__c": "quoteJSON:additionalFields:ShippingCountry",
        "%vlocity_namespace%__IsDisabled__c": false,
        "%vlocity_namespace%__IsRequiredForUpsert__c": false,
        "%vlocity_namespace%__MapId__c": "CAIS_DO_TransformQuoteCreation7713706018130437",
        "%vlocity_namespace%__UpsertKey__c": false,
        "Name": "CAIS_DO_TransformQuoteCreation",
        "VlocityDataPackType": "SObject",
        "VlocityRecordSObjectType": "%vlocity_namespace%__DRMapItem__c"
    },
    {
        "%vlocity_namespace%__DomainObjectAPIName__c": "json",
        "%vlocity_namespace%__DomainObjectCreationOrder__c": 1,
        "%vlocity_namespace%__DomainObjectFieldAPIName__c": "quoteJSON:additionalFields:ShippingName",
        "%vlocity_namespace%__InterfaceFieldAPIName__c": "InsuredDetails:CommunityAssociation:MailingCareOf",
        "%vlocity_namespace%__IsDisabled__c": false,
        "%vlocity_namespace%__IsRequiredForUpsert__c": false,
        "%vlocity_namespace%__MapId__c": "CAIS_DO_TransformQuoteCreation48251949454190335",
        "%vlocity_namespace%__UpsertKey__c": false,
        "Name": "CAIS_DO_TransformQuoteCreation",
        "VlocityDataPackType": "SObject",
        "VlocityRecordSObjectType": "%vlocity_namespace%__DRMapItem__c"
    },
    {
        "%vlocity_namespace%__DomainObjectAPIName__c": "json",
        "%vlocity_namespace%__DomainObjectCreationOrder__c": 1,
        "%vlocity_namespace%__DomainObjectFieldAPIName__c": "quoteJSON:additionalFields:ShippingPostalCode",
        "%vlocity_namespace%__InterfaceFieldAPIName__c": "InsuredDetails:MailingPostalCodeFormula",
        "%vlocity_namespace%__IsDisabled__c": false,
        "%vlocity_namespace%__IsRequiredForUpsert__c": false,
        "%vlocity_namespace%__MapId__c": "CAIS_DO_TransformQuoteCreation39656628769812063",
        "%vlocity_namespace%__UpsertKey__c": false,
        "Name": "CAIS_DO_TransformQuoteCreation",
        "VlocityDataPackType": "SObject",
        "VlocityRecordSObjectType": "%vlocity_namespace%__DRMapItem__c"
    },
    {
        "%vlocity_namespace%__DomainObjectAPIName__c": "json",
        "%vlocity_namespace%__DomainObjectCreationOrder__c": 1,
        "%vlocity_namespace%__DomainObjectFieldAPIName__c": "quoteJSON:additionalFields:ShippingState",
        "%vlocity_namespace%__InterfaceFieldAPIName__c": "InsuredDetails:MailingStateFormula",
        "%vlocity_namespace%__IsDisabled__c": false,
        "%vlocity_namespace%__IsRequiredForUpsert__c": false,
        "%vlocity_namespace%__MapId__c": "CAIS_DO_TransformQuoteCreation6761131914325138",
        "%vlocity_namespace%__UpsertKey__c": false,
        "Name": "CAIS_DO_TransformQuoteCreation",
        "VlocityDataPackType": "SObject",
        "VlocityRecordSObjectType": "%vlocity_namespace%__DRMapItem__c"
    },
    {
        "%vlocity_namespace%__DomainObjectAPIName__c": "json",
        "%vlocity_namespace%__DomainObjectCreationOrder__c": 1,
        "%vlocity_namespace%__DomainObjectFieldAPIName__c": "quoteJSON:additionalFields:ShippingStreet",
        "%vlocity_namespace%__InterfaceFieldAPIName__c": "mailingStreet",
        "%vlocity_namespace%__IsDisabled__c": false,
        "%vlocity_namespace%__IsRequiredForUpsert__c": false,
        "%vlocity_namespace%__MapId__c": "CAIS_DO_TransformQuoteCreation42429597864669955",
        "%vlocity_namespace%__UpsertKey__c": false,
        "Name": "CAIS_DO_TransformQuoteCreation",
        "VlocityDataPackType": "SObject",
        "VlocityRecordSObjectType": "%vlocity_namespace%__DRMapItem__c"
    },
    {
        "%vlocity_namespace%__DomainObjectAPIName__c": "json",
        "%vlocity_namespace%__DomainObjectCreationOrder__c": 1,
        "%vlocity_namespace%__DomainObjectFieldAPIName__c": "quoteJSON:additionalFields:Status",
        "%vlocity_namespace%__InterfaceFieldAPIName__c": "RuleStatus",
        "%vlocity_namespace%__IsDisabled__c": false,
        "%vlocity_namespace%__IsRequiredForUpsert__c": false,
        "%vlocity_namespace%__MapId__c": "CAIS_DO_TransformQuoteCreation5564558803559321",
        "%vlocity_namespace%__UpsertKey__c": false,
        "Name": "CAIS_DO_TransformQuoteCreation",
        "VlocityDataPackType": "SObject",
        "VlocityRecordSObjectType": "%vlocity_namespace%__DRMapItem__c"
    },
    {
        "%vlocity_namespace%__DomainObjectAPIName__c": "json",
        "%vlocity_namespace%__DomainObjectCreationOrder__c": 1,
        "%vlocity_namespace%__DomainObjectFieldAPIName__c": "quoteJSON:additionalFields:Sub_Status__c",
        "%vlocity_namespace%__InterfaceFieldAPIName__c": "SubStatus",
        "%vlocity_namespace%__IsDisabled__c": false,
        "%vlocity_namespace%__IsRequiredForUpsert__c": false,
        "%vlocity_namespace%__MapId__c": "CAIS_DO_TransformQuoteCreation4877218328508397",
        "%vlocity_namespace%__UpsertKey__c": false,
        "Name": "CAIS_DO_TransformQuoteCreation",
        "VlocityDataPackType": "SObject",
        "VlocityRecordSObjectType": "%vlocity_namespace%__DRMapItem__c"
    },
    {
        "%vlocity_namespace%__DomainObjectAPIName__c": "json",
        "%vlocity_namespace%__DomainObjectCreationOrder__c": 1,
        "%vlocity_namespace%__DomainObjectFieldAPIName__c": "quoteJSON:additionalFields:Tax",
        "%vlocity_namespace%__InterfaceFieldAPIName__c": "getRatedProduct:records|1:CalculatedPriceData:WCIA_PMARates__TaxFees",
        "%vlocity_namespace%__IsDisabled__c": true,
        "%vlocity_namespace%__IsRequiredForUpsert__c": false,
        "%vlocity_namespace%__MapId__c": "CAIS_DO_TransformQuoteCreation3135076900288378",
        "%vlocity_namespace%__UpsertKey__c": false,
        "Name": "CAIS_DO_TransformQuoteCreation",
        "VlocityDataPackType": "SObject",
        "VlocityRecordSObjectType": "%vlocity_namespace%__DRMapItem__c"
    },
    {
        "%vlocity_namespace%__DomainObjectAPIName__c": "json",
        "%vlocity_namespace%__DomainObjectCreationOrder__c": 1,
        "%vlocity_namespace%__DomainObjectFieldAPIName__c": "quoteJSON:effectiveDate",
        "%vlocity_namespace%__InterfaceFieldAPIName__c": "PolicyTerms:PolicyTerm:EffectiveDate",
        "%vlocity_namespace%__IsDisabled__c": false,
        "%vlocity_namespace%__IsRequiredForUpsert__c": false,
        "%vlocity_namespace%__MapId__c": "CAIS_DO_TransformQuoteCreation6333608293801207",
        "%vlocity_namespace%__UpsertKey__c": false,
        "Name": "CAIS_DO_TransformQuoteCreation",
        "VlocityDataPackType": "SObject",
        "VlocityRecordSObjectType": "%vlocity_namespace%__DRMapItem__c"
    },
    {
        "%vlocity_namespace%__DomainObjectAPIName__c": "json",
        "%vlocity_namespace%__DomainObjectCreationOrder__c": 1,
        "%vlocity_namespace%__DomainObjectFieldAPIName__c": "quoteJSON:opportunityId",
        "%vlocity_namespace%__InterfaceFieldAPIName__c": "opportunityId",
        "%vlocity_namespace%__IsDisabled__c": false,
        "%vlocity_namespace%__IsRequiredForUpsert__c": false,
        "%vlocity_namespace%__MapId__c": "CAIS_DO_TransformQuoteCreation9398810099196053",
        "%vlocity_namespace%__UpsertKey__c": false,
        "Name": "CAIS_DO_TransformQuoteCreation",
        "VlocityDataPackType": "SObject",
        "VlocityRecordSObjectType": "%vlocity_namespace%__DRMapItem__c"
    },
    {
        "%vlocity_namespace%__DomainObjectAPIName__c": "json",
        "%vlocity_namespace%__DomainObjectCreationOrder__c": 1,
        "%vlocity_namespace%__DomainObjectFieldAPIName__c": "quoteJSON:productConfigurationDetail:records",
        "%vlocity_namespace%__InterfaceFieldAPIName__c": "QuotingProductsDO:records",
        "%vlocity_namespace%__IsDisabled__c": false,
        "%vlocity_namespace%__IsRequiredForUpsert__c": false,
        "%vlocity_namespace%__MapId__c": "CAIS_DO_TransformQuoteCreation6284703331257853",
        "%vlocity_namespace%__UpsertKey__c": false,
        "Name": "CAIS_DO_TransformQuoteCreation",
        "VlocityDataPackType": "SObject",
        "VlocityRecordSObjectType": "%vlocity_namespace%__DRMapItem__c"
    }
]