{
    "%vlocity_namespace%__Author__c": "Mgalive_CAISLLC",
    "%vlocity_namespace%__CardType__c": "flex",
    "%vlocity_namespace%__Datasource__c": {
        "contextVariables": [
            {
                "id": 2,
                "name": "recordId",
                "val": "0YT3K000000Mff1WAC"
            }
        ],
        "orderBy": {
            "isReverse": false,
            "name": ""
        },
        "type": "DataRaptor",
        "value": {
            "bundle": "CaisReadInsuredStatementForPolicy",
            "inputMap": {
                "Id": "{recordId}"
            },
            "resultVar": ""
        }
    },
    "%vlocity_namespace%__Definition__c": "caisPolicyBillingTable.json",
    "%vlocity_namespace%__Description__c": "",
    "%vlocity_namespace%__GlobalKey__c": "caisPolicyBillingTable/Mgalive_CAISLLC/1/1607696058254",
    "%vlocity_namespace%__IsChildCard__c": false,
    "%vlocity_namespace%__ParentID__c": "InsuredBillingTable/Mgalive_CAISLLC/2/1606515708506",
    "%vlocity_namespace%__SampleData__c": "[{\"AccountBalance\":\"$500.00\",\"Type\":\"Annuity\",\"AmountDue\":\"$120.00\",\"PolicyName\":\"PO-X4567A-G-1605816353000\"}]",
    "%vlocity_namespace%__Styles__c": "{\"customStyles\":\".cais-table-container .tableRow:nth-child(2n) {\\r\\n    background: #F8FBFE !important;\\r\\n}\\r\\n.cais-table-container .tableRow {\\r\\n    border: 1px solid #D8DDE6 !important;\\r\\n}\\r\\n.cais-table-container .tableHeadCell{\\r\\n    padding: .25rem .5rem;\\r\\n    white-space: nowrap;\\r\\n    position: relative;\\r\\n}\\r\\n.cais-table-container .tableHeadCell {\\r\\n    padding: 0.5rem 0.15rem !important;\\r\\n    background: white !important;\\r\\n    color: #0C2D62 !important;\\r\\n    font-size: 12px !important;\\r\\n    text-transform: uppercase;\\r\\n}\\r\\n.cais-table-container .tableHeadCell  a{\\r\\n    color: #0C2D62 !important;\\r\\n}\\r\\n.cais-table-container .nds-data-table-row, .cais-table-container .nds-data-table{\\r\\n    border: 1px solid #dddbda;\\r\\n}\\r\\n.cais-table-container .nds-data-table-body .dataTableCell>div{\\r\\n        padding: 0.5rem 0;\\r\\n}\\r\\n.cais-table-container .nds-search-input input{\\r\\n    width:30%;\\r\\n}\\r\\n.cais-table-container .nds-search-input input::placeholder {\\r\\n    color: #706E6B !important;\\r\\n    visibility: visible !important;\\r\\n    padding-left: 0.5rem;\\r\\n    font-size: 14px;\\r\\n}\\r\\n.cardHeader{\\r\\n    font-size: x-large;\\r\\n}\\r\\n.cardHeader lightning-formatted-rich-text span div::after{\\r\\n    content: \\\"\\\";\\r\\n    background: rgb(159, 166, 23);\\r\\n    position: absolute;\\r\\n    top: 4.5rem;\\r\\n    left: 1.5rem;\\r\\n    width: 3.125rem;\\r\\n    height: .1875rem;\\r\\n}\\r\\n.nds-card{\\r\\n    border: .0625rem solid rgba(0,0,0,.05)!important;\\r\\n    border-radius: 0!important;\\r\\n}\"}",
    "%vlocity_namespace%__Type__c": "",
    "%vlocity_namespace%__Version__c": 1,
    "Name": "caisPolicyBillingTable",
    "VlocityDataPackType": "SObject",
    "VlocityRecordSObjectType": "%vlocity_namespace%__VlocityCard__c",
    "VlocityRecordSourceKey": "%vlocity_namespace%__VlocityCard__c/caisPolicyBillingTable",
    "sourceOrgUrl": "/a7n3K0000004aTbQAI"
}