{
    "%vlocity_namespace%__ApprovedBy__c": "",
    "%vlocity_namespace%__ApprovedOn__c": "",
    "%vlocity_namespace%__AttributeAssignment__c": "A-Employee-Theft_AttributeAssignments.json",
    "%vlocity_namespace%__AttributeDefaultValues__c": {
        "coverageCode": "ETAG",
        "coverageLimit": 10000,
        "deductible": 500
    },
    "%vlocity_namespace%__AttributeMetadata__c": {
        "records": [
            {
                "Code__c": "coverageAttrib",
                "Name": "Coverage Attributes",
                "displaySequence": 10,
                "productAttributes": {
                    "records": [
                        {
                            "cloneable": true,
                            "code": "coverageLimit",
                            "dataType": "currency",
                            "disabled": false,
                            "displaySequence": 0,
                            "filterable": true,
                            "hasRules": true,
                            "hidden": false,
                            "inputType": "dropdown",
                            "isNotTranslatable": false,
                            "label": "Coverage Limit",
                            "multiselect": false,
                            "readonly": false,
                            "required": false,
                            "userValues": null,
                            "values": [
                                {
                                    "disabled": false,
                                    "id": "0",
                                    "label": "$10,000",
                                    "readonly": false,
                                    "value": 10000
                                },
                                {
                                    "disabled": false,
                                    "id": "1",
                                    "label": "$25,000",
                                    "readonly": false,
                                    "value": 25000
                                },
                                {
                                    "disabled": false,
                                    "id": "2",
                                    "label": "$50,000",
                                    "readonly": false,
                                    "value": 50000
                                },
                                {
                                    "disabled": false,
                                    "id": "3",
                                    "label": "$75,000",
                                    "readonly": false,
                                    "value": 75000
                                },
                                {
                                    "disabled": false,
                                    "id": "4",
                                    "label": "$100,000",
                                    "readonly": false,
                                    "value": 100000
                                },
                                {
                                    "disabled": false,
                                    "id": "5",
                                    "label": "$125,000",
                                    "readonly": false,
                                    "value": 125000
                                },
                                {
                                    "disabled": false,
                                    "id": "6",
                                    "label": "$150,000",
                                    "readonly": false,
                                    "value": 150000
                                },
                                {
                                    "disabled": false,
                                    "id": "7",
                                    "label": "$175,000",
                                    "readonly": false,
                                    "value": 175000
                                },
                                {
                                    "disabled": false,
                                    "id": "8",
                                    "label": "$200,000",
                                    "readonly": false,
                                    "value": 200000
                                },
                                {
                                    "disabled": false,
                                    "id": "9",
                                    "label": "$225,000",
                                    "readonly": false,
                                    "value": 225000
                                },
                                {
                                    "disabled": false,
                                    "id": "10",
                                    "label": "$250,000",
                                    "readonly": false,
                                    "value": 250000
                                },
                                {
                                    "disabled": false,
                                    "id": "11",
                                    "label": "$275,000",
                                    "readonly": false,
                                    "value": 275000
                                },
                                {
                                    "disabled": false,
                                    "id": "12",
                                    "label": "$300,000",
                                    "readonly": false,
                                    "value": 300000
                                },
                                {
                                    "disabled": false,
                                    "id": "13",
                                    "label": "$325,000",
                                    "readonly": false,
                                    "value": 325000
                                },
                                {
                                    "disabled": false,
                                    "id": "14",
                                    "label": "$350,000",
                                    "readonly": false,
                                    "value": 350000
                                },
                                {
                                    "disabled": false,
                                    "id": "15",
                                    "label": "$375,000",
                                    "readonly": false,
                                    "value": 375000
                                },
                                {
                                    "disabled": false,
                                    "id": "16",
                                    "label": "$400,000",
                                    "readonly": false,
                                    "value": 400000
                                },
                                {
                                    "disabled": false,
                                    "id": "17",
                                    "label": "$500,000",
                                    "readonly": false,
                                    "value": 500000
                                },
                                {
                                    "disabled": false,
                                    "id": "18",
                                    "label": "$525,000",
                                    "readonly": false,
                                    "value": 525000
                                },
                                {
                                    "disabled": false,
                                    "id": "19",
                                    "label": "$550,000",
                                    "readonly": false,
                                    "value": 550000
                                },
                                {
                                    "disabled": false,
                                    "id": "20",
                                    "label": "$575,000",
                                    "readonly": false,
                                    "value": 575000
                                },
                                {
                                    "disabled": false,
                                    "id": "21",
                                    "label": "$600,000",
                                    "readonly": false,
                                    "value": 600000
                                },
                                {
                                    "disabled": false,
                                    "id": "22",
                                    "label": "$625,000",
                                    "readonly": false,
                                    "value": 625000
                                },
                                {
                                    "disabled": false,
                                    "id": "23",
                                    "label": "$650,000",
                                    "readonly": false,
                                    "value": 650000
                                },
                                {
                                    "disabled": false,
                                    "id": "24",
                                    "label": "$675,000",
                                    "readonly": false,
                                    "value": 675000
                                },
                                {
                                    "disabled": false,
                                    "id": "25",
                                    "label": "$700,000",
                                    "readonly": false,
                                    "value": 700000
                                },
                                {
                                    "disabled": false,
                                    "id": "26",
                                    "label": "$725,000",
                                    "readonly": false,
                                    "value": 725000
                                },
                                {
                                    "disabled": false,
                                    "id": "27",
                                    "label": "$750,000",
                                    "readonly": false,
                                    "value": 750000
                                },
                                {
                                    "disabled": false,
                                    "id": "28",
                                    "label": "$775,000",
                                    "readonly": false,
                                    "value": 775000
                                },
                                {
                                    "disabled": false,
                                    "id": "29",
                                    "label": "$800,000",
                                    "readonly": false,
                                    "value": 800000
                                },
                                {
                                    "disabled": false,
                                    "id": "30",
                                    "label": "$825,000",
                                    "readonly": false,
                                    "value": 825000
                                },
                                {
                                    "disabled": false,
                                    "id": "31",
                                    "label": "$850,000",
                                    "readonly": false,
                                    "value": 850000
                                },
                                {
                                    "disabled": false,
                                    "id": "32",
                                    "label": "$875,000",
                                    "readonly": false,
                                    "value": 875000
                                },
                                {
                                    "disabled": false,
                                    "id": "33",
                                    "label": "$900,000",
                                    "readonly": false,
                                    "value": 900000
                                },
                                {
                                    "disabled": false,
                                    "id": "34",
                                    "label": "$925,000",
                                    "readonly": false,
                                    "value": 925000
                                },
                                {
                                    "disabled": false,
                                    "id": "35",
                                    "label": "$950,000",
                                    "readonly": false,
                                    "value": 950000
                                },
                                {
                                    "disabled": false,
                                    "id": "36",
                                    "label": "$1,000,000",
                                    "readonly": false,
                                    "value": 1000000
                                }
                            ]
                        },
                        {
                            "cloneable": true,
                            "code": "deductible",
                            "dataType": "currency",
                            "disabled": false,
                            "displaySequence": 1,
                            "filterable": true,
                            "hasRules": true,
                            "hidden": false,
                            "inputType": "dropdown",
                            "isNotTranslatable": false,
                            "label": "Deductible",
                            "multiselect": false,
                            "readonly": false,
                            "required": false,
                            "userValues": null,
                            "values": [
                                {
                                    "disabled": false,
                                    "id": "0",
                                    "label": "$500",
                                    "readonly": false,
                                    "value": 500
                                },
                                {
                                    "disabled": false,
                                    "id": "1",
                                    "label": "$1,000",
                                    "readonly": false,
                                    "value": 1000
                                },
                                {
                                    "disabled": false,
                                    "id": "2",
                                    "label": "$2,500",
                                    "readonly": false,
                                    "value": 2500
                                },
                                {
                                    "disabled": false,
                                    "id": "3",
                                    "label": "$5,000",
                                    "readonly": false,
                                    "value": 5000
                                },
                                {
                                    "disabled": false,
                                    "id": "4",
                                    "label": "$10,000",
                                    "readonly": false,
                                    "value": 10000
                                },
                                {
                                    "disabled": false,
                                    "id": "5",
                                    "label": "$25,000",
                                    "readonly": false,
                                    "value": 25000
                                },
                                {
                                    "disabled": false,
                                    "id": "6",
                                    "label": "$50,000",
                                    "readonly": false,
                                    "value": 50000
                                },
                                {
                                    "disabled": false,
                                    "id": "7",
                                    "label": "$75,000",
                                    "readonly": false,
                                    "value": 75000
                                },
                                {
                                    "disabled": false,
                                    "id": "37",
                                    "label": "$100,000",
                                    "readonly": false,
                                    "value": 100000
                                }
                            ]
                        },
                        {
                            "cloneable": true,
                            "code": "coverageCode",
                            "dataType": "text",
                            "disabled": false,
                            "displaySequence": 2,
                            "filterable": true,
                            "hasRules": true,
                            "hidden": true,
                            "inputType": "text",
                            "isNotTranslatable": false,
                            "label": "Coverage Code",
                            "multiselect": false,
                            "readonly": false,
                            "required": false,
                            "userValues": null,
                            "values": [
                                {
                                    "disabled": false,
                                    "readonly": false
                                }
                            ]
                        }
                    ],
                    "totalSize": 3
                }
            }
        ],
        "totalSize": 1
    },
    "%vlocity_namespace%__AttributeRules__c": "{\n  \"deductible\" : {\n    \"valueRules\" : {\n      \"4\" : [ {\n        \"ruleType\" : \"Hide\",\n        \"expression\" : \"%ETAGCrime.coverageLimit% <= 10000\",\n        \"actions\" : {\n          \"Hide\" : {\n            \"rest\" : {\n              \"params\" : { },\n              \"method\" : null,\n              \"link\" : null\n            },\n            \"remote\" : {\n              \"params\" : { }\n            },\n            \"client\" : {\n              \"params\" : { }\n            }\n          }\n        }\n      } ],\n      \"5\" : [ {\n        \"ruleType\" : \"Hide\",\n        \"expression\" : \"%ETAGCrime.coverageLimit% <= 25000\",\n        \"actions\" : {\n          \"Hide\" : {\n            \"rest\" : {\n              \"params\" : { },\n              \"method\" : null,\n              \"link\" : null\n            },\n            \"remote\" : {\n              \"params\" : { }\n            },\n            \"client\" : {\n              \"params\" : { }\n            }\n          }\n        }\n      } ],\n      \"6\" : [ {\n        \"ruleType\" : \"Hide\",\n        \"expression\" : \"%ETAGCrime.coverageLimit% <= 50000\",\n        \"actions\" : {\n          \"Hide\" : {\n            \"rest\" : {\n              \"params\" : { },\n              \"method\" : null,\n              \"link\" : null\n            },\n            \"remote\" : {\n              \"params\" : { }\n            },\n            \"client\" : {\n              \"params\" : { }\n            }\n          }\n        }\n      } ],\n      \"7\" : [ {\n        \"ruleType\" : \"Hide\",\n        \"expression\" : \"%ETAGCrime.coverageLimit% <= 75000\",\n        \"actions\" : {\n          \"Hide\" : {\n            \"rest\" : {\n              \"params\" : { },\n              \"method\" : null,\n              \"link\" : null\n            },\n            \"remote\" : {\n              \"params\" : { }\n            },\n            \"client\" : {\n              \"params\" : { }\n            }\n          }\n        }\n      } ],\n      \"37\" : [ {\n        \"ruleType\" : \"Hide\",\n        \"expression\" : \"%ETAGCrime.coverageLimit% <= 100000\",\n        \"actions\" : {\n          \"Hide\" : {\n            \"rest\" : {\n              \"params\" : { },\n              \"method\" : null,\n              \"link\" : null\n            },\n            \"remote\" : {\n              \"params\" : { }\n            },\n            \"client\" : {\n              \"params\" : { }\n            }\n          }\n        }\n      } ]\n    }\n  }\n}",
    "%vlocity_namespace%__Availability__c": "",
    "%vlocity_namespace%__CarrierId__c": "",
    "%vlocity_namespace%__ChangeDetectorImplementation__c": "",
    "%vlocity_namespace%__ClassId__c": "",
    "%vlocity_namespace%__CoverageCalculationFormula__c": "",
    "%vlocity_namespace%__DefaultImageId__c": "",
    "%vlocity_namespace%__EffectiveDate__c": "2020-01-01",
    "%vlocity_namespace%__EligibilityCriteriaComments__c": "",
    "%vlocity_namespace%__EligibilityCriteria__c": "",
    "%vlocity_namespace%__EndDate__c": "",
    "%vlocity_namespace%__EndOfLifeDate__c": "",
    "%vlocity_namespace%__EnrollmentStatus__c": "",
    "%vlocity_namespace%__FormularyId__c": "",
    "%vlocity_namespace%__FulfilmentStartDate__c": "2020-01-01T08:00:00.000Z",
    "%vlocity_namespace%__GlobalGroupKey__c": "a0515a7d-5404-4deb-ef93-36b406877479",
    "%vlocity_namespace%__GlobalKey__c": "f130afd3-69f5-5460-9657-fe9b4a71f826",
    "%vlocity_namespace%__HasCustomAttributesProcess__c": false,
    "%vlocity_namespace%__HeaderData__c": "",
    "%vlocity_namespace%__HelpText__c": "",
    "%vlocity_namespace%__InstanceKeyFormula__c": "",
    "%vlocity_namespace%__IsConfigurable__c": true,
    "%vlocity_namespace%__IsLocationDependent__c": false,
    "%vlocity_namespace%__IsNotAssetizable__c": false,
    "%vlocity_namespace%__IsOrderable__c": true,
    "%vlocity_namespace%__IsRecommended__c": false,
    "%vlocity_namespace%__LastPublishDate__c": "",
    "%vlocity_namespace%__LastSimulationInput__c": "",
    "%vlocity_namespace%__LifecycleStatus__c": "",
    "%vlocity_namespace%__LineOfBusiness__c": "",
    "%vlocity_namespace%__MarketSegment__c": "",
    "%vlocity_namespace%__ObjectTypeId__c": "",
    "%vlocity_namespace%__ParentClassId__c": "",
    "%vlocity_namespace%__PricingFormula__c": "",
    "%vlocity_namespace%__PricingSource__c": "",
    "%vlocity_namespace%__ProductSpecId__c": "",
    "%vlocity_namespace%__ProductTemplateId__c": "",
    "%vlocity_namespace%__ProductTemplateProductId__c": "",
    "%vlocity_namespace%__ProviderNetworkId__c": "",
    "%vlocity_namespace%__RateBandId__c": "",
    "%vlocity_namespace%__RatingCalcProcedureName__c": "",
    "%vlocity_namespace%__RatingProcedureType__c": "",
    "%vlocity_namespace%__RecordTypeName__c": "CoverageSpec",
    "%vlocity_namespace%__ReplacementProductId__c": "",
    "%vlocity_namespace%__ReserveProcessingMode__c": "CoverageReserve",
    "%vlocity_namespace%__Scope__c": "Order Item",
    "%vlocity_namespace%__SellingEndDate__c": "",
    "%vlocity_namespace%__SellingStartDate__c": "2020-01-01T08:00:00.000Z",
    "%vlocity_namespace%__SpecificationSubType__c": "",
    "%vlocity_namespace%__SpecificationType__c": "",
    "%vlocity_namespace%__StandardPremium__c": "",
    "%vlocity_namespace%__Status__c": "",
    "%vlocity_namespace%__SubType__c": "",
    "%vlocity_namespace%__Term__c": "Annual",
    "%vlocity_namespace%__Tier__c": "",
    "%vlocity_namespace%__TimeToLive__c": "",
    "%vlocity_namespace%__TotalCoverageCalculationFormula__c": "",
    "%vlocity_namespace%__TotalInsuredFormula__c": "",
    "%vlocity_namespace%__TrackAsAgreement__c": false,
    "%vlocity_namespace%__Type__c": "",
    "%vlocity_namespace%__VersionEndDateTime__c": "",
    "%vlocity_namespace%__VersionLabel__c": "",
    "%vlocity_namespace%__VersionStartDateTime__c": "",
    "CanUseQuantitySchedule": false,
    "CanUseRevenueSchedule": false,
    "Description": "",
    "DisplayUrl": "",
    "ExternalDataSourceId": "",
    "ExternalId": "",
    "Family": "",
    "IsActive": true,
    "IsArchived": false,
    "Name": "A. Employee Theft",
    "NumberOfQuantityInstallments": "",
    "NumberOfRevenueInstallments": "",
    "PricebookEntry": "A-Employee-Theft_PricebookEntries.json",
    "ProductCode": "ETAGCrime",
    "QuantityInstallmentPeriod": "",
    "QuantityScheduleType": "",
    "QuantityUnitOfMeasure": "",
    "RecordTypeId": {
        "DeveloperName": "CoverageSpec",
        "SobjectType": "Product2",
        "VlocityDataPackType": "VlocityLookupMatchingKeyObject",
        "VlocityLookupRecordSourceKey": "RecordType/Product2/CoverageSpec",
        "VlocityRecordSObjectType": "RecordType"
    },
    "RevenueInstallmentPeriod": "",
    "RevenueScheduleType": "",
    "StandardPricebookEntry": [
        {
            "%vlocity_namespace%__FloorPrice__c": "",
            "%vlocity_namespace%__OverageCharge__c": "",
            "%vlocity_namespace%__OverageUOM__c": "",
            "%vlocity_namespace%__RecurringPrice__c": "",
            "%vlocity_namespace%__RecurringUOM__c": "Monthly",
            "IsActive": true,
            "IsArchived": false,
            "Name": "A. Employee Theft",
            "Pricebook2.Name": "Standard Price Book",
            "Pricebook2Id": {
                "Name": "Standard Price Book",
                "VlocityDataPackType": "VlocityLookupMatchingKeyObject",
                "VlocityLookupRecordSourceKey": "Pricebook2/Standard Price Book",
                "VlocityRecordSObjectType": "Pricebook2"
            },
            "Product2.%vlocity_namespace%__GlobalKey__c": "f130afd3-69f5-5460-9657-fe9b4a71f826",
            "Product2Id": {
                "%vlocity_namespace%__GlobalKey__c": "f130afd3-69f5-5460-9657-fe9b4a71f826",
                "VlocityDataPackType": "VlocityMatchingKeyObject",
                "VlocityMatchingRecordSourceKey": "Product2/f130afd3-69f5-5460-9657-fe9b4a71f826",
                "VlocityRecordSObjectType": "Product2"
            },
            "ProductCode": "ETAGCrime",
            "UnitPrice": 1,
            "UseStandardPrice": false,
            "VlocityDataPackType": "SObject",
            "VlocityRecordSObjectType": "PricebookEntry",
            "VlocityRecordSourceKey": "PricebookEntry/Pricebook2/Standard Price Book/Product2/f130afd3-69f5-5460-9657-fe9b4a71f826"
        }
    ],
    "StockKeepingUnit": "",
    "VlocityDataPackType": "SObject",
    "VlocityRecordSObjectType": "Product2",
    "VlocityRecordSourceKey": "Product2/f130afd3-69f5-5460-9657-fe9b4a71f826",
    "sourceOrgUrl": "/01t3K0000013SHyQAM"
}