{
    "%vlocity_namespace%__DestinationFieldName__c": "%vlocity_namespace%__EffectiveDate__c",
    "%vlocity_namespace%__DestinationSObjectType__c": "Asset",
    "%vlocity_namespace%__SourceFieldName__c": "%vlocity_namespace%__EffectiveDate__c",
    "%vlocity_namespace%__SourceFieldSObjectType__c": "",
    "%vlocity_namespace%__SourceFieldType__c": "date",
    "%vlocity_namespace%__SourceSObjectType__c": "Quote",
    "Name": "Quote_EffDate_Asset_EffDate",
    "VlocityDataPackType": "SObject",
    "VlocityRecordSObjectType": "%vlocity_namespace%__CustomFieldMap__c",
    "VlocityRecordSourceKey": "%vlocity_namespace%__CustomFieldMap__c/Generated1637444722",
    "sourceOrgUrl": "/a374W00000D3VafQAF"
}