{
    "%vlocity_namespace%__DisableMetadataCache__c": false,
    "%vlocity_namespace%__ElementTypeToHTMLTemplateList__c": "{\"ElementTypeToHTMLTemplateList\":[]}",
    "%vlocity_namespace%__Element__c": [
        "WCIfAny_RefusalofCoverageletter_English_Element_SetDocumentName.json",
        "WCIfAny_RefusalofCoverageletter_English_Element_GetTemplateDetails.json",
        "WCIfAny_RefusalofCoverageletter_English_Element_Set-Generation-Options.json",
        "WCIfAny_RefusalofCoverageletter_English_Element_Generate-Document.json",
        "WCIfAny_RefusalofCoverageletter_English_Element_GenerateDocumentWord.json",
        "WCIfAny_RefusalofCoverageletter_English_Element_NavigateAction1.json"
    ],
    "%vlocity_namespace%__IsLwcEnabled__c": true,
    "%vlocity_namespace%__IsProcedure__c": false,
    "%vlocity_namespace%__IsReusable__c": false,
    "%vlocity_namespace%__IsTest__c": false,
    "%vlocity_namespace%__Language__c": "English",
    "%vlocity_namespace%__LastPreviewPage__c": "Lightning",
    "%vlocity_namespace%__PropertySet__c": "WCIfAny_RefusalofCoverageletter_English_PropertySet.json",
    "%vlocity_namespace%__SubType__c": "RefusalofCoverageletter",
    "%vlocity_namespace%__Type__c": "WCIfAny",
    "Name": "CAIS_WCIA Refusal of Coverage letter",
    "VlocityDataPackType": "SObject",
    "VlocityRecordSObjectType": "%vlocity_namespace%__OmniScript__c",
    "VlocityRecordSourceKey": "%vlocity_namespace%__OmniScript__c/WCIfAny/RefusalofCoverageletter/English",
    "sourceOrgUrl": "/apex/vlocity_ins__omniscriptdesigner?id=a5C3K0000009KiBUAU"
}