{
    "AccountId": "0016s000003nZRSAA2",
    "AcordForm130": null,
    "Confirmation": null,
    "ContactId": "0036s00000363whAAA",
    "FEINStep": {
        "EnteredFEIN": "234451678",
        "HaveFEIN": "Yes",
        "Insured-Block": null,
        "formattedFEIN": "23-4451678"
    },
    "Monopolistic": null,
    "Name": "Atlantis Home Association",
    "ReferralMessagingStep": null,
    "SupplementalCommercialStep": null,
    "SupplementalResidentialStep": null,
    "UWQueueId": "00G6s000000Nn2qEAC",
    "WCIfAny": null,
    "WCPayroll": null,
    "WorkerCompensation": {
        "AdditionalAssociationInformation": {
            "ExclusiveVendorCheck": null
        },
        "CommunityAssociation": {
            "BillingAddress-Block": null,
            "BillingAddressCheck": null,
            "BillingCareOf": "John Craig/Treasurer",
            "BillingSuite": null,
            "Co_opCheck": null,
            "ContactEmail": "himadeep.guduru@certadux.com",
            "ContactFirstName": "James",
            "ContactLastName": "Smith",
            "ContactPhone": "1112223334",
            "ContactTitle": "Manager",
            "ContractCheck": "Yes",
            "DescriptionOfOperation": "Single Family Home Association/HOA (Detached PUD)",
            "FinalFEIN": "EIN 23-4451678",
            "FinalInsured": "Atlantis Home Association",
            "FormulaInsuredName": null,
            "LocationAddress-Block": {
                "LocationAddress": "306 Wellington St Suite #900 Marlborough MA 01752",
                "LocationCity": "Marlborough",
                "LocationState": "MA",
                "LocationStreet": "306 Wellington St",
                "LocationZip": "01752"
            },
            "LocationAsBilling": null,
            "LocationAsMailingAddress": null,
            "LocationSuite": "Suite #900",
            "MailingAddress-Block": null,
            "MailingAddressCheck": null,
            "MailingCareOf": "Bill John/Mailing Co-ordinator",
            "MailingSuite": null,
            "NewInsuredName": null,
            "NonProfitCheck": "Yes",
            "NumberofUnits": "230",
            "OrganizationType": "Association",
            "OtherDescription": null,
            "PMCAccount-Block": {
                "PMCAccount": "asdf corp"
            },
            "PMCBillingAddress-Block": null,
            "PMCMailingAddress-Block": null,
            "UpdateInsuredName": false,
            "UpdatePMCBillingAddress-Block": {
                "BillingPostalCode": "67337",
                "UpdatePMCBillingAddress": "306 North Cline Road, Coffeyville, KS, USA"
            },
            "UpdatePMCBillingAddressCheck": null,
            "UpdatePMCMailingAddress-Block": {
                "UpdatePMCMailingAddress": "306 North Cline Road"
            },
            "UpdatePMCMailingAddressCheck": null,
            "VacancyRate": "5"
        },
        "UIAN": "",
        "newPMCAccount": true
    },
    "currentUserAccountId": "0016s000003mLwrAAE",
    "currentUserContactId": "0036s0000034u4LAAQ",
    "groupId": "00G6s000000NUUCEA4",
    "prodCode": "WCPay",
    "timeStamp": "2020-10-09T15:42:18.374Z",
    "userCurrencyCode": "USD",
    "userId": "0056s000000JKZU",
    "userName": "ramya.vadlamannati@certadux.com.v3dev",
    "userProfile": "System Administrator",
    "userTimeZone": "-420"
}