{
    "%vlocity_namespace%__Author__c": "Mgalive_CAISLLC",
    "%vlocity_namespace%__CardType__c": "flex",
    "%vlocity_namespace%__Datasource__c": {
        "contextVariables": [
            {
                "id": 2,
                "name": "recordId",
                "val": "0016s000003nZRSAA2"
            }
        ],
        "orderBy": {
            "isReverse": false,
            "name": ""
        },
        "type": "DataRaptor",
        "value": {
            "bundle": "ReadInsuredClaimsFlexcard",
            "inputMap": {
                "Id": "{recordId}"
            },
            "resultVar": ""
        }
    },
    "%vlocity_namespace%__Definition__c": "InsuredBillingTable.json",
    "%vlocity_namespace%__Description__c": "",
    "%vlocity_namespace%__GlobalKey__c": "InsuredBillingTable/Mgalive_CAISLLC/1/1604671059046",
    "%vlocity_namespace%__IsChildCard__c": false,
    "%vlocity_namespace%__ParentID__c": "InsuredBillingClaimsTable/Mgalive_CAISLLC/2/1604670931782",
    "%vlocity_namespace%__SampleData__c": "[{\"PolicyNumber\":\"PL-0369\",\"ClaimType\":\"Property\",\"Name\":\"CL-0369\",\"DateOfLoss\":\"08/02/2020\"}]",
    "%vlocity_namespace%__Styles__c": "",
    "%vlocity_namespace%__Type__c": "",
    "%vlocity_namespace%__Version__c": 1,
    "Name": "InsuredBillingTable",
    "VlocityDataPackType": "SObject",
    "VlocityRecordSObjectType": "%vlocity_namespace%__VlocityCard__c",
    "VlocityRecordSourceKey": "%vlocity_namespace%__VlocityCard__c/InsuredBillingTable",
    "sourceOrgUrl": "/a7n3K0000004UCcQAM"
}