{
    "AgencyDetails": {
        "EntityName": null,
        "InsuranceCarrierOptions": "Other",
        "OtherOptionExplanation": "asdfd",
        "question1ErrorMessage": null,
        "question1_f": 0,
        "question3Explanation": null,
        "question5": "Yes"
    },
    "AgencyInformation": {
        "AgencyIRSType": "S Corporation",
        "AgencyIRSTypeSubList": null,
        "AgencyLegalName": "testing",
        "AgencyLocationAddress-Block": {
            "AgencyLocationAddress": "No. 123, Section 3rd, Ziyou Road, East District, Tainan City, Taiwan",
            "LocationCountry": "Taiwan",
            "LocationPostalCode": "701",
            "LocationState": "Tainan City",
            "LocationStreet": "123 Section 3, Ziyou Road"
        },
        "AgencyMailingAddress-Block": null,
        "EINNumber": null,
        "Phone": "9394995959",
        "SSNNumber": "999999999",
        "SameAgencyMailingAddress": null,
        "TypeofFederalTax": "SSN",
        "Website": "www.google.com"
    },
    "Certifications": {
    },
    "ContactInfoAdmin": {
    },
    "ContextId": "00Q6s000001TTYWEA4",
    "Marketing": {
    },
    "Review": {
        "RO_AccountAdministrator": {
            "RO_NewUserEmail": null,
            "RO_NewUserFAX": null,
            "RO_NewUserFirstName": null,
            "RO_NewUserLastName": null,
            "RO_NewUserMobilePhone": null,
            "RO_NewUserOfficePhone": null,
            "RO_UserEmail": null,
            "RO_UserFAX": null,
            "RO_UserFirstName": null,
            "RO_UserLastName": null,
            "RO_UserMobilePhone": null,
            "RO_UserOfficePhone": null
        },
        "RO_AgencyDBA": null,
        "RO_AgencyIRSType": "S Corporation",
        "RO_AgencyIRSTypeSubList": null,
        "RO_AgencyLegalName": "testing",
        "RO_AgencyLocationAddress": {
            "RO_LocationCity": null,
            "RO_LocationCountry": "Taiwan",
            "RO_LocationPostalCode": "701",
            "RO_LocationState": "Tainan City",
            "RO_LocationStreet": "123 Section 3, Ziyou Road"
        },
        "RO_AgencyLocationAddressLine2": null,
        "RO_AuthorizedSigner": {
            "RO_NewSignerEmail": null,
            "RO_NewSignerFAX": null,
            "RO_NewSignerFirstName": null,
            "RO_NewSignerLastName": null,
            "RO_NewSignerMobilePhone": null,
            "RO_NewSignerOfficePhone": null,
            "RO_UserSignerEmail": null,
            "RO_UserSignerFAX": null,
            "RO_UserSignerFirstName": null,
            "RO_UserSignerLastName": null,
            "RO_UserSignerMobilePhone": null,
            "RO_UserSignerOfficePhone": null
        },
        "RO_CommunityAssociationCount": null,
        "RO_CrimeBondExpirationDate": null,
        "RO_FAX": null,
        "RO_InsuranceCarrierOptions": null,
        "RO_MailingAddress": null,
        "RO_MailingAddress1": {
            "RO_MailingCity": null,
            "RO_MailingCountry": null,
            "RO_MailingPostalCode": null,
            "RO_MailingState": null,
            "RO_MailingStreet": null
        },
        "RO_MailingAddressLine2": null,
        "RO_MarketingQuestion1": null,
        "RO_NPNNumber": null,
        "RO_OtherOptionExplanation": null,
        "RO_Phone": "9394995959",
        "RO_StaffCount": null,
        "RO_Website": "www.google.com",
        "RO_question1": null
    },
    "convertedAccountId": "",
    "id": "a3x6s000000088YAAQ",
    "isdtp": "p1",
    "layout": "lightning",
    "lead": {
        "Company": "testing",
        "Email": "avinash.kudupudi@certadux.com",
        "FirstName": "Test 3",
        "Id": "00Q6s000001TTYWEA4",
        "LastName": "Latest",
        "Name": "Test 3 Latest"
    },
    "lwc": "omniscriptPreview",
    "ns": "%vlocity_namespace%",
    "prefill": {
        "ContextId": "00Q6s000001TTYWEA4"
    },
    "sfdcIFrameHost": "web",
    "sfdcIFrameOrigin": "https://caislive--v3dev--vlocity-ins.visualforce.com",
    "timeStamp": "2020-09-01T17:18:34.240Z",
    "userCurrencyCode": "USD",
    "userId": "0056s000000J6KBAA0",
    "userName": "ramya.vadlamannati@certadux.com.v3dev",
    "userProfile": "System Administrator",
    "userTimeZone": "-420"
}