{
    "%vlocity_namespace%__CustomJavaScript__c": "Onboarding_CaseCreate_SampleInput.json",
    "%vlocity_namespace%__DisableMetadataCache__c": false,
    "%vlocity_namespace%__ElementTypeToHTMLTemplateList__c": "{\"ElementTypeToHTMLTemplateList\":[]}",
    "%vlocity_namespace%__Element__c": [
        "Onboarding_CaseCreate_Element_GetGroupId.json",
        "Onboarding_CaseCreate_Element_CaptiveAgencyCase.json",
        "Onboarding_CaseCreate_Element_CaseData.json",
        "Onboarding_CaseCreate_Element_CreateCase.json",
        "Onboarding_CaseCreate_Element_WholeSalerCase.json",
        "Onboarding_CaseCreate_Element_WholeSaleCaseData.json",
        "Onboarding_CaseCreate_Element_CreateCase1.json",
        "Onboarding_CaseCreate_Element_CommonCase.json",
        "Onboarding_CaseCreate_Element_CommonCaseData.json",
        "Onboarding_CaseCreate_Element_CreateCase2.json"
    ],
    "%vlocity_namespace%__IsLwcEnabled__c": false,
    "%vlocity_namespace%__IsProcedure__c": true,
    "%vlocity_namespace%__IsReusable__c": false,
    "%vlocity_namespace%__IsTest__c": false,
    "%vlocity_namespace%__Language__c": "Procedure",
    "%vlocity_namespace%__ProcedureKey__c": "Onboarding_CaseCreate",
    "%vlocity_namespace%__PropertySet__c": "Onboarding_CaseCreate_PropertySet.json",
    "%vlocity_namespace%__SubType__c": "CaseCreate",
    "%vlocity_namespace%__Type__c": "Onboarding",
    "Name": "Onboarding/CaseCreate",
    "VlocityDataPackType": "SObject",
    "VlocityRecordSObjectType": "%vlocity_namespace%__OmniScript__c",
    "VlocityRecordSourceKey": "%vlocity_namespace%__OmniScript__c/Onboarding/CaseCreate/Procedure",
    "sourceOrgUrl": "/apex/vlocity_ins__integrationproceduredesigner?id=a5C3K0000009KmIUAU"
}