{
    "%vlocity_namespace%__Author__c": "Vlocity",
    "%vlocity_namespace%__CustomJavascript__c": "",
    "%vlocity_namespace%__Definition__c": "",
    "%vlocity_namespace%__Description__c": "",
    "%vlocity_namespace%__DisplayOn__c": "",
    "%vlocity_namespace%__ExternalID__c": "ins-quote-classes-and-plans/1/Vlocity/1493147660779",
    "%vlocity_namespace%__HTML__c": "ins-quote-classes-and-plans.html",
    "%vlocity_namespace%__ParentID__c": "KDEMO_currentenrollmemnt/1/KDEMO/1478125841827",
    "%vlocity_namespace%__SampleJson__c": "ins-quote-classes-and-plans_Sample.json",
    "%vlocity_namespace%__Sass__c": "ins-quote-classes-and-plans.scss",
    "%vlocity_namespace%__Type__c": "Cards",
    "%vlocity_namespace%__Version__c": 1,
    "Name": "ins-quote-classes-and-plans",
    "VlocityDataPackType": "SObject",
    "VlocityRecordSObjectType": "%vlocity_namespace%__VlocityUITemplate__c",
    "VlocityRecordSourceKey": "%vlocity_namespace%__VlocityUITemplate__c/ins-quote-classes-and-plans",
    "sourceOrgUrl": "/apex/vlocity_ins__uitemplatedesigner?id=a8C4W0000004iV5UAI"
}