[
    {
        "%vlocity_namespace%__DomainObjectAPIName__c": "Account",
        "%vlocity_namespace%__DomainObjectCreationOrder__c": 1,
        "%vlocity_namespace%__DomainObjectFieldAPIName__c": "%vlocity_namespace%__TaxID__c",
        "%vlocity_namespace%__InterfaceFieldAPIName__c": "AgentAdminUpdate:AgencyInformation:AgencyTIN",
        "%vlocity_namespace%__IsDisabled__c": false,
        "%vlocity_namespace%__IsRequiredForUpsert__c": false,
        "%vlocity_namespace%__MapId__c": "AgencyAdminstrationAccountUpdateDetailsCustoma3F6C000002SPCmUAOItem24",
        "%vlocity_namespace%__UpsertKey__c": false,
        "Name": "AgencyAdminstrationAccountUpdateDetails",
        "VlocityDataPackType": "SObject",
        "VlocityRecordSObjectType": "%vlocity_namespace%__DRMapItem__c"
    },
    {
        "%vlocity_namespace%__DomainObjectAPIName__c": "Account",
        "%vlocity_namespace%__DomainObjectCreationOrder__c": 1,
        "%vlocity_namespace%__DomainObjectFieldAPIName__c": "Fax",
        "%vlocity_namespace%__InterfaceFieldAPIName__c": "AgentAdminUpdate:AgencyInformation:AgencyFax",
        "%vlocity_namespace%__IsDisabled__c": false,
        "%vlocity_namespace%__IsRequiredForUpsert__c": false,
        "%vlocity_namespace%__MapId__c": "AgencyAdminstrationAccountUpdateDetailsCustoma3F6C000002SPCmUAOItem11",
        "%vlocity_namespace%__UpsertKey__c": false,
        "Name": "AgencyAdminstrationAccountUpdateDetails",
        "VlocityDataPackType": "SObject",
        "VlocityRecordSObjectType": "%vlocity_namespace%__DRMapItem__c"
    },
    {
        "%vlocity_namespace%__DomainObjectAPIName__c": "Account",
        "%vlocity_namespace%__DomainObjectCreationOrder__c": 1,
        "%vlocity_namespace%__DomainObjectFieldAPIName__c": "Id",
        "%vlocity_namespace%__InterfaceFieldAPIName__c": "UserAccountId",
        "%vlocity_namespace%__IsDisabled__c": false,
        "%vlocity_namespace%__IsRequiredForUpsert__c": false,
        "%vlocity_namespace%__MapId__c": "AgencyAdminstrationAccountUpdateDetailsCustom8248",
        "%vlocity_namespace%__UpsertKey__c": true,
        "Name": "AgencyAdminstrationAccountUpdateDetails",
        "VlocityDataPackType": "SObject",
        "VlocityRecordSObjectType": "%vlocity_namespace%__DRMapItem__c"
    },
    {
        "%vlocity_namespace%__ConfigurationValue__c": "FAKEMAPPING",
        "%vlocity_namespace%__DomainObjectAPIName__c": "Account",
        "%vlocity_namespace%__DomainObjectCreationOrder__c": 1,
        "%vlocity_namespace%__DomainObjectFieldAPIName__c": "Id",
        "%vlocity_namespace%__FilterOperator__c": "=",
        "%vlocity_namespace%__IsDisabled__c": true,
        "%vlocity_namespace%__IsRequiredForUpsert__c": false,
        "%vlocity_namespace%__MapId__c": "AgencyAdminstrationAccountUpdateDetailsCustoma3F6C000002SPCmUAOItem8",
        "%vlocity_namespace%__UpsertKey__c": false,
        "Name": "AgencyAdminstrationAccountUpdateDetails",
        "VlocityDataPackType": "SObject",
        "VlocityRecordSObjectType": "%vlocity_namespace%__DRMapItem__c"
    },
    {
        "%vlocity_namespace%__DomainObjectAPIName__c": "Account",
        "%vlocity_namespace%__DomainObjectCreationOrder__c": 1,
        "%vlocity_namespace%__DomainObjectFieldAPIName__c": "Location_Address2__c",
        "%vlocity_namespace%__InterfaceFieldAPIName__c": "AgentAdminUpdate:AgencyInformation:AgencyPhysicalAddressSuite",
        "%vlocity_namespace%__IsDisabled__c": false,
        "%vlocity_namespace%__IsRequiredForUpsert__c": false,
        "%vlocity_namespace%__MapId__c": "AgencyAdminstrationAccountUpdateDetailsCustoma3F6C000002SPCmUAOItem22",
        "%vlocity_namespace%__UpsertKey__c": false,
        "Name": "AgencyAdminstrationAccountUpdateDetails",
        "VlocityDataPackType": "SObject",
        "VlocityRecordSObjectType": "%vlocity_namespace%__DRMapItem__c"
    },
    {
        "%vlocity_namespace%__DomainObjectAPIName__c": "Account",
        "%vlocity_namespace%__DomainObjectCreationOrder__c": 1,
        "%vlocity_namespace%__DomainObjectFieldAPIName__c": "Location_City__c",
        "%vlocity_namespace%__InterfaceFieldAPIName__c": "AgentAdminUpdate:AgencyInformation:AgencyPhysicalCity",
        "%vlocity_namespace%__IsDisabled__c": false,
        "%vlocity_namespace%__IsRequiredForUpsert__c": false,
        "%vlocity_namespace%__MapId__c": "AgencyAdminstrationAccountUpdateDetailsCustoma3F6C000002SPCmUAOItem19",
        "%vlocity_namespace%__UpsertKey__c": false,
        "Name": "AgencyAdminstrationAccountUpdateDetails",
        "VlocityDataPackType": "SObject",
        "VlocityRecordSObjectType": "%vlocity_namespace%__DRMapItem__c"
    },
    {
        "%vlocity_namespace%__DomainObjectAPIName__c": "Account",
        "%vlocity_namespace%__DomainObjectCreationOrder__c": 1,
        "%vlocity_namespace%__DomainObjectFieldAPIName__c": "Location_State__c",
        "%vlocity_namespace%__InterfaceFieldAPIName__c": "AgentAdminUpdate:AgencyInformation:AgencyPhysicalState",
        "%vlocity_namespace%__IsDisabled__c": false,
        "%vlocity_namespace%__IsRequiredForUpsert__c": false,
        "%vlocity_namespace%__MapId__c": "AgencyAdminstrationAccountUpdateDetailsCustoma3F6C000002SPCmUAOItem20",
        "%vlocity_namespace%__UpsertKey__c": false,
        "Name": "AgencyAdminstrationAccountUpdateDetails",
        "VlocityDataPackType": "SObject",
        "VlocityRecordSObjectType": "%vlocity_namespace%__DRMapItem__c"
    },
    {
        "%vlocity_namespace%__DomainObjectAPIName__c": "Account",
        "%vlocity_namespace%__DomainObjectCreationOrder__c": 1,
        "%vlocity_namespace%__DomainObjectFieldAPIName__c": "Location_Street__c",
        "%vlocity_namespace%__InterfaceFieldAPIName__c": "AgentAdminUpdate:AgencyInformation:AgencyPhysicalStreet",
        "%vlocity_namespace%__IsDisabled__c": false,
        "%vlocity_namespace%__IsRequiredForUpsert__c": false,
        "%vlocity_namespace%__MapId__c": "AgencyAdminstrationAccountUpdateDetailsCustoma3F6C000002SPCmUAOItem21",
        "%vlocity_namespace%__UpsertKey__c": false,
        "Name": "AgencyAdminstrationAccountUpdateDetails",
        "VlocityDataPackType": "SObject",
        "VlocityRecordSObjectType": "%vlocity_namespace%__DRMapItem__c"
    },
    {
        "%vlocity_namespace%__DomainObjectAPIName__c": "Account",
        "%vlocity_namespace%__DomainObjectCreationOrder__c": 1,
        "%vlocity_namespace%__DomainObjectFieldAPIName__c": "Location_Zipcode__c",
        "%vlocity_namespace%__InterfaceFieldAPIName__c": "AgentAdminUpdate:AgencyInformation:AgencyPhysicalZipcode",
        "%vlocity_namespace%__IsDisabled__c": false,
        "%vlocity_namespace%__IsRequiredForUpsert__c": false,
        "%vlocity_namespace%__MapId__c": "AgencyAdminstrationAccountUpdateDetailsCustoma3F6C000002SPCmUAOItem23",
        "%vlocity_namespace%__UpsertKey__c": false,
        "Name": "AgencyAdminstrationAccountUpdateDetails",
        "VlocityDataPackType": "SObject",
        "VlocityRecordSObjectType": "%vlocity_namespace%__DRMapItem__c"
    },
    {
        "%vlocity_namespace%__DomainObjectAPIName__c": "Account",
        "%vlocity_namespace%__DomainObjectCreationOrder__c": 1,
        "%vlocity_namespace%__DomainObjectFieldAPIName__c": "Name",
        "%vlocity_namespace%__InterfaceFieldAPIName__c": "AgentAdminUpdate:AgencyInformation:AccountName",
        "%vlocity_namespace%__IsDisabled__c": false,
        "%vlocity_namespace%__IsRequiredForUpsert__c": false,
        "%vlocity_namespace%__MapId__c": "AgencyAdminstrationAccountUpdateDetailsCustoma3F6C000002SPCmUAOItem10",
        "%vlocity_namespace%__UpsertKey__c": false,
        "Name": "AgencyAdminstrationAccountUpdateDetails",
        "VlocityDataPackType": "SObject",
        "VlocityRecordSObjectType": "%vlocity_namespace%__DRMapItem__c"
    },
    {
        "%vlocity_namespace%__DomainObjectAPIName__c": "Account",
        "%vlocity_namespace%__DomainObjectCreationOrder__c": 1,
        "%vlocity_namespace%__DomainObjectFieldAPIName__c": "Phone",
        "%vlocity_namespace%__InterfaceFieldAPIName__c": "AgentAdminUpdate:AgencyInformation:AgencyPhone",
        "%vlocity_namespace%__IsDisabled__c": false,
        "%vlocity_namespace%__IsRequiredForUpsert__c": false,
        "%vlocity_namespace%__MapId__c": "AgencyAdminstrationAccountUpdateDetailsCustoma3F6C000002SPCmUAOItem18",
        "%vlocity_namespace%__UpsertKey__c": false,
        "Name": "AgencyAdminstrationAccountUpdateDetails",
        "VlocityDataPackType": "SObject",
        "VlocityRecordSObjectType": "%vlocity_namespace%__DRMapItem__c"
    },
    {
        "%vlocity_namespace%__DomainObjectAPIName__c": "Account",
        "%vlocity_namespace%__DomainObjectCreationOrder__c": 1,
        "%vlocity_namespace%__DomainObjectFieldAPIName__c": "ShippingCity",
        "%vlocity_namespace%__InterfaceFieldAPIName__c": "AgentAdminUpdate:AgencyInformation:AgencyMailingCity",
        "%vlocity_namespace%__IsDisabled__c": false,
        "%vlocity_namespace%__IsRequiredForUpsert__c": false,
        "%vlocity_namespace%__MapId__c": "AgencyAdminstrationAccountUpdateDetailsCustoma3F6C000002SPCmUAOItem12",
        "%vlocity_namespace%__UpsertKey__c": false,
        "Name": "AgencyAdminstrationAccountUpdateDetails",
        "VlocityDataPackType": "SObject",
        "VlocityRecordSObjectType": "%vlocity_namespace%__DRMapItem__c"
    },
    {
        "%vlocity_namespace%__DomainObjectAPIName__c": "Account",
        "%vlocity_namespace%__DomainObjectCreationOrder__c": 1,
        "%vlocity_namespace%__DomainObjectFieldAPIName__c": "ShippingPostalCode",
        "%vlocity_namespace%__InterfaceFieldAPIName__c": "AgentAdminUpdate:AgencyInformation:AgencyMailingPostalCode",
        "%vlocity_namespace%__IsDisabled__c": false,
        "%vlocity_namespace%__IsRequiredForUpsert__c": false,
        "%vlocity_namespace%__MapId__c": "AgencyAdminstrationAccountUpdateDetailsCustoma3F6C000002SPCmUAOItem13",
        "%vlocity_namespace%__UpsertKey__c": false,
        "Name": "AgencyAdminstrationAccountUpdateDetails",
        "VlocityDataPackType": "SObject",
        "VlocityRecordSObjectType": "%vlocity_namespace%__DRMapItem__c"
    },
    {
        "%vlocity_namespace%__DomainObjectAPIName__c": "Account",
        "%vlocity_namespace%__DomainObjectCreationOrder__c": 1,
        "%vlocity_namespace%__DomainObjectFieldAPIName__c": "ShippingState",
        "%vlocity_namespace%__InterfaceFieldAPIName__c": "AgentAdminUpdate:AgencyInformation:AgencyMailingState",
        "%vlocity_namespace%__IsDisabled__c": false,
        "%vlocity_namespace%__IsRequiredForUpsert__c": false,
        "%vlocity_namespace%__MapId__c": "AgencyAdminstrationAccountUpdateDetailsCustoma3F6C000002SPCmUAOItem14",
        "%vlocity_namespace%__UpsertKey__c": false,
        "Name": "AgencyAdminstrationAccountUpdateDetails",
        "VlocityDataPackType": "SObject",
        "VlocityRecordSObjectType": "%vlocity_namespace%__DRMapItem__c"
    },
    {
        "%vlocity_namespace%__DomainObjectAPIName__c": "Account",
        "%vlocity_namespace%__DomainObjectCreationOrder__c": 1,
        "%vlocity_namespace%__DomainObjectFieldAPIName__c": "ShippingStreet",
        "%vlocity_namespace%__InterfaceFieldAPIName__c": "AgentAdminUpdate:AgencyInformation:AgencyMailingStreet",
        "%vlocity_namespace%__IsDisabled__c": false,
        "%vlocity_namespace%__IsRequiredForUpsert__c": false,
        "%vlocity_namespace%__MapId__c": "AgencyAdminstrationAccountUpdateDetailsCustoma3F6C000002SPCmUAOItem15",
        "%vlocity_namespace%__UpsertKey__c": false,
        "Name": "AgencyAdminstrationAccountUpdateDetails",
        "VlocityDataPackType": "SObject",
        "VlocityRecordSObjectType": "%vlocity_namespace%__DRMapItem__c"
    },
    {
        "%vlocity_namespace%__DomainObjectAPIName__c": "Account",
        "%vlocity_namespace%__DomainObjectCreationOrder__c": 1,
        "%vlocity_namespace%__DomainObjectFieldAPIName__c": "Shipping_Address2__c",
        "%vlocity_namespace%__InterfaceFieldAPIName__c": "AgentAdminUpdate:AgencyInformation:AgencyMailingAddressSuite",
        "%vlocity_namespace%__IsDisabled__c": false,
        "%vlocity_namespace%__IsRequiredForUpsert__c": false,
        "%vlocity_namespace%__MapId__c": "AgencyAdminstrationAccountUpdateDetailsCustoma3F6C000002SPCmUAOItem16",
        "%vlocity_namespace%__UpsertKey__c": false,
        "Name": "AgencyAdminstrationAccountUpdateDetails",
        "VlocityDataPackType": "SObject",
        "VlocityRecordSObjectType": "%vlocity_namespace%__DRMapItem__c"
    },
    {
        "%vlocity_namespace%__DomainObjectAPIName__c": "Account",
        "%vlocity_namespace%__DomainObjectCreationOrder__c": 1,
        "%vlocity_namespace%__DomainObjectFieldAPIName__c": "Website",
        "%vlocity_namespace%__InterfaceFieldAPIName__c": "AgentAdminUpdate:AgencyInformation:AgencyWebsite",
        "%vlocity_namespace%__IsDisabled__c": false,
        "%vlocity_namespace%__IsRequiredForUpsert__c": false,
        "%vlocity_namespace%__MapId__c": "AgencyAdminstrationAccountUpdateDetailsCustoma3F6C000002SPCmUAOItem25",
        "%vlocity_namespace%__UpsertKey__c": false,
        "Name": "AgencyAdminstrationAccountUpdateDetails",
        "VlocityDataPackType": "SObject",
        "VlocityRecordSObjectType": "%vlocity_namespace%__DRMapItem__c"
    },
    {
        "%vlocity_namespace%__DomainObjectAPIName__c": "Account",
        "%vlocity_namespace%__DomainObjectCreationOrder__c": 1,
        "%vlocity_namespace%__DomainObjectFieldAPIName__c": "agentsync__NPN__c",
        "%vlocity_namespace%__InterfaceFieldAPIName__c": "AgentAdminUpdate:AgencyInformation:AgencyNPN",
        "%vlocity_namespace%__IsDisabled__c": false,
        "%vlocity_namespace%__IsRequiredForUpsert__c": false,
        "%vlocity_namespace%__MapId__c": "AgencyAdminstrationAccountUpdateDetailsCustoma3F6C000002SPCmUAOItem17",
        "%vlocity_namespace%__UpsertKey__c": false,
        "Name": "AgencyAdminstrationAccountUpdateDetails",
        "VlocityDataPackType": "SObject",
        "VlocityRecordSObjectType": "%vlocity_namespace%__DRMapItem__c"
    }
]