{
    "%vlocity_namespace%__DestinationFieldName__c": "%vlocity_namespace%__EffectiveStartDate__c",
    "%vlocity_namespace%__DestinationSObjectType__c": "%vlocity_namespace%__GroupCensus__c",
    "%vlocity_namespace%__SourceFieldName__c": "%vlocity_namespace%__EffectiveStartDate__c",
    "%vlocity_namespace%__SourceFieldSObjectType__c": "",
    "%vlocity_namespace%__SourceFieldType__c": "date",
    "%vlocity_namespace%__SourceSObjectType__c": "%vlocity_namespace%__InsuredGroupCensus__c",
    "Name": "InsuredGroupCensus_Census_EffDate",
    "VlocityDataPackType": "SObject",
    "VlocityRecordSObjectType": "%vlocity_namespace%__CustomFieldMap__c",
    "VlocityRecordSourceKey": "%vlocity_namespace%__CustomFieldMap__c/Generated-242300558",
    "sourceOrgUrl": "/a374W00000D3VaYQAV"
}