[
    "AttributeCategory/coverageAttrib",
    "Product2/41a7eb83-8818-efd9-55f3-4aa2f388746a",
    "Product2/6fdff6a8-39c2-c5f4-e15a-2a17776f9fdf",
    "Product2/8abfd8ae-21b8-3633-ca80-c858bb98d90e",
    "Product2/9444b705-25aa-e2ec-9326-72ee8af5a51d",
    "Product2/99cb92be-d4dc-b85f-9aff-8338c6ecf84c",
    "Product2/c412c666-176b-3f26-bd5b-2792f9028b81",
    "Product2/d8543c5f-fc1e-4dbb-2685-d238f7608385",
    "Product2/f130afd3-69f5-5460-9657-fe9b4a71f826"
]