{
    "AccountingQueueId": "00G6C000001uYzLUAU",
    "ClaimsQueueId": "00G6C000001uYzMUAU",
    "ContextId": "0Q06C000000KipySAC",
    "FEINExistsOnQuote": "No",
    "Id": "0Q06C000000KipySAC",
    "InsuredId": "0016C00000UvwkXQAR",
    "LineOfBusiness": "WCIA",
    "LineOfBusinessLabel": "Workers' Compensation - If Any",
    "QuoteAccountName": "Community Test",
    "QuoteDetails": {
        "BindFEIN": null,
        "FEIN": "1234567890",
        "QuoteEffectiveDate": "2020-12-28",
        "QuoteExpirationDate": "2021-03-28",
        "QuoteFEIN": null,
        "QuoteName": "Community Test-WCIA-2020-12-28",
        "QuoteNumber": "00000303",
        "QuoteStatus": "Pending Issuance"
    },
    "QuoteLocation": "Coffeyville_KS",
    "UWQueueId": "00G6C000001uYzPUAU",
    "accountId": "",
    "activeInsuranceId": "0YT6C0000009y1lWAA",
    "assetId": "",
    "configureCase": {
        "ContactName": " "
    },
    "groupId": "00G6C000001uYzPUAU",
    "matchingQuoteId": "N/A",
    "policyCount": 0,
    "quoteCount": 1,
    "quoteId": "",
    "timeStamp": "2020-12-28T16:03:52.702Z",
    "userCurrencyCode": "USD",
    "userId": "0056C000002Dn6sQAC",
    "userName": "neha.sudha@gerentllc.com.caisdev",
    "userProfile": "System Administrator",
    "userTimeZone": "-480"
}