{
    "%vlocity_namespace%__ActionIcon__c": "",
    "%vlocity_namespace%__AdditionalFilter__c": "%vlocity_namespace%__DocumentTemplateId__c!=null AND  (%vlocity_namespace%__IsDocumentLocked__c=false OR %vlocity_namespace%__IsCurrentUserLockedDocument__c=true) AND %vlocity_namespace%__DocumentTemplateId__r.%vlocity_namespace%__TemplateContentFormat__c = 'Vlocity Web Template' AND %vlocity_namespace%__IsTemplateBatchable__c =false",
    "%vlocity_namespace%__ApplicablePermissionName__c": "",
    "%vlocity_namespace%__ApplicableTypes__c": "%vlocity_namespace%__ContractVersion__c",
    "%vlocity_namespace%__ApplicableUserProfiles__c": "All",
    "%vlocity_namespace%__CustomLabelName__c": "",
    "%vlocity_namespace%__Description__c": "",
    "%vlocity_namespace%__DisplayLabel__c": "Compare Versions",
    "%vlocity_namespace%__DisplayOn__c": "Web Client",
    "%vlocity_namespace%__DisplaySequence__c": 2,
    "%vlocity_namespace%__ExecutionSequence__c": "",
    "%vlocity_namespace%__Filter__c": "",
    "%vlocity_namespace%__InvokeClassName__c": "",
    "%vlocity_namespace%__InvokeMethodInput__c": "",
    "%vlocity_namespace%__InvokeMethodName__c": "",
    "%vlocity_namespace%__IsSeedAction__c": true,
    "%vlocity_namespace%__IsStateDefaultAction__c": false,
    "%vlocity_namespace%__Keyword__c": "",
    "%vlocity_namespace%__LinkType__c": "Document",
    "%vlocity_namespace%__OpenUrlMode__c": "Current Window",
    "%vlocity_namespace%__StateId__c": "",
    "%vlocity_namespace%__StateModelId__c": "",
    "%vlocity_namespace%__UrlParameters__c": "Id",
    "%vlocity_namespace%__Url__c": "/apex/%vlocity_namespace%__ContractVersionComparison?id={0}",
    "%vlocity_namespace%__ValidationClassName__c": "",
    "%vlocity_namespace%__ValidationMethodName__c": "",
    "%vlocity_namespace%__VlocityIcon__c": "icon-v-generate",
    "%vlocity_namespace%__VlocityStateModelVersionId__c": "",
    "Name": "Compare Versions",
    "VlocityDataPackType": "SObject",
    "VlocityRecordSObjectType": "%vlocity_namespace%__VlocityAction__c",
    "VlocityRecordSourceKey": "%vlocity_namespace%__VlocityAction__c/Compare Versions",
    "sourceOrgUrl": "/a7l4W0000008t46QAA"
}