[
    "DataRaptor/AgencyAdminstrationAccountUpdateDetails",
    "DataRaptor/AgencyAdminstrationExtractDetails",
    "DataRaptor/AgencyAdminstrationUserUpdateDetails",
    "Document/CACAAIBEA1d082e80e4704a9283ae5e94826b386c",
    "IntegrationProcedure/CaisAgencyAdmin_ProfileUpdate"
]