{
    "%vlocity_namespace%__Author__c": "Vlocity",
    "%vlocity_namespace%__CustomJavascript__c": "ins-coverage-quote-runtime-container.js",
    "%vlocity_namespace%__Definition__c": "",
    "%vlocity_namespace%__Description__c": "card-canvas-1x-slds\n\nLightning based grid that renders cards in rows. Designed for use with the following cards:\n\ncard-horiz-actions-slds\ncard-horiz-noActions-slds\ncard-horiz-open-slds",
    "%vlocity_namespace%__DisplayOn__c": "All",
    "%vlocity_namespace%__ExternalID__c": "ins-coverage-quote-runtime-container/1/Vlocity/1505316770397",
    "%vlocity_namespace%__HTML__c": "ins-coverage-quote-runtime-container.html",
    "%vlocity_namespace%__ParentID__c": "",
    "%vlocity_namespace%__SampleJson__c": "",
    "%vlocity_namespace%__Sass__c": "ins-coverage-quote-runtime-container.scss",
    "%vlocity_namespace%__Type__c": "containers",
    "%vlocity_namespace%__Version__c": 1,
    "Name": "ins-coverage-quote-runtime-container",
    "VlocityDataPackType": "SObject",
    "VlocityRecordSObjectType": "%vlocity_namespace%__VlocityUITemplate__c",
    "VlocityRecordSourceKey": "%vlocity_namespace%__VlocityUITemplate__c/ins-coverage-quote-runtime-container",
    "sourceOrgUrl": "/apex/vlocity_ins__uitemplatedesigner?id=a8C4W0000004iTmUAI"
}