[
    {
        "%vlocity_namespace%__DomainObjectAPIName__c": "json",
        "%vlocity_namespace%__DomainObjectCreationOrder__c": 1,
        "%vlocity_namespace%__DomainObjectFieldAPIName__c": "StoredQuote:AcordForm130",
        "%vlocity_namespace%__DomainObjectFieldType__c": "Object",
        "%vlocity_namespace%__InterfaceFieldAPIName__c": "AcordForm130",
        "%vlocity_namespace%__IsDisabled__c": false,
        "%vlocity_namespace%__IsRequiredForUpsert__c": false,
        "%vlocity_namespace%__MapId__c": "TransformToStoreWCPayQuoteJSONCustom2414",
        "%vlocity_namespace%__UpsertKey__c": false,
        "Name": "TransformToStoreWCPayQuoteJSON",
        "VlocityDataPackType": "SObject",
        "VlocityRecordSObjectType": "%vlocity_namespace%__DRMapItem__c"
    },
    {
        "%vlocity_namespace%__DomainObjectAPIName__c": "json",
        "%vlocity_namespace%__DomainObjectCreationOrder__c": 1,
        "%vlocity_namespace%__DomainObjectFieldAPIName__c": "StoredQuote:FEINStep",
        "%vlocity_namespace%__DomainObjectFieldType__c": "Object",
        "%vlocity_namespace%__InterfaceFieldAPIName__c": "FEINStep",
        "%vlocity_namespace%__IsDisabled__c": false,
        "%vlocity_namespace%__IsRequiredForUpsert__c": false,
        "%vlocity_namespace%__MapId__c": "TransformToStoreWCPayQuoteJSONCustoma206s0000004q8rAAAItem0",
        "%vlocity_namespace%__UpsertKey__c": false,
        "Name": "TransformToStoreWCPayQuoteJSON",
        "VlocityDataPackType": "SObject",
        "VlocityRecordSObjectType": "%vlocity_namespace%__DRMapItem__c"
    },
    {
        "%vlocity_namespace%__DomainObjectAPIName__c": "json",
        "%vlocity_namespace%__DomainObjectCreationOrder__c": 1,
        "%vlocity_namespace%__DomainObjectFieldAPIName__c": "StoredQuote:SupplementalCommercialStep",
        "%vlocity_namespace%__DomainObjectFieldType__c": "Object",
        "%vlocity_namespace%__InterfaceFieldAPIName__c": "SupplementalCommercialStep",
        "%vlocity_namespace%__IsDisabled__c": false,
        "%vlocity_namespace%__IsRequiredForUpsert__c": false,
        "%vlocity_namespace%__MapId__c": "TransformToStoreWCPayQuoteJSONCustom131",
        "%vlocity_namespace%__UpsertKey__c": false,
        "Name": "TransformToStoreWCPayQuoteJSON",
        "VlocityDataPackType": "SObject",
        "VlocityRecordSObjectType": "%vlocity_namespace%__DRMapItem__c"
    },
    {
        "%vlocity_namespace%__DomainObjectAPIName__c": "json",
        "%vlocity_namespace%__DomainObjectCreationOrder__c": 1,
        "%vlocity_namespace%__DomainObjectFieldAPIName__c": "StoredQuote:SupplementalResidentialStep",
        "%vlocity_namespace%__DomainObjectFieldType__c": "Object",
        "%vlocity_namespace%__InterfaceFieldAPIName__c": "SupplementalResidentialStep",
        "%vlocity_namespace%__IsDisabled__c": false,
        "%vlocity_namespace%__IsRequiredForUpsert__c": false,
        "%vlocity_namespace%__MapId__c": "TransformToStoreWCPayQuoteJSONCustoma206s0000004q8rAAAItem2",
        "%vlocity_namespace%__UpsertKey__c": false,
        "Name": "TransformToStoreWCPayQuoteJSON",
        "VlocityDataPackType": "SObject",
        "VlocityRecordSObjectType": "%vlocity_namespace%__DRMapItem__c"
    },
    {
        "%vlocity_namespace%__DomainObjectAPIName__c": "json",
        "%vlocity_namespace%__DomainObjectCreationOrder__c": 1,
        "%vlocity_namespace%__DomainObjectFieldAPIName__c": "StoredQuote:WCPayroll",
        "%vlocity_namespace%__DomainObjectFieldType__c": "Object",
        "%vlocity_namespace%__InterfaceFieldAPIName__c": "WCPayroll",
        "%vlocity_namespace%__IsDisabled__c": false,
        "%vlocity_namespace%__IsRequiredForUpsert__c": false,
        "%vlocity_namespace%__MapId__c": "TransformToStoreWCPayQuoteJSONCustoma206s0000004q8rAAAItem1",
        "%vlocity_namespace%__UpsertKey__c": false,
        "Name": "TransformToStoreWCPayQuoteJSON",
        "VlocityDataPackType": "SObject",
        "VlocityRecordSObjectType": "%vlocity_namespace%__DRMapItem__c"
    },
    {
        "%vlocity_namespace%__DomainObjectAPIName__c": "json",
        "%vlocity_namespace%__DomainObjectCreationOrder__c": 1,
        "%vlocity_namespace%__DomainObjectFieldAPIName__c": "StoredQuote:WorkerCompensation",
        "%vlocity_namespace%__DomainObjectFieldType__c": "Object",
        "%vlocity_namespace%__InterfaceFieldAPIName__c": "WorkerCompensation",
        "%vlocity_namespace%__IsDisabled__c": false,
        "%vlocity_namespace%__IsRequiredForUpsert__c": false,
        "%vlocity_namespace%__MapId__c": "TransformToStoreWCPayQuoteJSONCustoma206s0000004q8rAAAItem3",
        "%vlocity_namespace%__UpsertKey__c": false,
        "Name": "TransformToStoreWCPayQuoteJSON",
        "VlocityDataPackType": "SObject",
        "VlocityRecordSObjectType": "%vlocity_namespace%__DRMapItem__c"
    }
]