{
    "%vlocity_namespace%__CalculationMatrixId__c": {
        "Name": "StateCarrierFinder",
        "VlocityDataPackType": "VlocityMatchingKeyObject",
        "VlocityMatchingRecordSourceKey": "%vlocity_namespace%__CalculationMatrix__c/StateCarrierFinder",
        "VlocityRecordSObjectType": "%vlocity_namespace%__CalculationMatrix__c"
    },
    "%vlocity_namespace%__CalculationMatrixId__r.Name": "StateCarrierFinder",
    "%vlocity_namespace%__CalculationMatrixRow__c": "StateCarrierFinder_Version_Rows.json",
    "%vlocity_namespace%__CurrentStatus__c": "Active",
    "%vlocity_namespace%__EndDateTime__c": "",
    "%vlocity_namespace%__GlobalKey__c": "StateCarrierFinder V1",
    "%vlocity_namespace%__GroupKeyValue__c": "",
    "%vlocity_namespace%__MatrixRecordType__c": "Standard",
    "%vlocity_namespace%__MatrixUseLongOutput__c": false,
    "%vlocity_namespace%__Priority__c": 1,
    "%vlocity_namespace%__StartDateTime__c": "2020-12-03T15:24:30.000Z",
    "%vlocity_namespace%__SubGroupKeyValue__c": "",
    "%vlocity_namespace%__UseLongOutput__c": false,
    "%vlocity_namespace%__VersionNumber__c": 1,
    "Name": "StateCarrierFinder V1",
    "VlocityDataPackType": "SObject",
    "VlocityRecordSObjectType": "%vlocity_namespace%__CalculationMatrixVersion__c",
    "VlocityRecordSourceKey": "%vlocity_namespace%__CalculationMatrixVersion__c/1/%vlocity_namespace%__CalculationMatrix__c/StateCarrierFinder"
}