{
    "%vlocity_namespace%__CustomJavaScript__c": "{}",
    "%vlocity_namespace%__DisableMetadataCache__c": false,
    "%vlocity_namespace%__ElementTypeToHTMLTemplateList__c": "{\"ElementTypeToHTMLTemplateList\":[]}",
    "%vlocity_namespace%__Element__c": [
        "D-O_IssueQuote_Element_getToken.json",
        "D-O_IssueQuote_Element_SetValues1.json",
        "D-O_IssueQuote_Element_transformQuoteIssue.json",
        "D-O_IssueQuote_Element_issueQuote.json"
    ],
    "%vlocity_namespace%__IsLwcEnabled__c": false,
    "%vlocity_namespace%__IsProcedure__c": true,
    "%vlocity_namespace%__IsReusable__c": false,
    "%vlocity_namespace%__IsTest__c": false,
    "%vlocity_namespace%__Language__c": "Procedure",
    "%vlocity_namespace%__ProcedureKey__c": "D&O_IssueQuote",
    "%vlocity_namespace%__PropertySet__c": "D-O_IssueQuote_PropertySet.json",
    "%vlocity_namespace%__SubType__c": "IssueQuote",
    "%vlocity_namespace%__Type__c": "D&O",
    "Name": "D&O Issue Quote",
    "VlocityDataPackType": "SObject",
    "VlocityRecordSObjectType": "%vlocity_namespace%__OmniScript__c",
    "VlocityRecordSourceKey": "%vlocity_namespace%__OmniScript__c/D&O/IssueQuote/Procedure",
    "sourceOrgUrl": "/apex/vlocity_ins__integrationproceduredesigner?id=a5C3K0000009KdXUAU"
}