{
    "%vlocity_namespace%__Author__c": "Vlocity",
    "%vlocity_namespace%__CSS__c": "",
    "%vlocity_namespace%__CustomJavascript__c": "",
    "%vlocity_namespace%__Definition__c": "",
    "%vlocity_namespace%__Description__c": "",
    "%vlocity_namespace%__DisplayOn__c": "",
    "%vlocity_namespace%__ExternalID__c": "clm-runtime-product-attributes-variables/1/Vlocity/1545185467345",
    "%vlocity_namespace%__HTML__c": "",
    "%vlocity_namespace%__ParentID__c": "ins-product-attributes-variables/1/Vlocity/a1I6A000000FMYmUAO",
    "%vlocity_namespace%__SampleJson__c": "",
    "%vlocity_namespace%__Sass__c": "clm-runtime-product-attributes-variables.scss",
    "%vlocity_namespace%__Type__c": "mixin",
    "%vlocity_namespace%__Version__c": 1,
    "Name": "clm-runtime-product-attributes-variables",
    "VlocityDataPackType": "SObject",
    "VlocityRecordSObjectType": "%vlocity_namespace%__VlocityUITemplate__c",
    "VlocityRecordSourceKey": "%vlocity_namespace%__VlocityUITemplate__c/clm-runtime-product-attributes-variables",
    "sourceOrgUrl": "/apex/vlocity_ins__uitemplatedesigner?id=a8C4W0000004iXEUAY"
}