{
    "%vlocity_namespace%__Author__c": "Vlocity",
    "%vlocity_namespace%__CustomJavascript__c": "np-table-list-policy-items-plus-nds.js",
    "%vlocity_namespace%__Definition__c": "{\"placeholders\":[{\"name\":\"Name\",\"label\":\"\",\"$$hashKey\":\"object:35920\"},{\"name\":\"Amount\",\"label\":\"\",\"$$hashKey\":\"object:36902\"}]}",
    "%vlocity_namespace%__Description__c": "This is a newport responsive template with table layout that can display a list of details mapped plus the attributes mapped.",
    "%vlocity_namespace%__DisplayOn__c": "",
    "%vlocity_namespace%__ExternalID__c": "np-table-list-policy-items-plus-nds/1/VlocityIBO/1536903131633",
    "%vlocity_namespace%__HTML__c": "np-table-list-policy-items-plus-nds.html",
    "%vlocity_namespace%__ParentID__c": "",
    "%vlocity_namespace%__SampleJson__c": "np-table-list-policy-items-plus-nds_Sample.json",
    "%vlocity_namespace%__Sass__c": "np-table-list-policy-items-plus-nds.scss",
    "%vlocity_namespace%__Type__c": "Cards",
    "%vlocity_namespace%__Version__c": 1,
    "Name": "np-table-list-policy-items-plus-nds",
    "VlocityDataPackType": "SObject",
    "VlocityRecordSObjectType": "%vlocity_namespace%__VlocityUITemplate__c",
    "VlocityRecordSourceKey": "%vlocity_namespace%__VlocityUITemplate__c/np-table-list-policy-items-plus-nds",
    "sourceOrgUrl": "/apex/vlocity_ins__uitemplatedesigner?id=a8C3K0000008bvSUAQ"
}