[
    {
        "%vlocity_namespace%__DomainObjectAPIName__c": "Formula",
        "%vlocity_namespace%__DomainObjectCreationOrder__c": 0,
        "%vlocity_namespace%__DomainObjectFieldAPIName__c": "Formula",
        "%vlocity_namespace%__FormulaOrder__c": 1,
        "%vlocity_namespace%__FormulaResultPath__c": "QuoteName",
        "%vlocity_namespace%__Formula__c": "CONCAT(%Crime:CommunityAssociation:FinalInsured%,'-Crime A Only-',DATETIMETOUNIX(NOW(\"yyyy-MM-dd'T'HH:mm:ss\")))",
        "%vlocity_namespace%__IsDisabled__c": false,
        "%vlocity_namespace%__IsRequiredForUpsert__c": false,
        "%vlocity_namespace%__MapId__c": "TransformForCrimeAOnlyQuoteCreationCustoma206s0000005Wb1AAEItem0",
        "%vlocity_namespace%__UpsertKey__c": false,
        "Name": "TransformForCrimeAOnlyQuoteCreation",
        "VlocityDataPackType": "SObject",
        "VlocityRecordSObjectType": "%vlocity_namespace%__DRMapItem__c"
    },
    {
        "%vlocity_namespace%__DomainObjectAPIName__c": "Formula",
        "%vlocity_namespace%__DomainObjectCreationOrder__c": 0,
        "%vlocity_namespace%__DomainObjectFieldAPIName__c": "Formula",
        "%vlocity_namespace%__FormulaOrder__c": 2,
        "%vlocity_namespace%__FormulaResultPath__c": "SelectedProductTax",
        "%vlocity_namespace%__Formula__c": "IF(%PolicyCoverage:RequestedCoverages:Liability% > '1000000', %QuotingProductsCrimeAOnly:records|1:CalculatedPriceData:CrimeRatesTaxes__TaxRate%, %QuotingProductsCrimeAOnly:records:CalculatedPriceData:CrimeRatesTaxes__TaxRate%)",
        "%vlocity_namespace%__IsDisabled__c": false,
        "%vlocity_namespace%__IsRequiredForUpsert__c": false,
        "%vlocity_namespace%__MapId__c": "TransformForCrimeAOnlyQuoteCreationCustoma206s0000005Wb1AAEItem1",
        "%vlocity_namespace%__UpsertKey__c": false,
        "Name": "TransformForCrimeAOnlyQuoteCreation",
        "VlocityDataPackType": "SObject",
        "VlocityRecordSObjectType": "%vlocity_namespace%__DRMapItem__c"
    },
    {
        "%vlocity_namespace%__DomainObjectAPIName__c": "Formula",
        "%vlocity_namespace%__DomainObjectCreationOrder__c": 0,
        "%vlocity_namespace%__DomainObjectFieldAPIName__c": "Formula",
        "%vlocity_namespace%__FormulaOrder__c": 3,
        "%vlocity_namespace%__FormulaResultPath__c": "NewPMCName",
        "%vlocity_namespace%__Formula__c": "IF(%Crime:CommunityAssociation:PMCAccount-Block:PMCAccountId% == null,%Crime:CommunityAssociation:PMCAccount-Block:PMCAccount%,null)",
        "%vlocity_namespace%__IsDisabled__c": false,
        "%vlocity_namespace%__IsRequiredForUpsert__c": false,
        "%vlocity_namespace%__MapId__c": "TransformForCrimeAOnlyQuoteCreationCustom9435",
        "%vlocity_namespace%__UpsertKey__c": false,
        "Name": "TransformForCrimeAOnlyQuoteCreation",
        "VlocityDataPackType": "SObject",
        "VlocityRecordSObjectType": "%vlocity_namespace%__DRMapItem__c"
    },
    {
        "%vlocity_namespace%__DomainObjectAPIName__c": "Formula",
        "%vlocity_namespace%__DomainObjectCreationOrder__c": 0,
        "%vlocity_namespace%__DomainObjectFieldAPIName__c": "Formula",
        "%vlocity_namespace%__FormulaOrder__c": 4,
        "%vlocity_namespace%__FormulaResultPath__c": "WCRuleStatus",
        "%vlocity_namespace%__Formula__c": "IF(%GeneralQuestions:WCRuleStatus% == \"Declined\" , \"Declined\" , IF(%GeneralQuestions:WCRuleStatus% == \"Referral\", \"Underwriting Review\",IF(%GeneralQuestions:WCRuleStatus% == \"Application\", \"Approved\", '')))",
        "%vlocity_namespace%__IsDisabled__c": false,
        "%vlocity_namespace%__IsRequiredForUpsert__c": false,
        "%vlocity_namespace%__MapId__c": "TransformForCrimeAOnlyQuoteCreationCustom4984",
        "%vlocity_namespace%__UpsertKey__c": false,
        "Name": "TransformForCrimeAOnlyQuoteCreation",
        "VlocityDataPackType": "SObject",
        "VlocityRecordSObjectType": "%vlocity_namespace%__DRMapItem__c"
    },
    {
        "%vlocity_namespace%__DomainObjectAPIName__c": "Formula",
        "%vlocity_namespace%__DomainObjectCreationOrder__c": 0,
        "%vlocity_namespace%__DomainObjectFieldAPIName__c": "Formula",
        "%vlocity_namespace%__FormulaOrder__c": 5,
        "%vlocity_namespace%__FormulaResultPath__c": "SubStatus",
        "%vlocity_namespace%__Formula__c": "IF(%WCRuleStatus% == \"Underwriting Review\" , \"Referred\" , '')",
        "%vlocity_namespace%__IsDisabled__c": false,
        "%vlocity_namespace%__IsRequiredForUpsert__c": false,
        "%vlocity_namespace%__MapId__c": "TransformForCrimeAOnlyQuoteCreationCustom8779",
        "%vlocity_namespace%__UpsertKey__c": false,
        "Name": "TransformForCrimeAOnlyQuoteCreation",
        "VlocityDataPackType": "SObject",
        "VlocityRecordSObjectType": "%vlocity_namespace%__DRMapItem__c"
    },
    {
        "%vlocity_namespace%__DomainObjectAPIName__c": "Formula",
        "%vlocity_namespace%__DomainObjectCreationOrder__c": 0,
        "%vlocity_namespace%__DomainObjectFieldAPIName__c": "Formula",
        "%vlocity_namespace%__FormulaOrder__c": 6,
        "%vlocity_namespace%__FormulaResultPath__c": "ReasonCode",
        "%vlocity_namespace%__Formula__c": "IF(%WCRuleStatus% == \"Approved\" , \"System Approved\" , '')",
        "%vlocity_namespace%__IsDisabled__c": false,
        "%vlocity_namespace%__IsRequiredForUpsert__c": false,
        "%vlocity_namespace%__MapId__c": "TransformForCrimeAOnlyQuoteCreationCustom3587",
        "%vlocity_namespace%__UpsertKey__c": false,
        "Name": "TransformForCrimeAOnlyQuoteCreation",
        "VlocityDataPackType": "SObject",
        "VlocityRecordSObjectType": "%vlocity_namespace%__DRMapItem__c"
    },
    {
        "%vlocity_namespace%__DomainObjectAPIName__c": "json",
        "%vlocity_namespace%__DomainObjectCreationOrder__c": 1,
        "%vlocity_namespace%__DomainObjectFieldAPIName__c": "quoteJSON:PolicyCoverage:RequestedCoverages:Liability",
        "%vlocity_namespace%__DomainObjectFieldType__c": "Integer",
        "%vlocity_namespace%__InterfaceFieldAPIName__c": "PolicyCoverage:RequestedCoverages:Liability",
        "%vlocity_namespace%__IsDisabled__c": false,
        "%vlocity_namespace%__IsRequiredForUpsert__c": false,
        "%vlocity_namespace%__MapId__c": "TransformForCrimeAOnlyQuoteCreationCustom526",
        "%vlocity_namespace%__TransformValuesMap__c": "{}",
        "%vlocity_namespace%__UpsertKey__c": false,
        "Name": "TransformForCrimeAOnlyQuoteCreation",
        "VlocityDataPackType": "SObject",
        "VlocityRecordSObjectType": "%vlocity_namespace%__DRMapItem__c"
    },
    {
        "%vlocity_namespace%__DomainObjectAPIName__c": "json",
        "%vlocity_namespace%__DomainObjectCreationOrder__c": 1,
        "%vlocity_namespace%__DomainObjectFieldAPIName__c": "quoteJSON:accountId",
        "%vlocity_namespace%__InterfaceFieldAPIName__c": "finalAccountId",
        "%vlocity_namespace%__IsDisabled__c": false,
        "%vlocity_namespace%__IsRequiredForUpsert__c": false,
        "%vlocity_namespace%__MapId__c": "TransformForCrimeAOnlyQuoteCreationCustoma206s0000005Wb1AAEItem9",
        "%vlocity_namespace%__UpsertKey__c": false,
        "Name": "TransformForCrimeAOnlyQuoteCreation",
        "VlocityDataPackType": "SObject",
        "VlocityRecordSObjectType": "%vlocity_namespace%__DRMapItem__c"
    },
    {
        "%vlocity_namespace%__DomainObjectAPIName__c": "json",
        "%vlocity_namespace%__DomainObjectCreationOrder__c": 1,
        "%vlocity_namespace%__DomainObjectFieldAPIName__c": "quoteJSON:additionalFields:%vlocity_namespace%__AgencyBrokerageId__c",
        "%vlocity_namespace%__InterfaceFieldAPIName__c": "currentUserAccountId",
        "%vlocity_namespace%__IsDisabled__c": false,
        "%vlocity_namespace%__IsRequiredForUpsert__c": false,
        "%vlocity_namespace%__MapId__c": "TransformForCrimeAOnlyQuoteCreationCustoma206s0000005Wb1AAEItem28",
        "%vlocity_namespace%__UpsertKey__c": false,
        "Name": "TransformForCrimeAOnlyQuoteCreation",
        "VlocityDataPackType": "SObject",
        "VlocityRecordSObjectType": "%vlocity_namespace%__DRMapItem__c"
    },
    {
        "%vlocity_namespace%__DefaultValue__c": "Annual",
        "%vlocity_namespace%__DomainObjectAPIName__c": "json",
        "%vlocity_namespace%__DomainObjectCreationOrder__c": 1,
        "%vlocity_namespace%__DomainObjectFieldAPIName__c": "quoteJSON:additionalFields:%vlocity_namespace%__Term__c",
        "%vlocity_namespace%__IsDisabled__c": false,
        "%vlocity_namespace%__IsRequiredForUpsert__c": false,
        "%vlocity_namespace%__MapId__c": "TransformForCrimeAOnlyQuoteCreationCustoma206s0000005Wb1AAEItem7",
        "%vlocity_namespace%__UpsertKey__c": false,
        "Name": "TransformForCrimeAOnlyQuoteCreation",
        "VlocityDataPackType": "SObject",
        "VlocityRecordSObjectType": "%vlocity_namespace%__DRMapItem__c"
    },
    {
        "%vlocity_namespace%__DomainObjectAPIName__c": "json",
        "%vlocity_namespace%__DomainObjectCreationOrder__c": 1,
        "%vlocity_namespace%__DomainObjectFieldAPIName__c": "quoteJSON:additionalFields:BillingCity",
        "%vlocity_namespace%__InterfaceFieldAPIName__c": "Crime:CommunityAssociation:BillingAddress-Block:BillingCity",
        "%vlocity_namespace%__IsDisabled__c": false,
        "%vlocity_namespace%__IsRequiredForUpsert__c": false,
        "%vlocity_namespace%__MapId__c": "TransformForCrimeAOnlyQuoteCreationCustoma206s0000005Wb1AAEItem11",
        "%vlocity_namespace%__UpsertKey__c": false,
        "Name": "TransformForCrimeAOnlyQuoteCreation",
        "VlocityDataPackType": "SObject",
        "VlocityRecordSObjectType": "%vlocity_namespace%__DRMapItem__c"
    },
    {
        "%vlocity_namespace%__DomainObjectAPIName__c": "json",
        "%vlocity_namespace%__DomainObjectCreationOrder__c": 1,
        "%vlocity_namespace%__DomainObjectFieldAPIName__c": "quoteJSON:additionalFields:BillingName",
        "%vlocity_namespace%__InterfaceFieldAPIName__c": "Crime:CommunityAssociation:BillingCareOf",
        "%vlocity_namespace%__IsDisabled__c": false,
        "%vlocity_namespace%__IsRequiredForUpsert__c": false,
        "%vlocity_namespace%__MapId__c": "TransformForCrimeAOnlyQuoteCreationCustoma206s0000005Wb1AAEItem15",
        "%vlocity_namespace%__UpsertKey__c": false,
        "Name": "TransformForCrimeAOnlyQuoteCreation",
        "VlocityDataPackType": "SObject",
        "VlocityRecordSObjectType": "%vlocity_namespace%__DRMapItem__c"
    },
    {
        "%vlocity_namespace%__DomainObjectAPIName__c": "json",
        "%vlocity_namespace%__DomainObjectCreationOrder__c": 1,
        "%vlocity_namespace%__DomainObjectFieldAPIName__c": "quoteJSON:additionalFields:BillingPostalCode",
        "%vlocity_namespace%__InterfaceFieldAPIName__c": "Crime:CommunityAssociation:BillingAddress-Block:BillingZip",
        "%vlocity_namespace%__IsDisabled__c": false,
        "%vlocity_namespace%__IsRequiredForUpsert__c": false,
        "%vlocity_namespace%__MapId__c": "TransformForCrimeAOnlyQuoteCreationCustoma206s0000005Wb1AAEItem14",
        "%vlocity_namespace%__UpsertKey__c": false,
        "Name": "TransformForCrimeAOnlyQuoteCreation",
        "VlocityDataPackType": "SObject",
        "VlocityRecordSObjectType": "%vlocity_namespace%__DRMapItem__c"
    },
    {
        "%vlocity_namespace%__DomainObjectAPIName__c": "json",
        "%vlocity_namespace%__DomainObjectCreationOrder__c": 1,
        "%vlocity_namespace%__DomainObjectFieldAPIName__c": "quoteJSON:additionalFields:BillingState",
        "%vlocity_namespace%__InterfaceFieldAPIName__c": "Crime:CommunityAssociation:BillingAddress-Block:BillingState",
        "%vlocity_namespace%__IsDisabled__c": false,
        "%vlocity_namespace%__IsRequiredForUpsert__c": false,
        "%vlocity_namespace%__MapId__c": "TransformForCrimeAOnlyQuoteCreationCustoma206s0000005Wb1AAEItem12",
        "%vlocity_namespace%__UpsertKey__c": false,
        "Name": "TransformForCrimeAOnlyQuoteCreation",
        "VlocityDataPackType": "SObject",
        "VlocityRecordSObjectType": "%vlocity_namespace%__DRMapItem__c"
    },
    {
        "%vlocity_namespace%__DomainObjectAPIName__c": "json",
        "%vlocity_namespace%__DomainObjectCreationOrder__c": 1,
        "%vlocity_namespace%__DomainObjectFieldAPIName__c": "quoteJSON:additionalFields:BillingStreet",
        "%vlocity_namespace%__InterfaceFieldAPIName__c": "Crime:CommunityAssociation:BillingAddress-Block:BillingStreet",
        "%vlocity_namespace%__IsDisabled__c": false,
        "%vlocity_namespace%__IsRequiredForUpsert__c": false,
        "%vlocity_namespace%__MapId__c": "TransformForCrimeAOnlyQuoteCreationCustoma206s0000005Wb1AAEItem13",
        "%vlocity_namespace%__UpsertKey__c": false,
        "Name": "TransformForCrimeAOnlyQuoteCreation",
        "VlocityDataPackType": "SObject",
        "VlocityRecordSObjectType": "%vlocity_namespace%__DRMapItem__c"
    },
    {
        "%vlocity_namespace%__DefaultValue__c": "New",
        "%vlocity_namespace%__DomainObjectAPIName__c": "json",
        "%vlocity_namespace%__DomainObjectCreationOrder__c": 1,
        "%vlocity_namespace%__DomainObjectFieldAPIName__c": "quoteJSON:additionalFields:Business_Type__c",
        "%vlocity_namespace%__IsDisabled__c": false,
        "%vlocity_namespace%__IsRequiredForUpsert__c": false,
        "%vlocity_namespace%__MapId__c": "TransformForCrimeAOnlyQuoteCreationCustoma206s0000005Wb1AAEItem4",
        "%vlocity_namespace%__UpsertKey__c": false,
        "Name": "TransformForCrimeAOnlyQuoteCreation",
        "VlocityDataPackType": "SObject",
        "VlocityRecordSObjectType": "%vlocity_namespace%__DRMapItem__c"
    },
    {
        "%vlocity_namespace%__DefaultValue__c": "PMA",
        "%vlocity_namespace%__DomainObjectAPIName__c": "json",
        "%vlocity_namespace%__DomainObjectCreationOrder__c": 1,
        "%vlocity_namespace%__DomainObjectFieldAPIName__c": "quoteJSON:additionalFields:Carrier__c",
        "%vlocity_namespace%__IsDisabled__c": false,
        "%vlocity_namespace%__IsRequiredForUpsert__c": false,
        "%vlocity_namespace%__MapId__c": "TransformForCrimeAOnlyQuoteCreationCustoma206s0000005Wb1AAEItem3",
        "%vlocity_namespace%__UpsertKey__c": false,
        "Name": "TransformForCrimeAOnlyQuoteCreation",
        "VlocityDataPackType": "SObject",
        "VlocityRecordSObjectType": "%vlocity_namespace%__DRMapItem__c"
    },
    {
        "%vlocity_namespace%__DefaultValue__c": "8139",
        "%vlocity_namespace%__DomainObjectAPIName__c": "json",
        "%vlocity_namespace%__DomainObjectCreationOrder__c": 1,
        "%vlocity_namespace%__DomainObjectFieldAPIName__c": "quoteJSON:additionalFields:Class_Code__c",
        "%vlocity_namespace%__IsDisabled__c": false,
        "%vlocity_namespace%__IsRequiredForUpsert__c": false,
        "%vlocity_namespace%__MapId__c": "TransformForCrimeAOnlyQuoteCreationCustoma206s0000005Wb1AAEItem5",
        "%vlocity_namespace%__UpsertKey__c": false,
        "Name": "TransformForCrimeAOnlyQuoteCreation",
        "VlocityDataPackType": "SObject",
        "VlocityRecordSObjectType": "%vlocity_namespace%__DRMapItem__c"
    },
    {
        "%vlocity_namespace%__DomainObjectAPIName__c": "json",
        "%vlocity_namespace%__DomainObjectCreationOrder__c": 1,
        "%vlocity_namespace%__DomainObjectFieldAPIName__c": "quoteJSON:additionalFields:ContactId",
        "%vlocity_namespace%__InterfaceFieldAPIName__c": "ContactId",
        "%vlocity_namespace%__IsDisabled__c": false,
        "%vlocity_namespace%__IsRequiredForUpsert__c": false,
        "%vlocity_namespace%__MapId__c": "TransformForCrimeAOnlyQuoteCreationCustoma206s0000005Wb1AAEItem10",
        "%vlocity_namespace%__UpsertKey__c": false,
        "Name": "TransformForCrimeAOnlyQuoteCreation",
        "VlocityDataPackType": "SObject",
        "VlocityRecordSObjectType": "%vlocity_namespace%__DRMapItem__c"
    },
    {
        "%vlocity_namespace%__DomainObjectAPIName__c": "json",
        "%vlocity_namespace%__DomainObjectCreationOrder__c": 1,
        "%vlocity_namespace%__DomainObjectFieldAPIName__c": "quoteJSON:additionalFields:Email",
        "%vlocity_namespace%__InterfaceFieldAPIName__c": "Crime:CommunityAssociation:InsuredContactBlock:ContactEmail",
        "%vlocity_namespace%__IsDisabled__c": false,
        "%vlocity_namespace%__IsRequiredForUpsert__c": false,
        "%vlocity_namespace%__MapId__c": "TransformForCrimeAOnlyQuoteCreationCustoma206s0000005Wb1AAEItem17",
        "%vlocity_namespace%__UpsertKey__c": false,
        "Name": "TransformForCrimeAOnlyQuoteCreation",
        "VlocityDataPackType": "SObject",
        "VlocityRecordSObjectType": "%vlocity_namespace%__DRMapItem__c"
    },
    {
        "%vlocity_namespace%__DomainObjectAPIName__c": "json",
        "%vlocity_namespace%__DomainObjectCreationOrder__c": 1,
        "%vlocity_namespace%__DomainObjectFieldAPIName__c": "quoteJSON:additionalFields:ExpirationDate",
        "%vlocity_namespace%__InterfaceFieldAPIName__c": "PolicyCoverage:PolicyTermBlock:CalculatedExpirationDate",
        "%vlocity_namespace%__IsDisabled__c": false,
        "%vlocity_namespace%__IsRequiredForUpsert__c": false,
        "%vlocity_namespace%__MapId__c": "TransformForCrimeAOnlyQuoteCreationCustoma206s0000005Wb1AAEItem33",
        "%vlocity_namespace%__UpsertKey__c": false,
        "Name": "TransformForCrimeAOnlyQuoteCreation",
        "VlocityDataPackType": "SObject",
        "VlocityRecordSObjectType": "%vlocity_namespace%__DRMapItem__c"
    },
    {
        "%vlocity_namespace%__DomainObjectAPIName__c": "json",
        "%vlocity_namespace%__DomainObjectCreationOrder__c": 1,
        "%vlocity_namespace%__DomainObjectFieldAPIName__c": "quoteJSON:additionalFields:FEIN__c",
        "%vlocity_namespace%__InterfaceFieldAPIName__c": "Crime:CommunityAssociation:FinalFEIN",
        "%vlocity_namespace%__IsDisabled__c": false,
        "%vlocity_namespace%__IsRequiredForUpsert__c": false,
        "%vlocity_namespace%__MapId__c": "TransformForCrimeAOnlyQuoteCreationCustoma206s0000005Wb1AAEItem16",
        "%vlocity_namespace%__UpsertKey__c": false,
        "Name": "TransformForCrimeAOnlyQuoteCreation",
        "VlocityDataPackType": "SObject",
        "VlocityRecordSObjectType": "%vlocity_namespace%__DRMapItem__c"
    },
    {
        "%vlocity_namespace%__DefaultValue__c": "Crime",
        "%vlocity_namespace%__DomainObjectAPIName__c": "json",
        "%vlocity_namespace%__DomainObjectCreationOrder__c": 1,
        "%vlocity_namespace%__DomainObjectFieldAPIName__c": "quoteJSON:additionalFields:Line_of_Business__c",
        "%vlocity_namespace%__IsDisabled__c": false,
        "%vlocity_namespace%__IsRequiredForUpsert__c": false,
        "%vlocity_namespace%__MapId__c": "TransformForCrimeAOnlyQuoteCreationCustoma206s0000005Wb1AAEItem6",
        "%vlocity_namespace%__UpsertKey__c": false,
        "Name": "TransformForCrimeAOnlyQuoteCreation",
        "VlocityDataPackType": "SObject",
        "VlocityRecordSObjectType": "%vlocity_namespace%__DRMapItem__c"
    },
    {
        "%vlocity_namespace%__DomainObjectAPIName__c": "json",
        "%vlocity_namespace%__DomainObjectCreationOrder__c": 1,
        "%vlocity_namespace%__DomainObjectFieldAPIName__c": "quoteJSON:additionalFields:NAICS_Code__c",
        "%vlocity_namespace%__InterfaceFieldAPIName__c": "SICNAICSCodes:NAICS",
        "%vlocity_namespace%__IsDisabled__c": false,
        "%vlocity_namespace%__IsRequiredForUpsert__c": false,
        "%vlocity_namespace%__MapId__c": "TransformForCrimeAOnlyQuoteCreationCustoma206s0000005Wb1AAEItem30",
        "%vlocity_namespace%__UpsertKey__c": false,
        "Name": "TransformForCrimeAOnlyQuoteCreation",
        "VlocityDataPackType": "SObject",
        "VlocityRecordSObjectType": "%vlocity_namespace%__DRMapItem__c"
    },
    {
        "%vlocity_namespace%__DomainObjectAPIName__c": "json",
        "%vlocity_namespace%__DomainObjectCreationOrder__c": 1,
        "%vlocity_namespace%__DomainObjectFieldAPIName__c": "quoteJSON:additionalFields:Name",
        "%vlocity_namespace%__InterfaceFieldAPIName__c": "QuoteName",
        "%vlocity_namespace%__IsDisabled__c": false,
        "%vlocity_namespace%__IsRequiredForUpsert__c": false,
        "%vlocity_namespace%__MapId__c": "TransformForCrimeAOnlyQuoteCreationCustoma206s0000005Wb1AAEItem35",
        "%vlocity_namespace%__UpsertKey__c": false,
        "Name": "TransformForCrimeAOnlyQuoteCreation",
        "VlocityDataPackType": "SObject",
        "VlocityRecordSObjectType": "%vlocity_namespace%__DRMapItem__c"
    },
    {
        "%vlocity_namespace%__DomainObjectAPIName__c": "json",
        "%vlocity_namespace%__DomainObjectCreationOrder__c": 1,
        "%vlocity_namespace%__DomainObjectFieldAPIName__c": "quoteJSON:additionalFields:PMC_Contact_First_Name__c",
        "%vlocity_namespace%__InterfaceFieldAPIName__c": "Crime:CommunityAssociation:PropMgmtContactBlock:PropMgmtFName",
        "%vlocity_namespace%__IsDisabled__c": false,
        "%vlocity_namespace%__IsRequiredForUpsert__c": false,
        "%vlocity_namespace%__MapId__c": "TransformForCrimeAOnlyQuoteCreationCustom4356",
        "%vlocity_namespace%__UpsertKey__c": false,
        "Name": "TransformForCrimeAOnlyQuoteCreation",
        "VlocityDataPackType": "SObject",
        "VlocityRecordSObjectType": "%vlocity_namespace%__DRMapItem__c"
    },
    {
        "%vlocity_namespace%__DomainObjectAPIName__c": "json",
        "%vlocity_namespace%__DomainObjectCreationOrder__c": 1,
        "%vlocity_namespace%__DomainObjectFieldAPIName__c": "quoteJSON:additionalFields:PMC_Contact_Last_Name__c",
        "%vlocity_namespace%__InterfaceFieldAPIName__c": "Crime:CommunityAssociation:PropMgmtContactBlock:PropMgmtLName =",
        "%vlocity_namespace%__IsDisabled__c": false,
        "%vlocity_namespace%__IsRequiredForUpsert__c": false,
        "%vlocity_namespace%__MapId__c": "TransformForCrimeAOnlyQuoteCreationCustom4203",
        "%vlocity_namespace%__UpsertKey__c": false,
        "Name": "TransformForCrimeAOnlyQuoteCreation",
        "VlocityDataPackType": "SObject",
        "VlocityRecordSObjectType": "%vlocity_namespace%__DRMapItem__c"
    },
    {
        "%vlocity_namespace%__DomainObjectAPIName__c": "json",
        "%vlocity_namespace%__DomainObjectCreationOrder__c": 1,
        "%vlocity_namespace%__DomainObjectFieldAPIName__c": "quoteJSON:additionalFields:Phone",
        "%vlocity_namespace%__InterfaceFieldAPIName__c": "Crime:CommunityAssociation:InsuredContactBlock:ContactPhone",
        "%vlocity_namespace%__IsDisabled__c": false,
        "%vlocity_namespace%__IsRequiredForUpsert__c": false,
        "%vlocity_namespace%__MapId__c": "TransformForCrimeAOnlyQuoteCreationCustoma206s0000005Wb1AAEItem18",
        "%vlocity_namespace%__UpsertKey__c": false,
        "Name": "TransformForCrimeAOnlyQuoteCreation",
        "VlocityDataPackType": "SObject",
        "VlocityRecordSObjectType": "%vlocity_namespace%__DRMapItem__c"
    },
    {
        "%vlocity_namespace%__DomainObjectAPIName__c": "json",
        "%vlocity_namespace%__DomainObjectCreationOrder__c": 1,
        "%vlocity_namespace%__DomainObjectFieldAPIName__c": "quoteJSON:additionalFields:PropertyManagementCompanyname__c",
        "%vlocity_namespace%__InterfaceFieldAPIName__c": "NewPMCName",
        "%vlocity_namespace%__IsDisabled__c": false,
        "%vlocity_namespace%__IsRequiredForUpsert__c": false,
        "%vlocity_namespace%__MapId__c": "TransformForCrimeAOnlyQuoteCreationCustom6574",
        "%vlocity_namespace%__UpsertKey__c": false,
        "Name": "TransformForCrimeAOnlyQuoteCreation",
        "VlocityDataPackType": "SObject",
        "VlocityRecordSObjectType": "%vlocity_namespace%__DRMapItem__c"
    },
    {
        "%vlocity_namespace%__DomainObjectAPIName__c": "json",
        "%vlocity_namespace%__DomainObjectCreationOrder__c": 1,
        "%vlocity_namespace%__DomainObjectFieldAPIName__c": "quoteJSON:additionalFields:QuoteJson__c",
        "%vlocity_namespace%__DomainObjectFieldType__c": "JSON",
        "%vlocity_namespace%__InterfaceFieldAPIName__c": "TransformToStoreQuoteJson:StoredQuote",
        "%vlocity_namespace%__IsDisabled__c": false,
        "%vlocity_namespace%__IsRequiredForUpsert__c": false,
        "%vlocity_namespace%__MapId__c": "TransformForCrimeAOnlyQuoteCreationCustoma206s0000005Wb1AAEItem38",
        "%vlocity_namespace%__UpsertKey__c": false,
        "Name": "TransformForCrimeAOnlyQuoteCreation",
        "VlocityDataPackType": "SObject",
        "VlocityRecordSObjectType": "%vlocity_namespace%__DRMapItem__c"
    },
    {
        "%vlocity_namespace%__DomainObjectAPIName__c": "json",
        "%vlocity_namespace%__DomainObjectCreationOrder__c": 1,
        "%vlocity_namespace%__DomainObjectFieldAPIName__c": "quoteJSON:additionalFields:QuoteToCity",
        "%vlocity_namespace%__InterfaceFieldAPIName__c": "Crime:CommunityAssociation:LocationAddress-Block:LocationCity",
        "%vlocity_namespace%__IsDisabled__c": false,
        "%vlocity_namespace%__IsRequiredForUpsert__c": false,
        "%vlocity_namespace%__MapId__c": "TransformForCrimeAOnlyQuoteCreationCustoma206s0000005Wb1AAEItem19",
        "%vlocity_namespace%__UpsertKey__c": false,
        "Name": "TransformForCrimeAOnlyQuoteCreation",
        "VlocityDataPackType": "SObject",
        "VlocityRecordSObjectType": "%vlocity_namespace%__DRMapItem__c"
    },
    {
        "%vlocity_namespace%__DomainObjectAPIName__c": "json",
        "%vlocity_namespace%__DomainObjectCreationOrder__c": 1,
        "%vlocity_namespace%__DomainObjectFieldAPIName__c": "quoteJSON:additionalFields:QuoteToPostalCode",
        "%vlocity_namespace%__InterfaceFieldAPIName__c": "Crime:CommunityAssociation:LocationAddress-Block:LocationZip",
        "%vlocity_namespace%__IsDisabled__c": false,
        "%vlocity_namespace%__IsRequiredForUpsert__c": false,
        "%vlocity_namespace%__MapId__c": "TransformForCrimeAOnlyQuoteCreationCustoma206s0000005Wb1AAEItem22",
        "%vlocity_namespace%__UpsertKey__c": false,
        "Name": "TransformForCrimeAOnlyQuoteCreation",
        "VlocityDataPackType": "SObject",
        "VlocityRecordSObjectType": "%vlocity_namespace%__DRMapItem__c"
    },
    {
        "%vlocity_namespace%__DomainObjectAPIName__c": "json",
        "%vlocity_namespace%__DomainObjectCreationOrder__c": 1,
        "%vlocity_namespace%__DomainObjectFieldAPIName__c": "quoteJSON:additionalFields:QuoteToState",
        "%vlocity_namespace%__InterfaceFieldAPIName__c": "Crime:CommunityAssociation:LocationAddress-Block:LocationState",
        "%vlocity_namespace%__IsDisabled__c": false,
        "%vlocity_namespace%__IsRequiredForUpsert__c": false,
        "%vlocity_namespace%__MapId__c": "TransformForCrimeAOnlyQuoteCreationCustoma206s0000005Wb1AAEItem20",
        "%vlocity_namespace%__UpsertKey__c": false,
        "Name": "TransformForCrimeAOnlyQuoteCreation",
        "VlocityDataPackType": "SObject",
        "VlocityRecordSObjectType": "%vlocity_namespace%__DRMapItem__c"
    },
    {
        "%vlocity_namespace%__DomainObjectAPIName__c": "json",
        "%vlocity_namespace%__DomainObjectCreationOrder__c": 1,
        "%vlocity_namespace%__DomainObjectFieldAPIName__c": "quoteJSON:additionalFields:QuoteToStreet",
        "%vlocity_namespace%__InterfaceFieldAPIName__c": "Crime:CommunityAssociation:LocationAddress-Block:LocationStreet",
        "%vlocity_namespace%__IsDisabled__c": false,
        "%vlocity_namespace%__IsRequiredForUpsert__c": false,
        "%vlocity_namespace%__MapId__c": "TransformForCrimeAOnlyQuoteCreationCustoma206s0000005Wb1AAEItem21",
        "%vlocity_namespace%__UpsertKey__c": false,
        "Name": "TransformForCrimeAOnlyQuoteCreation",
        "VlocityDataPackType": "SObject",
        "VlocityRecordSObjectType": "%vlocity_namespace%__DRMapItem__c"
    },
    {
        "%vlocity_namespace%__DomainObjectAPIName__c": "json",
        "%vlocity_namespace%__DomainObjectCreationOrder__c": 1,
        "%vlocity_namespace%__DomainObjectFieldAPIName__c": "quoteJSON:additionalFields:Reason_Code_c",
        "%vlocity_namespace%__InterfaceFieldAPIName__c": "ReasonCode",
        "%vlocity_namespace%__IsDisabled__c": false,
        "%vlocity_namespace%__IsRequiredForUpsert__c": false,
        "%vlocity_namespace%__MapId__c": "TransformForCrimeAOnlyQuoteCreationCustom1515",
        "%vlocity_namespace%__TransformValuesMap__c": "{\"Approved\":\"System Approved\"}",
        "%vlocity_namespace%__UpsertKey__c": false,
        "Name": "TransformForCrimeAOnlyQuoteCreation",
        "VlocityDataPackType": "SObject",
        "VlocityRecordSObjectType": "%vlocity_namespace%__DRMapItem__c"
    },
    {
        "%vlocity_namespace%__DomainObjectAPIName__c": "json",
        "%vlocity_namespace%__DomainObjectCreationOrder__c": 1,
        "%vlocity_namespace%__DomainObjectFieldAPIName__c": "quoteJSON:additionalFields:SIC_Code__c",
        "%vlocity_namespace%__InterfaceFieldAPIName__c": "SICNAICSCodes:SIC",
        "%vlocity_namespace%__IsDisabled__c": false,
        "%vlocity_namespace%__IsRequiredForUpsert__c": false,
        "%vlocity_namespace%__MapId__c": "TransformForCrimeAOnlyQuoteCreationCustoma206s0000005Wb1AAEItem31",
        "%vlocity_namespace%__UpsertKey__c": false,
        "Name": "TransformForCrimeAOnlyQuoteCreation",
        "VlocityDataPackType": "SObject",
        "VlocityRecordSObjectType": "%vlocity_namespace%__DRMapItem__c"
    },
    {
        "%vlocity_namespace%__DomainObjectAPIName__c": "json",
        "%vlocity_namespace%__DomainObjectCreationOrder__c": 1,
        "%vlocity_namespace%__DomainObjectFieldAPIName__c": "quoteJSON:additionalFields:ShippingCity",
        "%vlocity_namespace%__InterfaceFieldAPIName__c": "Crime:CommunityAssociation:MailingAddress-Block:MailingCity",
        "%vlocity_namespace%__IsDisabled__c": false,
        "%vlocity_namespace%__IsRequiredForUpsert__c": false,
        "%vlocity_namespace%__MapId__c": "TransformForCrimeAOnlyQuoteCreationCustoma206s0000005Wb1AAEItem23",
        "%vlocity_namespace%__UpsertKey__c": false,
        "Name": "TransformForCrimeAOnlyQuoteCreation",
        "VlocityDataPackType": "SObject",
        "VlocityRecordSObjectType": "%vlocity_namespace%__DRMapItem__c"
    },
    {
        "%vlocity_namespace%__DomainObjectAPIName__c": "json",
        "%vlocity_namespace%__DomainObjectCreationOrder__c": 1,
        "%vlocity_namespace%__DomainObjectFieldAPIName__c": "quoteJSON:additionalFields:ShippingName",
        "%vlocity_namespace%__InterfaceFieldAPIName__c": "Crime:CommunityAssociation:MailingCareOf",
        "%vlocity_namespace%__IsDisabled__c": false,
        "%vlocity_namespace%__IsRequiredForUpsert__c": false,
        "%vlocity_namespace%__MapId__c": "TransformForCrimeAOnlyQuoteCreationCustoma206s0000005Wb1AAEItem27",
        "%vlocity_namespace%__UpsertKey__c": false,
        "Name": "TransformForCrimeAOnlyQuoteCreation",
        "VlocityDataPackType": "SObject",
        "VlocityRecordSObjectType": "%vlocity_namespace%__DRMapItem__c"
    },
    {
        "%vlocity_namespace%__DomainObjectAPIName__c": "json",
        "%vlocity_namespace%__DomainObjectCreationOrder__c": 1,
        "%vlocity_namespace%__DomainObjectFieldAPIName__c": "quoteJSON:additionalFields:ShippingPostalCode",
        "%vlocity_namespace%__InterfaceFieldAPIName__c": "Crime:CommunityAssociation:MailingAddress-Block:MailingZip",
        "%vlocity_namespace%__IsDisabled__c": false,
        "%vlocity_namespace%__IsRequiredForUpsert__c": false,
        "%vlocity_namespace%__MapId__c": "TransformForCrimeAOnlyQuoteCreationCustoma206s0000005Wb1AAEItem26",
        "%vlocity_namespace%__UpsertKey__c": false,
        "Name": "TransformForCrimeAOnlyQuoteCreation",
        "VlocityDataPackType": "SObject",
        "VlocityRecordSObjectType": "%vlocity_namespace%__DRMapItem__c"
    },
    {
        "%vlocity_namespace%__DomainObjectAPIName__c": "json",
        "%vlocity_namespace%__DomainObjectCreationOrder__c": 1,
        "%vlocity_namespace%__DomainObjectFieldAPIName__c": "quoteJSON:additionalFields:ShippingState",
        "%vlocity_namespace%__InterfaceFieldAPIName__c": "Crime:CommunityAssociation:MailingAddress-Block:MailingState",
        "%vlocity_namespace%__IsDisabled__c": false,
        "%vlocity_namespace%__IsRequiredForUpsert__c": false,
        "%vlocity_namespace%__MapId__c": "TransformForCrimeAOnlyQuoteCreationCustoma206s0000005Wb1AAEItem24",
        "%vlocity_namespace%__UpsertKey__c": false,
        "Name": "TransformForCrimeAOnlyQuoteCreation",
        "VlocityDataPackType": "SObject",
        "VlocityRecordSObjectType": "%vlocity_namespace%__DRMapItem__c"
    },
    {
        "%vlocity_namespace%__DomainObjectAPIName__c": "json",
        "%vlocity_namespace%__DomainObjectCreationOrder__c": 1,
        "%vlocity_namespace%__DomainObjectFieldAPIName__c": "quoteJSON:additionalFields:ShippingStreet",
        "%vlocity_namespace%__InterfaceFieldAPIName__c": "Crime:CommunityAssociation:MailingAddress-Block:MailingStreet",
        "%vlocity_namespace%__IsDisabled__c": false,
        "%vlocity_namespace%__IsRequiredForUpsert__c": false,
        "%vlocity_namespace%__MapId__c": "TransformForCrimeAOnlyQuoteCreationCustoma206s0000005Wb1AAEItem25",
        "%vlocity_namespace%__UpsertKey__c": false,
        "Name": "TransformForCrimeAOnlyQuoteCreation",
        "VlocityDataPackType": "SObject",
        "VlocityRecordSObjectType": "%vlocity_namespace%__DRMapItem__c"
    },
    {
        "%vlocity_namespace%__DomainObjectAPIName__c": "json",
        "%vlocity_namespace%__DomainObjectCreationOrder__c": 1,
        "%vlocity_namespace%__DomainObjectFieldAPIName__c": "quoteJSON:additionalFields:Status",
        "%vlocity_namespace%__InterfaceFieldAPIName__c": "WCRuleStatus",
        "%vlocity_namespace%__IsDisabled__c": false,
        "%vlocity_namespace%__IsRequiredForUpsert__c": false,
        "%vlocity_namespace%__MapId__c": "TransformForCrimeAOnlyQuoteCreationCustoma206s0000005Wb1AAEItem29",
        "%vlocity_namespace%__TransformValuesMap__c": "{\"Referral\":\"Underwriting Review\",\"Application\":\"Application\",\"Declined\":\"Declined\"}",
        "%vlocity_namespace%__UpsertKey__c": false,
        "Name": "TransformForCrimeAOnlyQuoteCreation",
        "VlocityDataPackType": "SObject",
        "VlocityRecordSObjectType": "%vlocity_namespace%__DRMapItem__c"
    },
    {
        "%vlocity_namespace%__DomainObjectAPIName__c": "json",
        "%vlocity_namespace%__DomainObjectCreationOrder__c": 1,
        "%vlocity_namespace%__DomainObjectFieldAPIName__c": "quoteJSON:additionalFields:Sub_Status__c",
        "%vlocity_namespace%__InterfaceFieldAPIName__c": "SubStatus",
        "%vlocity_namespace%__IsDisabled__c": false,
        "%vlocity_namespace%__IsRequiredForUpsert__c": false,
        "%vlocity_namespace%__MapId__c": "TransformForCrimeAOnlyQuoteCreationCustom9787",
        "%vlocity_namespace%__UpsertKey__c": false,
        "Name": "TransformForCrimeAOnlyQuoteCreation",
        "VlocityDataPackType": "SObject",
        "VlocityRecordSObjectType": "%vlocity_namespace%__DRMapItem__c"
    },
    {
        "%vlocity_namespace%__DomainObjectAPIName__c": "json",
        "%vlocity_namespace%__DomainObjectCreationOrder__c": 1,
        "%vlocity_namespace%__DomainObjectFieldAPIName__c": "quoteJSON:additionalFields:Tax",
        "%vlocity_namespace%__InterfaceFieldAPIName__c": "SelectedProductTax",
        "%vlocity_namespace%__IsDisabled__c": false,
        "%vlocity_namespace%__IsRequiredForUpsert__c": false,
        "%vlocity_namespace%__MapId__c": "TransformForCrimeAOnlyQuoteCreationCustoma206s0000005Wb1AAEItem37",
        "%vlocity_namespace%__UpsertKey__c": false,
        "Name": "TransformForCrimeAOnlyQuoteCreation",
        "VlocityDataPackType": "SObject",
        "VlocityRecordSObjectType": "%vlocity_namespace%__DRMapItem__c"
    },
    {
        "%vlocity_namespace%__DomainObjectAPIName__c": "json",
        "%vlocity_namespace%__DomainObjectCreationOrder__c": 1,
        "%vlocity_namespace%__DomainObjectFieldAPIName__c": "quoteJSON:effectiveDate",
        "%vlocity_namespace%__InterfaceFieldAPIName__c": "PolicyCoverage:PolicyTermBlock:EffectiveDate",
        "%vlocity_namespace%__IsDisabled__c": false,
        "%vlocity_namespace%__IsRequiredForUpsert__c": false,
        "%vlocity_namespace%__MapId__c": "TransformForCrimeAOnlyQuoteCreationCustoma206s0000005Wb1AAEItem34",
        "%vlocity_namespace%__UpsertKey__c": false,
        "Name": "TransformForCrimeAOnlyQuoteCreation",
        "VlocityDataPackType": "SObject",
        "VlocityRecordSObjectType": "%vlocity_namespace%__DRMapItem__c"
    },
    {
        "%vlocity_namespace%__DomainObjectAPIName__c": "json",
        "%vlocity_namespace%__DomainObjectCreationOrder__c": 1,
        "%vlocity_namespace%__DomainObjectFieldAPIName__c": "quoteJSON:endDate",
        "%vlocity_namespace%__IsDisabled__c": false,
        "%vlocity_namespace%__IsRequiredForUpsert__c": false,
        "%vlocity_namespace%__MapId__c": "TransformForCrimeAOnlyQuoteCreationCustoma206s0000005Wb1AAEItem2",
        "%vlocity_namespace%__UpsertKey__c": false,
        "Name": "TransformForCrimeAOnlyQuoteCreation",
        "VlocityDataPackType": "SObject",
        "VlocityRecordSObjectType": "%vlocity_namespace%__DRMapItem__c"
    },
    {
        "%vlocity_namespace%__DomainObjectAPIName__c": "json",
        "%vlocity_namespace%__DomainObjectCreationOrder__c": 1,
        "%vlocity_namespace%__DomainObjectFieldAPIName__c": "quoteJSON:opportunityId",
        "%vlocity_namespace%__InterfaceFieldAPIName__c": "opportunityId",
        "%vlocity_namespace%__IsDisabled__c": false,
        "%vlocity_namespace%__IsRequiredForUpsert__c": false,
        "%vlocity_namespace%__MapId__c": "TransformForCrimeAOnlyQuoteCreationCustoma206s0000005Wb1AAEItem32",
        "%vlocity_namespace%__UpsertKey__c": false,
        "Name": "TransformForCrimeAOnlyQuoteCreation",
        "VlocityDataPackType": "SObject",
        "VlocityRecordSObjectType": "%vlocity_namespace%__DRMapItem__c"
    },
    {
        "%vlocity_namespace%__DomainObjectAPIName__c": "json",
        "%vlocity_namespace%__DomainObjectCreationOrder__c": 1,
        "%vlocity_namespace%__DomainObjectFieldAPIName__c": "quoteJSON:productConfigurationDetail:records",
        "%vlocity_namespace%__DomainObjectFieldType__c": "List<Map>",
        "%vlocity_namespace%__InterfaceFieldAPIName__c": "QuotingProductsCrimeAOnly:records",
        "%vlocity_namespace%__IsDisabled__c": false,
        "%vlocity_namespace%__IsRequiredForUpsert__c": false,
        "%vlocity_namespace%__MapId__c": "TransformForCrimeAOnlyQuoteCreationCustoma206s0000005Wb1AAEItem36",
        "%vlocity_namespace%__UpsertKey__c": false,
        "Name": "TransformForCrimeAOnlyQuoteCreation",
        "VlocityDataPackType": "SObject",
        "VlocityRecordSObjectType": "%vlocity_namespace%__DRMapItem__c"
    },
    {
        "%vlocity_namespace%__DefaultValue__c": "Annual",
        "%vlocity_namespace%__DomainObjectAPIName__c": "json",
        "%vlocity_namespace%__DomainObjectCreationOrder__c": 1,
        "%vlocity_namespace%__DomainObjectFieldAPIName__c": "quoteJSON:term",
        "%vlocity_namespace%__IsDisabled__c": false,
        "%vlocity_namespace%__IsRequiredForUpsert__c": false,
        "%vlocity_namespace%__MapId__c": "TransformForCrimeAOnlyQuoteCreationCustoma206s0000005Wb1AAEItem8",
        "%vlocity_namespace%__UpsertKey__c": false,
        "Name": "TransformForCrimeAOnlyQuoteCreation",
        "VlocityDataPackType": "SObject",
        "VlocityRecordSObjectType": "%vlocity_namespace%__DRMapItem__c"
    }
]