{
    "quoteJSON": {
        "accountId": "%accountId%",
        "additionalFields": {
            "%vlocity_namespace%__Term__c": "Annual",
            "ExpirationDate": "%Crime:EndDate%",
            "Name": "%Account_1:Name,'-',%SelectCrimeProduct:ProductSelection:records:ProductCode%,'-',%PolicyCoverage:PolicyTermBlock:EffectiveDate%"
        },
        "effectiveDate": "%Crime:EffectiveDate%",
        "endDate": "%Crime:EndDate%",
        "opportunityId": "%opportunityId%",
        "productConfigurationDetail": {
            "records": "%QuotingProducts:records%"
        },
        "term": "Annual"
    }
}