{
    "%vlocity_namespace%__Author__c": "Vlocity",
    "%vlocity_namespace%__CSS__c": "",
    "%vlocity_namespace%__CustomJavascript__c": "list-card-canvas-slds.js",
    "%vlocity_namespace%__Definition__c": "",
    "%vlocity_namespace%__Description__c": "list-card-canvas-slds\n\nA lightning table based design. Each inner card is a row in the table. This container is designed to work with the list-card-canvas.",
    "%vlocity_namespace%__DisplayOn__c": "",
    "%vlocity_namespace%__ExternalID__c": "list-card-canvas-slds/2/Vlocity/1522658741562",
    "%vlocity_namespace%__HTML__c": "list-card-canvas-slds.html",
    "%vlocity_namespace%__ParentID__c": "",
    "%vlocity_namespace%__SampleJson__c": "",
    "%vlocity_namespace%__Sass__c": "",
    "%vlocity_namespace%__Type__c": "containers",
    "%vlocity_namespace%__Version__c": 2,
    "Name": "list-card-canvas-slds",
    "VlocityDataPackType": "SObject",
    "VlocityRecordSObjectType": "%vlocity_namespace%__VlocityUITemplate__c",
    "VlocityRecordSourceKey": "%vlocity_namespace%__VlocityUITemplate__c/list-card-canvas-slds",
    "sourceOrgUrl": "/apex/vlocity_ins__uitemplatedesigner?id=a8C4W0000004iWCUAY"
}