[
    {
        "%vlocity_namespace%__AttributeDefaultValues__c": "",
        "%vlocity_namespace%__AttributeMetadataChanges__c": "",
        "%vlocity_namespace%__AttributeMetadata__c": "",
        "%vlocity_namespace%__AttributeRules__c": "",
        "%vlocity_namespace%__JSONAttribute__c": "{\"coverageAttrib\":[{\"$$AttributeDefinitionStart$$\":null,\"objectid__c\":\"a6B3K0000004GJOUA2\",\"attributeid__c\":\"a293K000000MBa6QAG\",\"attributecategoryid__c\":\"a283K0000004uNxQAI\",\"categorycode__c\":\"coverageAttrib\",\"categoryname__c\":\"Coverage Attributes\",\"attributeuniquecode__c\":\"liabilityLimit\",\"attributeconfigurable__c\":true,\"attributedisplaysequence__c\":\"0\",\"attributefilterable__c\":true,\"attributecloneable__c\":true,\"isactive__c\":true,\"attributedisplayname__c\":\"Excess Coverage Limit\",\"displaysequence__c\":null,\"categorydisplaysequence__c\":10,\"customconfiguitemplate__c\":null,\"formatmask__c\":null,\"hasrule__c\":true,\"isconfigurable__c\":true,\"ishidden__c\":false,\"valueinnumber__c\":100000,\"objecttype__c\":\"Product Child Item\",\"querycode__c\":null,\"isreadonly__c\":true,\"isnottranslatable__c\":false,\"isquerydriven__c\":false,\"querylabel__c\":null,\"id\":\"a263K0000009IgBQAU\",\"isrequired__c\":false,\"rulemessage__c\":null,\"uidisplaytype__c\":\"Dropdown\",\"value__c\":\"100000\",\"valuedatatype__c\":\"Picklist\",\"valuedescription__c\":null,\"attributegrouptype__c\":null,\"attributeRunTimeInfo\":{\"dataType\":\"Picklist\",\"uiDisplayType\":\"Dropdown\",\"default\":[{\"value\":\"100000\",\"id\":0,\"displayText\":\"$100,000\"}],\"values\":[{\"value\":\"100000\",\"id\":0,\"displayText\":\"$100,000\"},{\"value\":\"200000\",\"id\":1,\"displayText\":\"$200,000\"},{\"value\":\"300000\",\"id\":2,\"displayText\":\"$300,000\"},{\"value\":\"400000\",\"id\":3,\"displayText\":\"$400,000\"},{\"value\":\"500000\",\"id\":4,\"displayText\":\"$500,000\"},{\"value\":\"600000\",\"id\":5,\"displayText\":\"$600,000\"},{\"value\":\"700000\",\"id\":6,\"displayText\":\"$700,000\"},{\"value\":\"800000\",\"id\":7,\"displayText\":\"$800,000\"},{\"value\":\"900000\",\"id\":8,\"displayText\":\"$900,000\"},{\"value\":\"1000000\",\"id\":9,\"displayText\":\"$1,000,000\"},{\"value\":\"1250000\",\"id\":10,\"displayText\":\"$1,250,000\"},{\"value\":\"1500000\",\"id\":11,\"displayText\":\"$1,500,000\"},{\"value\":\"1750000\",\"id\":12,\"displayText\":\"$1,750,000\"},{\"value\":\"2000000\",\"id\":13,\"displayText\":\"$2,000,000\"},{\"value\":\"2250000\",\"id\":14,\"displayText\":\"$2,250,000\"},{\"value\":\"2500000\",\"id\":15,\"displayText\":\"$2,500,000\"},{\"value\":\"2750000\",\"id\":16,\"displayText\":\"$2,750,000\"},{\"value\":\"3000000\",\"id\":17,\"displayText\":\"$3,000,000\"},{\"value\":\"3250000\",\"id\":18,\"displayText\":\"$3,250,000\"},{\"value\":\"3500000\",\"id\":19,\"displayText\":\"$3,500,000\"},{\"value\":\"3750000\",\"id\":20,\"displayText\":\"$3,750,000\"},{\"value\":\"4000000\",\"id\":21,\"displayText\":\"$4,000,000\"}]},\"$$AttributeDefinitionEnd$$\":null},{\"$$AttributeDefinitionStart$$\":null,\"objectid__c\":\"a6B3K0000004GJOUA2\",\"attributeid__c\":\"a293K000000MBa3QAG\",\"attributecategoryid__c\":\"a283K0000004uNxQAI\",\"categorycode__c\":\"coverageAttrib\",\"categoryname__c\":\"Coverage Attributes\",\"attributeuniquecode__c\":\"coverageCode\",\"attributeconfigurable__c\":true,\"attributedisplaysequence__c\":\"1\",\"attributefilterable__c\":true,\"attributecloneable__c\":true,\"isactive__c\":true,\"attributedisplayname__c\":\"Crime Product Code\",\"displaysequence__c\":null,\"categorydisplaysequence__c\":10,\"customconfiguitemplate__c\":null,\"formatmask__c\":null,\"hasrule__c\":true,\"isconfigurable__c\":true,\"ishidden__c\":true,\"valueinnumber__c\":null,\"objecttype__c\":\"Product Child Item\",\"querycode__c\":null,\"isreadonly__c\":true,\"isnottranslatable__c\":false,\"isquerydriven__c\":false,\"querylabel__c\":null,\"id\":\"a263K0000009IgAQAU\",\"isrequired__c\":false,\"rulemessage__c\":null,\"uidisplaytype__c\":\"Text\",\"value__c\":null,\"valuedatatype__c\":\"Text\",\"valuedescription__c\":null,\"attributegrouptype__c\":null,\"attributeRunTimeInfo\":{\"dataType\":\"Text\",\"uiDisplayType\":\"Text\"},\"$$AttributeDefinitionEnd$$\":null}]}",
        "%vlocity_namespace%__ProductChildItemId__c": "",
        "%vlocity_namespace%__ProductId__c": {
            "%vlocity_namespace%__GlobalKey__c": "30a4fa49-78f1-f63f-0f26-341d3f3c2d75",
            "VlocityDataPackType": "VlocityMatchingKeyObject",
            "VlocityMatchingRecordSourceKey": "Product2/30a4fa49-78f1-f63f-0f26-341d3f3c2d75",
            "VlocityRecordSObjectType": "Product2"
        },
        "VlocityDataPackType": "SObject",
        "VlocityRecordSObjectType": "%vlocity_namespace%__CompiledAttributeOverride__c",
        "VlocityRecordSourceKey": "%vlocity_namespace%__CompiledAttributeOverride__c/Generated-1245306025"
    },
    {
        "%vlocity_namespace%__AttributeDefaultValues__c": {
            "coverageCode": null,
            "liabilityLimit": "100000"
        },
        "%vlocity_namespace%__AttributeMetadataChanges__c": "",
        "%vlocity_namespace%__AttributeMetadata__c": {
            "records": [
                {
                    "Code__c": "coverageAttrib",
                    "Name": "Coverage Attributes",
                    "displaySequence": 10,
                    "productAttributes": {
                        "records": [
                            {
                                "cloneable": true,
                                "code": "liabilityLimit",
                                "dataType": "text",
                                "disabled": true,
                                "displaySequence": 0,
                                "filterable": true,
                                "hasRules": true,
                                "hidden": false,
                                "inputType": "dropdown",
                                "isNotTranslatable": false,
                                "label": "Excess Coverage Limit",
                                "multiselect": false,
                                "readonly": true,
                                "required": false,
                                "userValues": null,
                                "values": [
                                    {
                                        "disabled": true,
                                        "id": "0",
                                        "label": "$100,000",
                                        "readonly": true,
                                        "value": "100000"
                                    },
                                    {
                                        "disabled": true,
                                        "id": "1",
                                        "label": "$200,000",
                                        "readonly": true,
                                        "value": "200000"
                                    },
                                    {
                                        "disabled": true,
                                        "id": "2",
                                        "label": "$300,000",
                                        "readonly": true,
                                        "value": "300000"
                                    },
                                    {
                                        "disabled": true,
                                        "id": "3",
                                        "label": "$400,000",
                                        "readonly": true,
                                        "value": "400000"
                                    },
                                    {
                                        "disabled": true,
                                        "id": "4",
                                        "label": "$500,000",
                                        "readonly": true,
                                        "value": "500000"
                                    },
                                    {
                                        "disabled": true,
                                        "id": "5",
                                        "label": "$600,000",
                                        "readonly": true,
                                        "value": "600000"
                                    },
                                    {
                                        "disabled": true,
                                        "id": "6",
                                        "label": "$700,000",
                                        "readonly": true,
                                        "value": "700000"
                                    },
                                    {
                                        "disabled": true,
                                        "id": "7",
                                        "label": "$800,000",
                                        "readonly": true,
                                        "value": "800000"
                                    },
                                    {
                                        "disabled": true,
                                        "id": "8",
                                        "label": "$900,000",
                                        "readonly": true,
                                        "value": "900000"
                                    },
                                    {
                                        "disabled": true,
                                        "id": "9",
                                        "label": "$1,000,000",
                                        "readonly": true,
                                        "value": "1000000"
                                    },
                                    {
                                        "disabled": true,
                                        "id": "10",
                                        "label": "$1,250,000",
                                        "readonly": true,
                                        "value": "1250000"
                                    },
                                    {
                                        "disabled": true,
                                        "id": "11",
                                        "label": "$1,500,000",
                                        "readonly": true,
                                        "value": "1500000"
                                    },
                                    {
                                        "disabled": true,
                                        "id": "12",
                                        "label": "$1,750,000",
                                        "readonly": true,
                                        "value": "1750000"
                                    },
                                    {
                                        "disabled": true,
                                        "id": "13",
                                        "label": "$2,000,000",
                                        "readonly": true,
                                        "value": "2000000"
                                    },
                                    {
                                        "disabled": true,
                                        "id": "14",
                                        "label": "$2,250,000",
                                        "readonly": true,
                                        "value": "2250000"
                                    },
                                    {
                                        "disabled": true,
                                        "id": "15",
                                        "label": "$2,500,000",
                                        "readonly": true,
                                        "value": "2500000"
                                    },
                                    {
                                        "disabled": true,
                                        "id": "16",
                                        "label": "$2,750,000",
                                        "readonly": true,
                                        "value": "2750000"
                                    },
                                    {
                                        "disabled": true,
                                        "id": "17",
                                        "label": "$3,000,000",
                                        "readonly": true,
                                        "value": "3000000"
                                    },
                                    {
                                        "disabled": true,
                                        "id": "18",
                                        "label": "$3,250,000",
                                        "readonly": true,
                                        "value": "3250000"
                                    },
                                    {
                                        "disabled": true,
                                        "id": "19",
                                        "label": "$3,500,000",
                                        "readonly": true,
                                        "value": "3500000"
                                    },
                                    {
                                        "disabled": true,
                                        "id": "20",
                                        "label": "$3,750,000",
                                        "readonly": true,
                                        "value": "3750000"
                                    },
                                    {
                                        "disabled": true,
                                        "id": "21",
                                        "label": "$4,000,000",
                                        "readonly": true,
                                        "value": "4000000"
                                    }
                                ]
                            },
                            {
                                "cloneable": true,
                                "code": "coverageCode",
                                "dataType": "text",
                                "disabled": true,
                                "displaySequence": 1,
                                "filterable": true,
                                "hasRules": true,
                                "hidden": true,
                                "inputType": "text",
                                "isNotTranslatable": false,
                                "label": "Crime Product Code",
                                "multiselect": false,
                                "readonly": true,
                                "required": false,
                                "userValues": null,
                                "values": [
                                    {
                                        "disabled": true,
                                        "readonly": true
                                    }
                                ]
                            }
                        ],
                        "totalSize": 2
                    }
                }
            ],
            "totalSize": 1
        },
        "%vlocity_namespace%__AttributeRules__c": {
            "coverageCode": {
                "attributeRules": [
                    {
                        "actions": {
                            "Set Value": {
                                "client": {
                                    "params": {
                                    }
                                },
                                "remote": {
                                    "params": {
                                    }
                                },
                                "rest": {
                                    "link": null,
                                    "method": null,
                                    "params": {
                                    }
                                }
                            }
                        },
                        "ruleType": "Set Value",
                        "valueExpression": "ECLCOV.coverageCode"
                    }
                ]
            },
            "liabilityLimit": {
                "attributeRules": [
                    {
                        "actions": {
                            "Set Value": {
                                "client": {
                                    "params": {
                                    }
                                },
                                "remote": {
                                    "params": {
                                    }
                                },
                                "rest": {
                                    "link": null,
                                    "method": null,
                                    "params": {
                                    }
                                }
                            }
                        },
                        "expression": "ECLCOV.liabilityLimit > 1000000",
                        "ruleType": "Set Value",
                        "valueExpression": "ECLCOV.liabilityLimit - 1000000"
                    }
                ]
            }
        },
        "%vlocity_namespace%__JSONAttribute__c": "",
        "%vlocity_namespace%__ProductChildItemId__c": {
            "%vlocity_namespace%__GlobalKey__c": "e8d876b6-ff2e-b3ac-8aab-cbe10ac9db15",
            "VlocityDataPackType": "VlocityMatchingKeyObject",
            "VlocityMatchingRecordSourceKey": "%vlocity_namespace%__ProductChildItem__c/e8d876b6-ff2e-b3ac-8aab-cbe10ac9db15",
            "VlocityRecordSObjectType": "%vlocity_namespace%__ProductChildItem__c"
        },
        "%vlocity_namespace%__ProductId__c": {
            "%vlocity_namespace%__GlobalKey__c": "30a4fa49-78f1-f63f-0f26-341d3f3c2d75",
            "VlocityDataPackType": "VlocityMatchingKeyObject",
            "VlocityMatchingRecordSourceKey": "Product2/30a4fa49-78f1-f63f-0f26-341d3f3c2d75",
            "VlocityRecordSObjectType": "Product2"
        },
        "VlocityDataPackType": "SObject",
        "VlocityRecordSObjectType": "%vlocity_namespace%__CompiledAttributeOverride__c",
        "VlocityRecordSourceKey": "%vlocity_namespace%__CompiledAttributeOverride__c/Generated754214923"
    }
]