[
    {
        "%vlocity_namespace%__AllowIndependentLifeCycle__c": false,
        "%vlocity_namespace%__ChildLineNumber__c": "1",
        "%vlocity_namespace%__ChildProductId__c": {
            "%vlocity_namespace%__GlobalKey__c": "9cef981c-1bbc-90e0-20cc-38ca8025e97b",
            "VlocityDataPackType": "VlocityLookupMatchingKeyObject",
            "VlocityLookupRecordSourceKey": "Product2/9cef981c-1bbc-90e0-20cc-38ca8025e97b",
            "VlocityRecordSObjectType": "Product2"
        },
        "%vlocity_namespace%__ChildRecordType__c": "CoverageSpec",
        "%vlocity_namespace%__CollapseHierarchy__c": false,
        "%vlocity_namespace%__CoverageCalculationFormula__c": "",
        "%vlocity_namespace%__DefaultSelectedCriteriaComments__c": "",
        "%vlocity_namespace%__DefaultSelectedCriteria__c": "",
        "%vlocity_namespace%__EligibilityCriteriaComments__c": "",
        "%vlocity_namespace%__EligibilityCriteria__c": "",
        "%vlocity_namespace%__GlobalKey__c": "e8d876b6-ff2e-b3ac-8aab-cbe10ac9db15",
        "%vlocity_namespace%__IsOptional__c": false,
        "%vlocity_namespace%__IsOverride__c": false,
        "%vlocity_namespace%__IsRootProductChildItem__c": false,
        "%vlocity_namespace%__IsVirtualItem__c": false,
        "%vlocity_namespace%__MaxQuantity__c": 99999,
        "%vlocity_namespace%__MaximumChildItemQuantity__c": 99999,
        "%vlocity_namespace%__MinMaxDefaultQty__c": "0, 99999, 1",
        "%vlocity_namespace%__MinQuantity__c": 0,
        "%vlocity_namespace%__MinimumChildItemQuantity__c": 0,
        "%vlocity_namespace%__ParentProductChildItemId__c": "",
        "%vlocity_namespace%__ParentProductId__c": {
            "%vlocity_namespace%__GlobalKey__c": "30a4fa49-78f1-f63f-0f26-341d3f3c2d75",
            "VlocityDataPackType": "VlocityMatchingKeyObject",
            "VlocityMatchingRecordSourceKey": "Product2/30a4fa49-78f1-f63f-0f26-341d3f3c2d75",
            "VlocityRecordSObjectType": "Product2"
        },
        "%vlocity_namespace%__ParentRecordType__c": "Product",
        "%vlocity_namespace%__PricingFormula__c": "",
        "%vlocity_namespace%__PricingSource__c": "",
        "%vlocity_namespace%__Quantity__c": 1,
        "%vlocity_namespace%__RelationshipType__c": "Child",
        "%vlocity_namespace%__RequiredCriteriaComments__c": "",
        "%vlocity_namespace%__RequiredCriteria__c": "",
        "%vlocity_namespace%__SelectValidationCriteria__c": "",
        "%vlocity_namespace%__SelectValidationMessage__c": "",
        "%vlocity_namespace%__SelectionMethodImplementation__c": "",
        "%vlocity_namespace%__SeqNumber__c": 1,
        "%vlocity_namespace%__SubParentSpecId__c": "",
        "%vlocity_namespace%__TotalCoverageCalculationFormula__c": "",
        "Name": "e8d876b6-ff2e-b3ac-8aab-cbe10ac9db15",
        "VlocityDataPackType": "SObject",
        "VlocityRecordSObjectType": "%vlocity_namespace%__ProductChildItem__c",
        "VlocityRecordSourceKey": "%vlocity_namespace%__ProductChildItem__c/e8d876b6-ff2e-b3ac-8aab-cbe10ac9db15"
    }
]