{
    "%vlocity_namespace%__ActionIcon__c": "",
    "%vlocity_namespace%__AdditionalFilter__c": "",
    "%vlocity_namespace%__ApplicablePermissionName__c": "",
    "%vlocity_namespace%__ApplicableTypes__c": "Order",
    "%vlocity_namespace%__ApplicableUserProfiles__c": "All",
    "%vlocity_namespace%__CustomLabelName__c": "",
    "%vlocity_namespace%__Description__c": "",
    "%vlocity_namespace%__DisplayLabel__c": "View Provisioning Status",
    "%vlocity_namespace%__DisplayOn__c": "All",
    "%vlocity_namespace%__DisplaySequence__c": 1,
    "%vlocity_namespace%__ExecutionSequence__c": "",
    "%vlocity_namespace%__Filter__c": "",
    "%vlocity_namespace%__InvokeClassName__c": "",
    "%vlocity_namespace%__InvokeMethodInput__c": "",
    "%vlocity_namespace%__InvokeMethodName__c": "",
    "%vlocity_namespace%__IsSeedAction__c": false,
    "%vlocity_namespace%__IsStateDefaultAction__c": false,
    "%vlocity_namespace%__Keyword__c": "",
    "%vlocity_namespace%__LinkType__c": "Other",
    "%vlocity_namespace%__OpenUrlMode__c": "New Tab / Window",
    "%vlocity_namespace%__StateId__c": "",
    "%vlocity_namespace%__StateModelId__c": "",
    "%vlocity_namespace%__UrlParameters__c": "Id",
    "%vlocity_namespace%__Url__c": "/apex/%vlocity_namespace%__OrchestrationPlanViewCommon?id={0}&isdtp=vw",
    "%vlocity_namespace%__ValidationClassName__c": "",
    "%vlocity_namespace%__ValidationMethodName__c": "",
    "%vlocity_namespace%__VlocityIcon__c": "icon-v-troubleshoot",
    "%vlocity_namespace%__VlocityStateModelVersionId__c": "",
    "Name": "View Provisioning Status",
    "VlocityDataPackType": "SObject",
    "VlocityRecordSObjectType": "%vlocity_namespace%__VlocityAction__c",
    "VlocityRecordSourceKey": "%vlocity_namespace%__VlocityAction__c/View Provisioning Status",
    "sourceOrgUrl": "/a7l4W0000008t39QAA"
}