{
    "AccountId": "0016s000003nZRSAA2",
    "Confirmation": null,
    "ContactId": "0036s00000363whAAA",
    "Crime": {
        "BillingCityFormula": "San Francisco",
        "BillingPostalCodeFormula": "94105",
        "BillingStateFormula": "California",
        "BillingStreetFormula": "123 West Bay Street",
        "BillingSuiteFormula": "Suite #300",
        "CommunityAssociation": {
            "BillingAddress-Block": {
                "BillingAddress": "123 West Bay Street Suite #300 San Francisco California 94105",
                "BillingCity": "San Francisco",
                "BillingState": "California",
                "BillingStreet": "123 West Bay Street",
                "BillingZip": "94105"
            },
            "BillingAddressCheck": false,
            "BillingCareOf": "John Craig/Treasurer",
            "BillingSuite": "Suite #300",
            "Co_opCheck": null,
            "ContractCheck": "No",
            "DescriptionOfOperation": "Single Family Home Association/HOA (Detached PUD)",
            "FinalFEIN": "23-4451678",
            "FinalInsured": "Atlantis Home Association",
            "FormulaInsuredName": "Atlantis Home Association",
            "InsuredContactBlock": {
                "ContactEmail": "himadeep.guduru@certadux.com",
                "ContactFirstName": "James",
                "ContactLastName": "Smith",
                "ContactPhone": "1112223334",
                "ContactTitle": "Manager"
            },
            "IsInsBillingSameAsMgmtBilling": null,
            "IsInsMailingSameAsMgmtMailing": null,
            "LocationAddress-Block": {
                "LocationAddress": "2397 SE 76th Lane Ocala FL 34476",
                "LocationCity": "Ocala",
                "LocationState": "FL",
                "LocationStreet": "2397 SE 76th Lane",
                "LocationZip": "34476"
            },
            "LocationAsBilling": null,
            "LocationAsMailingAddress": null,
            "LocationSuite": "Suite #900",
            "MailingAddress-Block": {
                "MailingAddress": "306 Wellington St300 suite Suite #564 Marlborough MA 01752",
                "MailingCity": "Marlborough",
                "MailingState": "MA",
                "MailingStreet": "306 Wellington St300 suite",
                "MailingZip": "01752"
            },
            "MailingAddressCheck": false,
            "MailingCareOf": "Bill John/Mailing Co-ordinator",
            "MailingSuite": "Suite #564",
            "NewInsuredName": null,
            "NonProfitCheck": "Yes",
            "NumberofUnits": "230",
            "OrganizationType": "Association",
            "OtherDescription": null,
            "PMCAccount-Block": null,
            "PMCBillingAddress-Block": null,
            "PMCBillingSuite": null,
            "PMCMailingAddress-Block": null,
            "PMCMailingSuite": null,
            "UpdateInsuredName": false,
            "UpdatePMCBillingAddress-Block": null,
            "UpdatePMCBillingAddressCheck": null,
            "UpdatePMCMailingAddress-Block": null,
            "UpdatePMCMailingAddressCheck": null,
            "VacancyRate": "5",
            "existingAccountId": "0016s000003nZRSAA2"
        },
        "MailingCityFormula": "Marlborough",
        "MailingPostalCodeFormula": "01752",
        "MailingStateFormula": "MA",
        "MailingStreetFormula": "306 Wellington St300 suite",
        "MailingSuiteFormula": "Suite #564",
        "UIAN": "23-4451678",
        "newPMCAccount": false
    },
    "FEINStep": {
        "EnteredFEIN": "234451678",
        "HaveFEIN": "Yes",
        "Insured-Block": null,
        "formattedFEIN": "23-4451678"
    },
    "Name": "Atlantis Home Association",
    "UWQueueId": "00G6s000000Nn2qEAC",
    "currentUserAccountId": "0016s000003mLwrAAE",
    "currentUserContactId": "0036s0000034u4LAAQ",
    "groupId": "00G6s000000NUUCEA4",
    "omnidesignerChannelId": "omni-designer-channel-id-1605099433290",
    "timeStamp": "2020-11-11T12:57:17.138Z",
    "userCurrencyCode": "USD",
    "userId": "0056s000000JKZU",
    "userName": "ramya.vadlamannati@certadux.com.v3dev",
    "userProfile": "System Administrator",
    "userTimeZone": "-480"
}