[
    {
        "%vlocity_namespace%__DomainObjectAPIName__c": "json",
        "%vlocity_namespace%__DomainObjectCreationOrder__c": 0,
        "%vlocity_namespace%__DomainObjectFieldAPIName__c": "Quote",
        "%vlocity_namespace%__FilterGroup__c": 0,
        "%vlocity_namespace%__FilterOperator__c": "=",
        "%vlocity_namespace%__FilterValue__c": "QuoteId",
        "%vlocity_namespace%__InterfaceFieldAPIName__c": "Id",
        "%vlocity_namespace%__InterfaceObjectLookupOrder__c": 1,
        "%vlocity_namespace%__InterfaceObjectName__c": "Quote",
        "%vlocity_namespace%__IsDisabled__c": false,
        "%vlocity_namespace%__IsRequiredForUpsert__c": false,
        "%vlocity_namespace%__MapId__c": "ExtractQuoteForIfAnyReviewApplicationCustoma206s0000004qAsAAIItem1",
        "%vlocity_namespace%__UpsertKey__c": false,
        "Name": "ExtractQuoteForIfAnyReviewApplication",
        "VlocityDataPackType": "SObject",
        "VlocityRecordSObjectType": "%vlocity_namespace%__DRMapItem__c"
    },
    {
        "%vlocity_namespace%__DomainObjectAPIName__c": "Formula",
        "%vlocity_namespace%__DomainObjectCreationOrder__c": 0,
        "%vlocity_namespace%__DomainObjectFieldAPIName__c": "Formula",
        "%vlocity_namespace%__FormulaOrder__c": 1,
        "%vlocity_namespace%__FormulaResultPath__c": "quoteJSON",
        "%vlocity_namespace%__Formula__c": "DESERIALIZE(%Quote:QuoteJson__c%)",
        "%vlocity_namespace%__IsDisabled__c": false,
        "%vlocity_namespace%__IsRequiredForUpsert__c": false,
        "%vlocity_namespace%__MapId__c": "ExtractQuoteForIfAnyReviewApplicationCustoma206s0000004qAsAAIItem0",
        "%vlocity_namespace%__UpsertKey__c": false,
        "Name": "ExtractQuoteForIfAnyReviewApplication",
        "VlocityDataPackType": "SObject",
        "VlocityRecordSObjectType": "%vlocity_namespace%__DRMapItem__c"
    },
    {
        "%vlocity_namespace%__DomainObjectAPIName__c": "Formula",
        "%vlocity_namespace%__DomainObjectCreationOrder__c": 0,
        "%vlocity_namespace%__DomainObjectFieldAPIName__c": "Formula",
        "%vlocity_namespace%__FormulaOrder__c": 2,
        "%vlocity_namespace%__FormulaResultPath__c": "MailingAddress",
        "%vlocity_namespace%__Formula__c": "CONCAT(%Quote:ShippingStreet%,' ',%Quote:ShippingCity%, ' ',%Quote:ShippingState%,' ',%Quote:ShippingPostalCode%)",
        "%vlocity_namespace%__IsDisabled__c": false,
        "%vlocity_namespace%__IsRequiredForUpsert__c": false,
        "%vlocity_namespace%__MapId__c": "ExtractQuoteForIfAnyReviewApplicationCustom7810",
        "%vlocity_namespace%__UpsertKey__c": false,
        "Name": "ExtractQuoteForIfAnyReviewApplication",
        "VlocityDataPackType": "SObject",
        "VlocityRecordSObjectType": "%vlocity_namespace%__DRMapItem__c"
    },
    {
        "%vlocity_namespace%__DomainObjectAPIName__c": "Formula",
        "%vlocity_namespace%__DomainObjectCreationOrder__c": 0,
        "%vlocity_namespace%__DomainObjectFieldAPIName__c": "Formula",
        "%vlocity_namespace%__FormulaOrder__c": 3,
        "%vlocity_namespace%__FormulaResultPath__c": "BillingAddress",
        "%vlocity_namespace%__Formula__c": "CONCAT(%Quote:BillingStreet%,' ',%Quote:BillingCity%, ' ',%Quote:BillingState%,' ',%Quote:BillingPostalCode%)",
        "%vlocity_namespace%__IsDisabled__c": false,
        "%vlocity_namespace%__IsRequiredForUpsert__c": false,
        "%vlocity_namespace%__MapId__c": "ExtractQuoteForIfAnyReviewApplicationCustom2994",
        "%vlocity_namespace%__UpsertKey__c": false,
        "Name": "ExtractQuoteForIfAnyReviewApplication",
        "VlocityDataPackType": "SObject",
        "VlocityRecordSObjectType": "%vlocity_namespace%__DRMapItem__c"
    },
    {
        "%vlocity_namespace%__DomainObjectAPIName__c": "Formula",
        "%vlocity_namespace%__DomainObjectCreationOrder__c": 0,
        "%vlocity_namespace%__DomainObjectFieldAPIName__c": "Formula",
        "%vlocity_namespace%__FormulaOrder__c": 4,
        "%vlocity_namespace%__FormulaResultPath__c": "LocationAddress",
        "%vlocity_namespace%__Formula__c": "CONCAT(%Quote:QuoteToStreet%,' ',%Quote:QuoteToCity%, ' ',%Quote:QuoteToState%,' ',%Quote:QuoteToPostalCode%)",
        "%vlocity_namespace%__IsDisabled__c": false,
        "%vlocity_namespace%__IsRequiredForUpsert__c": false,
        "%vlocity_namespace%__MapId__c": "ExtractQuoteForIfAnyReviewApplicationCustom9864",
        "%vlocity_namespace%__UpsertKey__c": false,
        "Name": "ExtractQuoteForIfAnyReviewApplication",
        "VlocityDataPackType": "SObject",
        "VlocityRecordSObjectType": "%vlocity_namespace%__DRMapItem__c"
    },
    {
        "%vlocity_namespace%__DomainObjectAPIName__c": "Formula",
        "%vlocity_namespace%__DomainObjectCreationOrder__c": 0,
        "%vlocity_namespace%__DomainObjectFieldAPIName__c": "Formula",
        "%vlocity_namespace%__FormulaOrder__c": 5,
        "%vlocity_namespace%__FormulaResultPath__c": "ProducerAddress",
        "%vlocity_namespace%__Formula__c": "CONCAT(%Quote:%vlocity_namespace%__AgencyBrokerageId__r.ShippingStreet%, ' ', %Quote:%vlocity_namespace%__AgencyBrokerageId__r.ShippingCityt%, ' ',%Quote:%vlocity_namespace%__AgencyBrokerageId__r.ShippingState%, ' ',%Quote:%vlocity_namespace%__AgencyBrokerageId__r.ShippingPostalCode%)",
        "%vlocity_namespace%__IsDisabled__c": false,
        "%vlocity_namespace%__IsRequiredForUpsert__c": false,
        "%vlocity_namespace%__MapId__c": "ExtractQuoteForIfAnyReviewApplicationCustom8178",
        "%vlocity_namespace%__UpsertKey__c": false,
        "Name": "ExtractQuoteForIfAnyReviewApplication",
        "VlocityDataPackType": "SObject",
        "VlocityRecordSObjectType": "%vlocity_namespace%__DRMapItem__c"
    },
    {
        "%vlocity_namespace%__DomainObjectAPIName__c": "Formula",
        "%vlocity_namespace%__DomainObjectCreationOrder__c": 0,
        "%vlocity_namespace%__DomainObjectFieldAPIName__c": "Formula",
        "%vlocity_namespace%__FormulaOrder__c": 6,
        "%vlocity_namespace%__FormulaResultPath__c": "ContactName",
        "%vlocity_namespace%__Formula__c": "CONCAT(\n%quoteJSON:WorkerCompensation:CommunityAssociation:InsuredContactBlock:ContactFirstName%,' ', %quoteJSON:WorkerCompensation:CommunityAssociation:InsuredContactBlock:ContactLastName%)",
        "%vlocity_namespace%__IsDisabled__c": false,
        "%vlocity_namespace%__IsRequiredForUpsert__c": false,
        "%vlocity_namespace%__MapId__c": "ExtractQuoteForIfAnyReviewApplicationCustom979",
        "%vlocity_namespace%__UpsertKey__c": false,
        "Name": "ExtractQuoteForIfAnyReviewApplication",
        "VlocityDataPackType": "SObject",
        "VlocityRecordSObjectType": "%vlocity_namespace%__DRMapItem__c"
    },
    {
        "%vlocity_namespace%__DomainObjectAPIName__c": "json",
        "%vlocity_namespace%__DomainObjectCreationOrder__c": 1,
        "%vlocity_namespace%__DomainObjectFieldAPIName__c": "WorkerCompensation:BillingAddress",
        "%vlocity_namespace%__InterfaceFieldAPIName__c": "BillingAddress",
        "%vlocity_namespace%__IsDisabled__c": false,
        "%vlocity_namespace%__IsRequiredForUpsert__c": false,
        "%vlocity_namespace%__MapId__c": "ExtractQuoteForIfAnyReviewApplicationCustom8910",
        "%vlocity_namespace%__UpsertKey__c": false,
        "Name": "ExtractQuoteForIfAnyReviewApplication",
        "VlocityDataPackType": "SObject",
        "VlocityRecordSObjectType": "%vlocity_namespace%__DRMapItem__c"
    },
    {
        "%vlocity_namespace%__DomainObjectAPIName__c": "json",
        "%vlocity_namespace%__DomainObjectCreationOrder__c": 1,
        "%vlocity_namespace%__DomainObjectFieldAPIName__c": "WorkerCompensation:BillingCareOf",
        "%vlocity_namespace%__InterfaceFieldAPIName__c": "Quote:BillingName",
        "%vlocity_namespace%__IsDisabled__c": false,
        "%vlocity_namespace%__IsRequiredForUpsert__c": false,
        "%vlocity_namespace%__MapId__c": "ExtractQuoteForIfAnyReviewApplicationCustom6633",
        "%vlocity_namespace%__UpsertKey__c": false,
        "Name": "ExtractQuoteForIfAnyReviewApplication",
        "VlocityDataPackType": "SObject",
        "VlocityRecordSObjectType": "%vlocity_namespace%__DRMapItem__c"
    },
    {
        "%vlocity_namespace%__DefaultValue__c": "true",
        "%vlocity_namespace%__DomainObjectAPIName__c": "json",
        "%vlocity_namespace%__DomainObjectCreationOrder__c": 1,
        "%vlocity_namespace%__DomainObjectFieldAPIName__c": "WorkerCompensation:BillingPlan",
        "%vlocity_namespace%__DomainObjectFieldType__c": "Boolean",
        "%vlocity_namespace%__IsDisabled__c": false,
        "%vlocity_namespace%__IsRequiredForUpsert__c": false,
        "%vlocity_namespace%__MapId__c": "ExtractQuoteForIfAnyReviewApplicationCustom6443",
        "%vlocity_namespace%__UpsertKey__c": false,
        "Name": "ExtractQuoteForIfAnyReviewApplication",
        "VlocityDataPackType": "SObject",
        "VlocityRecordSObjectType": "%vlocity_namespace%__DRMapItem__c"
    },
    {
        "%vlocity_namespace%__DomainObjectAPIName__c": "json",
        "%vlocity_namespace%__DomainObjectCreationOrder__c": 1,
        "%vlocity_namespace%__DomainObjectFieldAPIName__c": "WorkerCompensation:ClassCode",
        "%vlocity_namespace%__InterfaceFieldAPIName__c": "Quote:Class_Code__c",
        "%vlocity_namespace%__IsDisabled__c": false,
        "%vlocity_namespace%__IsRequiredForUpsert__c": false,
        "%vlocity_namespace%__MapId__c": "ExtractQuoteForIfAnyReviewApplicationCustom217",
        "%vlocity_namespace%__UpsertKey__c": false,
        "Name": "ExtractQuoteForIfAnyReviewApplication",
        "VlocityDataPackType": "SObject",
        "VlocityRecordSObjectType": "%vlocity_namespace%__DRMapItem__c"
    },
    {
        "%vlocity_namespace%__DomainObjectAPIName__c": "json",
        "%vlocity_namespace%__DomainObjectCreationOrder__c": 1,
        "%vlocity_namespace%__DomainObjectFieldAPIName__c": "WorkerCompensation:ContactEmail",
        "%vlocity_namespace%__InterfaceFieldAPIName__c": "quoteJSON:WorkerCompensation:CommunityAssociation:InsuredContactBlock:ContactEmail",
        "%vlocity_namespace%__IsDisabled__c": false,
        "%vlocity_namespace%__IsRequiredForUpsert__c": false,
        "%vlocity_namespace%__MapId__c": "ExtractQuoteForIfAnyReviewApplicationCustom9754",
        "%vlocity_namespace%__UpsertKey__c": false,
        "Name": "ExtractQuoteForIfAnyReviewApplication",
        "VlocityDataPackType": "SObject",
        "VlocityRecordSObjectType": "%vlocity_namespace%__DRMapItem__c"
    },
    {
        "%vlocity_namespace%__DomainObjectAPIName__c": "json",
        "%vlocity_namespace%__DomainObjectCreationOrder__c": 1,
        "%vlocity_namespace%__DomainObjectFieldAPIName__c": "WorkerCompensation:ContactName",
        "%vlocity_namespace%__InterfaceFieldAPIName__c": "ContactName",
        "%vlocity_namespace%__IsDisabled__c": false,
        "%vlocity_namespace%__IsRequiredForUpsert__c": false,
        "%vlocity_namespace%__MapId__c": "ExtractQuoteForIfAnyReviewApplicationCustom4729",
        "%vlocity_namespace%__UpsertKey__c": false,
        "Name": "ExtractQuoteForIfAnyReviewApplication",
        "VlocityDataPackType": "SObject",
        "VlocityRecordSObjectType": "%vlocity_namespace%__DRMapItem__c"
    },
    {
        "%vlocity_namespace%__DomainObjectAPIName__c": "json",
        "%vlocity_namespace%__DomainObjectCreationOrder__c": 1,
        "%vlocity_namespace%__DomainObjectFieldAPIName__c": "WorkerCompensation:ContactPhone",
        "%vlocity_namespace%__InterfaceFieldAPIName__c": "quoteJSON:WorkerCompensation:CommunityAssociation:InsuredContactBlock:ContactPhone",
        "%vlocity_namespace%__IsDisabled__c": false,
        "%vlocity_namespace%__IsRequiredForUpsert__c": false,
        "%vlocity_namespace%__MapId__c": "ExtractQuoteForIfAnyReviewApplicationCustom5331",
        "%vlocity_namespace%__UpsertKey__c": false,
        "Name": "ExtractQuoteForIfAnyReviewApplication",
        "VlocityDataPackType": "SObject",
        "VlocityRecordSObjectType": "%vlocity_namespace%__DRMapItem__c"
    },
    {
        "%vlocity_namespace%__DomainObjectAPIName__c": "json",
        "%vlocity_namespace%__DomainObjectCreationOrder__c": 1,
        "%vlocity_namespace%__DomainObjectFieldAPIName__c": "WorkerCompensation:ContactTitle",
        "%vlocity_namespace%__InterfaceFieldAPIName__c": "quoteJSON:WorkerCompensation:CommunityAssociation:InsuredContactBlock:ContactTitle",
        "%vlocity_namespace%__IsDisabled__c": false,
        "%vlocity_namespace%__IsRequiredForUpsert__c": false,
        "%vlocity_namespace%__MapId__c": "ExtractQuoteForIfAnyReviewApplicationCustom2185",
        "%vlocity_namespace%__UpsertKey__c": false,
        "Name": "ExtractQuoteForIfAnyReviewApplication",
        "VlocityDataPackType": "SObject",
        "VlocityRecordSObjectType": "%vlocity_namespace%__DRMapItem__c"
    },
    {
        "%vlocity_namespace%__DomainObjectAPIName__c": "json",
        "%vlocity_namespace%__DomainObjectCreationOrder__c": 1,
        "%vlocity_namespace%__DomainObjectFieldAPIName__c": "WorkerCompensation:DescriptionOfOperation",
        "%vlocity_namespace%__InterfaceFieldAPIName__c": "quoteJSON:WorkerCompensation:CommunityAssociation:DescriptionOfOperation",
        "%vlocity_namespace%__IsDisabled__c": false,
        "%vlocity_namespace%__IsRequiredForUpsert__c": false,
        "%vlocity_namespace%__MapId__c": "ExtractQuoteForIfAnyReviewApplicationCustom1076",
        "%vlocity_namespace%__UpsertKey__c": false,
        "Name": "ExtractQuoteForIfAnyReviewApplication",
        "VlocityDataPackType": "SObject",
        "VlocityRecordSObjectType": "%vlocity_namespace%__DRMapItem__c"
    },
    {
        "%vlocity_namespace%__DomainObjectAPIName__c": "json",
        "%vlocity_namespace%__DomainObjectCreationOrder__c": 1,
        "%vlocity_namespace%__DomainObjectFieldAPIName__c": "WorkerCompensation:EffectiveDate",
        "%vlocity_namespace%__InterfaceFieldAPIName__c": "Quote:%vlocity_namespace%__EffectiveDate__c",
        "%vlocity_namespace%__IsDisabled__c": false,
        "%vlocity_namespace%__IsRequiredForUpsert__c": false,
        "%vlocity_namespace%__MapId__c": "ExtractQuoteForIfAnyReviewApplicationCustom27",
        "%vlocity_namespace%__UpsertKey__c": false,
        "Name": "ExtractQuoteForIfAnyReviewApplication",
        "VlocityDataPackType": "SObject",
        "VlocityRecordSObjectType": "%vlocity_namespace%__DRMapItem__c"
    },
    {
        "%vlocity_namespace%__DomainObjectAPIName__c": "json",
        "%vlocity_namespace%__DomainObjectCreationOrder__c": 1,
        "%vlocity_namespace%__DomainObjectFieldAPIName__c": "WorkerCompensation:ExpirationDate",
        "%vlocity_namespace%__InterfaceFieldAPIName__c": "Quote:ExpirationDate",
        "%vlocity_namespace%__IsDisabled__c": false,
        "%vlocity_namespace%__IsRequiredForUpsert__c": false,
        "%vlocity_namespace%__MapId__c": "ExtractQuoteForIfAnyReviewApplicationCustom8985",
        "%vlocity_namespace%__UpsertKey__c": false,
        "Name": "ExtractQuoteForIfAnyReviewApplication",
        "VlocityDataPackType": "SObject",
        "VlocityRecordSObjectType": "%vlocity_namespace%__DRMapItem__c"
    },
    {
        "%vlocity_namespace%__DomainObjectAPIName__c": "json",
        "%vlocity_namespace%__DomainObjectCreationOrder__c": 1,
        "%vlocity_namespace%__DomainObjectFieldAPIName__c": "WorkerCompensation:FinalFEIN",
        "%vlocity_namespace%__InterfaceFieldAPIName__c": "quoteJSON:WorkerCompensation:CommunityAssociation:FinalFEIN",
        "%vlocity_namespace%__IsDisabled__c": false,
        "%vlocity_namespace%__IsRequiredForUpsert__c": false,
        "%vlocity_namespace%__MapId__c": "ExtractQuoteForIfAnyReviewApplicationCustom2626",
        "%vlocity_namespace%__UpsertKey__c": false,
        "Name": "ExtractQuoteForIfAnyReviewApplication",
        "VlocityDataPackType": "SObject",
        "VlocityRecordSObjectType": "%vlocity_namespace%__DRMapItem__c"
    },
    {
        "%vlocity_namespace%__DomainObjectAPIName__c": "json",
        "%vlocity_namespace%__DomainObjectCreationOrder__c": 1,
        "%vlocity_namespace%__DomainObjectFieldAPIName__c": "WorkerCompensation:FinalInsured",
        "%vlocity_namespace%__InterfaceFieldAPIName__c": "quoteJSON:WorkerCompensation:CommunityAssociation:FinalInsured",
        "%vlocity_namespace%__IsDisabled__c": false,
        "%vlocity_namespace%__IsRequiredForUpsert__c": false,
        "%vlocity_namespace%__MapId__c": "ExtractQuoteForIfAnyReviewApplicationCustom6541",
        "%vlocity_namespace%__UpsertKey__c": false,
        "Name": "ExtractQuoteForIfAnyReviewApplication",
        "VlocityDataPackType": "SObject",
        "VlocityRecordSObjectType": "%vlocity_namespace%__DRMapItem__c"
    },
    {
        "%vlocity_namespace%__DomainObjectAPIName__c": "json",
        "%vlocity_namespace%__DomainObjectCreationOrder__c": 1,
        "%vlocity_namespace%__DomainObjectFieldAPIName__c": "WorkerCompensation:GeneralQuestions",
        "%vlocity_namespace%__InterfaceFieldAPIName__c": "quoteJSON:GeneralQuestions:GeneralQuestions",
        "%vlocity_namespace%__IsDisabled__c": false,
        "%vlocity_namespace%__IsRequiredForUpsert__c": false,
        "%vlocity_namespace%__MapId__c": "ExtractQuoteForIfAnyReviewApplicationCustoma206s0000004qAsAAIItem7",
        "%vlocity_namespace%__UpsertKey__c": false,
        "Name": "ExtractQuoteForIfAnyReviewApplication",
        "VlocityDataPackType": "SObject",
        "VlocityRecordSObjectType": "%vlocity_namespace%__DRMapItem__c"
    },
    {
        "%vlocity_namespace%__DomainObjectAPIName__c": "json",
        "%vlocity_namespace%__DomainObjectCreationOrder__c": 1,
        "%vlocity_namespace%__DomainObjectFieldAPIName__c": "WorkerCompensation:LiabilityLimit",
        "%vlocity_namespace%__InterfaceFieldAPIName__c": "quoteJSON:WCIfAny:LiabilityBlock:LiabilityLimit",
        "%vlocity_namespace%__IsDisabled__c": false,
        "%vlocity_namespace%__IsRequiredForUpsert__c": false,
        "%vlocity_namespace%__MapId__c": "ExtractQuoteForIfAnyReviewApplicationCustom4359",
        "%vlocity_namespace%__UpsertKey__c": false,
        "Name": "ExtractQuoteForIfAnyReviewApplication",
        "VlocityDataPackType": "SObject",
        "VlocityRecordSObjectType": "%vlocity_namespace%__DRMapItem__c"
    },
    {
        "%vlocity_namespace%__DomainObjectAPIName__c": "json",
        "%vlocity_namespace%__DomainObjectCreationOrder__c": 1,
        "%vlocity_namespace%__DomainObjectFieldAPIName__c": "WorkerCompensation:LocationAddress",
        "%vlocity_namespace%__DomainObjectFieldType__c": "String",
        "%vlocity_namespace%__InterfaceFieldAPIName__c": "LocationAddress",
        "%vlocity_namespace%__IsDisabled__c": false,
        "%vlocity_namespace%__IsRequiredForUpsert__c": false,
        "%vlocity_namespace%__MapId__c": "ExtractQuoteForIfAnyReviewApplicationCustom4266",
        "%vlocity_namespace%__UpsertKey__c": false,
        "Name": "ExtractQuoteForIfAnyReviewApplication",
        "VlocityDataPackType": "SObject",
        "VlocityRecordSObjectType": "%vlocity_namespace%__DRMapItem__c"
    },
    {
        "%vlocity_namespace%__DomainObjectAPIName__c": "json",
        "%vlocity_namespace%__DomainObjectCreationOrder__c": 1,
        "%vlocity_namespace%__DomainObjectFieldAPIName__c": "WorkerCompensation:MailingAddress",
        "%vlocity_namespace%__InterfaceFieldAPIName__c": "MailingAddress",
        "%vlocity_namespace%__IsDisabled__c": false,
        "%vlocity_namespace%__IsRequiredForUpsert__c": false,
        "%vlocity_namespace%__MapId__c": "ExtractQuoteForIfAnyReviewApplicationCustoma206s0000004qAsAAIItem4",
        "%vlocity_namespace%__UpsertKey__c": false,
        "Name": "ExtractQuoteForIfAnyReviewApplication",
        "VlocityDataPackType": "SObject",
        "VlocityRecordSObjectType": "%vlocity_namespace%__DRMapItem__c"
    },
    {
        "%vlocity_namespace%__DomainObjectAPIName__c": "json",
        "%vlocity_namespace%__DomainObjectCreationOrder__c": 1,
        "%vlocity_namespace%__DomainObjectFieldAPIName__c": "WorkerCompensation:MailingCareOf",
        "%vlocity_namespace%__InterfaceFieldAPIName__c": "Quote:ShippingName",
        "%vlocity_namespace%__IsDisabled__c": false,
        "%vlocity_namespace%__IsRequiredForUpsert__c": false,
        "%vlocity_namespace%__MapId__c": "ExtractQuoteForIfAnyReviewApplicationCustom174",
        "%vlocity_namespace%__UpsertKey__c": false,
        "Name": "ExtractQuoteForIfAnyReviewApplication",
        "VlocityDataPackType": "SObject",
        "VlocityRecordSObjectType": "%vlocity_namespace%__DRMapItem__c"
    },
    {
        "%vlocity_namespace%__DomainObjectAPIName__c": "json",
        "%vlocity_namespace%__DomainObjectCreationOrder__c": 1,
        "%vlocity_namespace%__DomainObjectFieldAPIName__c": "WorkerCompensation:OrganizationType",
        "%vlocity_namespace%__InterfaceFieldAPIName__c": "quoteJSON:WorkerCompensation:CommunityAssociation:OrganizationType",
        "%vlocity_namespace%__IsDisabled__c": false,
        "%vlocity_namespace%__IsRequiredForUpsert__c": false,
        "%vlocity_namespace%__MapId__c": "ExtractQuoteForIfAnyReviewApplicationCustom1759",
        "%vlocity_namespace%__UpsertKey__c": false,
        "Name": "ExtractQuoteForIfAnyReviewApplication",
        "VlocityDataPackType": "SObject",
        "VlocityRecordSObjectType": "%vlocity_namespace%__DRMapItem__c"
    },
    {
        "%vlocity_namespace%__DefaultValue__c": "Annual",
        "%vlocity_namespace%__DomainObjectAPIName__c": "json",
        "%vlocity_namespace%__DomainObjectCreationOrder__c": 1,
        "%vlocity_namespace%__DomainObjectFieldAPIName__c": "WorkerCompensation:PaymentPlan",
        "%vlocity_namespace%__IsDisabled__c": false,
        "%vlocity_namespace%__IsRequiredForUpsert__c": false,
        "%vlocity_namespace%__MapId__c": "ExtractQuoteForIfAnyReviewApplicationCustom8487",
        "%vlocity_namespace%__UpsertKey__c": false,
        "Name": "ExtractQuoteForIfAnyReviewApplication",
        "VlocityDataPackType": "SObject",
        "VlocityRecordSObjectType": "%vlocity_namespace%__DRMapItem__c"
    },
    {
        "%vlocity_namespace%__DomainObjectAPIName__c": "json",
        "%vlocity_namespace%__DomainObjectCreationOrder__c": 1,
        "%vlocity_namespace%__DomainObjectFieldAPIName__c": "WorkerCompensation:ProducerAddress",
        "%vlocity_namespace%__InterfaceFieldAPIName__c": "ProducerAddress",
        "%vlocity_namespace%__IsDisabled__c": false,
        "%vlocity_namespace%__IsRequiredForUpsert__c": false,
        "%vlocity_namespace%__MapId__c": "ExtractQuoteForIfAnyReviewApplicationCustom9937",
        "%vlocity_namespace%__UpsertKey__c": false,
        "Name": "ExtractQuoteForIfAnyReviewApplication",
        "VlocityDataPackType": "SObject",
        "VlocityRecordSObjectType": "%vlocity_namespace%__DRMapItem__c"
    },
    {
        "%vlocity_namespace%__DomainObjectAPIName__c": "json",
        "%vlocity_namespace%__DomainObjectCreationOrder__c": 1,
        "%vlocity_namespace%__DomainObjectFieldAPIName__c": "WorkerCompensation:ProducerName",
        "%vlocity_namespace%__InterfaceFieldAPIName__c": "Quote:%vlocity_namespace%__AgencyBrokerageId__r.Name",
        "%vlocity_namespace%__IsDisabled__c": false,
        "%vlocity_namespace%__IsRequiredForUpsert__c": false,
        "%vlocity_namespace%__MapId__c": "ExtractQuoteForIfAnyReviewApplicationCustom7125",
        "%vlocity_namespace%__UpsertKey__c": false,
        "Name": "ExtractQuoteForIfAnyReviewApplication",
        "VlocityDataPackType": "SObject",
        "VlocityRecordSObjectType": "%vlocity_namespace%__DRMapItem__c"
    },
    {
        "%vlocity_namespace%__DomainObjectAPIName__c": "json",
        "%vlocity_namespace%__DomainObjectCreationOrder__c": 1,
        "%vlocity_namespace%__DomainObjectFieldAPIName__c": "WorkerCompensation:ProducerPhone",
        "%vlocity_namespace%__InterfaceFieldAPIName__c": "Quote:%vlocity_namespace%__AgencyBrokerageId__r.Phone",
        "%vlocity_namespace%__IsDisabled__c": false,
        "%vlocity_namespace%__IsRequiredForUpsert__c": false,
        "%vlocity_namespace%__MapId__c": "ExtractQuoteForIfAnyReviewApplicationCustom1941",
        "%vlocity_namespace%__UpsertKey__c": false,
        "Name": "ExtractQuoteForIfAnyReviewApplication",
        "VlocityDataPackType": "SObject",
        "VlocityRecordSObjectType": "%vlocity_namespace%__DRMapItem__c"
    },
    {
        "%vlocity_namespace%__DomainObjectAPIName__c": "json",
        "%vlocity_namespace%__DomainObjectCreationOrder__c": 1,
        "%vlocity_namespace%__DomainObjectFieldAPIName__c": "WorkerCompensation:PropertyManagementCompany",
        "%vlocity_namespace%__InterfaceFieldAPIName__c": "quoteJSON:WorkerCompensation:CommunityAssociation:PMCAccount-Block:Name",
        "%vlocity_namespace%__IsDisabled__c": false,
        "%vlocity_namespace%__IsRequiredForUpsert__c": false,
        "%vlocity_namespace%__MapId__c": "ExtractQuoteForIfAnyReviewApplicationCustom384",
        "%vlocity_namespace%__UpsertKey__c": false,
        "Name": "ExtractQuoteForIfAnyReviewApplication",
        "VlocityDataPackType": "SObject",
        "VlocityRecordSObjectType": "%vlocity_namespace%__DRMapItem__c"
    },
    {
        "%vlocity_namespace%__DomainObjectAPIName__c": "json",
        "%vlocity_namespace%__DomainObjectCreationOrder__c": 1,
        "%vlocity_namespace%__DomainObjectFieldAPIName__c": "WorkerCompensation:QuoteDate",
        "%vlocity_namespace%__InterfaceFieldAPIName__c": "Quote:CreatedDate",
        "%vlocity_namespace%__IsDisabled__c": false,
        "%vlocity_namespace%__IsRequiredForUpsert__c": false,
        "%vlocity_namespace%__MapId__c": "ExtractQuoteForIfAnyReviewApplicationCustoma206s0000004qAsAAIItem2",
        "%vlocity_namespace%__UpsertKey__c": false,
        "Name": "ExtractQuoteForIfAnyReviewApplication",
        "VlocityDataPackType": "SObject",
        "VlocityRecordSObjectType": "%vlocity_namespace%__DRMapItem__c"
    },
    {
        "%vlocity_namespace%__DomainObjectAPIName__c": "json",
        "%vlocity_namespace%__DomainObjectCreationOrder__c": 1,
        "%vlocity_namespace%__DomainObjectFieldAPIName__c": "WorkerCompensation:QuoteNumber",
        "%vlocity_namespace%__InterfaceFieldAPIName__c": "Quote:QuoteNumber",
        "%vlocity_namespace%__IsDisabled__c": false,
        "%vlocity_namespace%__IsRequiredForUpsert__c": false,
        "%vlocity_namespace%__MapId__c": "ExtractQuoteForIfAnyReviewApplicationCustoma206s0000004qAsAAIItem3",
        "%vlocity_namespace%__UpsertKey__c": false,
        "Name": "ExtractQuoteForIfAnyReviewApplication",
        "VlocityDataPackType": "SObject",
        "VlocityRecordSObjectType": "%vlocity_namespace%__DRMapItem__c"
    },
    {
        "%vlocity_namespace%__DomainObjectAPIName__c": "json",
        "%vlocity_namespace%__DomainObjectCreationOrder__c": 1,
        "%vlocity_namespace%__DomainObjectFieldAPIName__c": "quoteJSON",
        "%vlocity_namespace%__InterfaceFieldAPIName__c": "quoteJSON",
        "%vlocity_namespace%__IsDisabled__c": true,
        "%vlocity_namespace%__IsRequiredForUpsert__c": false,
        "%vlocity_namespace%__MapId__c": "ExtractQuoteForIfAnyReviewApplicationCustoma206s0000004qAsAAIItem5",
        "%vlocity_namespace%__UpsertKey__c": false,
        "Name": "ExtractQuoteForIfAnyReviewApplication",
        "VlocityDataPackType": "SObject",
        "VlocityRecordSObjectType": "%vlocity_namespace%__DRMapItem__c"
    }
]