{
    "ContextId": null,
    "WorkerCompensation": {
        "BillingAddress": null,
        "BillingCareOf": null,
        "BillingPlan": null,
        "ClaimsContactName": null,
        "ClaimsContactPhone": null,
        "ContactEmail": null,
        "ContactFirstName": null,
        "ContactLastName": null,
        "ContactPhone": null,
        "ContactTitle": null,
        "DescriptionOfOperation": null,
        "EffectiveDate": null,
        "ExpirationDate": null,
        "FinalFEIN": null,
        "FinalInsured": null,
        "GeneralQuestions": {
            "CompensationLossCheck": null,
            "CompensationLossExplanation": null,
            "InjuryOnSite": null,
            "InjuryOnSiteExplanation": null,
            "InsuranceEvidence": null,
            "PEOCheck": null,
            "PEOName": null,
            "ReservationStudy": null,
            "SpecialActivities": null,
            "SpecialActivitiesExplanation": null,
            "TypeofPEOPolicy": null
        },
        "LiabilityLimit": null,
        "LocationAddressField": null,
        "MailingAddress": null,
        "MailingCareOf": null,
        "OrganizationType": null,
        "PaymentPlan": null,
        "ProducerAddress": null,
        "ProducerName": null,
        "PropertyManagementCompany": null,
        "QuoteDate": null,
        "QuoteNumber": null,
        "existingAccountId": null
    },
    "timeStamp": null,
    "userId": null,
    "userName": null,
    "userProfile": null,
    "userTimeZone": null,
    "vlcPersistentComponent": {
    },
    "vlcTimeTracking": {
        "ExtractQuoteDetails": null,
        "NavigateActionQuote": null,
        "WorkerCompensation": null
    }
}