{
    "dataSource": {
        "contextVariables": [
        ],
        "orderBy": {
            "isReverse": false,
            "name": ""
        },
        "type": "Query",
        "value": {
            "jsonMap": "{}",
            "query": "SELECT Status__c GroupByValue, count(Id) SummaryValue FROM Application__c GROUP BY Status__c",
            "resultVar": ""
        }
    },
    "enableLwc": true,
    "isFlex": true,
    "lwc": {
        "DeveloperName": "cfInsSummaryInfoCard_1_Vlocity",
        "Id": "0Rb5w000000Z24JCAS",
        "MasterLabel": "cfInsSummaryInfoCard_1_Vlocity",
        "NamespacePrefix": "c"
    },
    "states": [
        {
            "actions": [
            ],
            "childCards": [
            ],
            "components": {
                "layer-0": {
                    "children": [
                        {
                            "children": [
                                {
                                    "class": "slds-col ",
                                    "element": "flexIcon",
                                    "elementLabel": "Icon_1",
                                    "key": "element_element_block_0_1_flexIcon_0_1",
                                    "name": "Icon",
                                    "parentElementKey": "element_block_0_1",
                                    "property": {
                                        "color": "#16325C",
                                        "extraclass": "",
                                        "iconName": "standard:drafts",
                                        "iconType": "Salesforce SVG",
                                        "imgsrc": "",
                                        "record": "{record}",
                                        "size": "large",
                                        "variant": "default"
                                    },
                                    "size": {
                                        "default": "12",
                                        "isResponsive": false
                                    },
                                    "stateIndex": 1,
                                    "styleObject": {
                                        "background": {
                                            "color": "#EFF9FF",
                                            "image": "",
                                            "position": "",
                                            "repeat": "",
                                            "size": ""
                                        },
                                        "border": {
                                            "color": "",
                                            "radius": "",
                                            "type": "",
                                            "width": ""
                                        },
                                        "class": "",
                                        "container": {
                                            "class": ""
                                        },
                                        "elementStyleProperties": {
                                            "color": "#16325C"
                                        },
                                        "inlineStyle": "",
                                        "margin": [
                                        ],
                                        "padding": [
                                        ],
                                        "size": {
                                            "default": "12",
                                            "isResponsive": false
                                        },
                                        "sizeClass": "slds-size_12-of-12 ",
                                        "style": "background-color:#EFF9FF;           color:#FFFFFF; ",
                                        "text": {
                                            "align": "",
                                            "color": "#FFFFFF"
                                        }
                                    },
                                    "type": "element"
                                }
                            ],
                            "class": "slds-col ",
                            "element": "block",
                            "elementLabel": "Block_0",
                            "name": "Block",
                            "property": {
                                "card": "{card}",
                                "collapsedByDefault": false,
                                "collapsible": false,
                                "label": "Block",
                                "record": "{record}"
                            },
                            "size": {
                                "default": "3",
                                "isResponsive": false
                            },
                            "stateIndex": 0,
                            "styleObject": {
                                "background": {
                                    "color": "#FFFFFF",
                                    "image": "",
                                    "position": "",
                                    "repeat": "",
                                    "size": ""
                                },
                                "border": {
                                    "color": "",
                                    "radius": "",
                                    "type": "",
                                    "width": ""
                                },
                                "class": "slds-align_absolute-center slds-p-around_x-small ",
                                "container": {
                                    "class": "slds-align_absolute-center"
                                },
                                "elementStyleProperties": {
                                },
                                "inlineStyle": "height: 6.75rem",
                                "margin": [
                                ],
                                "padding": [
                                    {
                                        "label": "around:x-small",
                                        "size": "x-small",
                                        "type": "around"
                                    }
                                ],
                                "size": {
                                    "default": "3",
                                    "isResponsive": false
                                },
                                "sizeClass": "slds-size_3-of-12 ",
                                "style": "background-color:#FFFFFF;            height: 6.75rem",
                                "text": {
                                    "align": "",
                                    "color": ""
                                }
                            },
                            "type": "block"
                        },
                        {
                            "children": [
                                {
                                    "class": "slds-col ",
                                    "element": "outputField",
                                    "elementLabel": "Text_0",
                                    "key": "element_element_block_1_0_outputField_0_0",
                                    "name": "Text",
                                    "parentElementKey": "element_block_1_0",
                                    "property": {
                                        "card": "{card}",
                                        "data-conditions": {
                                            "group": [
                                            ],
                                            "id": "state-condition-object",
                                            "isParent": true
                                        },
                                        "mergeField": "%3Cdiv%3E%3Cstrong%3E%3Cspan%20style=%22font-size:%2024pt;%20font-family:%20'Salesforce%20Sans',%20Arial,%20sans-serif;%22%3E%7BSummaryValue%7D%3C/span%3E%3C/strong%3E%3C/div%3E",
                                        "record": "{record}"
                                    },
                                    "size": {
                                        "default": "12",
                                        "isResponsive": false
                                    },
                                    "stateIndex": 0,
                                    "styleObject": {
                                        "sizeClass": "slds-size_12-of-12"
                                    },
                                    "type": "text"
                                },
                                {
                                    "class": "slds-col ",
                                    "element": "outputField",
                                    "elementLabel": "Block_2_Text_1",
                                    "key": "element_element_block_1_0_outputField_1_0",
                                    "name": "Text",
                                    "parentElementKey": "element_block_1_0",
                                    "property": {
                                        "card": "{card}",
                                        "mergeField": "%3Cdiv%3ERecords%20%7BGroupByValue%7D%3C/div%3E",
                                        "record": "{record}"
                                    },
                                    "size": {
                                        "default": "12",
                                        "isResponsive": false
                                    },
                                    "stateIndex": 0,
                                    "styleObject": {
                                        "sizeClass": "slds-size_12-of-12"
                                    },
                                    "type": "text"
                                },
                                {
                                    "class": "slds-col ",
                                    "element": "action",
                                    "elementLabel": "Block_2_Action_2",
                                    "key": "element_element_block_1_0_action_2_0",
                                    "name": "Action",
                                    "parentElementKey": "element_block_1_0",
                                    "property": {
                                        "card": "{card}",
                                        "data-conditions": {
                                            "group": [
                                            ],
                                            "id": "state-condition-object",
                                            "isParent": true
                                        },
                                        "hideActionIcon": true,
                                        "record": "{record}",
                                        "stateAction": {
                                            "Web Page": {
                                                "targetName": "https://%vlocity_namespace%-developer-edition.na172.force.com/providerportal/s/claim-list"
                                            },
                                            "displayName": "View {GroupByValue} Records >",
                                            "id": "flex-action-1597218851873",
                                            "openUrlIn": "New Tab/Window",
                                            "targetType": "Web Page",
                                            "type": "Custom",
                                            "vlocityIcon": ""
                                        },
                                        "stateObj": "{record}"
                                    },
                                    "size": {
                                        "default": "12",
                                        "isResponsive": false
                                    },
                                    "stateIndex": 0,
                                    "styleObject": {
                                        "background": {
                                            "color": "",
                                            "image": "",
                                            "position": "",
                                            "repeat": "",
                                            "size": ""
                                        },
                                        "border": {
                                            "color": "",
                                            "radius": "",
                                            "type": "",
                                            "width": ""
                                        },
                                        "class": "",
                                        "container": {
                                            "class": ""
                                        },
                                        "elementStyleProperties": {
                                        },
                                        "inlineStyle": "",
                                        "margin": [
                                        ],
                                        "padding": [
                                        ],
                                        "size": {
                                            "default": "12",
                                            "isResponsive": false
                                        },
                                        "sizeClass": "slds-size_12-of-12 ",
                                        "style": "           color:#008AB3; ",
                                        "text": {
                                            "align": "",
                                            "color": "#008AB3"
                                        }
                                    },
                                    "type": "element"
                                }
                            ],
                            "class": "slds-col ",
                            "element": "block",
                            "elementLabel": "Block_2",
                            "name": "Block",
                            "property": {
                                "card": "{card}",
                                "collapsedByDefault": false,
                                "collapsible": false,
                                "label": "Block",
                                "record": "{record}"
                            },
                            "size": {
                                "default": "9",
                                "isResponsive": false
                            },
                            "stateIndex": 0,
                            "styleObject": {
                                "background": {
                                    "color": "",
                                    "image": "",
                                    "position": "",
                                    "repeat": "",
                                    "size": ""
                                },
                                "border": {
                                    "color": "",
                                    "radius": "",
                                    "type": "",
                                    "width": ""
                                },
                                "class": "slds-p-around_x-small ",
                                "container": {
                                    "class": ""
                                },
                                "elementStyleProperties": {
                                },
                                "inlineStyle": "",
                                "margin": [
                                ],
                                "padding": [
                                    {
                                        "label": "around:x-small",
                                        "size": "x-small",
                                        "type": "around"
                                    }
                                ],
                                "size": {
                                    "default": "9",
                                    "isResponsive": false
                                },
                                "sizeClass": "slds-size_9-of-12 ",
                                "style": "            ",
                                "text": {
                                    "align": "",
                                    "color": ""
                                }
                            },
                            "type": "block"
                        }
                    ]
                }
            },
            "conditions": {
                "group": [
                    {
                        "field": "GroupByValue",
                        "id": "state-new-condition-26",
                        "operator": "==",
                        "type": "custom",
                        "value": "Approved"
                    }
                ],
                "id": "state-condition-object",
                "isParent": true
            },
            "definedActions": {
                "actions": [
                ]
            },
            "fields": [
            ],
            "isSmartAction": false,
            "name": "Approved",
            "omniscripts": [
            ],
            "smartAction": {
            },
            "styleObject": {
                "background": {
                    "color": "#FFFFFF",
                    "image": "",
                    "position": "",
                    "repeat": "",
                    "size": ""
                },
                "border": {
                    "color": "#cccccc",
                    "radius": "",
                    "type": "border_bottom",
                    "width": ""
                },
                "class": "slds-border_bottom slds-p-around_x-small slds-m-around_x-small ",
                "container": {
                    "class": ""
                },
                "elementStyleProperties": {
                },
                "inlineStyle": "border-width: 0 0 0.3125rem 0;\n    min-height: 8.75rem;\n    border-color: rgb(0, 138, 179);\nborder-radius: 3px",
                "margin": [
                    {
                        "label": "around:x-small",
                        "size": "x-small",
                        "type": "around"
                    }
                ],
                "padding": [
                    {
                        "label": "around:x-small",
                        "size": "x-small",
                        "type": "around"
                    }
                ],
                "size": {
                    "default": "3",
                    "isResponsive": false
                },
                "sizeClass": "slds-size_3-of-12 ",
                "style": "background-color:#FFFFFF;     border-color:#cccccc;       border-width: 0 0 0.3125rem 0;\n    min-height: 8.75rem;\n    border-color: rgb(0, 138, 179);\nborder-radius: 3px",
                "text": {
                    "align": "",
                    "color": ""
                }
            }
        },
        {
            "actions": [
            ],
            "childCards": [
            ],
            "components": {
                "layer-0": {
                    "children": [
                        {
                            "children": [
                                {
                                    "class": "slds-col ",
                                    "element": "flexIcon",
                                    "elementLabel": "Icon_1",
                                    "key": "element_element_block_0_0_flexIcon_0_0",
                                    "name": "Icon",
                                    "parentElementKey": "element_block_0_0",
                                    "property": {
                                        "color": "#16325C",
                                        "extraclass": "slds-icon_container slds-icon__svg--default ",
                                        "iconName": "utility:groups",
                                        "iconType": "Salesforce SVG",
                                        "imgsrc": "",
                                        "record": "{record}",
                                        "size": "large",
                                        "variant": "inverse"
                                    },
                                    "size": {
                                        "default": "12",
                                        "isResponsive": false
                                    },
                                    "stateIndex": 0,
                                    "styleObject": {
                                        "background": {
                                            "color": "#EFF9FF",
                                            "image": "",
                                            "position": "",
                                            "repeat": "",
                                            "size": ""
                                        },
                                        "border": {
                                            "color": "",
                                            "radius": "",
                                            "type": "",
                                            "width": ""
                                        },
                                        "class": "",
                                        "container": {
                                            "class": ""
                                        },
                                        "elementStyleProperties": {
                                            "color": "#16325C"
                                        },
                                        "inlineStyle": "",
                                        "margin": [
                                        ],
                                        "padding": [
                                        ],
                                        "size": {
                                            "default": "12",
                                            "isResponsive": false
                                        },
                                        "sizeClass": "slds-size_12-of-12 ",
                                        "style": "background-color:#EFF9FF;            ",
                                        "text": {
                                            "align": "",
                                            "color": ""
                                        }
                                    },
                                    "type": "element"
                                }
                            ],
                            "class": "slds-col ",
                            "element": "block",
                            "elementLabel": "Block_0",
                            "name": "Block",
                            "property": {
                                "card": "{card}",
                                "collapsedByDefault": false,
                                "collapsible": false,
                                "label": "Block",
                                "record": "{record}"
                            },
                            "size": {
                                "default": "3",
                                "isResponsive": false
                            },
                            "stateIndex": 1,
                            "styleObject": {
                                "background": {
                                    "color": "#FFFFFF",
                                    "image": "",
                                    "position": "",
                                    "repeat": "",
                                    "size": ""
                                },
                                "border": {
                                    "color": "",
                                    "radius": "",
                                    "type": "",
                                    "width": ""
                                },
                                "class": "slds-align_absolute-center slds-p-around_x-small ",
                                "container": {
                                    "class": "slds-align_absolute-center"
                                },
                                "elementStyleProperties": {
                                },
                                "inlineStyle": "height: 6.75rem",
                                "margin": [
                                ],
                                "padding": [
                                    {
                                        "label": "around:x-small",
                                        "size": "x-small",
                                        "type": "around"
                                    }
                                ],
                                "size": {
                                    "default": "3",
                                    "isResponsive": false
                                },
                                "sizeClass": "slds-size_3-of-12 ",
                                "style": "background-color:#FFFFFF;            height: 6.75rem",
                                "text": {
                                    "align": "",
                                    "color": ""
                                }
                            },
                            "type": "block"
                        },
                        {
                            "children": [
                                {
                                    "class": "slds-col ",
                                    "element": "outputField",
                                    "elementLabel": "Text_0",
                                    "key": "element_element_block_1_1_outputField_0_1",
                                    "name": "Text",
                                    "parentElementKey": "element_block_1_1",
                                    "property": {
                                        "card": "{card}",
                                        "mergeField": "%3Cdiv%3E%3Cstrong%3E%3Cspan%20style=%22font-size:%2024pt;%22%3E%7BSummaryValue%7D%3C/span%3E%3C/strong%3E%3C/div%3E",
                                        "record": "{record}"
                                    },
                                    "size": {
                                        "default": "12",
                                        "isResponsive": false
                                    },
                                    "stateIndex": 1,
                                    "styleObject": {
                                        "sizeClass": "slds-size_12-of-12"
                                    },
                                    "type": "text"
                                },
                                {
                                    "class": "slds-col ",
                                    "element": "outputField",
                                    "elementLabel": "Text_0",
                                    "key": "element_element_block_1_1_outputField_1_1",
                                    "name": "Text",
                                    "parentElementKey": "element_block_1_1",
                                    "property": {
                                        "card": "{card}",
                                        "data-conditions": {
                                            "group": [
                                            ],
                                            "id": "state-condition-object",
                                            "isParent": true
                                        },
                                        "mergeField": "%3Cdiv%3ERecords%20%7BGroupByValue%7D%3C/div%3E",
                                        "record": "{record}"
                                    },
                                    "size": {
                                        "default": "12",
                                        "isResponsive": false
                                    },
                                    "stateIndex": 1,
                                    "styleObject": {
                                        "sizeClass": "slds-size_12-of-12"
                                    },
                                    "type": "text"
                                },
                                {
                                    "class": "slds-col ",
                                    "element": "action",
                                    "elementLabel": "Block_2_Action_2",
                                    "key": "element_element_block_1_1_action_2_1",
                                    "name": "Action",
                                    "parentElementKey": "element_block_1_1",
                                    "property": {
                                        "card": "{card}",
                                        "hideActionIcon": true,
                                        "record": "{record}",
                                        "stateAction": {
                                            "Web Page": {
                                                "targetName": "https://%vlocity_namespace%-developer-edition.na172.force.com/providerportal/s/claim-list"
                                            },
                                            "displayName": "View {GroupByValue} Records >",
                                            "id": "flex-action-1597220524251",
                                            "openUrlIn": "New Tab/Window",
                                            "targetType": "Web Page",
                                            "type": "Custom",
                                            "vlocityIcon": ""
                                        },
                                        "stateObj": "{record}"
                                    },
                                    "size": {
                                        "default": "12",
                                        "isResponsive": false
                                    },
                                    "stateIndex": 1,
                                    "styleObject": {
                                        "background": {
                                            "color": "",
                                            "image": "",
                                            "position": "",
                                            "repeat": "",
                                            "size": ""
                                        },
                                        "border": {
                                            "color": "",
                                            "radius": "",
                                            "type": "",
                                            "width": ""
                                        },
                                        "class": "",
                                        "container": {
                                            "class": ""
                                        },
                                        "elementStyleProperties": {
                                        },
                                        "inlineStyle": "",
                                        "margin": [
                                        ],
                                        "padding": [
                                        ],
                                        "size": {
                                            "default": "12",
                                            "isResponsive": false
                                        },
                                        "sizeClass": "slds-size_12-of-12 ",
                                        "style": "           color:#008AB3; ",
                                        "text": {
                                            "align": "",
                                            "color": "#008AB3"
                                        }
                                    },
                                    "type": "element"
                                }
                            ],
                            "class": "slds-col ",
                            "element": "block",
                            "elementLabel": "Block_2",
                            "name": "Block",
                            "property": {
                                "card": "{card}",
                                "collapsedByDefault": false,
                                "collapsible": false,
                                "label": "Block",
                                "record": "{record}"
                            },
                            "size": {
                                "default": "9",
                                "isResponsive": false
                            },
                            "stateIndex": 1,
                            "styleObject": {
                                "background": {
                                    "color": "",
                                    "image": "",
                                    "position": "",
                                    "repeat": "",
                                    "size": ""
                                },
                                "border": {
                                    "color": "",
                                    "radius": "",
                                    "type": "",
                                    "width": ""
                                },
                                "class": "slds-p-around_x-small ",
                                "container": {
                                    "class": ""
                                },
                                "elementStyleProperties": {
                                },
                                "inlineStyle": "",
                                "margin": [
                                ],
                                "padding": [
                                    {
                                        "label": "around:x-small",
                                        "size": "x-small",
                                        "type": "around"
                                    }
                                ],
                                "size": {
                                    "default": "9",
                                    "isResponsive": false
                                },
                                "sizeClass": "slds-size_9-of-12 ",
                                "style": "            ",
                                "text": {
                                    "align": "",
                                    "color": ""
                                }
                            },
                            "type": "block"
                        }
                    ]
                }
            },
            "conditions": {
                "group": [
                ],
                "id": "state-condition-object",
                "isParent": true
            },
            "definedActions": {
                "actions": [
                ]
            },
            "fields": [
            ],
            "isSmartAction": false,
            "name": "Other",
            "omniscripts": [
            ],
            "smartAction": {
            },
            "styleObject": {
                "background": {
                    "color": "#FFFFFF",
                    "image": "",
                    "position": "",
                    "repeat": "",
                    "size": ""
                },
                "border": {
                    "color": "#cccccc",
                    "radius": "",
                    "type": "border_bottom",
                    "width": ""
                },
                "class": "slds-border_bottom slds-p-around_x-small slds-m-around_x-small ",
                "container": {
                    "class": ""
                },
                "elementStyleProperties": {
                },
                "inlineStyle": "border-width: 0 0 0.3125rem 0;\n    min-height: 8.75rem;\n    border-color: rgb(0, 138, 179);\nborder-radius: 3px",
                "margin": [
                    {
                        "label": "around:x-small",
                        "size": "x-small",
                        "type": "around"
                    }
                ],
                "padding": [
                    {
                        "label": "around:x-small",
                        "size": "x-small",
                        "type": "around"
                    }
                ],
                "size": {
                    "default": "3",
                    "isResponsive": false
                },
                "sizeClass": "slds-size_3-of-12 ",
                "style": "background-color:#FFFFFF;     border-color:#cccccc;       border-width: 0 0 0.3125rem 0;\n    min-height: 8.75rem;\n    border-color: rgb(0, 138, 179);\nborder-radius: 3px",
                "text": {
                    "align": "",
                    "color": ""
                }
            }
        }
    ],
    "theme": "slds",
    "title": "insSummaryInfoCard"
}