[
    {
        "%vlocity_namespace%__DomainObjectAPIName__c": "Formula",
        "%vlocity_namespace%__DomainObjectCreationOrder__c": 0,
        "%vlocity_namespace%__DomainObjectFieldAPIName__c": "Formula",
        "%vlocity_namespace%__FormulaOrder__c": 1,
        "%vlocity_namespace%__FormulaResultPath__c": "MailingCity",
        "%vlocity_namespace%__Formula__c": "IF( %InsuredDetails:CommunityAssociation:IsInsMailingSameAsMgmtMailing% == \"Yes\" , IF(%InsuredDetails:CommunityAssociation:ContractCheck% &&\n%InsuredDetails:CommunityAssociation:PMCMailingAddress-Block:MCity_TA% != Null,%InsuredDetails:CommunityAssociation:PMCMailingAddress-Block:MCity_TA%,\n%InsuredDetails:CommunityAssociation:UpdatePMCMailingAddress-Block:PMCMailingCity%) , \n   IF(%InsuredDetails:CommunityAssociation:MailingAddressCheck%,                      %InsuredDetails:CommunityAssociation:LocationAddress-Block:LocationCity%,       %InsuredDetails:CommunityAssociation:MailingAddress-Block:MailingCity%)\n)",
        "%vlocity_namespace%__IsDisabled__c": true,
        "%vlocity_namespace%__IsRequiredForUpsert__c": false,
        "%vlocity_namespace%__MapId__c": "CAIS_createInsuredAccountCustoma3F6C000002RDq3UAGItem0",
        "%vlocity_namespace%__UpsertKey__c": false,
        "Name": "CAIS_createInsuredAccount",
        "VlocityDataPackType": "SObject",
        "VlocityRecordSObjectType": "%vlocity_namespace%__DRMapItem__c"
    },
    {
        "%vlocity_namespace%__DomainObjectAPIName__c": "Formula",
        "%vlocity_namespace%__DomainObjectCreationOrder__c": 0,
        "%vlocity_namespace%__DomainObjectFieldAPIName__c": "Formula",
        "%vlocity_namespace%__FormulaOrder__c": 10,
        "%vlocity_namespace%__FormulaResultPath__c": "BillingSuite",
        "%vlocity_namespace%__Formula__c": "IF(%InsuredDetails:CommunityAssociation:IsInsBillingSameAsMgmtBilling% == \"Yes\" , IF(%InsuredDetails:CommunityAssociation:ContractCheck% &&\r\n%InsuredDetails:CommunityAssociation:PMCBillingAddress-Block:BAddress2_TA% != Null,%InsuredDetails:CommunityAssociation:PMCBillingAddress-Block:BAddress2_TA%,\r\n%InsuredDetails:CommunityAssociation:PMCBillingSuite%) , \r\n   IF(%InsuredDetails:CommunityAssociation:BillingAddressCheck%,\r\n%InsuredDetails:CommunityAssociation:BillingSuite%,\r\n%InsuredDetails:CommunityAssociation:LocationDescription%))",
        "%vlocity_namespace%__IsDisabled__c": true,
        "%vlocity_namespace%__IsRequiredForUpsert__c": false,
        "%vlocity_namespace%__MapId__c": "CAIS_createInsuredAccountCustoma3F6C000002RDq3UAGItem2",
        "%vlocity_namespace%__UpsertKey__c": false,
        "Name": "CAIS_createInsuredAccount",
        "VlocityDataPackType": "SObject",
        "VlocityRecordSObjectType": "%vlocity_namespace%__DRMapItem__c"
    },
    {
        "%vlocity_namespace%__DomainObjectAPIName__c": "Formula",
        "%vlocity_namespace%__DomainObjectCreationOrder__c": 0,
        "%vlocity_namespace%__DomainObjectFieldAPIName__c": "Formula",
        "%vlocity_namespace%__FormulaOrder__c": 11,
        "%vlocity_namespace%__FormulaResultPath__c": "PMCId",
        "%vlocity_namespace%__Formula__c": "IF(%InsuredDetails:CommunityAssociation:ContractCheck% && %InsuredDetails:CommunityAssociation:PMCAccount-Block:PMCAccountId% != NULL,\r\n%InsuredDetails:CommunityAssociation:PMCAccount-Block:PMCAccountId%,'')",
        "%vlocity_namespace%__IsDisabled__c": false,
        "%vlocity_namespace%__IsRequiredForUpsert__c": false,
        "%vlocity_namespace%__MapId__c": "CAIS_createInsuredAccountCustoma3F6C000002RDq3UAGItem1",
        "%vlocity_namespace%__UpsertKey__c": false,
        "Name": "CAIS_createInsuredAccount",
        "VlocityDataPackType": "SObject",
        "VlocityRecordSObjectType": "%vlocity_namespace%__DRMapItem__c"
    },
    {
        "%vlocity_namespace%__DomainObjectAPIName__c": "Formula",
        "%vlocity_namespace%__DomainObjectCreationOrder__c": 0,
        "%vlocity_namespace%__DomainObjectFieldAPIName__c": "Formula",
        "%vlocity_namespace%__FormulaOrder__c": 2,
        "%vlocity_namespace%__FormulaResultPath__c": "MailingStreet",
        "%vlocity_namespace%__Formula__c": "IF(\n %InsuredDetails:CommunityAssociation:IsInsMailingSameAsMgmtMailing% == \"Yes\" , IF(%InsuredDetails:CommunityAssociation:ContractCheck% &&\n %InsuredDetails:CommunityAssociation:PMCMailingAddress-Block:MStreet_TA% != Null,%InsuredDetails:CommunityAssociation:PMCMailingAddress-Block:MStreet_TA%,\n%InsuredDetails:CommunityAssociation:UpdatePMCMailingAddress-Block:PMCMailingStreet%) , \n   IF(\n%InsuredDetails:CommunityAssociation:MailingAddressCheck%,%InsuredDetails:CommunityAssociation:LocationAddress-Block:LocationStreet%,%InsuredDetails:CommunityAssociation:MailingAddress-Block:MailingStreet%))",
        "%vlocity_namespace%__IsDisabled__c": true,
        "%vlocity_namespace%__IsRequiredForUpsert__c": false,
        "%vlocity_namespace%__MapId__c": "CAIS_createInsuredAccountCustoma3F6C000002RDq3UAGItem10",
        "%vlocity_namespace%__UpsertKey__c": false,
        "Name": "CAIS_createInsuredAccount",
        "VlocityDataPackType": "SObject",
        "VlocityRecordSObjectType": "%vlocity_namespace%__DRMapItem__c"
    },
    {
        "%vlocity_namespace%__DomainObjectAPIName__c": "Formula",
        "%vlocity_namespace%__DomainObjectCreationOrder__c": 0,
        "%vlocity_namespace%__DomainObjectFieldAPIName__c": "Formula",
        "%vlocity_namespace%__FormulaOrder__c": 3,
        "%vlocity_namespace%__FormulaResultPath__c": "MailingState",
        "%vlocity_namespace%__Formula__c": "IF(%InsuredDetails:CommunityAssociation:IsInsMailingSameAsMgmtMailing% == \"Yes\" , IF(%InsuredDetails:CommunityAssociation:ContractCheck% &&\n%InsuredDetails:CommunityAssociation:PMCMailingAddress-Block:MState_TA% != Null,%InsuredDetails:CommunityAssociation:PMCMailingAddress-Block:MState_TA%,\n%InsuredDetails:CommunityAssociation:UpdatePMCMailingAddress-Block:PMCMailingState%) , \n   IF(%InsuredDetails:CommunityAssociation:MailingAddressCheck%,%InsuredDetails:CommunityAssociation:LocationAddress-Block:LocationState%,%InsuredDetails:CommunityAssociation:MailingAddress-Block:MailingState%))",
        "%vlocity_namespace%__IsDisabled__c": true,
        "%vlocity_namespace%__IsRequiredForUpsert__c": false,
        "%vlocity_namespace%__MapId__c": "CAIS_createInsuredAccountCustoma3F6C000002RDq3UAGItem9",
        "%vlocity_namespace%__UpsertKey__c": false,
        "Name": "CAIS_createInsuredAccount",
        "VlocityDataPackType": "SObject",
        "VlocityRecordSObjectType": "%vlocity_namespace%__DRMapItem__c"
    },
    {
        "%vlocity_namespace%__DomainObjectAPIName__c": "Formula",
        "%vlocity_namespace%__DomainObjectCreationOrder__c": 0,
        "%vlocity_namespace%__DomainObjectFieldAPIName__c": "Formula",
        "%vlocity_namespace%__FormulaOrder__c": 4,
        "%vlocity_namespace%__FormulaResultPath__c": "MailingZip",
        "%vlocity_namespace%__Formula__c": "IF(%InsuredDetails:CommunityAssociation:IsInsMailingSameAsMgmtMailing% == \"Yes\" , IF(%InsuredDetails:CommunityAssociation:ContractCheck% &&\n%InsuredDetails:CommunityAssociation:PMCMailingAddress-Block:MPostalCode_TA% != Null,%InsuredDetails:CommunityAssociation:PMCMailingAddress-Block:MPostalCode_TA%,\n%InsuredDetails:CommunityAssociation:UpdatePMCMailingAddress-Block:PMCMailingZip%) , \n   IF(%InsuredDetails:CommunityAssociation:MailingAddressCheck%,%InsuredDetails:CommunityAssociation:LocationAddress-Block:LocationZip%,%InsuredDetails:CommunityAssociation:MailingAddress-Block:MailingZip%))",
        "%vlocity_namespace%__IsDisabled__c": true,
        "%vlocity_namespace%__IsRequiredForUpsert__c": false,
        "%vlocity_namespace%__MapId__c": "CAIS_createInsuredAccountCustoma3F6C000002RDq3UAGItem7",
        "%vlocity_namespace%__UpsertKey__c": false,
        "Name": "CAIS_createInsuredAccount",
        "VlocityDataPackType": "SObject",
        "VlocityRecordSObjectType": "%vlocity_namespace%__DRMapItem__c"
    },
    {
        "%vlocity_namespace%__DomainObjectAPIName__c": "Formula",
        "%vlocity_namespace%__DomainObjectCreationOrder__c": 0,
        "%vlocity_namespace%__DomainObjectFieldAPIName__c": "Formula",
        "%vlocity_namespace%__FormulaOrder__c": 5,
        "%vlocity_namespace%__FormulaResultPath__c": "BillingCity",
        "%vlocity_namespace%__Formula__c": "IF(%InsuredDetails:CommunityAssociation:IsInsBillingSameAsMgmtBilling% == \"Yes\" , IF(%InsuredDetails:CommunityAssociation:ContractCheck% &&\n%InsuredDetails:CommunityAssociation:PMCBillingAddress-Block:BCity_TA% != Null,%InsuredDetails:CommunityAssociation:PMCBillingAddress-Block:BCity_TA%,\n%InsuredDetails:CommunityAssociation:UpdatePMCBillingAddress-Block:PMCBillingCity%) , \n   IF(%InsuredDetails:CommunityAssociation:BillingAddressCheck%,%InsuredDetails:CommunityAssociation:LocationAddress-Block:LocationCity%,%InsuredDetails:CommunityAssociation:BillingAddress-Block:BillingCity%))",
        "%vlocity_namespace%__IsDisabled__c": true,
        "%vlocity_namespace%__IsRequiredForUpsert__c": false,
        "%vlocity_namespace%__MapId__c": "CAIS_createInsuredAccountCustoma3F6C000002RDq3UAGItem8",
        "%vlocity_namespace%__UpsertKey__c": false,
        "Name": "CAIS_createInsuredAccount",
        "VlocityDataPackType": "SObject",
        "VlocityRecordSObjectType": "%vlocity_namespace%__DRMapItem__c"
    },
    {
        "%vlocity_namespace%__DomainObjectAPIName__c": "Formula",
        "%vlocity_namespace%__DomainObjectCreationOrder__c": 0,
        "%vlocity_namespace%__DomainObjectFieldAPIName__c": "Formula",
        "%vlocity_namespace%__FormulaOrder__c": 6,
        "%vlocity_namespace%__FormulaResultPath__c": "BillingStreet",
        "%vlocity_namespace%__Formula__c": "IF(%InsuredDetails:CommunityAssociation:IsInsBillingSameAsMgmtBilling% == \"Yes\" , IF(%InsuredDetails:CommunityAssociation:ContractCheck% &&\n%InsuredDetails:CommunityAssociation:PMCBillingAddress-Block:BStreet_TA% != Null,%InsuredDetails:CommunityAssociation:PMCBillingAddress-Block:BStreet_TA%,\n%InsuredDetails:CommunityAssociation:UpdatePMCBillingAddress-Block:PMCBillingStreet%) , \n   IF(%InsuredDetails:CommunityAssociation:BillingAddressCheck%,%InsuredDetails:CommunityAssociation:LocationAddress-Block:LocationStreet%,%InsuredDetails:CommunityAssociation:BillingAddress-Block:BillingStreet%))",
        "%vlocity_namespace%__IsDisabled__c": true,
        "%vlocity_namespace%__IsRequiredForUpsert__c": false,
        "%vlocity_namespace%__MapId__c": "CAIS_createInsuredAccountCustoma3F6C000002RDq3UAGItem6",
        "%vlocity_namespace%__UpsertKey__c": false,
        "Name": "CAIS_createInsuredAccount",
        "VlocityDataPackType": "SObject",
        "VlocityRecordSObjectType": "%vlocity_namespace%__DRMapItem__c"
    },
    {
        "%vlocity_namespace%__DomainObjectAPIName__c": "Formula",
        "%vlocity_namespace%__DomainObjectCreationOrder__c": 0,
        "%vlocity_namespace%__DomainObjectFieldAPIName__c": "Formula",
        "%vlocity_namespace%__FormulaOrder__c": 7,
        "%vlocity_namespace%__FormulaResultPath__c": "BillingState",
        "%vlocity_namespace%__Formula__c": "IF(%InsuredDetails:CommunityAssociation:IsInsBillingSameAsMgmtBilling% == \"Yes\" , IF(%InsuredDetails:CommunityAssociation:ContractCheck% &&\n%InsuredDetails:CommunityAssociation:PMCBillingAddress-Block:BState_TA% != Null,%InsuredDetails:CommunityAssociation:PMCBillingAddress-Block:BState_TA%,\n%InsuredDetails:CommunityAssociation:UpdatePMCBillingAddress-Block:PMCBillingState%) , \n   IF(%InsuredDetails:CommunityAssociation:BillingAddressCheck%,%InsuredDetails:CommunityAssociation:LocationAddress-Block:LocationState%,%InsuredDetails:CommunityAssociation:BillingAddress-Block:BillingState%))",
        "%vlocity_namespace%__IsDisabled__c": true,
        "%vlocity_namespace%__IsRequiredForUpsert__c": false,
        "%vlocity_namespace%__MapId__c": "CAIS_createInsuredAccountCustoma3F6C000002RDq3UAGItem5",
        "%vlocity_namespace%__UpsertKey__c": false,
        "Name": "CAIS_createInsuredAccount",
        "VlocityDataPackType": "SObject",
        "VlocityRecordSObjectType": "%vlocity_namespace%__DRMapItem__c"
    },
    {
        "%vlocity_namespace%__DomainObjectAPIName__c": "Formula",
        "%vlocity_namespace%__DomainObjectCreationOrder__c": 0,
        "%vlocity_namespace%__DomainObjectFieldAPIName__c": "Formula",
        "%vlocity_namespace%__FormulaOrder__c": 8,
        "%vlocity_namespace%__FormulaResultPath__c": "BillingZip",
        "%vlocity_namespace%__Formula__c": "IF(%InsuredDetails:CommunityAssociation:IsInsBillingSameAsMgmtBilling% == \"Yes\" , IF(%InsuredDetails:CommunityAssociation:ContractCheck% &&\n%InsuredDetails:CommunityAssociation:PMCBillingAddress-Block:BPostalCode_TA% != Null,%InsuredDetails:CommunityAssociation:PMCBillingAddress-Block:BPostalCode_TA%,\n%InsuredDetails:CommunityAssociation:UpdatePMCBillingAddress-Block:PMCBillingZip%) , \n   IF(%InsuredDetails:CommunityAssociation:BillingAddressCheck%,%InsuredDetails:CommunityAssociation:LocationAddress-Block:LocationZip%,%InsuredDetails:CommunityAssociation:BillingAddress-Block:BillingZip%))",
        "%vlocity_namespace%__IsDisabled__c": true,
        "%vlocity_namespace%__IsRequiredForUpsert__c": false,
        "%vlocity_namespace%__MapId__c": "CAIS_createInsuredAccountCustoma3F6C000002RDq3UAGItem4",
        "%vlocity_namespace%__UpsertKey__c": false,
        "Name": "CAIS_createInsuredAccount",
        "VlocityDataPackType": "SObject",
        "VlocityRecordSObjectType": "%vlocity_namespace%__DRMapItem__c"
    },
    {
        "%vlocity_namespace%__DomainObjectAPIName__c": "Formula",
        "%vlocity_namespace%__DomainObjectCreationOrder__c": 0,
        "%vlocity_namespace%__DomainObjectFieldAPIName__c": "Formula",
        "%vlocity_namespace%__FormulaOrder__c": 9,
        "%vlocity_namespace%__FormulaResultPath__c": "MailingSuite",
        "%vlocity_namespace%__Formula__c": "IF(%InsuredDetails:CommunityAssociation:IsInsMailingSameAsMgmtMailing% == \"Yes\" , IF(%InsuredDetails:CommunityAssociation:ContractCheck% &&\n%InsuredDetails:CommunityAssociation:PMCMailingAddress-Block:MAddress2_TA% != Null,%InsuredDetails:CommunityAssociation:PMCMailingAddress-Block:MAddress2_TA%,\n%InsuredDetails:CommunityAssociation:PMCMailingSuite%) , \n   IF(%InsuredDetails:CommunityAssociation:MailingAddressCheck%,%InsuredDetails:CommunityAssociation:LocationDescription%,%InsuredDetails:CommunityAssociation:MailingSuite%))",
        "%vlocity_namespace%__IsDisabled__c": true,
        "%vlocity_namespace%__IsRequiredForUpsert__c": false,
        "%vlocity_namespace%__MapId__c": "CAIS_createInsuredAccountCustoma3F6C000002RDq3UAGItem3",
        "%vlocity_namespace%__UpsertKey__c": false,
        "Name": "CAIS_createInsuredAccount",
        "VlocityDataPackType": "SObject",
        "VlocityRecordSObjectType": "%vlocity_namespace%__DRMapItem__c"
    },
    {
        "%vlocity_namespace%__DomainObjectAPIName__c": "Contact",
        "%vlocity_namespace%__DomainObjectCreationOrder__c": 1,
        "%vlocity_namespace%__DomainObjectFieldAPIName__c": "Email",
        "%vlocity_namespace%__InterfaceFieldAPIName__c": "InsuredDetails:CommunityAssociation:InsuredContactBlock:ContactEmail",
        "%vlocity_namespace%__IsDisabled__c": false,
        "%vlocity_namespace%__IsRequiredForUpsert__c": false,
        "%vlocity_namespace%__MapId__c": "CAIS_createInsuredAccountCustoma3F6C000002RDq3UAGItem13",
        "%vlocity_namespace%__UpsertKey__c": false,
        "Name": "CAIS_createInsuredAccount",
        "VlocityDataPackType": "SObject",
        "VlocityRecordSObjectType": "%vlocity_namespace%__DRMapItem__c"
    },
    {
        "%vlocity_namespace%__DomainObjectAPIName__c": "Contact",
        "%vlocity_namespace%__DomainObjectCreationOrder__c": 1,
        "%vlocity_namespace%__DomainObjectFieldAPIName__c": "FirstName",
        "%vlocity_namespace%__InterfaceFieldAPIName__c": "InsuredDetails:CommunityAssociation:InsuredContactBlock:ContactFirstName",
        "%vlocity_namespace%__IsDisabled__c": false,
        "%vlocity_namespace%__IsRequiredForUpsert__c": false,
        "%vlocity_namespace%__MapId__c": "CAIS_createInsuredAccountCustoma3F6C000002RDq3UAGItem14",
        "%vlocity_namespace%__UpsertKey__c": false,
        "Name": "CAIS_createInsuredAccount",
        "VlocityDataPackType": "SObject",
        "VlocityRecordSObjectType": "%vlocity_namespace%__DRMapItem__c"
    },
    {
        "%vlocity_namespace%__ConfigurationValue__c": "FAKEMAPPING",
        "%vlocity_namespace%__DomainObjectAPIName__c": "Contact",
        "%vlocity_namespace%__DomainObjectCreationOrder__c": 1,
        "%vlocity_namespace%__DomainObjectFieldAPIName__c": "Id",
        "%vlocity_namespace%__FilterOperator__c": "=",
        "%vlocity_namespace%__IsDisabled__c": true,
        "%vlocity_namespace%__IsRequiredForUpsert__c": false,
        "%vlocity_namespace%__MapId__c": "CAIS_createInsuredAccountCustoma3F6C000002RDq3UAGItem11",
        "%vlocity_namespace%__UpsertKey__c": false,
        "Name": "CAIS_createInsuredAccount",
        "VlocityDataPackType": "SObject",
        "VlocityRecordSObjectType": "%vlocity_namespace%__DRMapItem__c"
    },
    {
        "%vlocity_namespace%__DefaultValue__c": "true",
        "%vlocity_namespace%__DomainObjectAPIName__c": "Contact",
        "%vlocity_namespace%__DomainObjectCreationOrder__c": 1,
        "%vlocity_namespace%__DomainObjectFieldAPIName__c": "IsPrimary__c",
        "%vlocity_namespace%__IsDisabled__c": false,
        "%vlocity_namespace%__IsRequiredForUpsert__c": false,
        "%vlocity_namespace%__MapId__c": "CAIS_createInsuredAccountCustoma3F6C000002RDq3UAGItem12",
        "%vlocity_namespace%__UpsertKey__c": false,
        "Name": "CAIS_createInsuredAccount",
        "VlocityDataPackType": "SObject",
        "VlocityRecordSObjectType": "%vlocity_namespace%__DRMapItem__c"
    },
    {
        "%vlocity_namespace%__DomainObjectAPIName__c": "Contact",
        "%vlocity_namespace%__DomainObjectCreationOrder__c": 1,
        "%vlocity_namespace%__DomainObjectFieldAPIName__c": "LastName",
        "%vlocity_namespace%__InterfaceFieldAPIName__c": "InsuredDetails:CommunityAssociation:InsuredContactBlock:ContactLastName",
        "%vlocity_namespace%__IsDisabled__c": false,
        "%vlocity_namespace%__IsRequiredForUpsert__c": false,
        "%vlocity_namespace%__MapId__c": "CAIS_createInsuredAccountCustoma3F6C000002RDq3UAGItem15",
        "%vlocity_namespace%__UpsertKey__c": false,
        "Name": "CAIS_createInsuredAccount",
        "VlocityDataPackType": "SObject",
        "VlocityRecordSObjectType": "%vlocity_namespace%__DRMapItem__c"
    },
    {
        "%vlocity_namespace%__DomainObjectAPIName__c": "Contact",
        "%vlocity_namespace%__DomainObjectCreationOrder__c": 1,
        "%vlocity_namespace%__DomainObjectFieldAPIName__c": "Phone",
        "%vlocity_namespace%__InterfaceFieldAPIName__c": "InsuredDetails:CommunityAssociation:InsuredContactBlock:ContactPhone",
        "%vlocity_namespace%__IsDisabled__c": false,
        "%vlocity_namespace%__IsRequiredForUpsert__c": false,
        "%vlocity_namespace%__MapId__c": "CAIS_createInsuredAccountCustoma3F6C000002RDq3UAGItem16",
        "%vlocity_namespace%__UpsertKey__c": false,
        "Name": "CAIS_createInsuredAccount",
        "VlocityDataPackType": "SObject",
        "VlocityRecordSObjectType": "%vlocity_namespace%__DRMapItem__c"
    },
    {
        "%vlocity_namespace%__DomainObjectAPIName__c": "Contact",
        "%vlocity_namespace%__DomainObjectCreationOrder__c": 1,
        "%vlocity_namespace%__DomainObjectFieldAPIName__c": "Title",
        "%vlocity_namespace%__InterfaceFieldAPIName__c": "InsuredDetails:CommunityAssociation:InsuredContactBlock:ContactTitle",
        "%vlocity_namespace%__IsDisabled__c": false,
        "%vlocity_namespace%__IsRequiredForUpsert__c": false,
        "%vlocity_namespace%__MapId__c": "CAIS_createInsuredAccountCustoma3F6C000002RDq3UAGItem17",
        "%vlocity_namespace%__UpsertKey__c": false,
        "Name": "CAIS_createInsuredAccount",
        "VlocityDataPackType": "SObject",
        "VlocityRecordSObjectType": "%vlocity_namespace%__DRMapItem__c"
    },
    {
        "%vlocity_namespace%__DomainObjectAPIName__c": "Account",
        "%vlocity_namespace%__DomainObjectCreationOrder__c": 2,
        "%vlocity_namespace%__DomainObjectFieldAPIName__c": "%vlocity_namespace%__PrimaryContactId__c",
        "%vlocity_namespace%__InterfaceFieldAPIName__c": "newContactId",
        "%vlocity_namespace%__IsDisabled__c": false,
        "%vlocity_namespace%__IsRequiredForUpsert__c": false,
        "%vlocity_namespace%__MapId__c": "CAIS_createInsuredAccountCustoma3F6C000002RDq3UAGItem32",
        "%vlocity_namespace%__UpsertKey__c": false,
        "Name": "CAIS_createInsuredAccount",
        "VlocityDataPackType": "SObject",
        "VlocityRecordSObjectType": "%vlocity_namespace%__DRMapItem__c"
    },
    {
        "%vlocity_namespace%__DomainObjectAPIName__c": "Account",
        "%vlocity_namespace%__DomainObjectCreationOrder__c": 2,
        "%vlocity_namespace%__DomainObjectFieldAPIName__c": "%vlocity_namespace%__PrimaryContactId__c",
        "%vlocity_namespace%__IsDisabled__c": false,
        "%vlocity_namespace%__IsRequiredForUpsert__c": false,
        "%vlocity_namespace%__LinkCreatedField__c": "Id",
        "%vlocity_namespace%__LinkCreatedIndex__c": 1,
        "%vlocity_namespace%__MapId__c": "CAIS_createInsuredAccountCustoma3F6C000002RDq3UAGItem20",
        "%vlocity_namespace%__UpsertKey__c": false,
        "Name": "CAIS_createInsuredAccount",
        "VlocityDataPackType": "SObject",
        "VlocityRecordSObjectType": "%vlocity_namespace%__DRMapItem__c"
    },
    {
        "%vlocity_namespace%__DomainObjectAPIName__c": "Account",
        "%vlocity_namespace%__DomainObjectCreationOrder__c": 2,
        "%vlocity_namespace%__DomainObjectFieldAPIName__c": "%vlocity_namespace%__PrimaryContactId__r.Email",
        "%vlocity_namespace%__InterfaceFieldAPIName__c": "InsuredDetails:CommunityAssociation:InsuredContactBlock:ContactEmail",
        "%vlocity_namespace%__IsDisabled__c": false,
        "%vlocity_namespace%__IsRequiredForUpsert__c": false,
        "%vlocity_namespace%__MapId__c": "CAIS_createInsuredAccountCustoma3F6C000002RDq3UAGItem38",
        "%vlocity_namespace%__UpsertKey__c": false,
        "Name": "CAIS_createInsuredAccount",
        "VlocityDataPackType": "SObject",
        "VlocityRecordSObjectType": "%vlocity_namespace%__DRMapItem__c"
    },
    {
        "%vlocity_namespace%__DomainObjectAPIName__c": "Account",
        "%vlocity_namespace%__DomainObjectCreationOrder__c": 2,
        "%vlocity_namespace%__DomainObjectFieldAPIName__c": "%vlocity_namespace%__PrimaryContactId__r.FirstName",
        "%vlocity_namespace%__InterfaceFieldAPIName__c": "InsuredDetails:CommunityAssociation:InsuredContactBlock:ContactFirstName",
        "%vlocity_namespace%__IsDisabled__c": false,
        "%vlocity_namespace%__IsRequiredForUpsert__c": false,
        "%vlocity_namespace%__MapId__c": "CAIS_createInsuredAccountCustoma3F6C000002RDq3UAGItem39",
        "%vlocity_namespace%__UpsertKey__c": false,
        "Name": "CAIS_createInsuredAccount",
        "VlocityDataPackType": "SObject",
        "VlocityRecordSObjectType": "%vlocity_namespace%__DRMapItem__c"
    },
    {
        "%vlocity_namespace%__DomainObjectAPIName__c": "Account",
        "%vlocity_namespace%__DomainObjectCreationOrder__c": 2,
        "%vlocity_namespace%__DomainObjectFieldAPIName__c": "%vlocity_namespace%__PrimaryContactId__r.LastName",
        "%vlocity_namespace%__InterfaceFieldAPIName__c": "InsuredDetails:CommunityAssociation:InsuredContactBlock:ContactLastName",
        "%vlocity_namespace%__IsDisabled__c": false,
        "%vlocity_namespace%__IsRequiredForUpsert__c": false,
        "%vlocity_namespace%__MapId__c": "CAIS_createInsuredAccountCustoma3F6C000002RDq3UAGItem40",
        "%vlocity_namespace%__UpsertKey__c": false,
        "Name": "CAIS_createInsuredAccount",
        "VlocityDataPackType": "SObject",
        "VlocityRecordSObjectType": "%vlocity_namespace%__DRMapItem__c"
    },
    {
        "%vlocity_namespace%__DomainObjectAPIName__c": "Account",
        "%vlocity_namespace%__DomainObjectCreationOrder__c": 2,
        "%vlocity_namespace%__DomainObjectFieldAPIName__c": "%vlocity_namespace%__PrimaryContactId__r.Phone",
        "%vlocity_namespace%__InterfaceFieldAPIName__c": "InsuredDetails:CommunityAssociation:InsuredContactBlock:ContactPhone",
        "%vlocity_namespace%__IsDisabled__c": false,
        "%vlocity_namespace%__IsRequiredForUpsert__c": false,
        "%vlocity_namespace%__MapId__c": "CAIS_createInsuredAccountCustoma3F6C000002RDq3UAGItem41",
        "%vlocity_namespace%__UpsertKey__c": false,
        "Name": "CAIS_createInsuredAccount",
        "VlocityDataPackType": "SObject",
        "VlocityRecordSObjectType": "%vlocity_namespace%__DRMapItem__c"
    },
    {
        "%vlocity_namespace%__DomainObjectAPIName__c": "Account",
        "%vlocity_namespace%__DomainObjectCreationOrder__c": 2,
        "%vlocity_namespace%__DomainObjectFieldAPIName__c": "%vlocity_namespace%__PrimaryContactId__r.Title",
        "%vlocity_namespace%__DomainObjectFieldType__c": "CurrencyRounded",
        "%vlocity_namespace%__InterfaceFieldAPIName__c": "InsuredDetails:CommunityAssociation:InsuredContactBlock:ContactTitle",
        "%vlocity_namespace%__IsDisabled__c": false,
        "%vlocity_namespace%__IsRequiredForUpsert__c": false,
        "%vlocity_namespace%__MapId__c": "CAIS_createInsuredAccountCustoma3F6C000002RDq3UAGItem42",
        "%vlocity_namespace%__UpsertKey__c": false,
        "Name": "CAIS_createInsuredAccount",
        "VlocityDataPackType": "SObject",
        "VlocityRecordSObjectType": "%vlocity_namespace%__DRMapItem__c"
    },
    {
        "%vlocity_namespace%__DomainObjectAPIName__c": "Account",
        "%vlocity_namespace%__DomainObjectCreationOrder__c": 2,
        "%vlocity_namespace%__DomainObjectFieldAPIName__c": "%vlocity_namespace%__TaxID__c",
        "%vlocity_namespace%__InterfaceFieldAPIName__c": "InsuredDetails:CommunityAssociation:FinalFEIN",
        "%vlocity_namespace%__IsDisabled__c": false,
        "%vlocity_namespace%__IsRequiredForUpsert__c": false,
        "%vlocity_namespace%__MapId__c": "CAIS_createInsuredAccountCustoma3F6C000002RDq3UAGItem36",
        "%vlocity_namespace%__UpsertKey__c": false,
        "Name": "CAIS_createInsuredAccount",
        "VlocityDataPackType": "SObject",
        "VlocityRecordSObjectType": "%vlocity_namespace%__DRMapItem__c"
    },
    {
        "%vlocity_namespace%__DomainObjectAPIName__c": "Account",
        "%vlocity_namespace%__DomainObjectCreationOrder__c": 2,
        "%vlocity_namespace%__DomainObjectFieldAPIName__c": "BillingCity",
        "%vlocity_namespace%__InterfaceFieldAPIName__c": "InsuredDetails:BillingCityFormula",
        "%vlocity_namespace%__IsDisabled__c": false,
        "%vlocity_namespace%__IsRequiredForUpsert__c": false,
        "%vlocity_namespace%__MapId__c": "CAIS_createInsuredAccountCustoma3F6C000002RDq3UAGItem21",
        "%vlocity_namespace%__UpsertKey__c": false,
        "Name": "CAIS_createInsuredAccount",
        "VlocityDataPackType": "SObject",
        "VlocityRecordSObjectType": "%vlocity_namespace%__DRMapItem__c"
    },
    {
        "%vlocity_namespace%__DomainObjectAPIName__c": "Account",
        "%vlocity_namespace%__DomainObjectCreationOrder__c": 2,
        "%vlocity_namespace%__DomainObjectFieldAPIName__c": "BillingPostalCode",
        "%vlocity_namespace%__InterfaceFieldAPIName__c": "InsuredDetails:BillingPostalCodeFormula",
        "%vlocity_namespace%__IsDisabled__c": false,
        "%vlocity_namespace%__IsRequiredForUpsert__c": false,
        "%vlocity_namespace%__MapId__c": "CAIS_createInsuredAccountCustoma3F6C000002RDq3UAGItem25",
        "%vlocity_namespace%__UpsertKey__c": false,
        "Name": "CAIS_createInsuredAccount",
        "VlocityDataPackType": "SObject",
        "VlocityRecordSObjectType": "%vlocity_namespace%__DRMapItem__c"
    },
    {
        "%vlocity_namespace%__DomainObjectAPIName__c": "Account",
        "%vlocity_namespace%__DomainObjectCreationOrder__c": 2,
        "%vlocity_namespace%__DomainObjectFieldAPIName__c": "BillingState",
        "%vlocity_namespace%__InterfaceFieldAPIName__c": "InsuredDetails:BillingStateFormula",
        "%vlocity_namespace%__IsDisabled__c": false,
        "%vlocity_namespace%__IsRequiredForUpsert__c": false,
        "%vlocity_namespace%__MapId__c": "CAIS_createInsuredAccountCustoma3F6C000002RDq3UAGItem22",
        "%vlocity_namespace%__UpsertKey__c": false,
        "Name": "CAIS_createInsuredAccount",
        "VlocityDataPackType": "SObject",
        "VlocityRecordSObjectType": "%vlocity_namespace%__DRMapItem__c"
    },
    {
        "%vlocity_namespace%__DomainObjectAPIName__c": "Account",
        "%vlocity_namespace%__DomainObjectCreationOrder__c": 2,
        "%vlocity_namespace%__DomainObjectFieldAPIName__c": "BillingStreet",
        "%vlocity_namespace%__InterfaceFieldAPIName__c": "InsuredDetails:BillingStreetFormula",
        "%vlocity_namespace%__IsDisabled__c": false,
        "%vlocity_namespace%__IsRequiredForUpsert__c": false,
        "%vlocity_namespace%__MapId__c": "CAIS_createInsuredAccountCustoma3F6C000002RDq3UAGItem23",
        "%vlocity_namespace%__UpsertKey__c": false,
        "Name": "CAIS_createInsuredAccount",
        "VlocityDataPackType": "SObject",
        "VlocityRecordSObjectType": "%vlocity_namespace%__DRMapItem__c"
    },
    {
        "%vlocity_namespace%__DomainObjectAPIName__c": "Account",
        "%vlocity_namespace%__DomainObjectCreationOrder__c": 2,
        "%vlocity_namespace%__DomainObjectFieldAPIName__c": "Billing_Address2__c",
        "%vlocity_namespace%__InterfaceFieldAPIName__c": "InsuredDetails:BillingSuiteFormula",
        "%vlocity_namespace%__IsDisabled__c": false,
        "%vlocity_namespace%__IsRequiredForUpsert__c": false,
        "%vlocity_namespace%__MapId__c": "CAIS_createInsuredAccountCustoma3F6C000002RDq3UAGItem24",
        "%vlocity_namespace%__UpsertKey__c": false,
        "Name": "CAIS_createInsuredAccount",
        "VlocityDataPackType": "SObject",
        "VlocityRecordSObjectType": "%vlocity_namespace%__DRMapItem__c"
    },
    {
        "%vlocity_namespace%__DomainObjectAPIName__c": "Account",
        "%vlocity_namespace%__DomainObjectCreationOrder__c": 2,
        "%vlocity_namespace%__DomainObjectFieldAPIName__c": "Billing_CO__c",
        "%vlocity_namespace%__InterfaceFieldAPIName__c": "InsuredDetails:CommunityAssociation:BillingCareOf",
        "%vlocity_namespace%__IsDisabled__c": false,
        "%vlocity_namespace%__IsRequiredForUpsert__c": false,
        "%vlocity_namespace%__MapId__c": "CAIS_createInsuredAccountCustoma3F6C000002RDq3UAGItem34",
        "%vlocity_namespace%__UpsertKey__c": false,
        "Name": "CAIS_createInsuredAccount",
        "VlocityDataPackType": "SObject",
        "VlocityRecordSObjectType": "%vlocity_namespace%__DRMapItem__c"
    },
    {
        "%vlocity_namespace%__DomainObjectAPIName__c": "Account",
        "%vlocity_namespace%__DomainObjectCreationOrder__c": 2,
        "%vlocity_namespace%__DomainObjectFieldAPIName__c": "DescOfOpertions__c",
        "%vlocity_namespace%__InterfaceFieldAPIName__c": "InsuredDetails:CommunityAssociation:DescriptionOfOperation",
        "%vlocity_namespace%__IsDisabled__c": false,
        "%vlocity_namespace%__IsRequiredForUpsert__c": false,
        "%vlocity_namespace%__MapId__c": "CAIS_createInsuredAccountCustoma3F6C000002RDq3UAGItem35",
        "%vlocity_namespace%__UpsertKey__c": false,
        "Name": "CAIS_createInsuredAccount",
        "VlocityDataPackType": "SObject",
        "VlocityRecordSObjectType": "%vlocity_namespace%__DRMapItem__c"
    },
    {
        "%vlocity_namespace%__DomainObjectAPIName__c": "Account",
        "%vlocity_namespace%__DomainObjectCreationOrder__c": 2,
        "%vlocity_namespace%__DomainObjectFieldAPIName__c": "DescriptionOther__c",
        "%vlocity_namespace%__InterfaceFieldAPIName__c": "InsuredDetails:CommunityAssociation:OtherDescription",
        "%vlocity_namespace%__IsDisabled__c": false,
        "%vlocity_namespace%__IsRequiredForUpsert__c": false,
        "%vlocity_namespace%__MapId__c": "CAIS_createInsuredAccountCustoma3F6C000002RDq3UAGItem52",
        "%vlocity_namespace%__UpsertKey__c": false,
        "Name": "CAIS_createInsuredAccount",
        "VlocityDataPackType": "SObject",
        "VlocityRecordSObjectType": "%vlocity_namespace%__DRMapItem__c"
    },
    {
        "%vlocity_namespace%__DomainObjectAPIName__c": "Account",
        "%vlocity_namespace%__DomainObjectCreationOrder__c": 2,
        "%vlocity_namespace%__DomainObjectFieldAPIName__c": "EmployeeCheck__c",
        "%vlocity_namespace%__InterfaceFieldAPIName__c": "InsuredDetails:AdditionalAssociationInformation:DirectEmployeeCheck",
        "%vlocity_namespace%__IsDisabled__c": false,
        "%vlocity_namespace%__IsRequiredForUpsert__c": false,
        "%vlocity_namespace%__MapId__c": "CAIS_createInsuredAccountCustom5040",
        "%vlocity_namespace%__UpsertKey__c": false,
        "Name": "CAIS_createInsuredAccount",
        "VlocityDataPackType": "SObject",
        "VlocityRecordSObjectType": "%vlocity_namespace%__DRMapItem__c"
    },
    {
        "%vlocity_namespace%__DomainObjectAPIName__c": "Account",
        "%vlocity_namespace%__DomainObjectCreationOrder__c": 2,
        "%vlocity_namespace%__DomainObjectFieldAPIName__c": "EmployeeCheck__c",
        "%vlocity_namespace%__InterfaceFieldAPIName__c": "InsuredDetails:CommunityAssociation:DirectEmployeeCheck",
        "%vlocity_namespace%__IsDisabled__c": false,
        "%vlocity_namespace%__IsRequiredForUpsert__c": false,
        "%vlocity_namespace%__MapId__c": "CAIS_createInsuredAccountCustom5860",
        "%vlocity_namespace%__UpsertKey__c": false,
        "Name": "CAIS_createInsuredAccount",
        "VlocityDataPackType": "SObject",
        "VlocityRecordSObjectType": "%vlocity_namespace%__DRMapItem__c"
    },
    {
        "%vlocity_namespace%__DomainObjectAPIName__c": "Account",
        "%vlocity_namespace%__DomainObjectCreationOrder__c": 2,
        "%vlocity_namespace%__DomainObjectFieldAPIName__c": "Id",
        "%vlocity_namespace%__InterfaceFieldAPIName__c": "newAccountId",
        "%vlocity_namespace%__IsDisabled__c": false,
        "%vlocity_namespace%__IsRequiredForUpsert__c": false,
        "%vlocity_namespace%__MapId__c": "CAIS_createInsuredAccountCustoma3F6C000002RDq3UAGItem31",
        "%vlocity_namespace%__UpsertKey__c": false,
        "Name": "CAIS_createInsuredAccount",
        "VlocityDataPackType": "SObject",
        "VlocityRecordSObjectType": "%vlocity_namespace%__DRMapItem__c"
    },
    {
        "%vlocity_namespace%__ConfigurationValue__c": "FAKEMAPPING",
        "%vlocity_namespace%__DomainObjectAPIName__c": "Account",
        "%vlocity_namespace%__DomainObjectCreationOrder__c": 2,
        "%vlocity_namespace%__DomainObjectFieldAPIName__c": "Id",
        "%vlocity_namespace%__FilterOperator__c": "=",
        "%vlocity_namespace%__IsDisabled__c": true,
        "%vlocity_namespace%__IsRequiredForUpsert__c": false,
        "%vlocity_namespace%__MapId__c": "CAIS_createInsuredAccountCustoma3F6C000002RDq3UAGItem18",
        "%vlocity_namespace%__UpsertKey__c": false,
        "Name": "CAIS_createInsuredAccount",
        "VlocityDataPackType": "SObject",
        "VlocityRecordSObjectType": "%vlocity_namespace%__DRMapItem__c"
    },
    {
        "%vlocity_namespace%__DomainObjectAPIName__c": "Account",
        "%vlocity_namespace%__DomainObjectCreationOrder__c": 2,
        "%vlocity_namespace%__DomainObjectFieldAPIName__c": "IsAssociationNonProfit__c",
        "%vlocity_namespace%__InterfaceFieldAPIName__c": "InsuredDetails:CommunityAssociation:NonProfitCheck",
        "%vlocity_namespace%__IsDisabled__c": false,
        "%vlocity_namespace%__IsRequiredForUpsert__c": false,
        "%vlocity_namespace%__MapId__c": "CAIS_createInsuredAccountCustoma3F6C000002RDq3UAGItem49",
        "%vlocity_namespace%__UpsertKey__c": false,
        "Name": "CAIS_createInsuredAccount",
        "VlocityDataPackType": "SObject",
        "VlocityRecordSObjectType": "%vlocity_namespace%__DRMapItem__c"
    },
    {
        "%vlocity_namespace%__DomainObjectAPIName__c": "Account",
        "%vlocity_namespace%__DomainObjectCreationOrder__c": 2,
        "%vlocity_namespace%__DomainObjectFieldAPIName__c": "Location_Address2__c",
        "%vlocity_namespace%__InterfaceFieldAPIName__c": "InsuredDetails:CommunityAssociation:LocationSuite",
        "%vlocity_namespace%__IsDisabled__c": false,
        "%vlocity_namespace%__IsRequiredForUpsert__c": false,
        "%vlocity_namespace%__MapId__c": "CAIS_createInsuredAccountCustoma3F6C000002RDq3UAGItem47",
        "%vlocity_namespace%__UpsertKey__c": false,
        "Name": "CAIS_createInsuredAccount",
        "VlocityDataPackType": "SObject",
        "VlocityRecordSObjectType": "%vlocity_namespace%__DRMapItem__c"
    },
    {
        "%vlocity_namespace%__DomainObjectAPIName__c": "Account",
        "%vlocity_namespace%__DomainObjectCreationOrder__c": 2,
        "%vlocity_namespace%__DomainObjectFieldAPIName__c": "Location_City__c",
        "%vlocity_namespace%__InterfaceFieldAPIName__c": "InsuredDetails:CommunityAssociation:LocationAddress-Block:LocationCity",
        "%vlocity_namespace%__IsDisabled__c": false,
        "%vlocity_namespace%__IsRequiredForUpsert__c": false,
        "%vlocity_namespace%__MapId__c": "CAIS_createInsuredAccountCustoma3F6C000002RDq3UAGItem43",
        "%vlocity_namespace%__UpsertKey__c": false,
        "Name": "CAIS_createInsuredAccount",
        "VlocityDataPackType": "SObject",
        "VlocityRecordSObjectType": "%vlocity_namespace%__DRMapItem__c"
    },
    {
        "%vlocity_namespace%__DomainObjectAPIName__c": "Account",
        "%vlocity_namespace%__DomainObjectCreationOrder__c": 2,
        "%vlocity_namespace%__DomainObjectFieldAPIName__c": "Location_State__c",
        "%vlocity_namespace%__InterfaceFieldAPIName__c": "InsuredDetails:CommunityAssociation:LocationAddress-Block:LocationState",
        "%vlocity_namespace%__IsDisabled__c": false,
        "%vlocity_namespace%__IsRequiredForUpsert__c": false,
        "%vlocity_namespace%__MapId__c": "CAIS_createInsuredAccountCustoma3F6C000002RDq3UAGItem44",
        "%vlocity_namespace%__UpsertKey__c": false,
        "Name": "CAIS_createInsuredAccount",
        "VlocityDataPackType": "SObject",
        "VlocityRecordSObjectType": "%vlocity_namespace%__DRMapItem__c"
    },
    {
        "%vlocity_namespace%__DomainObjectAPIName__c": "Account",
        "%vlocity_namespace%__DomainObjectCreationOrder__c": 2,
        "%vlocity_namespace%__DomainObjectFieldAPIName__c": "Location_Street__c",
        "%vlocity_namespace%__InterfaceFieldAPIName__c": "InsuredDetails:CommunityAssociation:LocationAddress-Block:LocationStreet",
        "%vlocity_namespace%__IsDisabled__c": false,
        "%vlocity_namespace%__IsRequiredForUpsert__c": false,
        "%vlocity_namespace%__MapId__c": "CAIS_createInsuredAccountCustoma3F6C000002RDq3UAGItem45",
        "%vlocity_namespace%__UpsertKey__c": false,
        "Name": "CAIS_createInsuredAccount",
        "VlocityDataPackType": "SObject",
        "VlocityRecordSObjectType": "%vlocity_namespace%__DRMapItem__c"
    },
    {
        "%vlocity_namespace%__DomainObjectAPIName__c": "Account",
        "%vlocity_namespace%__DomainObjectCreationOrder__c": 2,
        "%vlocity_namespace%__DomainObjectFieldAPIName__c": "Location_Zipcode__c",
        "%vlocity_namespace%__InterfaceFieldAPIName__c": "InsuredDetails:CommunityAssociation:LocationAddress-Block:LocationZip",
        "%vlocity_namespace%__IsDisabled__c": false,
        "%vlocity_namespace%__IsRequiredForUpsert__c": false,
        "%vlocity_namespace%__MapId__c": "CAIS_createInsuredAccountCustoma3F6C000002RDq3UAGItem46",
        "%vlocity_namespace%__UpsertKey__c": false,
        "Name": "CAIS_createInsuredAccount",
        "VlocityDataPackType": "SObject",
        "VlocityRecordSObjectType": "%vlocity_namespace%__DRMapItem__c"
    },
    {
        "%vlocity_namespace%__DomainObjectAPIName__c": "Account",
        "%vlocity_namespace%__DomainObjectCreationOrder__c": 2,
        "%vlocity_namespace%__DomainObjectFieldAPIName__c": "Mailing_CO__c",
        "%vlocity_namespace%__InterfaceFieldAPIName__c": "InsuredDetails:CommunityAssociation:MailingCareOf",
        "%vlocity_namespace%__IsDisabled__c": false,
        "%vlocity_namespace%__IsRequiredForUpsert__c": false,
        "%vlocity_namespace%__MapId__c": "CAIS_createInsuredAccountCustoma3F6C000002RDq3UAGItem48",
        "%vlocity_namespace%__UpsertKey__c": false,
        "Name": "CAIS_createInsuredAccount",
        "VlocityDataPackType": "SObject",
        "VlocityRecordSObjectType": "%vlocity_namespace%__DRMapItem__c"
    },
    {
        "%vlocity_namespace%__DomainObjectAPIName__c": "Account",
        "%vlocity_namespace%__DomainObjectCreationOrder__c": 2,
        "%vlocity_namespace%__DomainObjectFieldAPIName__c": "ManagementUnderContractCheck__c",
        "%vlocity_namespace%__InterfaceFieldAPIName__c": "InsuredDetails:CommunityAssociation:ContractCheck",
        "%vlocity_namespace%__IsDisabled__c": false,
        "%vlocity_namespace%__IsRequiredForUpsert__c": false,
        "%vlocity_namespace%__MapId__c": "CAIS_createInsuredAccountCustom954",
        "%vlocity_namespace%__UpsertKey__c": false,
        "Name": "CAIS_createInsuredAccount",
        "VlocityDataPackType": "SObject",
        "VlocityRecordSObjectType": "%vlocity_namespace%__DRMapItem__c"
    },
    {
        "%vlocity_namespace%__DomainObjectAPIName__c": "Account",
        "%vlocity_namespace%__DomainObjectCreationOrder__c": 2,
        "%vlocity_namespace%__DomainObjectFieldAPIName__c": "Management_Company__c",
        "%vlocity_namespace%__InterfaceFieldAPIName__c": "PMCId",
        "%vlocity_namespace%__IsDisabled__c": false,
        "%vlocity_namespace%__IsRequiredForUpsert__c": false,
        "%vlocity_namespace%__MapId__c": "CAIS_createInsuredAccountCustoma3F6C000002RDq3UAGItem33",
        "%vlocity_namespace%__UpsertKey__c": false,
        "Name": "CAIS_createInsuredAccount",
        "VlocityDataPackType": "SObject",
        "VlocityRecordSObjectType": "%vlocity_namespace%__DRMapItem__c"
    },
    {
        "%vlocity_namespace%__DomainObjectAPIName__c": "Account",
        "%vlocity_namespace%__DomainObjectCreationOrder__c": 2,
        "%vlocity_namespace%__DomainObjectFieldAPIName__c": "Name",
        "%vlocity_namespace%__InterfaceFieldAPIName__c": "InsuredDetails:CommunityAssociation:FinalInsured",
        "%vlocity_namespace%__IsDisabled__c": false,
        "%vlocity_namespace%__IsRequiredForUpsert__c": false,
        "%vlocity_namespace%__MapId__c": "CAIS_createInsuredAccountCustoma3F6C000002RDq3UAGItem37",
        "%vlocity_namespace%__UpsertKey__c": false,
        "Name": "CAIS_createInsuredAccount",
        "VlocityDataPackType": "SObject",
        "VlocityRecordSObjectType": "%vlocity_namespace%__DRMapItem__c"
    },
    {
        "%vlocity_namespace%__DomainObjectAPIName__c": "Account",
        "%vlocity_namespace%__DomainObjectCreationOrder__c": 2,
        "%vlocity_namespace%__DomainObjectFieldAPIName__c": "NumberOfBoardMembers__c",
        "%vlocity_namespace%__InterfaceFieldAPIName__c": "InsuredDetails:AdditionalAssociationInformation:NumOfBoardMembers",
        "%vlocity_namespace%__IsDisabled__c": false,
        "%vlocity_namespace%__IsRequiredForUpsert__c": false,
        "%vlocity_namespace%__MapId__c": "CAIS_createInsuredAccountCustom1177",
        "%vlocity_namespace%__UpsertKey__c": false,
        "Name": "CAIS_createInsuredAccount",
        "VlocityDataPackType": "SObject",
        "VlocityRecordSObjectType": "%vlocity_namespace%__DRMapItem__c"
    },
    {
        "%vlocity_namespace%__DomainObjectAPIName__c": "Account",
        "%vlocity_namespace%__DomainObjectCreationOrder__c": 2,
        "%vlocity_namespace%__DomainObjectFieldAPIName__c": "Number_of_units__c",
        "%vlocity_namespace%__InterfaceFieldAPIName__c": "InsuredDetails:CommunityAssociation:NumberofUnits",
        "%vlocity_namespace%__IsDisabled__c": false,
        "%vlocity_namespace%__IsRequiredForUpsert__c": false,
        "%vlocity_namespace%__MapId__c": "CAIS_createInsuredAccountCustoma3F6C000002RDq3UAGItem50",
        "%vlocity_namespace%__UpsertKey__c": false,
        "Name": "CAIS_createInsuredAccount",
        "VlocityDataPackType": "SObject",
        "VlocityRecordSObjectType": "%vlocity_namespace%__DRMapItem__c"
    },
    {
        "%vlocity_namespace%__DomainObjectAPIName__c": "Account",
        "%vlocity_namespace%__DomainObjectCreationOrder__c": 2,
        "%vlocity_namespace%__DomainObjectFieldAPIName__c": "Organization_Type__c",
        "%vlocity_namespace%__InterfaceFieldAPIName__c": "InsuredDetails:CommunityAssociation:OrganizationType",
        "%vlocity_namespace%__IsDisabled__c": false,
        "%vlocity_namespace%__IsRequiredForUpsert__c": false,
        "%vlocity_namespace%__MapId__c": "CAIS_createInsuredAccountCustoma3F6C000002RDq3UAGItem51",
        "%vlocity_namespace%__UpsertKey__c": false,
        "Name": "CAIS_createInsuredAccount",
        "VlocityDataPackType": "SObject",
        "VlocityRecordSObjectType": "%vlocity_namespace%__DRMapItem__c"
    },
    {
        "%vlocity_namespace%__DefaultValue__c": "Insured",
        "%vlocity_namespace%__DomainObjectAPIName__c": "Account",
        "%vlocity_namespace%__DomainObjectCreationOrder__c": 2,
        "%vlocity_namespace%__DomainObjectFieldAPIName__c": "RecordTypeId",
        "%vlocity_namespace%__IsDisabled__c": false,
        "%vlocity_namespace%__IsRequiredForUpsert__c": false,
        "%vlocity_namespace%__LookupDomainObjectFieldName__c": "DeveloperName",
        "%vlocity_namespace%__LookupDomainObjectName__c": "RecordType",
        "%vlocity_namespace%__LookupDomainObjectRequestedFieldName__c": "Id",
        "%vlocity_namespace%__MapId__c": "CAIS_createInsuredAccountCustoma3F6C000002RDq3UAGItem19",
        "%vlocity_namespace%__UpsertKey__c": false,
        "Name": "CAIS_createInsuredAccount",
        "VlocityDataPackType": "SObject",
        "VlocityRecordSObjectType": "%vlocity_namespace%__DRMapItem__c"
    },
    {
        "%vlocity_namespace%__DomainObjectAPIName__c": "Account",
        "%vlocity_namespace%__DomainObjectCreationOrder__c": 2,
        "%vlocity_namespace%__DomainObjectFieldAPIName__c": "ShippingCity",
        "%vlocity_namespace%__InterfaceFieldAPIName__c": "InsuredDetails:MailingCityFormula",
        "%vlocity_namespace%__IsDisabled__c": false,
        "%vlocity_namespace%__IsRequiredForUpsert__c": false,
        "%vlocity_namespace%__MapId__c": "CAIS_createInsuredAccountCustoma3F6C000002RDq3UAGItem26",
        "%vlocity_namespace%__UpsertKey__c": false,
        "Name": "CAIS_createInsuredAccount",
        "VlocityDataPackType": "SObject",
        "VlocityRecordSObjectType": "%vlocity_namespace%__DRMapItem__c"
    },
    {
        "%vlocity_namespace%__DomainObjectAPIName__c": "Account",
        "%vlocity_namespace%__DomainObjectCreationOrder__c": 2,
        "%vlocity_namespace%__DomainObjectFieldAPIName__c": "ShippingPostalCode",
        "%vlocity_namespace%__InterfaceFieldAPIName__c": "InsuredDetails:MailingPostalCodeFormula",
        "%vlocity_namespace%__IsDisabled__c": false,
        "%vlocity_namespace%__IsRequiredForUpsert__c": false,
        "%vlocity_namespace%__MapId__c": "CAIS_createInsuredAccountCustoma3F6C000002RDq3UAGItem30",
        "%vlocity_namespace%__UpsertKey__c": false,
        "Name": "CAIS_createInsuredAccount",
        "VlocityDataPackType": "SObject",
        "VlocityRecordSObjectType": "%vlocity_namespace%__DRMapItem__c"
    },
    {
        "%vlocity_namespace%__DomainObjectAPIName__c": "Account",
        "%vlocity_namespace%__DomainObjectCreationOrder__c": 2,
        "%vlocity_namespace%__DomainObjectFieldAPIName__c": "ShippingState",
        "%vlocity_namespace%__InterfaceFieldAPIName__c": "InsuredDetails:MailingStateFormula",
        "%vlocity_namespace%__IsDisabled__c": false,
        "%vlocity_namespace%__IsRequiredForUpsert__c": false,
        "%vlocity_namespace%__MapId__c": "CAIS_createInsuredAccountCustoma3F6C000002RDq3UAGItem27",
        "%vlocity_namespace%__UpsertKey__c": false,
        "Name": "CAIS_createInsuredAccount",
        "VlocityDataPackType": "SObject",
        "VlocityRecordSObjectType": "%vlocity_namespace%__DRMapItem__c"
    },
    {
        "%vlocity_namespace%__DomainObjectAPIName__c": "Account",
        "%vlocity_namespace%__DomainObjectCreationOrder__c": 2,
        "%vlocity_namespace%__DomainObjectFieldAPIName__c": "ShippingStreet",
        "%vlocity_namespace%__InterfaceFieldAPIName__c": "InsuredDetails:MailingStreetFormula",
        "%vlocity_namespace%__IsDisabled__c": false,
        "%vlocity_namespace%__IsRequiredForUpsert__c": false,
        "%vlocity_namespace%__MapId__c": "CAIS_createInsuredAccountCustoma3F6C000002RDq3UAGItem28",
        "%vlocity_namespace%__UpsertKey__c": false,
        "Name": "CAIS_createInsuredAccount",
        "VlocityDataPackType": "SObject",
        "VlocityRecordSObjectType": "%vlocity_namespace%__DRMapItem__c"
    },
    {
        "%vlocity_namespace%__DomainObjectAPIName__c": "Account",
        "%vlocity_namespace%__DomainObjectCreationOrder__c": 2,
        "%vlocity_namespace%__DomainObjectFieldAPIName__c": "Shipping_Address2__c",
        "%vlocity_namespace%__InterfaceFieldAPIName__c": "InsuredDetails:MailingSuiteFormula",
        "%vlocity_namespace%__IsDisabled__c": false,
        "%vlocity_namespace%__IsRequiredForUpsert__c": false,
        "%vlocity_namespace%__MapId__c": "CAIS_createInsuredAccountCustoma3F6C000002RDq3UAGItem29",
        "%vlocity_namespace%__UpsertKey__c": false,
        "Name": "CAIS_createInsuredAccount",
        "VlocityDataPackType": "SObject",
        "VlocityRecordSObjectType": "%vlocity_namespace%__DRMapItem__c"
    },
    {
        "%vlocity_namespace%__DomainObjectAPIName__c": "Account",
        "%vlocity_namespace%__DomainObjectCreationOrder__c": 2,
        "%vlocity_namespace%__DomainObjectFieldAPIName__c": "UIAN_Number__c",
        "%vlocity_namespace%__InterfaceFieldAPIName__c": "InsuredDetails:UIAN",
        "%vlocity_namespace%__IsDisabled__c": false,
        "%vlocity_namespace%__IsRequiredForUpsert__c": false,
        "%vlocity_namespace%__MapId__c": "CAIS_createInsuredAccountCustoma3F6C000002RDq3UAGItem54",
        "%vlocity_namespace%__UpsertKey__c": false,
        "Name": "CAIS_createInsuredAccount",
        "VlocityDataPackType": "SObject",
        "VlocityRecordSObjectType": "%vlocity_namespace%__DRMapItem__c"
    },
    {
        "%vlocity_namespace%__DomainObjectAPIName__c": "Account",
        "%vlocity_namespace%__DomainObjectCreationOrder__c": 2,
        "%vlocity_namespace%__DomainObjectFieldAPIName__c": "Vacancy_Rate__c",
        "%vlocity_namespace%__InterfaceFieldAPIName__c": "InsuredDetails:CommunityAssociation:VacancyRate",
        "%vlocity_namespace%__IsDisabled__c": false,
        "%vlocity_namespace%__IsRequiredForUpsert__c": false,
        "%vlocity_namespace%__MapId__c": "CAIS_createInsuredAccountCustoma3F6C000002RDq3UAGItem53",
        "%vlocity_namespace%__UpsertKey__c": false,
        "Name": "CAIS_createInsuredAccount",
        "VlocityDataPackType": "SObject",
        "VlocityRecordSObjectType": "%vlocity_namespace%__DRMapItem__c"
    },
    {
        "%vlocity_namespace%__DomainObjectAPIName__c": "Agency_Account_Relationship__c",
        "%vlocity_namespace%__DomainObjectCreationOrder__c": 3,
        "%vlocity_namespace%__DomainObjectFieldAPIName__c": "Agency_Id__c",
        "%vlocity_namespace%__InterfaceFieldAPIName__c": "currentUserAccountId",
        "%vlocity_namespace%__IsDisabled__c": false,
        "%vlocity_namespace%__IsRequiredForUpsert__c": false,
        "%vlocity_namespace%__MapId__c": "CAIS_createInsuredAccountCustoma3F6C000002RDq3UAGItem65",
        "%vlocity_namespace%__UpsertKey__c": false,
        "Name": "CAIS_createInsuredAccount",
        "VlocityDataPackType": "SObject",
        "VlocityRecordSObjectType": "%vlocity_namespace%__DRMapItem__c"
    },
    {
        "%vlocity_namespace%__ConfigurationValue__c": "FAKEMAPPING",
        "%vlocity_namespace%__DomainObjectAPIName__c": "Agency_Account_Relationship__c",
        "%vlocity_namespace%__DomainObjectCreationOrder__c": 3,
        "%vlocity_namespace%__DomainObjectFieldAPIName__c": "Id",
        "%vlocity_namespace%__FilterOperator__c": "=",
        "%vlocity_namespace%__IsDisabled__c": true,
        "%vlocity_namespace%__IsRequiredForUpsert__c": false,
        "%vlocity_namespace%__MapId__c": "CAIS_createInsuredAccountCustoma3F6C000002RDq3UAGItem63",
        "%vlocity_namespace%__UpsertKey__c": false,
        "Name": "CAIS_createInsuredAccount",
        "VlocityDataPackType": "SObject",
        "VlocityRecordSObjectType": "%vlocity_namespace%__DRMapItem__c"
    },
    {
        "%vlocity_namespace%__DomainObjectAPIName__c": "Agency_Account_Relationship__c",
        "%vlocity_namespace%__DomainObjectCreationOrder__c": 3,
        "%vlocity_namespace%__DomainObjectFieldAPIName__c": "Insured_Id__c",
        "%vlocity_namespace%__IsDisabled__c": false,
        "%vlocity_namespace%__IsRequiredForUpsert__c": false,
        "%vlocity_namespace%__LinkCreatedField__c": "Id",
        "%vlocity_namespace%__LinkCreatedIndex__c": 2,
        "%vlocity_namespace%__MapId__c": "CAIS_createInsuredAccountCustoma3F6C000002RDq3UAGItem64",
        "%vlocity_namespace%__UpsertKey__c": false,
        "Name": "CAIS_createInsuredAccount",
        "VlocityDataPackType": "SObject",
        "VlocityRecordSObjectType": "%vlocity_namespace%__DRMapItem__c"
    }
]