{
    "%vlocity_namespace%__CustomJavaScript__c": "DocuSign_AgencyContract_SampleInput.json",
    "%vlocity_namespace%__DisableMetadataCache__c": false,
    "%vlocity_namespace%__ElementTypeToHTMLTemplateList__c": "{\"ElementTypeToHTMLTemplateList\":[]}",
    "%vlocity_namespace%__Element__c": [
        "DocuSign_AgencyContract_Element_AgencyContractExport.json",
        "DocuSign_AgencyContract_Element_AgencyContractTransformForDocuSign.json",
        "DocuSign_AgencyContract_Element_DocuSignEnvelopeAction.json"
    ],
    "%vlocity_namespace%__IsLwcEnabled__c": false,
    "%vlocity_namespace%__IsProcedure__c": true,
    "%vlocity_namespace%__IsReusable__c": false,
    "%vlocity_namespace%__IsTest__c": false,
    "%vlocity_namespace%__Language__c": "Procedure",
    "%vlocity_namespace%__ProcedureKey__c": "DocuSign_AgencyContract",
    "%vlocity_namespace%__PropertySet__c": "DocuSign_AgencyContract_PropertySet.json",
    "%vlocity_namespace%__SubType__c": "AgencyContract",
    "%vlocity_namespace%__Type__c": "DocuSign",
    "Name": "Agency Contract Document Docusign",
    "VlocityDataPackType": "SObject",
    "VlocityRecordSObjectType": "%vlocity_namespace%__OmniScript__c",
    "VlocityRecordSourceKey": "%vlocity_namespace%__OmniScript__c/DocuSign/AgencyContract/Procedure",
    "sourceOrgUrl": "/apex/vlocity_ins__integrationproceduredesigner?id=a5C3K0000009KjJUAU"
}