{
    "%vlocity_namespace%__Active__c": true,
    "%vlocity_namespace%__OmniScriptId__c": {
        "Name": "Agency Contract Document Docusign",
        "VlocityDataPackType": "VlocityMatchingKeyObject",
        "VlocityMatchingRecordSourceKey": "%vlocity_namespace%__OmniScript__c/DocuSign/AgencyContract/Procedure",
        "VlocityRecordSObjectType": "%vlocity_namespace%__OmniScript__c"
    },
    "%vlocity_namespace%__PropertySet__c": {
        "HTMLTemplateId": "",
        "actionMessage": "",
        "additionalInput": {
        },
        "additionalOutput": {
        },
        "chainOnStep": false,
        "dateFormat": "",
        "dateTimeFormat": "",
        "disOnTplt": false,
        "docuSignTemplatesGroup": [
            {
                "docuSignTemplate": "b0d81357-b461-465c-b8bc-3bb2378f5fe1",
                "includeToSend": true,
                "sendJSONNode": "",
                "sendJSONPath": "AgencyContractTransformForDocuSign",
                "signerList": [
                    {
                        "routingOrder": "",
                        "signerEmail": "%AgencyContractExport:AASemail%",
                        "signerName": "%AgencyContractExport:AASFirst_Name% %AgencyContractExport:AASLast_Name%",
                        "templateRole": "Authorized Signer"
                    }
                ],
                "transformBundle": null
            }
        ],
        "emailBody": "Dear %AgencyContractExport:AASFirst_Name% %AgencyContractExport:AASLast_Name%\n\nCongratulations, your application to join MGAlive.com has been approved, and your contract documents are ready for review and signature.\n\nIf you have any questions, regarding the documents generated from the application process, please contact our Relationship Coordinator by email, contracts@mgalive.com, or by phone (888)-833-4158.\n\nIf you are not the authorized signer, you can forward these documents to the correct person via the DocuSign process.",
        "emailSubject": "Welcome to MGAlive.com, your Contract is ready for signature",
        "executionConditionalFormula": "",
        "failOnStepError": true,
        "failureConditionalFormula": "",
        "failureResponse": {
        },
        "label": "DocuSignEnvelopeAction1",
        "responseJSONNode": "",
        "responseJSONPath": "",
        "returnOnlyAdditionalOutput": false,
        "returnOnlyFailureResponse": false,
        "sendOnlyAdditionalInput": false,
        "show": null,
        "timeFormat": "",
        "useFormulas": true,
        "validationRequired": "Step"
    },
    "%vlocity_namespace%__ReusableOmniScript__c": false,
    "%vlocity_namespace%__Type__c": "DocuSign Envelope Action",
    "Name": "DocuSignEnvelopeAction",
    "VlocityDataPackType": "SObject",
    "VlocityRecordSObjectType": "%vlocity_namespace%__Element__c",
    "VlocityRecordSourceKey": "%vlocity_namespace%__Element__c/%vlocity_namespace%__OmniScript__c/DocuSign/AgencyContract/Procedure/DocuSignEnvelopeAction"
}