[
    {
        "%vlocity_namespace%__DomainObjectAPIName__c": "json",
        "%vlocity_namespace%__DomainObjectCreationOrder__c": 0,
        "%vlocity_namespace%__DomainObjectFieldAPIName__c": "account",
        "%vlocity_namespace%__FilterGroup__c": 0,
        "%vlocity_namespace%__FilterOperator__c": "=",
        "%vlocity_namespace%__FilterValue__c": "InsuredFEIN",
        "%vlocity_namespace%__InterfaceFieldAPIName__c": "%vlocity_namespace%__TaxID__c",
        "%vlocity_namespace%__InterfaceObjectLookupOrder__c": 1,
        "%vlocity_namespace%__InterfaceObjectName__c": "Account",
        "%vlocity_namespace%__IsDisabled__c": false,
        "%vlocity_namespace%__IsRequiredForUpsert__c": false,
        "%vlocity_namespace%__MapId__c": "GetInsuredInfoByFEIN5129564796766699",
        "%vlocity_namespace%__UpsertKey__c": false,
        "Name": "GetInsuredInfoByFEIN",
        "VlocityDataPackType": "SObject",
        "VlocityRecordSObjectType": "%vlocity_namespace%__DRMapItem__c"
    },
    {
        "%vlocity_namespace%__DomainObjectAPIName__c": "json",
        "%vlocity_namespace%__DomainObjectCreationOrder__c": 1,
        "%vlocity_namespace%__DomainObjectFieldAPIName__c": "AccountId",
        "%vlocity_namespace%__InterfaceFieldAPIName__c": "account:Id",
        "%vlocity_namespace%__IsDisabled__c": false,
        "%vlocity_namespace%__IsRequiredForUpsert__c": false,
        "%vlocity_namespace%__MapId__c": "GetInsuredInfoByFEIN00008175870502502569",
        "%vlocity_namespace%__UpsertKey__c": false,
        "Name": "GetInsuredInfoByFEIN",
        "VlocityDataPackType": "SObject",
        "VlocityRecordSObjectType": "%vlocity_namespace%__DRMapItem__c"
    },
    {
        "%vlocity_namespace%__DomainObjectAPIName__c": "json",
        "%vlocity_namespace%__DomainObjectCreationOrder__c": 1,
        "%vlocity_namespace%__DomainObjectFieldAPIName__c": "ContactId",
        "%vlocity_namespace%__InterfaceFieldAPIName__c": "account:%vlocity_namespace%__PrimaryContactId__c",
        "%vlocity_namespace%__IsDisabled__c": false,
        "%vlocity_namespace%__IsRequiredForUpsert__c": false,
        "%vlocity_namespace%__MapId__c": "GetInsuredInfoByFEIN12840230723969626",
        "%vlocity_namespace%__UpsertKey__c": false,
        "Name": "GetInsuredInfoByFEIN",
        "VlocityDataPackType": "SObject",
        "VlocityRecordSObjectType": "%vlocity_namespace%__DRMapItem__c"
    },
    {
        "%vlocity_namespace%__DefaultValue__c": "\"",
        "%vlocity_namespace%__DomainObjectAPIName__c": "json",
        "%vlocity_namespace%__DomainObjectCreationOrder__c": 1,
        "%vlocity_namespace%__DomainObjectFieldAPIName__c": "Insured",
        "%vlocity_namespace%__InterfaceFieldAPIName__c": "account:Name",
        "%vlocity_namespace%__IsDisabled__c": false,
        "%vlocity_namespace%__IsRequiredForUpsert__c": false,
        "%vlocity_namespace%__MapId__c": "GetInsuredInfoByFEIN6310000120187078",
        "%vlocity_namespace%__UpsertKey__c": false,
        "Name": "GetInsuredInfoByFEIN",
        "VlocityDataPackType": "SObject",
        "VlocityRecordSObjectType": "%vlocity_namespace%__DRMapItem__c"
    },
    {
        "%vlocity_namespace%__DefaultValue__c": "\"\"",
        "%vlocity_namespace%__DomainObjectAPIName__c": "json",
        "%vlocity_namespace%__DomainObjectCreationOrder__c": 1,
        "%vlocity_namespace%__DomainObjectFieldAPIName__c": "Name",
        "%vlocity_namespace%__InterfaceFieldAPIName__c": "account:Name",
        "%vlocity_namespace%__IsDisabled__c": false,
        "%vlocity_namespace%__IsRequiredForUpsert__c": false,
        "%vlocity_namespace%__MapId__c": "GetInsuredInfoByFEIN29560485393060887",
        "%vlocity_namespace%__UpsertKey__c": false,
        "Name": "GetInsuredInfoByFEIN",
        "VlocityDataPackType": "SObject",
        "VlocityRecordSObjectType": "%vlocity_namespace%__DRMapItem__c"
    },
    {
        "%vlocity_namespace%__DomainObjectAPIName__c": "json",
        "%vlocity_namespace%__DomainObjectCreationOrder__c": 1,
        "%vlocity_namespace%__DomainObjectFieldAPIName__c": "WorkerCompensation:AdditionalAssociationInformation:DirectEmployeeCheck",
        "%vlocity_namespace%__InterfaceFieldAPIName__c": "account:EmployeeCheck__c",
        "%vlocity_namespace%__IsDisabled__c": false,
        "%vlocity_namespace%__IsRequiredForUpsert__c": false,
        "%vlocity_namespace%__MapId__c": "GetInsuredInfoByFEINCustom1561",
        "%vlocity_namespace%__UpsertKey__c": false,
        "Name": "GetInsuredInfoByFEIN",
        "VlocityDataPackType": "SObject",
        "VlocityRecordSObjectType": "%vlocity_namespace%__DRMapItem__c"
    },
    {
        "%vlocity_namespace%__DomainObjectAPIName__c": "json",
        "%vlocity_namespace%__DomainObjectCreationOrder__c": 1,
        "%vlocity_namespace%__DomainObjectFieldAPIName__c": "WorkerCompensation:AdditionalAssociationInformation:ExclusiveVendorCheck",
        "%vlocity_namespace%__InterfaceFieldAPIName__c": "account:ExclusiveVendors__c",
        "%vlocity_namespace%__IsDisabled__c": false,
        "%vlocity_namespace%__IsRequiredForUpsert__c": false,
        "%vlocity_namespace%__MapId__c": "GetInsuredInfoByFEINCustom7954",
        "%vlocity_namespace%__UpsertKey__c": false,
        "Name": "GetInsuredInfoByFEIN",
        "VlocityDataPackType": "SObject",
        "VlocityRecordSObjectType": "%vlocity_namespace%__DRMapItem__c"
    },
    {
        "%vlocity_namespace%__DomainObjectAPIName__c": "json",
        "%vlocity_namespace%__DomainObjectCreationOrder__c": 1,
        "%vlocity_namespace%__DomainObjectFieldAPIName__c": "WorkerCompensation:AdditionalAssociationInformation:HiringVendor",
        "%vlocity_namespace%__InterfaceFieldAPIName__c": "account:HiredVendor__c",
        "%vlocity_namespace%__IsDisabled__c": false,
        "%vlocity_namespace%__IsRequiredForUpsert__c": false,
        "%vlocity_namespace%__MapId__c": "GetInsuredInfoByFEINCustom8658",
        "%vlocity_namespace%__UpsertKey__c": false,
        "Name": "GetInsuredInfoByFEIN",
        "VlocityDataPackType": "SObject",
        "VlocityRecordSObjectType": "%vlocity_namespace%__DRMapItem__c"
    },
    {
        "%vlocity_namespace%__DomainObjectAPIName__c": "json",
        "%vlocity_namespace%__DomainObjectCreationOrder__c": 1,
        "%vlocity_namespace%__DomainObjectFieldAPIName__c": "WorkerCompensation:AdditionalAssociationInformation:NumOfBoardMembers",
        "%vlocity_namespace%__DomainObjectFieldType__c": "String",
        "%vlocity_namespace%__InterfaceFieldAPIName__c": "account:NumberOfBoardMembers__c",
        "%vlocity_namespace%__IsDisabled__c": false,
        "%vlocity_namespace%__IsRequiredForUpsert__c": false,
        "%vlocity_namespace%__MapId__c": "GetInsuredInfoByFEINCustom6245",
        "%vlocity_namespace%__UpsertKey__c": false,
        "Name": "GetInsuredInfoByFEIN",
        "VlocityDataPackType": "SObject",
        "VlocityRecordSObjectType": "%vlocity_namespace%__DRMapItem__c"
    },
    {
        "%vlocity_namespace%__DefaultValue__c": "\"\"",
        "%vlocity_namespace%__DomainObjectAPIName__c": "json",
        "%vlocity_namespace%__DomainObjectCreationOrder__c": 1,
        "%vlocity_namespace%__DomainObjectFieldAPIName__c": "WorkerCompensation:CommunityAssociation:BillingAddress-Block:BillingAddress",
        "%vlocity_namespace%__InterfaceFieldAPIName__c": "account:Calculated_Billing_Address__c",
        "%vlocity_namespace%__IsDisabled__c": true,
        "%vlocity_namespace%__IsRequiredForUpsert__c": false,
        "%vlocity_namespace%__MapId__c": "GetInsuredInfoByFEIN9959602759751769",
        "%vlocity_namespace%__UpsertKey__c": false,
        "Name": "GetInsuredInfoByFEIN",
        "VlocityDataPackType": "SObject",
        "VlocityRecordSObjectType": "%vlocity_namespace%__DRMapItem__c"
    },
    {
        "%vlocity_namespace%__DefaultValue__c": "\"\"",
        "%vlocity_namespace%__DomainObjectAPIName__c": "json",
        "%vlocity_namespace%__DomainObjectCreationOrder__c": 1,
        "%vlocity_namespace%__DomainObjectFieldAPIName__c": "WorkerCompensation:CommunityAssociation:BillingAddress-Block:BillingCity",
        "%vlocity_namespace%__InterfaceFieldAPIName__c": "account:BillingCity",
        "%vlocity_namespace%__IsDisabled__c": true,
        "%vlocity_namespace%__IsRequiredForUpsert__c": false,
        "%vlocity_namespace%__MapId__c": "GetInsuredInfoByFEIN8370179429454572",
        "%vlocity_namespace%__UpsertKey__c": false,
        "Name": "GetInsuredInfoByFEIN",
        "VlocityDataPackType": "SObject",
        "VlocityRecordSObjectType": "%vlocity_namespace%__DRMapItem__c"
    },
    {
        "%vlocity_namespace%__DefaultValue__c": "\"\"",
        "%vlocity_namespace%__DomainObjectAPIName__c": "json",
        "%vlocity_namespace%__DomainObjectCreationOrder__c": 1,
        "%vlocity_namespace%__DomainObjectFieldAPIName__c": "WorkerCompensation:CommunityAssociation:BillingAddress-Block:BillingState",
        "%vlocity_namespace%__InterfaceFieldAPIName__c": "account:BillingState",
        "%vlocity_namespace%__IsDisabled__c": true,
        "%vlocity_namespace%__IsRequiredForUpsert__c": false,
        "%vlocity_namespace%__MapId__c": "GetInsuredInfoByFEIN7380852412401473",
        "%vlocity_namespace%__UpsertKey__c": false,
        "Name": "GetInsuredInfoByFEIN",
        "VlocityDataPackType": "SObject",
        "VlocityRecordSObjectType": "%vlocity_namespace%__DRMapItem__c"
    },
    {
        "%vlocity_namespace%__DefaultValue__c": "\"\"",
        "%vlocity_namespace%__DomainObjectAPIName__c": "json",
        "%vlocity_namespace%__DomainObjectCreationOrder__c": 1,
        "%vlocity_namespace%__DomainObjectFieldAPIName__c": "WorkerCompensation:CommunityAssociation:BillingAddress-Block:BillingStreet",
        "%vlocity_namespace%__InterfaceFieldAPIName__c": "account:BillingStreet",
        "%vlocity_namespace%__IsDisabled__c": true,
        "%vlocity_namespace%__IsRequiredForUpsert__c": false,
        "%vlocity_namespace%__MapId__c": "GetInsuredInfoByFEIN8118566106852294",
        "%vlocity_namespace%__UpsertKey__c": false,
        "Name": "GetInsuredInfoByFEIN",
        "VlocityDataPackType": "SObject",
        "VlocityRecordSObjectType": "%vlocity_namespace%__DRMapItem__c"
    },
    {
        "%vlocity_namespace%__DefaultValue__c": "\"\"",
        "%vlocity_namespace%__DomainObjectAPIName__c": "json",
        "%vlocity_namespace%__DomainObjectCreationOrder__c": 1,
        "%vlocity_namespace%__DomainObjectFieldAPIName__c": "WorkerCompensation:CommunityAssociation:BillingAddress-Block:BillingZip",
        "%vlocity_namespace%__InterfaceFieldAPIName__c": "account:BillingPostalCode",
        "%vlocity_namespace%__IsDisabled__c": true,
        "%vlocity_namespace%__IsRequiredForUpsert__c": false,
        "%vlocity_namespace%__MapId__c": "GetInsuredInfoByFEIN6594450781385992",
        "%vlocity_namespace%__UpsertKey__c": false,
        "Name": "GetInsuredInfoByFEIN",
        "VlocityDataPackType": "SObject",
        "VlocityRecordSObjectType": "%vlocity_namespace%__DRMapItem__c"
    },
    {
        "%vlocity_namespace%__DefaultValue__c": "\"\"",
        "%vlocity_namespace%__DomainObjectAPIName__c": "json",
        "%vlocity_namespace%__DomainObjectCreationOrder__c": 1,
        "%vlocity_namespace%__DomainObjectFieldAPIName__c": "WorkerCompensation:CommunityAssociation:BillingCareOf",
        "%vlocity_namespace%__InterfaceFieldAPIName__c": "account:Billing_CO__c",
        "%vlocity_namespace%__IsDisabled__c": true,
        "%vlocity_namespace%__IsRequiredForUpsert__c": false,
        "%vlocity_namespace%__MapId__c": "GetInsuredInfoByFEIN13508169705933537",
        "%vlocity_namespace%__UpsertKey__c": false,
        "Name": "GetInsuredInfoByFEIN",
        "VlocityDataPackType": "SObject",
        "VlocityRecordSObjectType": "%vlocity_namespace%__DRMapItem__c"
    },
    {
        "%vlocity_namespace%__DefaultValue__c": "\"\"",
        "%vlocity_namespace%__DomainObjectAPIName__c": "json",
        "%vlocity_namespace%__DomainObjectCreationOrder__c": 1,
        "%vlocity_namespace%__DomainObjectFieldAPIName__c": "WorkerCompensation:CommunityAssociation:BillingSuite",
        "%vlocity_namespace%__InterfaceFieldAPIName__c": "account:Billing_Address2__c",
        "%vlocity_namespace%__IsDisabled__c": true,
        "%vlocity_namespace%__IsRequiredForUpsert__c": false,
        "%vlocity_namespace%__MapId__c": "GetInsuredInfoByFEIN5423200102299033",
        "%vlocity_namespace%__UpsertKey__c": false,
        "Name": "GetInsuredInfoByFEIN",
        "VlocityDataPackType": "SObject",
        "VlocityRecordSObjectType": "%vlocity_namespace%__DRMapItem__c"
    },
    {
        "%vlocity_namespace%__DefaultValue__c": "\"\"",
        "%vlocity_namespace%__DomainObjectAPIName__c": "json",
        "%vlocity_namespace%__DomainObjectCreationOrder__c": 1,
        "%vlocity_namespace%__DomainObjectFieldAPIName__c": "WorkerCompensation:CommunityAssociation:Co_opCheck",
        "%vlocity_namespace%__InterfaceFieldAPIName__c": "account:IsAssociationCo_Op__c",
        "%vlocity_namespace%__IsDisabled__c": false,
        "%vlocity_namespace%__IsRequiredForUpsert__c": false,
        "%vlocity_namespace%__MapId__c": "GetInsuredInfoByFEIN6190456476309565",
        "%vlocity_namespace%__UpsertKey__c": false,
        "Name": "GetInsuredInfoByFEIN",
        "VlocityDataPackType": "SObject",
        "VlocityRecordSObjectType": "%vlocity_namespace%__DRMapItem__c"
    },
    {
        "%vlocity_namespace%__DefaultValue__c": "\"\"",
        "%vlocity_namespace%__DomainObjectAPIName__c": "json",
        "%vlocity_namespace%__DomainObjectCreationOrder__c": 1,
        "%vlocity_namespace%__DomainObjectFieldAPIName__c": "WorkerCompensation:CommunityAssociation:ContractCheck",
        "%vlocity_namespace%__InterfaceFieldAPIName__c": "account:AssocUnderMgmtContract__c",
        "%vlocity_namespace%__IsDisabled__c": false,
        "%vlocity_namespace%__IsRequiredForUpsert__c": false,
        "%vlocity_namespace%__MapId__c": "GetInsuredInfoByFEIN2367149865921574",
        "%vlocity_namespace%__UpsertKey__c": false,
        "Name": "GetInsuredInfoByFEIN",
        "VlocityDataPackType": "SObject",
        "VlocityRecordSObjectType": "%vlocity_namespace%__DRMapItem__c"
    },
    {
        "%vlocity_namespace%__DefaultValue__c": "\"\"",
        "%vlocity_namespace%__DomainObjectAPIName__c": "json",
        "%vlocity_namespace%__DomainObjectCreationOrder__c": 1,
        "%vlocity_namespace%__DomainObjectFieldAPIName__c": "WorkerCompensation:CommunityAssociation:DescriptionOfOperation",
        "%vlocity_namespace%__InterfaceFieldAPIName__c": "account:DescOfOpertions__c",
        "%vlocity_namespace%__IsDisabled__c": false,
        "%vlocity_namespace%__IsRequiredForUpsert__c": false,
        "%vlocity_namespace%__MapId__c": "GetInsuredInfoByFEIN8588237135432302",
        "%vlocity_namespace%__UpsertKey__c": false,
        "Name": "GetInsuredInfoByFEIN",
        "VlocityDataPackType": "SObject",
        "VlocityRecordSObjectType": "%vlocity_namespace%__DRMapItem__c"
    },
    {
        "%vlocity_namespace%__DefaultValue__c": "\"\"",
        "%vlocity_namespace%__DomainObjectAPIName__c": "json",
        "%vlocity_namespace%__DomainObjectCreationOrder__c": 1,
        "%vlocity_namespace%__DomainObjectFieldAPIName__c": "WorkerCompensation:CommunityAssociation:InsuredContactBlock:ContactEmail",
        "%vlocity_namespace%__InterfaceFieldAPIName__c": "account:%vlocity_namespace%__PrimaryContactId__r.Email",
        "%vlocity_namespace%__IsDisabled__c": false,
        "%vlocity_namespace%__IsRequiredForUpsert__c": false,
        "%vlocity_namespace%__MapId__c": "GetInsuredInfoByFEIN5808394372607262",
        "%vlocity_namespace%__UpsertKey__c": false,
        "Name": "GetInsuredInfoByFEIN",
        "VlocityDataPackType": "SObject",
        "VlocityRecordSObjectType": "%vlocity_namespace%__DRMapItem__c"
    },
    {
        "%vlocity_namespace%__DefaultValue__c": "\"\"",
        "%vlocity_namespace%__DomainObjectAPIName__c": "json",
        "%vlocity_namespace%__DomainObjectCreationOrder__c": 1,
        "%vlocity_namespace%__DomainObjectFieldAPIName__c": "WorkerCompensation:CommunityAssociation:InsuredContactBlock:ContactFirstName",
        "%vlocity_namespace%__InterfaceFieldAPIName__c": "account:%vlocity_namespace%__PrimaryContactId__r.FirstName",
        "%vlocity_namespace%__IsDisabled__c": false,
        "%vlocity_namespace%__IsRequiredForUpsert__c": false,
        "%vlocity_namespace%__MapId__c": "GetInsuredInfoByFEIN6205587585931751",
        "%vlocity_namespace%__UpsertKey__c": false,
        "Name": "GetInsuredInfoByFEIN",
        "VlocityDataPackType": "SObject",
        "VlocityRecordSObjectType": "%vlocity_namespace%__DRMapItem__c"
    },
    {
        "%vlocity_namespace%__DefaultValue__c": "\"\"",
        "%vlocity_namespace%__DomainObjectAPIName__c": "json",
        "%vlocity_namespace%__DomainObjectCreationOrder__c": 1,
        "%vlocity_namespace%__DomainObjectFieldAPIName__c": "WorkerCompensation:CommunityAssociation:InsuredContactBlock:ContactLastName",
        "%vlocity_namespace%__InterfaceFieldAPIName__c": "account:%vlocity_namespace%__PrimaryContactId__r.LastName",
        "%vlocity_namespace%__IsDisabled__c": false,
        "%vlocity_namespace%__IsRequiredForUpsert__c": false,
        "%vlocity_namespace%__MapId__c": "GetInsuredInfoByFEIN6774750533551293",
        "%vlocity_namespace%__UpsertKey__c": false,
        "Name": "GetInsuredInfoByFEIN",
        "VlocityDataPackType": "SObject",
        "VlocityRecordSObjectType": "%vlocity_namespace%__DRMapItem__c"
    },
    {
        "%vlocity_namespace%__DefaultValue__c": "\"\"",
        "%vlocity_namespace%__DomainObjectAPIName__c": "json",
        "%vlocity_namespace%__DomainObjectCreationOrder__c": 1,
        "%vlocity_namespace%__DomainObjectFieldAPIName__c": "WorkerCompensation:CommunityAssociation:InsuredContactBlock:ContactPhone",
        "%vlocity_namespace%__InterfaceFieldAPIName__c": "account:%vlocity_namespace%__PrimaryContactId__r.Phone",
        "%vlocity_namespace%__IsDisabled__c": false,
        "%vlocity_namespace%__IsRequiredForUpsert__c": false,
        "%vlocity_namespace%__MapId__c": "GetInsuredInfoByFEIN827531203822198",
        "%vlocity_namespace%__UpsertKey__c": false,
        "Name": "GetInsuredInfoByFEIN",
        "VlocityDataPackType": "SObject",
        "VlocityRecordSObjectType": "%vlocity_namespace%__DRMapItem__c"
    },
    {
        "%vlocity_namespace%__DefaultValue__c": "\"\"",
        "%vlocity_namespace%__DomainObjectAPIName__c": "json",
        "%vlocity_namespace%__DomainObjectCreationOrder__c": 1,
        "%vlocity_namespace%__DomainObjectFieldAPIName__c": "WorkerCompensation:CommunityAssociation:InsuredContactBlock:ContactTitle",
        "%vlocity_namespace%__InterfaceFieldAPIName__c": "account:%vlocity_namespace%__PrimaryContactId__r.TitleInsured__c",
        "%vlocity_namespace%__IsDisabled__c": false,
        "%vlocity_namespace%__IsRequiredForUpsert__c": false,
        "%vlocity_namespace%__MapId__c": "GetInsuredInfoByFEIN23603609337254294",
        "%vlocity_namespace%__UpsertKey__c": false,
        "Name": "GetInsuredInfoByFEIN",
        "VlocityDataPackType": "SObject",
        "VlocityRecordSObjectType": "%vlocity_namespace%__DRMapItem__c"
    },
    {
        "%vlocity_namespace%__DefaultValue__c": "\"\"",
        "%vlocity_namespace%__DomainObjectAPIName__c": "json",
        "%vlocity_namespace%__DomainObjectCreationOrder__c": 1,
        "%vlocity_namespace%__DomainObjectFieldAPIName__c": "WorkerCompensation:CommunityAssociation:LocationAddress-Block:LocationAddress",
        "%vlocity_namespace%__InterfaceFieldAPIName__c": "account:Calculated_Location_Address__c",
        "%vlocity_namespace%__IsDisabled__c": false,
        "%vlocity_namespace%__IsRequiredForUpsert__c": false,
        "%vlocity_namespace%__MapId__c": "GetInsuredInfoByFEIN6802869375184211",
        "%vlocity_namespace%__UpsertKey__c": false,
        "Name": "GetInsuredInfoByFEIN",
        "VlocityDataPackType": "SObject",
        "VlocityRecordSObjectType": "%vlocity_namespace%__DRMapItem__c"
    },
    {
        "%vlocity_namespace%__DefaultValue__c": "\"\"",
        "%vlocity_namespace%__DomainObjectAPIName__c": "json",
        "%vlocity_namespace%__DomainObjectCreationOrder__c": 1,
        "%vlocity_namespace%__DomainObjectFieldAPIName__c": "WorkerCompensation:CommunityAssociation:LocationAddress-Block:LocationCity",
        "%vlocity_namespace%__InterfaceFieldAPIName__c": "account:Location_City__c",
        "%vlocity_namespace%__IsDisabled__c": false,
        "%vlocity_namespace%__IsRequiredForUpsert__c": false,
        "%vlocity_namespace%__MapId__c": "GetInsuredInfoByFEIN7522792847990023",
        "%vlocity_namespace%__UpsertKey__c": false,
        "Name": "GetInsuredInfoByFEIN",
        "VlocityDataPackType": "SObject",
        "VlocityRecordSObjectType": "%vlocity_namespace%__DRMapItem__c"
    },
    {
        "%vlocity_namespace%__DefaultValue__c": "\"\"",
        "%vlocity_namespace%__DomainObjectAPIName__c": "json",
        "%vlocity_namespace%__DomainObjectCreationOrder__c": 1,
        "%vlocity_namespace%__DomainObjectFieldAPIName__c": "WorkerCompensation:CommunityAssociation:LocationAddress-Block:LocationState",
        "%vlocity_namespace%__InterfaceFieldAPIName__c": "account:Location_State__c",
        "%vlocity_namespace%__IsDisabled__c": false,
        "%vlocity_namespace%__IsRequiredForUpsert__c": false,
        "%vlocity_namespace%__MapId__c": "GetInsuredInfoByFEIN806265534481633",
        "%vlocity_namespace%__UpsertKey__c": false,
        "Name": "GetInsuredInfoByFEIN",
        "VlocityDataPackType": "SObject",
        "VlocityRecordSObjectType": "%vlocity_namespace%__DRMapItem__c"
    },
    {
        "%vlocity_namespace%__DefaultValue__c": "\"\"",
        "%vlocity_namespace%__DomainObjectAPIName__c": "json",
        "%vlocity_namespace%__DomainObjectCreationOrder__c": 1,
        "%vlocity_namespace%__DomainObjectFieldAPIName__c": "WorkerCompensation:CommunityAssociation:LocationAddress-Block:LocationStreet",
        "%vlocity_namespace%__InterfaceFieldAPIName__c": "account:Location_Street__c",
        "%vlocity_namespace%__IsDisabled__c": false,
        "%vlocity_namespace%__IsRequiredForUpsert__c": false,
        "%vlocity_namespace%__MapId__c": "GetInsuredInfoByFEIN18032409290700002",
        "%vlocity_namespace%__UpsertKey__c": false,
        "Name": "GetInsuredInfoByFEIN",
        "VlocityDataPackType": "SObject",
        "VlocityRecordSObjectType": "%vlocity_namespace%__DRMapItem__c"
    },
    {
        "%vlocity_namespace%__DefaultValue__c": "\"\"",
        "%vlocity_namespace%__DomainObjectAPIName__c": "json",
        "%vlocity_namespace%__DomainObjectCreationOrder__c": 1,
        "%vlocity_namespace%__DomainObjectFieldAPIName__c": "WorkerCompensation:CommunityAssociation:LocationAddress-Block:LocationZip",
        "%vlocity_namespace%__InterfaceFieldAPIName__c": "account:Location_Zipcode__c",
        "%vlocity_namespace%__IsDisabled__c": false,
        "%vlocity_namespace%__IsRequiredForUpsert__c": false,
        "%vlocity_namespace%__MapId__c": "GetInsuredInfoByFEIN12570866960017857",
        "%vlocity_namespace%__UpsertKey__c": false,
        "Name": "GetInsuredInfoByFEIN",
        "VlocityDataPackType": "SObject",
        "VlocityRecordSObjectType": "%vlocity_namespace%__DRMapItem__c"
    },
    {
        "%vlocity_namespace%__DefaultValue__c": "\"\"",
        "%vlocity_namespace%__DomainObjectAPIName__c": "json",
        "%vlocity_namespace%__DomainObjectCreationOrder__c": 1,
        "%vlocity_namespace%__DomainObjectFieldAPIName__c": "WorkerCompensation:CommunityAssociation:MailingAddress-Block:MailingAddress",
        "%vlocity_namespace%__InterfaceFieldAPIName__c": "account:Calculated_Mailing_Address__c",
        "%vlocity_namespace%__IsDisabled__c": true,
        "%vlocity_namespace%__IsRequiredForUpsert__c": false,
        "%vlocity_namespace%__MapId__c": "GetInsuredInfoByFEIN04940049185394946",
        "%vlocity_namespace%__UpsertKey__c": false,
        "Name": "GetInsuredInfoByFEIN",
        "VlocityDataPackType": "SObject",
        "VlocityRecordSObjectType": "%vlocity_namespace%__DRMapItem__c"
    },
    {
        "%vlocity_namespace%__DefaultValue__c": "\"\"",
        "%vlocity_namespace%__DomainObjectAPIName__c": "json",
        "%vlocity_namespace%__DomainObjectCreationOrder__c": 1,
        "%vlocity_namespace%__DomainObjectFieldAPIName__c": "WorkerCompensation:CommunityAssociation:MailingAddress-Block:MailingCity",
        "%vlocity_namespace%__InterfaceFieldAPIName__c": "account:ShippingCity",
        "%vlocity_namespace%__IsDisabled__c": true,
        "%vlocity_namespace%__IsRequiredForUpsert__c": false,
        "%vlocity_namespace%__MapId__c": "GetInsuredInfoByFEIN6507642467740717",
        "%vlocity_namespace%__UpsertKey__c": false,
        "Name": "GetInsuredInfoByFEIN",
        "VlocityDataPackType": "SObject",
        "VlocityRecordSObjectType": "%vlocity_namespace%__DRMapItem__c"
    },
    {
        "%vlocity_namespace%__DefaultValue__c": "\"\"",
        "%vlocity_namespace%__DomainObjectAPIName__c": "json",
        "%vlocity_namespace%__DomainObjectCreationOrder__c": 1,
        "%vlocity_namespace%__DomainObjectFieldAPIName__c": "WorkerCompensation:CommunityAssociation:MailingAddress-Block:MailingState",
        "%vlocity_namespace%__InterfaceFieldAPIName__c": "account:ShippingState",
        "%vlocity_namespace%__IsDisabled__c": true,
        "%vlocity_namespace%__IsRequiredForUpsert__c": false,
        "%vlocity_namespace%__MapId__c": "GetInsuredInfoByFEIN5661453903308136",
        "%vlocity_namespace%__UpsertKey__c": false,
        "Name": "GetInsuredInfoByFEIN",
        "VlocityDataPackType": "SObject",
        "VlocityRecordSObjectType": "%vlocity_namespace%__DRMapItem__c"
    },
    {
        "%vlocity_namespace%__DefaultValue__c": "\"\"",
        "%vlocity_namespace%__DomainObjectAPIName__c": "json",
        "%vlocity_namespace%__DomainObjectCreationOrder__c": 1,
        "%vlocity_namespace%__DomainObjectFieldAPIName__c": "WorkerCompensation:CommunityAssociation:MailingAddress-Block:MailingStreet",
        "%vlocity_namespace%__InterfaceFieldAPIName__c": "account:ShippingStreet",
        "%vlocity_namespace%__IsDisabled__c": true,
        "%vlocity_namespace%__IsRequiredForUpsert__c": false,
        "%vlocity_namespace%__MapId__c": "GetInsuredInfoByFEIN40107941631324406",
        "%vlocity_namespace%__UpsertKey__c": false,
        "Name": "GetInsuredInfoByFEIN",
        "VlocityDataPackType": "SObject",
        "VlocityRecordSObjectType": "%vlocity_namespace%__DRMapItem__c"
    },
    {
        "%vlocity_namespace%__DefaultValue__c": "\"\"",
        "%vlocity_namespace%__DomainObjectAPIName__c": "json",
        "%vlocity_namespace%__DomainObjectCreationOrder__c": 1,
        "%vlocity_namespace%__DomainObjectFieldAPIName__c": "WorkerCompensation:CommunityAssociation:MailingAddress-Block:MailingZip",
        "%vlocity_namespace%__InterfaceFieldAPIName__c": "account:ShippingPostalCode",
        "%vlocity_namespace%__IsDisabled__c": true,
        "%vlocity_namespace%__IsRequiredForUpsert__c": false,
        "%vlocity_namespace%__MapId__c": "GetInsuredInfoByFEIN9622641822632234",
        "%vlocity_namespace%__UpsertKey__c": false,
        "Name": "GetInsuredInfoByFEIN",
        "VlocityDataPackType": "SObject",
        "VlocityRecordSObjectType": "%vlocity_namespace%__DRMapItem__c"
    },
    {
        "%vlocity_namespace%__DefaultValue__c": "\"\"",
        "%vlocity_namespace%__DomainObjectAPIName__c": "json",
        "%vlocity_namespace%__DomainObjectCreationOrder__c": 1,
        "%vlocity_namespace%__DomainObjectFieldAPIName__c": "WorkerCompensation:CommunityAssociation:MailingCareOf",
        "%vlocity_namespace%__InterfaceFieldAPIName__c": "account:Mailing_CO__c",
        "%vlocity_namespace%__IsDisabled__c": true,
        "%vlocity_namespace%__IsRequiredForUpsert__c": false,
        "%vlocity_namespace%__MapId__c": "GetInsuredInfoByFEIN3343403765768078",
        "%vlocity_namespace%__UpsertKey__c": false,
        "Name": "GetInsuredInfoByFEIN",
        "VlocityDataPackType": "SObject",
        "VlocityRecordSObjectType": "%vlocity_namespace%__DRMapItem__c"
    },
    {
        "%vlocity_namespace%__DefaultValue__c": "\"\"",
        "%vlocity_namespace%__DomainObjectAPIName__c": "json",
        "%vlocity_namespace%__DomainObjectCreationOrder__c": 1,
        "%vlocity_namespace%__DomainObjectFieldAPIName__c": "WorkerCompensation:CommunityAssociation:MailingSuite",
        "%vlocity_namespace%__InterfaceFieldAPIName__c": "account:Shipping_Address2__c",
        "%vlocity_namespace%__IsDisabled__c": true,
        "%vlocity_namespace%__IsRequiredForUpsert__c": false,
        "%vlocity_namespace%__MapId__c": "GetInsuredInfoByFEIN3211966326822018",
        "%vlocity_namespace%__UpsertKey__c": false,
        "Name": "GetInsuredInfoByFEIN",
        "VlocityDataPackType": "SObject",
        "VlocityRecordSObjectType": "%vlocity_namespace%__DRMapItem__c"
    },
    {
        "%vlocity_namespace%__DefaultValue__c": "\"\"",
        "%vlocity_namespace%__DomainObjectAPIName__c": "json",
        "%vlocity_namespace%__DomainObjectCreationOrder__c": 1,
        "%vlocity_namespace%__DomainObjectFieldAPIName__c": "WorkerCompensation:CommunityAssociation:NonProfitCheck",
        "%vlocity_namespace%__InterfaceFieldAPIName__c": "account:IsAssociationNonProfit__c",
        "%vlocity_namespace%__IsDisabled__c": false,
        "%vlocity_namespace%__IsRequiredForUpsert__c": false,
        "%vlocity_namespace%__MapId__c": "GetInsuredInfoByFEIN29510734506940794",
        "%vlocity_namespace%__UpsertKey__c": false,
        "Name": "GetInsuredInfoByFEIN",
        "VlocityDataPackType": "SObject",
        "VlocityRecordSObjectType": "%vlocity_namespace%__DRMapItem__c"
    },
    {
        "%vlocity_namespace%__DefaultValue__c": "\"\"",
        "%vlocity_namespace%__DomainObjectAPIName__c": "json",
        "%vlocity_namespace%__DomainObjectCreationOrder__c": 1,
        "%vlocity_namespace%__DomainObjectFieldAPIName__c": "WorkerCompensation:CommunityAssociation:NumberofUnits",
        "%vlocity_namespace%__DomainObjectFieldType__c": "String",
        "%vlocity_namespace%__InterfaceFieldAPIName__c": "account:Number_of_units__c",
        "%vlocity_namespace%__IsDisabled__c": false,
        "%vlocity_namespace%__IsRequiredForUpsert__c": false,
        "%vlocity_namespace%__MapId__c": "GetInsuredInfoByFEIN12511989946207547",
        "%vlocity_namespace%__UpsertKey__c": false,
        "Name": "GetInsuredInfoByFEIN",
        "VlocityDataPackType": "SObject",
        "VlocityRecordSObjectType": "%vlocity_namespace%__DRMapItem__c"
    },
    {
        "%vlocity_namespace%__DefaultValue__c": "\"\"",
        "%vlocity_namespace%__DomainObjectAPIName__c": "json",
        "%vlocity_namespace%__DomainObjectCreationOrder__c": 1,
        "%vlocity_namespace%__DomainObjectFieldAPIName__c": "WorkerCompensation:CommunityAssociation:OrganizationType",
        "%vlocity_namespace%__InterfaceFieldAPIName__c": "account:Organization_Type__c",
        "%vlocity_namespace%__IsDisabled__c": false,
        "%vlocity_namespace%__IsRequiredForUpsert__c": false,
        "%vlocity_namespace%__MapId__c": "GetInsuredInfoByFEIN18457289729581894",
        "%vlocity_namespace%__UpsertKey__c": false,
        "Name": "GetInsuredInfoByFEIN",
        "VlocityDataPackType": "SObject",
        "VlocityRecordSObjectType": "%vlocity_namespace%__DRMapItem__c"
    },
    {
        "%vlocity_namespace%__DomainObjectAPIName__c": "json",
        "%vlocity_namespace%__DomainObjectCreationOrder__c": 1,
        "%vlocity_namespace%__DomainObjectFieldAPIName__c": "WorkerCompensation:CommunityAssociation:PMCAccount-Block:PMCAccount",
        "%vlocity_namespace%__InterfaceFieldAPIName__c": "account:Management_Company__r.Name",
        "%vlocity_namespace%__IsDisabled__c": false,
        "%vlocity_namespace%__IsRequiredForUpsert__c": false,
        "%vlocity_namespace%__MapId__c": "GetInsuredInfoByFEINCustom565",
        "%vlocity_namespace%__UpsertKey__c": false,
        "Name": "GetInsuredInfoByFEIN",
        "VlocityDataPackType": "SObject",
        "VlocityRecordSObjectType": "%vlocity_namespace%__DRMapItem__c"
    },
    {
        "%vlocity_namespace%__DomainObjectAPIName__c": "json",
        "%vlocity_namespace%__DomainObjectCreationOrder__c": 1,
        "%vlocity_namespace%__DomainObjectFieldAPIName__c": "WorkerCompensation:CommunityAssociation:PMCAccount-Block:PMCAccountId",
        "%vlocity_namespace%__InterfaceFieldAPIName__c": "account:Management_Company__c",
        "%vlocity_namespace%__IsDisabled__c": false,
        "%vlocity_namespace%__IsRequiredForUpsert__c": false,
        "%vlocity_namespace%__MapId__c": "GetInsuredInfoByFEINCustom5437",
        "%vlocity_namespace%__UpsertKey__c": false,
        "Name": "GetInsuredInfoByFEIN",
        "VlocityDataPackType": "SObject",
        "VlocityRecordSObjectType": "%vlocity_namespace%__DRMapItem__c"
    },
    {
        "%vlocity_namespace%__DefaultValue__c": "\"\"",
        "%vlocity_namespace%__DomainObjectAPIName__c": "json",
        "%vlocity_namespace%__DomainObjectCreationOrder__c": 1,
        "%vlocity_namespace%__DomainObjectFieldAPIName__c": "WorkerCompensation:CommunityAssociation:VacancyRate",
        "%vlocity_namespace%__DomainObjectFieldType__c": "String",
        "%vlocity_namespace%__InterfaceFieldAPIName__c": "account:Vacancy_Rate__c",
        "%vlocity_namespace%__IsDisabled__c": false,
        "%vlocity_namespace%__IsRequiredForUpsert__c": false,
        "%vlocity_namespace%__MapId__c": "GetInsuredInfoByFEIN9289398013392018",
        "%vlocity_namespace%__UpsertKey__c": false,
        "Name": "GetInsuredInfoByFEIN",
        "VlocityDataPackType": "SObject",
        "VlocityRecordSObjectType": "%vlocity_namespace%__DRMapItem__c"
    }
]