{
    "%vlocity_namespace%__Author__c": "Vlocity",
    "%vlocity_namespace%__CSS__c": "",
    "%vlocity_namespace%__CustomJavascript__c": "",
    "%vlocity_namespace%__Definition__c": "{\"Cards\":[]}",
    "%vlocity_namespace%__Description__c": "",
    "%vlocity_namespace%__DisplayOn__c": "",
    "%vlocity_namespace%__ExternalID__c": "ins-product-methods-helper/1/Vlocity/1505338486692",
    "%vlocity_namespace%__HTML__c": "ins-product-methods-helper.html",
    "%vlocity_namespace%__ParentID__c": "",
    "%vlocity_namespace%__SampleJson__c": "",
    "%vlocity_namespace%__Sass__c": "ins-product-methods-helper.scss",
    "%vlocity_namespace%__Type__c": "containers",
    "%vlocity_namespace%__Version__c": 1,
    "Name": "ins-product-methods-helper",
    "VlocityDataPackType": "SObject",
    "VlocityRecordSObjectType": "%vlocity_namespace%__VlocityUITemplate__c",
    "VlocityRecordSourceKey": "%vlocity_namespace%__VlocityUITemplate__c/ins-product-methods-helper",
    "sourceOrgUrl": "/apex/vlocity_ins__uitemplatedesigner?id=a8C4W0000004iUJUAY"
}