[
    {
        "%vlocity_namespace%__DomainObjectAPIName__c": "Formula",
        "%vlocity_namespace%__DomainObjectCreationOrder__c": 0,
        "%vlocity_namespace%__DomainObjectFieldAPIName__c": "Formula",
        "%vlocity_namespace%__FormulaOrder__c": 1,
        "%vlocity_namespace%__Formula__c": "IF(%quoteId% != NULL && (configureCase:CaseType == 'Underwriting' && \n                            (configureCase:CaseReason == 'Quote Question') ||\n                            (configureCase:CaseReason == 'Policy Question') ||\n                            (configureCase:CaseReason == 'Claims Question') ||\n                            (configureCase:CaseReason == 'Endorsement Question') ||\n                            (configureCase:CaseReason == 'Loss/Runs Request')\n                        )\n)",
        "%vlocity_namespace%__IsDisabled__c": true,
        "%vlocity_namespace%__IsRequiredForUpsert__c": false,
        "%vlocity_namespace%__MapId__c": "Case_CreateAnAttachmentCustoma206s0000004wVlAAIItem0",
        "%vlocity_namespace%__UpsertKey__c": false,
        "Name": "Case_CreateAnAttachment",
        "VlocityDataPackType": "SObject",
        "VlocityRecordSObjectType": "%vlocity_namespace%__DRMapItem__c"
    },
    {
        "%vlocity_namespace%__DomainObjectAPIName__c": "Attachment",
        "%vlocity_namespace%__DomainObjectCreationOrder__c": 1,
        "%vlocity_namespace%__DomainObjectFieldAPIName__c": "Body",
        "%vlocity_namespace%__InterfaceFieldAPIName__c": "configureCase:AddAttachment:data",
        "%vlocity_namespace%__IsDisabled__c": false,
        "%vlocity_namespace%__IsRequiredForUpsert__c": false,
        "%vlocity_namespace%__MapId__c": "Case_CreateAnAttachmentCustoma206s0000004wVlAAIItem11",
        "%vlocity_namespace%__UpsertKey__c": false,
        "Name": "Case_CreateAnAttachment",
        "VlocityDataPackType": "SObject",
        "VlocityRecordSObjectType": "%vlocity_namespace%__DRMapItem__c"
    },
    {
        "%vlocity_namespace%__DomainObjectAPIName__c": "Attachment",
        "%vlocity_namespace%__DomainObjectCreationOrder__c": 1,
        "%vlocity_namespace%__DomainObjectFieldAPIName__c": "Id",
        "%vlocity_namespace%__InterfaceFieldAPIName__c": "vId",
        "%vlocity_namespace%__IsDisabled__c": false,
        "%vlocity_namespace%__IsRequiredForUpsert__c": false,
        "%vlocity_namespace%__MapId__c": "Case_CreateAnAttachmentCustom6352",
        "%vlocity_namespace%__UpsertKey__c": false,
        "Name": "Case_CreateAnAttachment",
        "VlocityDataPackType": "SObject",
        "VlocityRecordSObjectType": "%vlocity_namespace%__DRMapItem__c"
    },
    {
        "%vlocity_namespace%__ConfigurationValue__c": "FAKEMAPPING",
        "%vlocity_namespace%__DomainObjectAPIName__c": "Attachment",
        "%vlocity_namespace%__DomainObjectCreationOrder__c": 1,
        "%vlocity_namespace%__DomainObjectFieldAPIName__c": "Id",
        "%vlocity_namespace%__FilterOperator__c": "=",
        "%vlocity_namespace%__IsDisabled__c": true,
        "%vlocity_namespace%__IsRequiredForUpsert__c": false,
        "%vlocity_namespace%__MapId__c": "Case_CreateAnAttachmentCustoma206s0000004wVlAAIItem9",
        "%vlocity_namespace%__UpsertKey__c": false,
        "Name": "Case_CreateAnAttachment",
        "VlocityDataPackType": "SObject",
        "VlocityRecordSObjectType": "%vlocity_namespace%__DRMapItem__c"
    },
    {
        "%vlocity_namespace%__DomainObjectAPIName__c": "Attachment",
        "%vlocity_namespace%__DomainObjectCreationOrder__c": 1,
        "%vlocity_namespace%__DomainObjectFieldAPIName__c": "Name",
        "%vlocity_namespace%__InterfaceFieldAPIName__c": "configureCase:AddAttachment:filename",
        "%vlocity_namespace%__IsDisabled__c": false,
        "%vlocity_namespace%__IsRequiredForUpsert__c": false,
        "%vlocity_namespace%__MapId__c": "Case_CreateAnAttachmentCustoma206s0000004wVlAAIItem12",
        "%vlocity_namespace%__UpsertKey__c": false,
        "Name": "Case_CreateAnAttachment",
        "VlocityDataPackType": "SObject",
        "VlocityRecordSObjectType": "%vlocity_namespace%__DRMapItem__c"
    },
    {
        "%vlocity_namespace%__DomainObjectAPIName__c": "Attachment",
        "%vlocity_namespace%__DomainObjectCreationOrder__c": 1,
        "%vlocity_namespace%__DomainObjectFieldAPIName__c": "ParentId",
        "%vlocity_namespace%__InterfaceFieldAPIName__c": "DRId_Case",
        "%vlocity_namespace%__IsDisabled__c": false,
        "%vlocity_namespace%__IsRequiredForUpsert__c": false,
        "%vlocity_namespace%__MapId__c": "Case_CreateAnAttachmentCustoma206s0000004wVlAAIItem10",
        "%vlocity_namespace%__UpsertKey__c": false,
        "Name": "Case_CreateAnAttachment",
        "VlocityDataPackType": "SObject",
        "VlocityRecordSObjectType": "%vlocity_namespace%__DRMapItem__c"
    }
]