[
    {
        "%vlocity_namespace%__DomainObjectAPIName__c": "Formula",
        "%vlocity_namespace%__DomainObjectCreationOrder__c": 0,
        "%vlocity_namespace%__DomainObjectFieldAPIName__c": "Formula",
        "%vlocity_namespace%__FormulaOrder__c": 1,
        "%vlocity_namespace%__FormulaResultPath__c": "AgencyCommission",
        "%vlocity_namespace%__Formula__c": "(%getQuoteAgencyCommissionInfo:Quote:TotalPrice% * %getCommissionSplitInfo:AgentPercent%)/100",
        "%vlocity_namespace%__IsDisabled__c": false,
        "%vlocity_namespace%__IsRequiredForUpsert__c": false,
        "%vlocity_namespace%__MapId__c": "updatePolicyCommissionsCustom8057",
        "%vlocity_namespace%__UpsertKey__c": false,
        "Name": "updatePolicyCommissions",
        "VlocityDataPackType": "SObject",
        "VlocityRecordSObjectType": "%vlocity_namespace%__DRMapItem__c"
    },
    {
        "%vlocity_namespace%__DomainObjectAPIName__c": "Formula",
        "%vlocity_namespace%__DomainObjectCreationOrder__c": 0,
        "%vlocity_namespace%__DomainObjectFieldAPIName__c": "Formula",
        "%vlocity_namespace%__FormulaOrder__c": 2,
        "%vlocity_namespace%__FormulaResultPath__c": "CommissionPaidTo",
        "%vlocity_namespace%__Formula__c": "IF(%getQuoteAgencyCommissionInfo:Agency:receiveCommission% == true,%getQuoteAgencyCommissionInfo:Agency:Id%,%getQuoteAgencyCommissionInfo:Agency:commissionPaidTo%)",
        "%vlocity_namespace%__IsDisabled__c": false,
        "%vlocity_namespace%__IsRequiredForUpsert__c": false,
        "%vlocity_namespace%__MapId__c": "updatePolicyCommissionsCustom6208",
        "%vlocity_namespace%__UpsertKey__c": false,
        "Name": "updatePolicyCommissions",
        "VlocityDataPackType": "SObject",
        "VlocityRecordSObjectType": "%vlocity_namespace%__DRMapItem__c"
    },
    {
        "%vlocity_namespace%__DomainObjectAPIName__c": "Asset",
        "%vlocity_namespace%__DomainObjectCreationOrder__c": 1,
        "%vlocity_namespace%__DomainObjectFieldAPIName__c": "Agency_Commission__c",
        "%vlocity_namespace%__InterfaceFieldAPIName__c": "getCommissionSplitInfo:AgentPercent",
        "%vlocity_namespace%__IsDisabled__c": false,
        "%vlocity_namespace%__IsRequiredForUpsert__c": false,
        "%vlocity_namespace%__MapId__c": "updatePolicyCommissionsCustom4500",
        "%vlocity_namespace%__UpsertKey__c": false,
        "Name": "updatePolicyCommissions",
        "VlocityDataPackType": "SObject",
        "VlocityRecordSObjectType": "%vlocity_namespace%__DRMapItem__c"
    },
    {
        "%vlocity_namespace%__DomainObjectAPIName__c": "Asset",
        "%vlocity_namespace%__DomainObjectCreationOrder__c": 1,
        "%vlocity_namespace%__DomainObjectFieldAPIName__c": "CAIS_Commission__c",
        "%vlocity_namespace%__InterfaceFieldAPIName__c": "getCommissionSplitInfo:CAISPercent",
        "%vlocity_namespace%__IsDisabled__c": false,
        "%vlocity_namespace%__IsRequiredForUpsert__c": false,
        "%vlocity_namespace%__MapId__c": "updatePolicyCommissionsCustom1183",
        "%vlocity_namespace%__UpsertKey__c": false,
        "Name": "updatePolicyCommissions",
        "VlocityDataPackType": "SObject",
        "VlocityRecordSObjectType": "%vlocity_namespace%__DRMapItem__c"
    },
    {
        "%vlocity_namespace%__DomainObjectAPIName__c": "Asset",
        "%vlocity_namespace%__DomainObjectCreationOrder__c": 1,
        "%vlocity_namespace%__DomainObjectFieldAPIName__c": "Carrier_Commission__c",
        "%vlocity_namespace%__InterfaceFieldAPIName__c": "getCommissionSplitInfo:CarrierPercent",
        "%vlocity_namespace%__IsDisabled__c": false,
        "%vlocity_namespace%__IsRequiredForUpsert__c": false,
        "%vlocity_namespace%__MapId__c": "updatePolicyCommissionsCustom8194",
        "%vlocity_namespace%__UpsertKey__c": false,
        "Name": "updatePolicyCommissions",
        "VlocityDataPackType": "SObject",
        "VlocityRecordSObjectType": "%vlocity_namespace%__DRMapItem__c"
    },
    {
        "%vlocity_namespace%__DomainObjectAPIName__c": "Asset",
        "%vlocity_namespace%__DomainObjectCreationOrder__c": 1,
        "%vlocity_namespace%__DomainObjectFieldAPIName__c": "Id",
        "%vlocity_namespace%__InterfaceFieldAPIName__c": "PolicyId",
        "%vlocity_namespace%__IsDisabled__c": false,
        "%vlocity_namespace%__IsRequiredForUpsert__c": false,
        "%vlocity_namespace%__MapId__c": "updatePolicyCommissionsCustom5122",
        "%vlocity_namespace%__UpsertKey__c": true,
        "Name": "updatePolicyCommissions",
        "VlocityDataPackType": "SObject",
        "VlocityRecordSObjectType": "%vlocity_namespace%__DRMapItem__c"
    },
    {
        "%vlocity_namespace%__ConfigurationValue__c": "FAKEMAPPING",
        "%vlocity_namespace%__DomainObjectAPIName__c": "Asset",
        "%vlocity_namespace%__DomainObjectCreationOrder__c": 1,
        "%vlocity_namespace%__DomainObjectFieldAPIName__c": "Id",
        "%vlocity_namespace%__FilterOperator__c": "=",
        "%vlocity_namespace%__IsDisabled__c": true,
        "%vlocity_namespace%__IsRequiredForUpsert__c": false,
        "%vlocity_namespace%__MapId__c": "updatePolicyCommissionsCustom3061",
        "%vlocity_namespace%__UpsertKey__c": false,
        "Name": "updatePolicyCommissions",
        "VlocityDataPackType": "SObject",
        "VlocityRecordSObjectType": "%vlocity_namespace%__DRMapItem__c"
    },
    {
        "%vlocity_namespace%__DomainObjectAPIName__c": "InsurancePolicyCommission__c",
        "%vlocity_namespace%__DomainObjectCreationOrder__c": 2,
        "%vlocity_namespace%__DomainObjectFieldAPIName__c": "Account__c",
        "%vlocity_namespace%__InterfaceFieldAPIName__c": "CommissionPaidTo",
        "%vlocity_namespace%__IsDisabled__c": false,
        "%vlocity_namespace%__IsRequiredForUpsert__c": false,
        "%vlocity_namespace%__MapId__c": "updatePolicyCommissionsCustom65",
        "%vlocity_namespace%__UpsertKey__c": false,
        "Name": "updatePolicyCommissions",
        "VlocityDataPackType": "SObject",
        "VlocityRecordSObjectType": "%vlocity_namespace%__DRMapItem__c"
    },
    {
        "%vlocity_namespace%__DomainObjectAPIName__c": "InsurancePolicyCommission__c",
        "%vlocity_namespace%__DomainObjectCreationOrder__c": 2,
        "%vlocity_namespace%__DomainObjectFieldAPIName__c": "Account__c",
        "%vlocity_namespace%__InterfaceFieldAPIName__c": "getQuoteAgencyCommissionInfo:Agency:Id",
        "%vlocity_namespace%__IsDisabled__c": true,
        "%vlocity_namespace%__IsRequiredForUpsert__c": false,
        "%vlocity_namespace%__MapId__c": "updatePolicyCommissionsCustom68",
        "%vlocity_namespace%__UpsertKey__c": false,
        "Name": "updatePolicyCommissions",
        "VlocityDataPackType": "SObject",
        "VlocityRecordSObjectType": "%vlocity_namespace%__DRMapItem__c"
    },
    {
        "%vlocity_namespace%__DomainObjectAPIName__c": "InsurancePolicyCommission__c",
        "%vlocity_namespace%__DomainObjectCreationOrder__c": 2,
        "%vlocity_namespace%__DomainObjectFieldAPIName__c": "Commission_Amount__c",
        "%vlocity_namespace%__InterfaceFieldAPIName__c": "AgencyCommission",
        "%vlocity_namespace%__IsDisabled__c": false,
        "%vlocity_namespace%__IsRequiredForUpsert__c": false,
        "%vlocity_namespace%__MapId__c": "updatePolicyCommissionsCustom5725",
        "%vlocity_namespace%__UpsertKey__c": false,
        "Name": "updatePolicyCommissions",
        "VlocityDataPackType": "SObject",
        "VlocityRecordSObjectType": "%vlocity_namespace%__DRMapItem__c"
    },
    {
        "%vlocity_namespace%__ConfigurationValue__c": "FAKEMAPPING",
        "%vlocity_namespace%__DomainObjectAPIName__c": "InsurancePolicyCommission__c",
        "%vlocity_namespace%__DomainObjectCreationOrder__c": 2,
        "%vlocity_namespace%__DomainObjectFieldAPIName__c": "Id",
        "%vlocity_namespace%__FilterOperator__c": "=",
        "%vlocity_namespace%__IsDisabled__c": true,
        "%vlocity_namespace%__IsRequiredForUpsert__c": false,
        "%vlocity_namespace%__MapId__c": "updatePolicyCommissionsCustom770",
        "%vlocity_namespace%__UpsertKey__c": false,
        "Name": "updatePolicyCommissions",
        "VlocityDataPackType": "SObject",
        "VlocityRecordSObjectType": "%vlocity_namespace%__DRMapItem__c"
    },
    {
        "%vlocity_namespace%__DomainObjectAPIName__c": "InsurancePolicyCommission__c",
        "%vlocity_namespace%__DomainObjectCreationOrder__c": 2,
        "%vlocity_namespace%__DomainObjectFieldAPIName__c": "Policy__c",
        "%vlocity_namespace%__InterfaceFieldAPIName__c": "PolicyId",
        "%vlocity_namespace%__IsDisabled__c": false,
        "%vlocity_namespace%__IsRequiredForUpsert__c": false,
        "%vlocity_namespace%__MapId__c": "updatePolicyCommissionsCustom8146",
        "%vlocity_namespace%__UpsertKey__c": false,
        "Name": "updatePolicyCommissions",
        "VlocityDataPackType": "SObject",
        "VlocityRecordSObjectType": "%vlocity_namespace%__DRMapItem__c"
    }
]