{
    "%vlocity_namespace%__ActionIcon__c": "",
    "%vlocity_namespace%__AdditionalFilter__c": "",
    "%vlocity_namespace%__ApplicablePermissionName__c": "",
    "%vlocity_namespace%__ApplicableTypes__c": "All",
    "%vlocity_namespace%__ApplicableUserProfiles__c": "All",
    "%vlocity_namespace%__CustomLabelName__c": "",
    "%vlocity_namespace%__Description__c": "",
    "%vlocity_namespace%__DisplayLabel__c": "Test Doc",
    "%vlocity_namespace%__DisplayOn__c": "",
    "%vlocity_namespace%__DisplaySequence__c": "",
    "%vlocity_namespace%__ExecutionSequence__c": "",
    "%vlocity_namespace%__Filter__c": "",
    "%vlocity_namespace%__InvokeClassName__c": "",
    "%vlocity_namespace%__InvokeMethodInput__c": "",
    "%vlocity_namespace%__InvokeMethodName__c": "",
    "%vlocity_namespace%__IsSeedAction__c": false,
    "%vlocity_namespace%__IsStateDefaultAction__c": false,
    "%vlocity_namespace%__Keyword__c": "",
    "%vlocity_namespace%__LinkType__c": "",
    "%vlocity_namespace%__OpenUrlMode__c": "New Tab / Window",
    "%vlocity_namespace%__StateId__c": "",
    "%vlocity_namespace%__StateModelId__c": "",
    "%vlocity_namespace%__UrlParameters__c": "Id",
    "%vlocity_namespace%__Url__c": "/apex/%vlocity_namespace%__OmniScriptUniversalPage?id={0}&layout=lightning#/OmniScriptType/docGenerationSample/OmniScriptSubType/Single Web VF/OmniScriptLang/English/ContextId/{0}/PrefillDataRaptorBundle//true",
    "%vlocity_namespace%__ValidationClassName__c": "",
    "%vlocity_namespace%__ValidationMethodName__c": "",
    "%vlocity_namespace%__VlocityIcon__c": "icon-v-document1-line",
    "%vlocity_namespace%__VlocityStateModelVersionId__c": "",
    "Name": "SampleWebTemplateDocGeneration",
    "VlocityDataPackType": "SObject",
    "VlocityRecordSObjectType": "%vlocity_namespace%__VlocityAction__c",
    "VlocityRecordSourceKey": "%vlocity_namespace%__VlocityAction__c/SampleWebTemplateDocGeneration",
    "sourceOrgUrl": "/a7l4W0000008t3IQAQ"
}