{
    "%vlocity_namespace%__DestinationFieldName__c": "PremiumFrequency",
    "%vlocity_namespace%__DestinationSObjectType__c": "InsurancePolicy",
    "%vlocity_namespace%__SourceFieldName__c": "%vlocity_namespace%_fsc__SourcePremiumFrequency__c",
    "%vlocity_namespace%__SourceFieldSObjectType__c": "",
    "%vlocity_namespace%__SourceFieldType__c": "string",
    "%vlocity_namespace%__SourceSObjectType__c": "Quote",
    "Name": "CustomFieldMap__ca374W00000D3VatQAF",
    "VlocityDataPackType": "SObject",
    "VlocityRecordSObjectType": "%vlocity_namespace%__CustomFieldMap__c",
    "VlocityRecordSourceKey": "%vlocity_namespace%__CustomFieldMap__c/Generated-1621970031",
    "sourceOrgUrl": "/a374W00000D3VatQAF"
}