{
    "%vlocity_namespace%__Author__c": "Vlocity",
    "%vlocity_namespace%__CardType__c": "flex",
    "%vlocity_namespace%__Datasource__c": {
        "contextVariables": [
        ],
        "orderBy": {
        },
        "type": null,
        "value": {
        }
    },
    "%vlocity_namespace%__Definition__c": "insClaimParticipantsCard.json",
    "%vlocity_namespace%__Description__c": "",
    "%vlocity_namespace%__GlobalKey__c": "insClaimParticipantsCard/Vlocity/1/1596758266656",
    "%vlocity_namespace%__IsChildCard__c": false,
    "%vlocity_namespace%__ParentID__c": "",
    "%vlocity_namespace%__SampleData__c": "",
    "%vlocity_namespace%__Styles__c": "",
    "%vlocity_namespace%__Type__c": "",
    "%vlocity_namespace%__Version__c": 1,
    "Name": "insClaimParticipantsCard",
    "VlocityDataPackType": "SObject",
    "VlocityRecordSObjectType": "%vlocity_namespace%__VlocityCard__c",
    "VlocityRecordSourceKey": "%vlocity_namespace%__VlocityCard__c/insClaimParticipantsCard",
    "sourceOrgUrl": "/a7n4W0000007IixQAE"
}