{
    "%vlocity_namespace%__AdditionalResultFields__c": "",
    "%vlocity_namespace%__ConsoleCardLayout__c": "",
    "%vlocity_namespace%__ContinueSearch__c": false,
    "%vlocity_namespace%__DisplaySequence__c": 1,
    "%vlocity_namespace%__Filter__c": "",
    "%vlocity_namespace%__InteractionCreationBundleName__c": "",
    "%vlocity_namespace%__InteractionCreationProcName__c": "CustomerInteractionAccount_Creation",
    "%vlocity_namespace%__InteractionObjectName__c": "CustomerInteraction",
    "%vlocity_namespace%__InvokeClassName__c": "",
    "%vlocity_namespace%__Label__c": "Account",
    "%vlocity_namespace%__NonWildCardSupportFields__c": "",
    "%vlocity_namespace%__NumberOfOptionalVerificationFields__c": "",
    "%vlocity_namespace%__OptionalVerificationFields__c": "",
    "%vlocity_namespace%__PreviousSearchContextIdField__c": "",
    "%vlocity_namespace%__PreviousSearchWidgetName__c": "",
    "%vlocity_namespace%__ReferenceObjectName__c": "",
    "%vlocity_namespace%__ResultFields__c": "Name,BillingStreet,BillingCity",
    "%vlocity_namespace%__ResultUniqueField__c": "",
    "%vlocity_namespace%__ResultVerificationFields__c": "Name,BillingStreet,BillingCity",
    "%vlocity_namespace%__SearchFields__c": "Name",
    "%vlocity_namespace%__SearchObjectName__c": "Account",
    "%vlocity_namespace%__Type__c": "Caller Identification",
    "%vlocity_namespace%__VlocitySearchWidgetActionsSetup__c": "InteractionAccount_VlocitySearchWidgetActionsSetups.json",
    "Name": "InteractionAccount",
    "RecordTypeId": {
        "DeveloperName": "ObjectBased",
        "SobjectType": "%vlocity_namespace%__VlocitySearchWidgetSetup__c",
        "VlocityDataPackType": "VlocityLookupMatchingKeyObject",
        "VlocityLookupRecordSourceKey": "RecordType/%vlocity_namespace%__VlocitySearchWidgetSetup__c/ObjectBased",
        "VlocityRecordSObjectType": "RecordType"
    },
    "VlocityDataPackType": "SObject",
    "VlocityRecordSObjectType": "%vlocity_namespace%__VlocitySearchWidgetSetup__c",
    "VlocityRecordSourceKey": "%vlocity_namespace%__VlocitySearchWidgetSetup__c/InteractionAccount",
    "sourceOrgUrl": "/a814W000000CvKHQA0"
}